#                                                                            --- full sequence --- -------------- this domain -------------   hmm coord   ali coord   env coord
# target name        accession   tlen query name           accession   qlen   E-value  score  bias   #  of  c-Evalue  i-Evalue  score  bias  from    to  from    to  from    to  acc description of target
#------------------- ---------- ----- -------------------- ---------- ----- --------- ------ ----- --- --- --------- --------- ------ ----- ----- ----- ----- ----- ----- ----- ---- ---------------------
ID=PSME_00029085     -            354 101239at3193         -            337   3.2e-58  198.9   0.6   1   1   3.8e-62   4.2e-58  198.5   0.6   148   316   158   327   143   347 0.93 -
ID=PSME_00029851     -            230 101239at3193         -            337   1.3e-41  144.3   0.1   1   1   1.4e-45   1.5e-41  144.1   0.1   117   325     2   216     1   227 0.88 -
ID=PSME_00003240     -            183 101239at3193         -            337   8.5e-29  102.2   0.0   1   1     9e-33   9.9e-29  102.0   0.0    83   242    19   183     7   183 0.87 -
ID=PSME_00048105     -             65 101239at3193         -            337      0.21   12.1   0.0   1   1   2.2e-05      0.25   11.9   0.0    51   104     9    59     2    62 0.81 -
ID=PSME_00057220     -            481 101239at3193         -            337      0.43   11.1   1.4   1   4     0.015   1.6e+02    2.6   0.0    11    40    25    53    21   103 0.77 -
ID=PSME_00057220     -            481 101239at3193         -            337      0.43   11.1   1.4   2   4      0.07   7.7e+02    0.4   0.0    11    40   165   193   162   221 0.72 -
ID=PSME_00057220     -            481 101239at3193         -            337      0.43   11.1   1.4   3   4     0.023   2.5e+02    2.0   0.0    11    44   235   267   232   293 0.70 -
ID=PSME_00057220     -            481 101239at3193         -            337      0.43   11.1   1.4   4   4      0.13   1.4e+03   -0.5   0.0    11    33   340   362   336   390 0.86 -
#
# Program:         hmmsearch
# Version:         3.2.1 (June 2018)
# Pipeline mode:   SEARCH
# Query file:      /isg/shared/databases/BUSCO/odb10/embryophyta_odb10/hmms/101239at3193.hmm
# Target file:     /labs/Wegrzyn/ConiferGenomes/Psme/analysis/SURF_annotation/analyze_orig_maker/gfacs/filtered/maker_genes.fasta.faa
# Option settings: /usr/local/bin/hmmsearch --domtblout /labs/Wegrzyn/ConiferGenomes/Psme/analysis/SURF_annotation/analyze_orig_maker/busco/maker/run_embryophyta_odb10/hmmer_output/101239at3193.out --cpu 1 /isg/shared/databases/BUSCO/odb10/embryophyta_odb10/hmms/101239at3193.hmm /labs/Wegrzyn/ConiferGenomes/Psme/analysis/SURF_annotation/analyze_orig_maker/gfacs/filtered/maker_genes.fasta.faa 
# Current dir:     /labs/Wegrzyn/ConiferGenomes/Psme/analysis/SURF_annotation/analyze_orig_maker/busco
# Date:            Fri Jul 10 13:41:42 2020
# [ok]
