#                                                                            --- full sequence --- -------------- this domain -------------   hmm coord   ali coord   env coord
# target name        accession   tlen query name           accession   qlen   E-value  score  bias   #  of  c-Evalue  i-Evalue  score  bias  from    to  from    to  from    to  acc description of target
#------------------- ---------- ----- -------------------- ---------- ----- --------- ------ ----- --- --- --------- --------- ------ ----- ----- ----- ----- ----- ----- ----- ---- ---------------------
ID=PSME_00005327     -            283 102439at3193         -            356     3e-49  169.4   0.0   1   1   1.3e-51   8.7e-48  164.6   0.0   181   289   124   232    81   233 0.82 -
ID=PSME_00005328     -            266 102439at3193         -            356   7.4e-22   79.3   0.0   1   2   3.9e-08   0.00027   21.5   0.0     4    41    25    76    22    87 0.70 -
ID=PSME_00005328     -            266 102439at3193         -            356   7.4e-22   79.3   0.0   2   2   1.4e-18   9.7e-15   55.9   0.0    21    88   116   184   103   198 0.82 -
ID=PSME_00049988     -            589 102439at3193         -            356   8.8e-16   59.3   0.0   1   1     2e-19   1.4e-15   58.6   0.0    12   149   301   442   293   453 0.87 -
ID=PSME_00011259     -            862 102439at3193         -            356   6.7e-10   39.9   0.1   1   2    0.0056        38    4.6   0.0    17    70    55   109    47   115 0.77 -
ID=PSME_00011259     -            862 102439at3193         -            356   6.7e-10   39.9   0.1   2   2   1.2e-11   8.5e-08   33.0   0.0   105   166   115   176   110   203 0.89 -
ID=PSME_00031193     -            387 102439at3193         -            356     0.024   15.1   0.4   1   2    0.0014       9.9    6.5   0.1    28    51   131   154   124   160 0.89 -
ID=PSME_00031193     -            387 102439at3193         -            356     0.024   15.1   0.4   2   2    0.0014       9.9    6.5   0.1    28    51   319   342   312   348 0.89 -
ID=PSME_00022383     -            151 102439at3193         -            356      0.16   12.4   4.1   1   1   2.9e-05       0.2   12.1   4.1   236   303    62   130    45   136 0.84 -
ID=PSME_00037337     -            246 102439at3193         -            356      0.23   11.9   2.7   1   1   5.3e-05      0.37   11.2   2.7   231   303   104   177    93   183 0.86 -
ID=PSME_00055009     -            463 102439at3193         -            356      0.45   10.9   3.1   1   1    0.0001      0.71   10.3   3.1   234   303    38   108    23   113 0.85 -
#
# Program:         hmmsearch
# Version:         3.2.1 (June 2018)
# Pipeline mode:   SEARCH
# Query file:      /isg/shared/databases/BUSCO/odb10/embryophyta_odb10/hmms/102439at3193.hmm
# Target file:     /labs/Wegrzyn/ConiferGenomes/Psme/analysis/SURF_annotation/analyze_orig_maker/gfacs/filtered/maker_genes.fasta.faa
# Option settings: /usr/local/bin/hmmsearch --domtblout /labs/Wegrzyn/ConiferGenomes/Psme/analysis/SURF_annotation/analyze_orig_maker/busco/maker/run_embryophyta_odb10/hmmer_output/102439at3193.out --cpu 1 /isg/shared/databases/BUSCO/odb10/embryophyta_odb10/hmms/102439at3193.hmm /labs/Wegrzyn/ConiferGenomes/Psme/analysis/SURF_annotation/analyze_orig_maker/gfacs/filtered/maker_genes.fasta.faa 
# Current dir:     /labs/Wegrzyn/ConiferGenomes/Psme/analysis/SURF_annotation/analyze_orig_maker/busco
# Date:            Fri Jul 10 13:41:43 2020
# [ok]
