#                                                                            --- full sequence --- -------------- this domain -------------   hmm coord   ali coord   env coord
# target name        accession   tlen query name           accession   qlen   E-value  score  bias   #  of  c-Evalue  i-Evalue  score  bias  from    to  from    to  from    to  acc description of target
#------------------- ---------- ----- -------------------- ---------- ----- --------- ------ ----- --- --- --------- --------- ------ ----- ----- ----- ----- ----- ----- ----- ---- ---------------------
ID=PSME_00047628     -            264 102470at3193         -            276   1.6e-47  163.5   0.0   1   1     2e-50   2.2e-47  163.1   0.0   175   276    14   122     9   122 0.93 -
ID=PSME_00057203     -            167 102470at3193         -            276     6e-06   27.1   0.3   1   1   6.4e-09   7.1e-06   26.9   0.3    33    79     7    53     3    99 0.91 -
ID=PSME_00004512     -            236 102470at3193         -            276   2.4e-05   25.2   0.0   1   1     3e-08   3.3e-05   24.7   0.0    31   122    71   160    53   171 0.80 -
ID=PSME_00038305     -            469 102470at3193         -            276   3.9e-05   24.5   0.5   1   1   5.7e-08   6.3e-05   23.8   0.5    33    80     7    54     4    97 0.84 -
ID=PSME_00021783     -            358 102470at3193         -            276   7.8e-05   23.5   1.6   1   1   1.5e-07   0.00017   22.4   1.6    33    79     7    53     4    65 0.93 -
ID=PSME_00002793     -            513 102470at3193         -            276   0.00014   22.7   0.1   1   1   2.4e-07   0.00027   21.7   0.1    33    82     7    56     3   126 0.75 -
ID=PSME_00048096     -            382 102470at3193         -            276   0.00081   20.1   0.1   1   1   1.2e-06    0.0013   19.4   0.1    31    81   238   289   229   309 0.84 -
ID=PSME_00033389     -            626 102470at3193         -            276    0.0012   19.6   0.7   1   2     0.039        44    4.6   0.0    30    80    12    62     3   102 0.88 -
ID=PSME_00033389     -            626 102470at3193         -            276    0.0012   19.6   0.7   2   2   0.00011      0.12   13.0   0.0    27    80   423   476   415   505 0.89 -
ID=PSME_00024442     -            339 102470at3193         -            276     0.002   18.9   0.6   1   1   2.7e-06     0.003   18.3   0.6    24    83    77   136    69   149 0.83 -
ID=PSME_00056608     -             68 102470at3193         -            276    0.0021   18.8   0.0   1   1   1.9e-06    0.0021   18.8   0.0    31    72     3    46     1    63 0.83 -
ID=PSME_00022008     -            852 102470at3193         -            276    0.0021   18.8   0.2   1   1   3.3e-06    0.0037   18.0   0.2    28    75    93   140    86   156 0.86 -
ID=PSME_00035426     -            538 102470at3193         -            276    0.0032   18.2   0.4   1   1   4.7e-06    0.0053   17.5   0.4    24    81   276   333   268   345 0.85 -
ID=PSME_00051674     -            216 102470at3193         -            276    0.0041   17.8   0.3   1   1     7e-06    0.0078   16.9   0.3    31    79    12    60     9    69 0.89 -
ID=PSME_00019837     -            540 102470at3193         -            276    0.0042   17.8   0.6   1   1     6e-06    0.0068   17.1   0.6    24    79    77   132    69   147 0.83 -
ID=PSME_00043633     -            504 102470at3193         -            276    0.0046   17.7   0.3   1   1   6.9e-06    0.0077   16.9   0.3    30    83   303   356   290   369 0.83 -
ID=PSME_00026703     -            724 102470at3193         -            276    0.0048   17.6   0.6   1   1   6.9e-06    0.0077   16.9   0.6    24    82    77   135    69   147 0.84 -
ID=PSME_00042726     -            141 102470at3193         -            276    0.0052   17.5   0.0   1   1   6.4e-06    0.0072   17.0   0.0    28    71    79   122    69   127 0.89 -
ID=PSME_00025167     -            131 102470at3193         -            276    0.0078   16.9   0.3   1   1   8.5e-06    0.0095   16.6   0.3    31    79    64   112    49   121 0.89 -
ID=PSME_00032399     -            444 102470at3193         -            276      0.01   16.5   0.5   1   1   1.4e-05     0.016   15.9   0.5    24    85    48   109    40   121 0.83 -
ID=PSME_00007559     -            959 102470at3193         -            276     0.011   16.5   0.2   1   1   1.6e-05     0.017   15.8   0.2    29    74   170   215   159   233 0.84 -
ID=PSME_00026380     -            139 102470at3193         -            276     0.018   15.7   0.1   1   1   2.1e-05     0.024   15.3   0.1    31    72     3    44     1    60 0.88 -
ID=PSME_00043629     -            435 102470at3193         -            276      0.02   15.6   0.3   1   1   3.8e-05     0.043   14.5   0.3    18    80    70   130    59   149 0.81 -
ID=PSME_00030773     -            325 102470at3193         -            276      0.02   15.6   0.1   1   2   1.8e-05      0.02   15.6   0.1    20    93    12    86     3    98 0.83 -
ID=PSME_00030773     -            325 102470at3193         -            276      0.02   15.6   0.1   2   2       2.8   3.1e+03   -1.5   0.2    82   102   271   291   264   314 0.77 -
ID=PSME_00033185     -            509 102470at3193         -            276     0.031   15.0   0.5   1   1   4.4e-05      0.05   14.3   0.5    24    81   251   308   243   323 0.81 -
ID=PSME_00028189     -            217 102470at3193         -            276     0.031   14.9   0.0   1   1     4e-05     0.045   14.4   0.0    32    72     7    47     2    65 0.87 -
ID=PSME_00056152     -            437 102470at3193         -            276     0.051   14.2   0.0   1   1   0.00011      0.12   13.0   0.0    28    68    52    92    40    99 0.85 -
ID=PSME_00055123     -            453 102470at3193         -            276     0.051   14.2   0.0   1   1   7.6e-05     0.085   13.5   0.0    15    67    15    67     3    78 0.80 -
ID=PSME_00057010     -            164 102470at3193         -            276     0.058   14.1   0.5   1   1   5.8e-05     0.065   13.9   0.5    32    92    25    85     2   114 0.80 -
ID=PSME_00051059     -            102 102470at3193         -            276     0.065   13.9   0.0   1   1   5.9e-05     0.066   13.9   0.0    30    80    16    66     4    95 0.86 -
ID=PSME_00043852     -            127 102470at3193         -            276     0.069   13.8   0.2   1   1   8.3e-05     0.093   13.4   0.2    16    90    39   114    23   125 0.74 -
ID=PSME_00028266     -            136 102470at3193         -            276     0.074   13.7   0.3   1   1   7.9e-05     0.088   13.5   0.3    31    77    49    95    16   125 0.76 -
ID=PSME_00002977     -            417 102470at3193         -            276     0.086   13.5   0.1   1   1   0.00012      0.13   12.9   0.1    29    72   234   277   223   291 0.86 -
ID=PSME_00028186     -            373 102470at3193         -            276      0.11   13.2   0.1   1   1   0.00015      0.17   12.6   0.1    34    72     9    47     3    64 0.83 -
ID=PSME_00056305     -            382 102470at3193         -            276      0.11   13.1   0.0   1   1   0.00016      0.18   12.5   0.0    30    72    13    58     3    62 0.85 -
ID=PSME_00052976     -            183 102470at3193         -            276      0.11   13.1   0.4   1   1   0.00013      0.15   12.7   0.4    54    98    33    77    16    93 0.79 -
ID=PSME_00033869     -            250 102470at3193         -            276      0.11   13.1   0.1   1   1   0.00014      0.16   12.7   0.1    30    88    44   102    25   126 0.82 -
ID=PSME_00025904     -             82 102470at3193         -            276      0.14   12.8   0.0   1   1   0.00013      0.14   12.8   0.0    32    72    25    65     1    74 0.76 -
ID=PSME_00018231     -            123 102470at3193         -            276       0.2   12.3   0.1   1   1   0.00019      0.22   12.2   0.1    31    79    51    99    19   119 0.76 -
ID=PSME_00057214     -            428 102470at3193         -            276      0.26   11.9   0.0   1   1    0.0004      0.44   11.2   0.0    28    72    66   111    50   127 0.81 -
ID=PSME_00037488     -            388 102470at3193         -            276      0.27   11.9   0.1   1   1    0.0004      0.44   11.2   0.1    31    82    18    69     9    83 0.89 -
ID=PSME_00037666     -            255 102470at3193         -            276      0.31   11.7   0.1   1   1   0.00038      0.42   11.2   0.1    32    76    44    87    16    98 0.87 -
ID=PSME_00005630     -            127 102470at3193         -            276      0.32   11.6   0.2   1   1   0.00042      0.47   11.1   0.2    31    77    55   101    23   122 0.76 -
ID=PSME_00033744     -            457 102470at3193         -            276      0.34   11.6   0.1   1   1   0.00058      0.65   10.6   0.1    30    83    44    97    28   122 0.83 -
ID=PSME_00019614     -            461 102470at3193         -            276      0.34   11.6   0.0   1   1   0.00071       0.8   10.3   0.0    31    97    71   145    53   152 0.77 -
ID=PSME_00001510     -            714 102470at3193         -            276      0.37   11.4   0.1   1   1   0.00061      0.69   10.5   0.1    29    86    43   100    24   123 0.80 -
ID=PSME_00013592     -            439 102470at3193         -            276      0.39   11.3   0.0   1   1   0.00068      0.76   10.4   0.0    23    68    59   104    43   114 0.81 -
ID=PSME_00028175     -            305 102470at3193         -            276      0.46   11.1   0.2   1   1   0.00063       0.7   10.5   0.2    30    70    60   101    45   109 0.82 -
ID=PSME_00036300     -            239 102470at3193         -            276      0.52   10.9   0.9   1   1   0.00065      0.73   10.5   0.9    39    85     2    48     1    59 0.83 -
ID=PSME_00021752     -            154 102470at3193         -            276      0.75   10.4   2.2   1   1   0.00088      0.99   10.0   2.2    31   103    55   128    26   146 0.78 -
#
# Program:         hmmsearch
# Version:         3.2.1 (June 2018)
# Pipeline mode:   SEARCH
# Query file:      /isg/shared/databases/BUSCO/odb10/embryophyta_odb10/hmms/102470at3193.hmm
# Target file:     /labs/Wegrzyn/ConiferGenomes/Psme/analysis/SURF_annotation/analyze_orig_maker/gfacs/filtered/maker_genes.fasta.faa
# Option settings: /usr/local/bin/hmmsearch --domtblout /labs/Wegrzyn/ConiferGenomes/Psme/analysis/SURF_annotation/analyze_orig_maker/busco/maker/run_embryophyta_odb10/hmmer_output/102470at3193.out --cpu 1 /isg/shared/databases/BUSCO/odb10/embryophyta_odb10/hmms/102470at3193.hmm /labs/Wegrzyn/ConiferGenomes/Psme/analysis/SURF_annotation/analyze_orig_maker/gfacs/filtered/maker_genes.fasta.faa 
# Current dir:     /labs/Wegrzyn/ConiferGenomes/Psme/analysis/SURF_annotation/analyze_orig_maker/busco
# Date:            Fri Jul 10 13:41:43 2020
# [ok]
