#                                                                            --- full sequence --- -------------- this domain -------------   hmm coord   ali coord   env coord
# target name        accession   tlen query name           accession   qlen   E-value  score  bias   #  of  c-Evalue  i-Evalue  score  bias  from    to  from    to  from    to  acc description of target
#------------------- ---------- ----- -------------------- ---------- ----- --------- ------ ----- --- --- --------- --------- ------ ----- ----- ----- ----- ----- ----- ----- ---- ---------------------
ID=PSME_00028391     -            276 103261at3193         -            245   1.8e-13   51.9   0.0   1   1     2e-16   2.6e-13   51.4   0.0   150   240   139   231   135   235 0.87 -
ID=PSME_00028751     -            786 103261at3193         -            245   4.2e-13   50.7   0.0   1   1     6e-16   7.9e-13   49.8   0.0    13   124   199   307   193   322 0.83 -
ID=PSME_00014919     -            136 103261at3193         -            245   4.4e-13   50.7   0.0   1   1   4.3e-16   5.6e-13   50.3   0.0   152   240     1    91     1    95 0.87 -
ID=PSME_00005223     -            240 103261at3193         -            245   1.2e-12   49.2   0.0   1   1   1.3e-15   1.7e-12   48.8   0.0   144   241   113   212    97   216 0.85 -
ID=PSME_00052815     -             92 103261at3193         -            245   1.4e-12   49.1   0.0   1   1   1.1e-15   1.5e-12   48.9   0.0   151   238     2    91     1    91 0.88 -
ID=PSME_00011595     -            135 103261at3193         -            245   1.7e-12   48.7   0.0   1   1   1.7e-15   2.2e-12   48.4   0.0   152   240     1    91     1    95 0.87 -
ID=PSME_00032450     -            136 103261at3193         -            245   2.4e-12   48.2   0.0   1   1   2.3e-15   3.1e-12   47.9   0.0   152   240     1    91     1    95 0.87 -
ID=PSME_00026072     -             92 103261at3193         -            245   2.6e-12   48.2   0.0   1   1   2.1e-15   2.8e-12   48.0   0.0   151   238     2    91     1    91 0.87 -
ID=PSME_00016896     -             92 103261at3193         -            245   2.6e-12   48.1   0.0   1   1   2.2e-15   2.9e-12   48.0   0.0   151   238     2    91     1    91 0.87 -
ID=PSME_00039053     -            223 103261at3193         -            245   1.1e-11   46.1   0.0   1   1   1.1e-14   1.5e-11   45.6   0.0   151   240     2    93     1    97 0.86 -
ID=PSME_00024604     -            198 103261at3193         -            245     3e-11   44.7   0.0   1   1   2.9e-14   3.8e-11   44.3   0.0   150   238   107   197   100   197 0.86 -
ID=PSME_00010235     -            139 103261at3193         -            245   3.3e-11   44.5   0.0   1   1   3.2e-14   4.2e-11   44.2   0.0   153   240     1    90     1    94 0.85 -
ID=PSME_00041059     -            311 103261at3193         -            245   4.2e-11   44.2   0.0   1   1     6e-14   7.8e-11   43.3   0.0   143   238   213   310   197   310 0.84 -
ID=PSME_00054885     -             90 103261at3193         -            245   4.6e-11   44.0   0.0   1   1   3.9e-14   5.1e-11   43.9   0.0   152   238     1    89     1    89 0.86 -
ID=PSME_00054780     -             90 103261at3193         -            245     5e-11   43.9   0.0   1   1   4.2e-14   5.5e-11   43.8   0.0   152   238     1    89     1    89 0.87 -
ID=PSME_00050093     -            135 103261at3193         -            245   6.7e-11   43.5   0.0   1   1   6.4e-14   8.3e-11   43.2   0.0   152   240     1    91     1    95 0.87 -
ID=PSME_00003457     -            255 103261at3193         -            245   9.6e-11   43.0   0.0   1   1     1e-13   1.3e-10   42.6   0.0   150   238   164   254   160   254 0.86 -
ID=PSME_00026408     -            284 103261at3193         -            245   1.2e-10   42.6   0.0   1   1   1.5e-13     2e-10   42.0   0.0   154   240   129   217   123   221 0.86 -
ID=PSME_00052447     -             92 103261at3193         -            245   1.6e-10   42.3   0.0   1   1   1.4e-13   1.8e-10   42.1   0.0   151   238     2    91     1    91 0.87 -
ID=PSME_00004832     -            144 103261at3193         -            245   1.9e-10   42.0   0.0   1   1   1.8e-13   2.3e-10   41.8   0.0   145   230    14   101    10   114 0.83 -
ID=PSME_00025289     -            112 103261at3193         -            245   2.2e-10   41.8   0.0   1   1   2.1e-13   2.7e-10   41.5   0.0   152   240     1    87     1    91 0.87 -
ID=PSME_00050056     -            112 103261at3193         -            245   2.6e-10   41.6   0.0   1   1   2.4e-13   3.1e-10   41.3   0.0   154   238    25   111    19   111 0.86 -
ID=PSME_00035783     -            209 103261at3193         -            245   3.7e-10   41.1   0.0   1   1   4.1e-13   5.4e-10   40.6   0.0   150   239    86   177    83   182 0.87 -
ID=PSME_00005735     -             89 103261at3193         -            245   4.3e-10   40.9   0.0   1   1   3.6e-13   4.7e-10   40.7   0.0   154   238     2    88     1    88 0.86 -
ID=PSME_00014326     -            260 103261at3193         -            245   9.7e-10   39.7   0.0   1   1   9.9e-13   1.3e-09   39.3   0.0   152   238   171   259   160   259 0.84 -
ID=PSME_00037819     -            239 103261at3193         -            245   1.8e-09   38.8   0.0   1   1   1.9e-12   2.5e-09   38.4   0.0   154   238   152   238   149   238 0.86 -
ID=PSME_00053396     -             89 103261at3193         -            245   2.9e-09   38.2   0.0   1   1   2.4e-12   3.2e-09   38.0   0.0   154   238     2    88     1    88 0.86 -
ID=PSME_00050932     -             92 103261at3193         -            245   3.7e-09   37.8   0.0   1   1   3.1e-12   4.1e-09   37.7   0.0   151   238     2    91     1    91 0.85 -
ID=PSME_00044415     -            119 103261at3193         -            245   5.3e-09   37.3   0.0   1   1   4.8e-12   6.2e-09   37.1   0.0   153   238    32   119    28   119 0.85 -
ID=PSME_00034309     -            332 103261at3193         -            245     1e-08   36.4   0.0   1   1     1e-11   1.3e-08   36.0   0.0   153   238   244   331   232   331 0.85 -
ID=PSME_00040903     -            325 103261at3193         -            245   1.3e-08   36.1   0.0   1   1   1.3e-11   1.7e-08   35.6   0.0   154   238   238   324   222   324 0.84 -
ID=PSME_00010037     -            230 103261at3193         -            245   3.5e-08   34.6   0.0   1   1   4.2e-11   5.5e-08   34.0   0.0   165   240   129   205   125   209 0.78 -
ID=PSME_00020840     -             76 103261at3193         -            245   5.3e-06   27.5   0.0   1   1   4.2e-09   5.5e-06   27.4   0.0   152   204     1    52     1    66 0.92 -
ID=PSME_00017540     -            352 103261at3193         -            245   2.6e-05   25.2   0.1   1   1   1.9e-07   0.00025   22.0   0.1   155   238   281   351   275   351 0.85 -
ID=PSME_00052110     -            208 103261at3193         -            245   0.00015   22.7   0.0   1   1   1.5e-07    0.0002   22.3   0.0   174   235   141   204   131   207 0.76 -
ID=PSME_00011603     -            900 103261at3193         -            245    0.0062   17.4   0.2   1   2       2.6   3.4e+03   -1.4   0.0    50    83   485   520   473   564 0.70 -
ID=PSME_00011603     -            900 103261at3193         -            245    0.0062   17.4   0.2   2   2   1.9e-05     0.025   15.4   0.1    16   111   664   756   653   852 0.67 -
ID=PSME_00018349     -            152 103261at3193         -            245     0.011   16.6   0.1   1   2    0.0017       2.2    9.1   0.0   151   192    83   123    80   128 0.91 -
ID=PSME_00018349     -            152 103261at3193         -            245     0.011   16.6   0.1   2   2     0.016        21    5.9   0.0   219   238   132   151   124   151 0.89 -
ID=PSME_00013422     -             54 103261at3193         -            245     0.021   15.7   0.0   1   1   1.9e-05     0.025   15.5   0.0   219   241     8    30     3    34 0.90 -
ID=PSME_00052865     -             65 103261at3193         -            245     0.043   14.7   0.0   1   1   3.6e-05     0.047   14.5   0.0   217   241    17    41     5    45 0.85 -
ID=PSME_00006602     -             54 103261at3193         -            245     0.048   14.5   0.0   1   1   4.3e-05     0.055   14.3   0.0   219   241     8    30     3    34 0.90 -
ID=PSME_00055708     -             53 103261at3193         -            245      0.09   13.6   0.0   1   1   8.1e-05      0.11   13.4   0.0   219   241     8    30     3    34 0.90 -
ID=PSME_00019696     -            140 103261at3193         -            245      0.17   12.7   0.0   1   1   0.00014      0.18   12.6   0.0    79   133    29    83     2   114 0.76 -
#
# Program:         hmmsearch
# Version:         3.2.1 (June 2018)
# Pipeline mode:   SEARCH
# Query file:      /isg/shared/databases/BUSCO/odb10/embryophyta_odb10/hmms/103261at3193.hmm
# Target file:     /labs/Wegrzyn/ConiferGenomes/Psme/analysis/SURF_annotation/analyze_orig_maker/gfacs/filtered/maker_genes.fasta.faa
# Option settings: /usr/local/bin/hmmsearch --domtblout /labs/Wegrzyn/ConiferGenomes/Psme/analysis/SURF_annotation/analyze_orig_maker/busco/maker/run_embryophyta_odb10/hmmer_output/103261at3193.out --cpu 1 /isg/shared/databases/BUSCO/odb10/embryophyta_odb10/hmms/103261at3193.hmm /labs/Wegrzyn/ConiferGenomes/Psme/analysis/SURF_annotation/analyze_orig_maker/gfacs/filtered/maker_genes.fasta.faa 
# Current dir:     /labs/Wegrzyn/ConiferGenomes/Psme/analysis/SURF_annotation/analyze_orig_maker/busco
# Date:            Fri Jul 10 13:41:43 2020
# [ok]
