#                                                                            --- full sequence --- -------------- this domain -------------   hmm coord   ali coord   env coord
# target name        accession   tlen query name           accession   qlen   E-value  score  bias   #  of  c-Evalue  i-Evalue  score  bias  from    to  from    to  from    to  acc description of target
#------------------- ---------- ----- -------------------- ---------- ----- --------- ------ ----- --- --- --------- --------- ------ ----- ----- ----- ----- ----- ----- ----- ---- ---------------------
ID=PSME_00030464     -            145 103458at3193         -            327     3e-23   83.9   1.5   1   2   5.1e-19   5.6e-15   56.8   0.1   210   261     1    52     1    53 0.98 -
ID=PSME_00030464     -            145 103458at3193         -            327     3e-23   83.9   1.5   2   2   5.1e-10   5.6e-06   27.2   0.1   289   321    53    85    51    91 0.92 -
ID=PSME_00010347     -            407 103458at3193         -            327     1e-10   42.7   0.0   1   1   1.7e-14   1.8e-10   41.9   0.0     4   127   105   223   103   248 0.82 -
ID=PSME_00040253     -            437 103458at3193         -            327   6.3e-09   36.9   0.1   1   1   1.3e-12   1.4e-08   35.7   0.1     5   126    60   175    56   202 0.79 -
ID=PSME_00015854     -            421 103458at3193         -            327   6.5e-09   36.9   0.1   1   1   1.2e-12   1.3e-08   35.9   0.1     5   126    39   154    35   182 0.79 -
ID=PSME_00007028     -            490 103458at3193         -            327       0.1   13.2   0.1   1   1   1.7e-05      0.19   12.3   0.1    90   115   419   444   398   451 0.87 -
#
# Program:         hmmsearch
# Version:         3.2.1 (June 2018)
# Pipeline mode:   SEARCH
# Query file:      /isg/shared/databases/BUSCO/odb10/embryophyta_odb10/hmms/103458at3193.hmm
# Target file:     /labs/Wegrzyn/ConiferGenomes/Psme/analysis/SURF_annotation/analyze_orig_maker/gfacs/filtered/maker_genes.fasta.faa
# Option settings: /usr/local/bin/hmmsearch --domtblout /labs/Wegrzyn/ConiferGenomes/Psme/analysis/SURF_annotation/analyze_orig_maker/busco/maker/run_embryophyta_odb10/hmmer_output/103458at3193.out --cpu 1 /isg/shared/databases/BUSCO/odb10/embryophyta_odb10/hmms/103458at3193.hmm /labs/Wegrzyn/ConiferGenomes/Psme/analysis/SURF_annotation/analyze_orig_maker/gfacs/filtered/maker_genes.fasta.faa 
# Current dir:     /labs/Wegrzyn/ConiferGenomes/Psme/analysis/SURF_annotation/analyze_orig_maker/busco
# Date:            Fri Jul 10 13:41:42 2020
# [ok]
