#                                                                            --- full sequence --- -------------- this domain -------------   hmm coord   ali coord   env coord
# target name        accession   tlen query name           accession   qlen   E-value  score  bias   #  of  c-Evalue  i-Evalue  score  bias  from    to  from    to  from    to  acc description of target
#------------------- ---------- ----- -------------------- ---------- ----- --------- ------ ----- --- --- --------- --------- ------ ----- ----- ----- ----- ----- ----- ----- ---- ---------------------
ID=PSME_00019801     -            901 10429at3193          -            813         0 1332.2   0.2   1   1         0         0 1331.3   0.2    36   803     1   878     1   899 0.90 -
ID=PSME_00019803     -            374 10429at3193          -            813    3e-132  444.2   5.2   1   2     4e-83   3.5e-80  272.0   0.5    35   210    62   263    53   266 0.90 -
ID=PSME_00019803     -            374 10429at3193          -            813    3e-132  444.2   5.2   2   2   1.2e-54   1.1e-51  177.7   0.7   237   341   260   365   260   371 0.95 -
ID=PSME_00046175     -            427 10429at3193          -            813   4.3e-52  179.1   0.3   1   2   3.9e-48   3.5e-45  156.3   0.1   544   703    93   257    45   275 0.84 -
ID=PSME_00046175     -            427 10429at3193          -            813   4.3e-52  179.1   0.3   2   2   3.3e-07   0.00029   20.9   0.0   704   777   293   366   277   402 0.79 -
ID=PSME_00005061     -            487 10429at3193          -            813   1.3e-49  170.9   0.1   1   2   1.6e-46   1.4e-43  150.9   0.1   548   703   162   321   113   335 0.89 -
ID=PSME_00005061     -            487 10429at3193          -            813   1.3e-49  170.9   0.1   2   2   2.2e-06     0.002   18.2   0.0   698   759   351   411   328   437 0.79 -
ID=PSME_00028083     -            385 10429at3193          -            813     3e-48  166.4   0.5   1   2   1.8e-45   1.6e-42  147.4   0.1   550   703    67   224    57   240 0.87 -
ID=PSME_00028083     -            385 10429at3193          -            813     3e-48  166.4   0.5   2   2   3.5e-06    0.0031   17.5   0.0   698   795   254   350   236   366 0.75 -
ID=PSME_00050008     -            408 10429at3193          -            813   4.1e-48  165.9   0.1   1   2     1e-44   9.2e-42  144.9   0.1   512   703    35   243    12   258 0.81 -
ID=PSME_00050008     -            408 10429at3193          -            813   4.1e-48  165.9   0.1   2   2   1.2e-06     0.001   19.1   0.0   698   776   273   350   254   388 0.73 -
ID=PSME_00003755     -            348 10429at3193          -            813   8.1e-48  165.0   0.0   1   2   7.5e-45   6.6e-42  145.4   0.1   548   703    81   240    38   246 0.89 -
ID=PSME_00003755     -            348 10429at3193          -            813   8.1e-48  165.0   0.0   2   2   3.1e-06    0.0028   17.7   0.0   703   758   272   329   247   338 0.82 -
ID=PSME_00019802     -            183 10429at3193          -            813   1.9e-47  163.8   0.6   1   1   2.5e-50   2.2e-47  163.5   0.6   379   520     2   148     1   157 0.90 -
ID=PSME_00018810     -            344 10429at3193          -            813   1.7e-46  160.6   0.2   1   2   1.8e-44   1.6e-41  144.1   0.3   579   703    87   211    50   233 0.91 -
ID=PSME_00018810     -            344 10429at3193          -            813   1.7e-46  160.6   0.2   2   2   2.5e-05     0.022   14.7   0.0   698   758   241   300   223   314 0.80 -
ID=PSME_00009532     -            372 10429at3193          -            813   7.6e-46  158.4   0.0   1   2   7.5e-44   6.7e-41  142.1   0.0   548   703    48   207    40   233 0.88 -
ID=PSME_00009532     -            372 10429at3193          -            813   7.6e-46  158.4   0.0   2   2   2.8e-05     0.025   14.5   0.0   704   762   240   300   228   352 0.72 -
ID=PSME_00030897     -            379 10429at3193          -            813   2.1e-45  157.0   0.1   1   2   4.1e-43   3.6e-40  139.6   0.1   544   703    74   238     7   252 0.85 -
ID=PSME_00030897     -            379 10429at3193          -            813   2.1e-45  157.0   0.1   2   2   1.3e-05     0.011   15.6   0.0   700   777   270   346   256   370 0.74 -
ID=PSME_00019159     -            379 10429at3193          -            813   4.5e-44  152.6   0.1   1   2   4.7e-43   4.2e-40  139.5   0.0   579   702   114   237    82   243 0.93 -
ID=PSME_00019159     -            379 10429at3193          -            813   4.5e-44  152.6   0.1   2   2   0.00025      0.22   11.4   0.0   700   777   270   346   245   370 0.73 -
ID=PSME_00013934     -            366 10429at3193          -            813   4.9e-43  149.2   0.2   1   2   3.3e-39     3e-36  126.7   0.1   551   703    74   225    63   243 0.88 -
ID=PSME_00013934     -            366 10429at3193          -            813   4.9e-43  149.2   0.2   2   2   4.4e-07   0.00039   20.5   0.0   699   778   256   334   243   358 0.73 -
ID=PSME_00033946     -            391 10429at3193          -            813   6.9e-43  148.7   0.1   1   2   7.1e-39   6.3e-36  125.6   0.0   548   703    78   227    69   240 0.88 -
ID=PSME_00033946     -            391 10429at3193          -            813   6.9e-43  148.7   0.1   2   2   2.9e-07   0.00026   21.1   0.0   698   783   257   341   239   371 0.74 -
ID=PSME_00034209     -            606 10429at3193          -            813   1.4e-41  144.3   0.1   1   2   2.7e-39   2.4e-36  127.0   0.1   550   703   205   357   196   377 0.85 -
ID=PSME_00034209     -            606 10429at3193          -            813   1.4e-41  144.3   0.1   2   2   1.9e-05     0.017   15.1   0.0   704   759   393   447   377   476 0.78 -
ID=PSME_00039427     -            464 10429at3193          -            813     5e-41  142.5   0.1   1   1     7e-44   6.2e-41  142.2   0.1   544   756   176   385   116   418 0.84 -
ID=PSME_00020305     -            523 10429at3193          -            813   1.2e-40  141.2   2.7   1   3   4.7e-37   4.2e-34  119.6   0.2   548   680    81   217    70   230 0.87 -
ID=PSME_00020305     -            523 10429at3193          -            813   1.2e-40  141.2   2.7   2   3     0.028        24    4.6   0.3   680   703   256   279   246   299 0.86 -
ID=PSME_00020305     -            523 10429at3193          -            813   1.2e-40  141.2   2.7   3   3   1.4e-05     0.013   15.5   0.0   698   759   309   369   294   377 0.79 -
ID=PSME_00015374     -            334 10429at3193          -            813   1.1e-38  134.7   0.0   1   1   1.7e-41   1.5e-38  134.3   0.0   580   759    87   258    83   289 0.90 -
ID=PSME_00013570     -            565 10429at3193          -            813   2.6e-38  133.5   0.9   1   3   1.1e-34   9.3e-32  111.8   0.1   548   680   226   362   218   375 0.85 -
ID=PSME_00013570     -            565 10429at3193          -            813   2.6e-38  133.5   0.9   2   3         1   8.8e+02   -0.5   0.0   680   703   401   424   393   447 0.86 -
ID=PSME_00013570     -            565 10429at3193          -            813   2.6e-38  133.5   0.9   3   3   1.5e-06    0.0013   18.7   0.0   699   779   455   534   442   556 0.75 -
ID=PSME_00013092     -            267 10429at3193          -            813   3.1e-37  130.0   0.3   1   2   3.9e-32   3.4e-29  103.3   0.2   602   703     1   102     1   118 0.97 -
ID=PSME_00013092     -            267 10429at3193          -            813   3.1e-37  130.0   0.3   2   2   1.8e-08   1.6e-05   25.0   0.0   697   777   131   210   113   247 0.77 -
ID=PSME_00038897     -            310 10429at3193          -            813   3.5e-36  126.5   0.2   1   2   4.2e-31   3.7e-28   99.9   0.0   604   715     2   117     1   128 0.90 -
ID=PSME_00038897     -            310 10429at3193          -            813   3.5e-36  126.5   0.2   2   2   1.4e-08   1.3e-05   25.4   0.0   684   767   118   203   114   222 0.77 -
ID=PSME_00007918     -            279 10429at3193          -            813   1.1e-35  124.8   3.1   1   2   4.4e-37   3.9e-34  119.7   0.2   548   680    19   155    11   168 0.85 -
ID=PSME_00007918     -            279 10429at3193          -            813   1.1e-35  124.8   3.1   2   2     0.012        11    5.8   0.3   679   703   193   217   184   239 0.86 -
ID=PSME_00032136     -            466 10429at3193          -            813   3.6e-35  123.1   0.2   1   2   3.3e-32   2.9e-29  103.6   0.3   599   703   171   275   158   300 0.94 -
ID=PSME_00032136     -            466 10429at3193          -            813   3.6e-35  123.1   0.2   2   2   3.3e-06     0.003   17.6   0.0   698   757   305   363   290   370 0.79 -
ID=PSME_00049154     -            375 10429at3193          -            813   6.2e-35  122.3   1.5   1   2   1.2e-29   1.1e-26   95.1   1.1   579   703   114   220    73   238 0.89 -
ID=PSME_00049154     -            375 10429at3193          -            813   6.2e-35  122.3   1.5   2   2   7.7e-07   0.00068   19.7   0.0   698   774   250   325   237   362 0.77 -
ID=PSME_00033797     -            341 10429at3193          -            813   1.5e-33  117.7   0.2   1   1   2.4e-36   2.1e-33  117.3   0.2   549   679   102   236    93   244 0.85 -
ID=PSME_00046660     -            377 10429at3193          -            813   1.5e-30  107.9   1.9   1   3   3.7e-16   3.2e-13   50.5   0.1   579   630   116   167    88   173 0.87 -
ID=PSME_00046660     -            377 10429at3193          -            813   1.5e-30  107.9   1.9   2   3   1.3e-11   1.2e-08   35.4   0.1   660   703   174   217   169   236 0.91 -
ID=PSME_00046660     -            377 10429at3193          -            813   1.5e-30  107.9   1.9   3   3   5.1e-07   0.00045   20.3   0.0   713   773   261   321   235   361 0.76 -
ID=PSME_00002849     -            365 10429at3193          -            813   5.5e-27   96.0   1.1   1   1   1.7e-29   1.5e-26   94.6   1.1   548   776    72   307    23   342 0.77 -
ID=PSME_00038309     -            352 10429at3193          -            813   1.6e-24   87.9   0.1   1   1   2.2e-27     2e-24   87.6   0.1   548   666    81   203    21   218 0.81 -
ID=PSME_00033606     -             93 10429at3193          -            813   6.7e-22   79.2   0.2   1   1   7.7e-25   6.8e-22   79.2   0.2   570   653     6    89     1    92 0.92 -
ID=PSME_00045960     -            533 10429at3193          -            813   2.1e-20   74.3   0.0   1   2   2.1e-07   0.00018   21.6   0.0   548   607   297   360   248   361 0.76 -
ID=PSME_00045960     -            533 10429at3193          -            813   2.1e-20   74.3   0.0   2   2   1.9e-17   1.7e-14   54.8   0.0   643   775   355   479   355   517 0.80 -
ID=PSME_00011263     -            943 10429at3193          -            813   7.3e-19   69.2   0.0   1   1   1.2e-21   1.1e-18   68.6   0.0   579   764   686   870   673   903 0.89 -
ID=PSME_00026504     -            162 10429at3193          -            813   4.1e-18   66.7   0.0   1   1   4.7e-21   4.1e-18   66.7   0.0   595   701     1   108     1   158 0.91 -
ID=PSME_00004758     -             76 10429at3193          -            813   1.3e-17   65.1   0.0   1   1   1.5e-20   1.3e-17   65.0   0.0   605   677     3    75     1    75 0.96 -
ID=PSME_00043455     -            272 10429at3193          -            813   3.1e-17   63.8   0.2   1   1   3.6e-20   3.2e-17   63.8   0.2   548   644   162   262    97   271 0.82 -
ID=PSME_00021822     -            243 10429at3193          -            813   3.4e-17   63.7   3.2   1   1   3.6e-18   3.2e-15   57.2   3.2   605   764     1   173     1   220 0.72 -
ID=PSME_00019253     -            191 10429at3193          -            813   9.6e-17   62.2   0.2   1   1   1.1e-19   9.6e-17   62.2   0.2   553   644    86   181    30   190 0.82 -
ID=PSME_00032571     -            191 10429at3193          -            813   4.2e-16   60.1   0.1   1   1   4.7e-19   4.2e-16   60.1   0.1   548   651    81   189    28   190 0.82 -
ID=PSME_00043896     -            433 10429at3193          -            813   9.8e-16   58.8   0.1   1   1   1.3e-18   1.2e-15   58.6   0.1   548   651   323   431   269   432 0.80 -
ID=PSME_00015196     -            304 10429at3193          -            813   5.4e-15   56.4   0.0   1   1   6.8e-18     6e-15   56.2   0.0   578   645   228   295   126   303 0.84 -
ID=PSME_00031254     -            330 10429at3193          -            813   5.6e-14   53.0   1.2   1   3   1.4e-08   1.3e-05   25.4   0.0   544   605    76   142    28   144 0.79 -
ID=PSME_00031254     -            330 10429at3193          -            813   5.6e-14   53.0   1.2   2   3      0.04        35    4.1   0.3   682   703   144   165   142   183 0.88 -
ID=PSME_00031254     -            330 10429at3193          -            813   5.6e-14   53.0   1.2   3   3     2e-07   0.00018   21.6   0.0   698   776   195   272   177   306 0.76 -
ID=PSME_00043763     -            466 10429at3193          -            813     3e-13   50.6   0.1   1   1     3e-14   2.6e-11   44.2   0.1   637   757   285   388   277   416 0.81 -
ID=PSME_00004756     -            264 10429at3193          -            813   5.9e-10   39.7   0.0   1   1   8.9e-13   7.9e-10   39.3   0.0   240   321   165   245   151   254 0.86 -
ID=PSME_00029668     -            177 10429at3193          -            813   3.8e-09   37.1   0.0   1   1   4.6e-12     4e-09   37.0   0.0   257   349     1    98     1   131 0.85 -
ID=PSME_00053431     -            401 10429at3193          -            813   1.7e-08   34.9   0.0   1   1   2.4e-11   2.2e-08   34.6   0.0   642   772     2   132     1   147 0.86 -
ID=PSME_00004759     -            103 10429at3193          -            813     9e-08   32.5   0.2   1   1   1.2e-10   1.1e-07   32.2   0.2   678   749    12    89     8    97 0.85 -
ID=PSME_00046487     -            268 10429at3193          -            813   4.2e-06   27.0   0.4   1   2     0.018        16    5.2   0.2   681   703     4    26     1    46 0.86 -
ID=PSME_00046487     -            268 10429at3193          -            813   4.2e-06   27.0   0.4   2   2   5.2e-07   0.00046   20.2   0.0   698   763    56   120    39   151 0.74 -
ID=PSME_00019252     -            129 10429at3193          -            813   9.2e-06   25.9   0.0   1   1   1.1e-08   9.9e-06   25.8   0.0   698   777    18    96     5   116 0.80 -
ID=PSME_00048248     -            138 10429at3193          -            813   1.6e-05   25.1   0.0   1   1   1.8e-08   1.6e-05   25.1   0.0   548   607    59   122     9   131 0.73 -
ID=PSME_00043050     -             71 10429at3193          -            813   3.6e-05   23.9   0.0   1   1   4.3e-08   3.8e-05   23.8   0.0   578   608    26    56     3    64 0.76 -
ID=PSME_00038896     -            264 10429at3193          -            813   4.2e-05   23.7   0.0   1   1   6.6e-08   5.8e-05   23.2   0.0   270   333     2    64     1    67 0.88 -
ID=PSME_00051039     -            174 10429at3193          -            813   4.4e-05   23.6   0.0   1   1   6.1e-08   5.4e-05   23.3   0.0   548   604   114   174   105   174 0.77 -
ID=PSME_00032570     -            132 10429at3193          -            813   0.00011   22.3   0.0   1   1   1.3e-07   0.00012   22.2   0.0   698   776    21    98     7   121 0.75 -
ID=PSME_00025175     -            267 10429at3193          -            813   0.00011   22.3   0.0   1   1   1.5e-07   0.00013   22.0   0.0   545   607    77   144    27   157 0.78 -
ID=PSME_00055759     -            160 10429at3193          -            813   0.00015   21.8   0.0   1   1   1.7e-07   0.00015   21.8   0.0   579   608   116   145    23   153 0.83 -
ID=PSME_00014292     -             81 10429at3193          -            813   0.00069   19.6   0.0   1   1   7.9e-07   0.00069   19.6   0.0   698   757    18    76     5    80 0.80 -
ID=PSME_00015197     -             81 10429at3193          -            813    0.0035   17.3   0.0   1   1   4.3e-06    0.0038   17.2   0.0   698   757    18    76     5    79 0.79 -
ID=PSME_00017304     -            406 10429at3193          -            813    0.0068   16.4   0.0   1   1     1e-05    0.0089   16.0   0.0   564   608   346   394   287   401 0.77 -
ID=PSME_00040594     -             81 10429at3193          -            813    0.0091   15.9   0.0   1   1     1e-05    0.0091   15.9   0.0   698   757    18    76     6    80 0.80 -
ID=PSME_00048247     -            153 10429at3193          -            813     0.022   14.7   0.0   1   1   2.4e-05     0.022   14.7   0.0   698   756    18    75     6   125 0.77 -
ID=PSME_00004295     -            336 10429at3193          -            813     0.022   14.7   0.0   1   1   3.3e-05     0.029   14.3   0.0   703   757   275   331   259   336 0.81 -
ID=PSME_00047506     -            129 10429at3193          -            813     0.071   13.0   0.0   1   1   8.6e-05     0.076   12.9   0.0   700   778    20    97     6   120 0.72 -
ID=PSME_00014120     -            655 10429at3193          -            813      0.18   11.6   0.0   1   1    0.0003      0.27   11.1   0.0    39   108   448   521   440   537 0.83 -
#
# Program:         hmmsearch
# Version:         3.2.1 (June 2018)
# Pipeline mode:   SEARCH
# Query file:      /isg/shared/databases/BUSCO/odb10/embryophyta_odb10/hmms/10429at3193.hmm
# Target file:     /labs/Wegrzyn/ConiferGenomes/Psme/analysis/SURF_annotation/analyze_orig_maker/gfacs/filtered/maker_genes.fasta.faa
# Option settings: /usr/local/bin/hmmsearch --domtblout /labs/Wegrzyn/ConiferGenomes/Psme/analysis/SURF_annotation/analyze_orig_maker/busco/maker/run_embryophyta_odb10/hmmer_output/10429at3193.out --cpu 1 /isg/shared/databases/BUSCO/odb10/embryophyta_odb10/hmms/10429at3193.hmm /labs/Wegrzyn/ConiferGenomes/Psme/analysis/SURF_annotation/analyze_orig_maker/gfacs/filtered/maker_genes.fasta.faa 
# Current dir:     /labs/Wegrzyn/ConiferGenomes/Psme/analysis/SURF_annotation/analyze_orig_maker/busco
# Date:            Fri Jul 10 13:41:49 2020
# [ok]
