#                                                                            --- full sequence --- -------------- this domain -------------   hmm coord   ali coord   env coord
# target name        accession   tlen query name           accession   qlen   E-value  score  bias   #  of  c-Evalue  i-Evalue  score  bias  from    to  from    to  from    to  acc description of target
#------------------- ---------- ----- -------------------- ---------- ----- --------- ------ ----- --- --- --------- --------- ------ ----- ----- ----- ----- ----- ----- ----- ---- ---------------------
ID=PSME_00006301     -            774 105470at3193         -            316   5.6e-89  299.8   1.7   1   2   1.5e-84   2.6e-81  274.6   0.7    16   182    17   198     9   230 0.90 -
ID=PSME_00006301     -            774 105470at3193         -            316   5.6e-89  299.8   1.7   2   2   4.7e-08   8.4e-05   23.3   0.0   210   239   728   761   723   768 0.87 -
ID=PSME_00011841     -            439 105470at3193         -            316   2.1e-82  278.2   0.8   1   2   2.5e-07   0.00043   20.9   0.0     1    41    38    91    38   109 0.75 -
ID=PSME_00011841     -            439 105470at3193         -            316   2.1e-82  278.2   0.8   2   2   1.2e-78   2.1e-75  255.2   0.2    43   316   134   429   122   429 0.93 -
ID=PSME_00014528     -            380 105470at3193         -            316   4.7e-69  234.3   1.5   1   1     6e-71   1.1e-67  229.9   1.5     1   316    38   370    38   370 0.81 -
ID=PSME_00011840     -            156 105470at3193         -            316   3.1e-24   87.1   4.4   1   2   2.4e-19   4.2e-16   60.4   0.3    38    90    35    87    29    89 0.94 -
ID=PSME_00011840     -            156 105470at3193         -            316   3.1e-24   87.1   4.4   2   2   7.8e-10   1.4e-06   29.1   0.5   127   188    88   149    86   154 0.89 -
ID=PSME_00029742     -            546 105470at3193         -            316   5.9e-21   76.3   8.1   1   3   8.6e-09   1.5e-05   25.7   0.1    43    77    33    70    24    79 0.85 -
ID=PSME_00029742     -            546 105470at3193         -            316   5.9e-21   76.3   8.1   2   3   5.1e-11     9e-08   33.0   0.2    33    88    87   145    78   147 0.87 -
ID=PSME_00029742     -            546 105470at3193         -            316   5.9e-21   76.3   8.1   3   3   1.8e-07   0.00032   21.3   0.5    44    73   147   179   145   182 0.88 -
ID=PSME_00017293     -            179 105470at3193         -            316   4.7e-16   60.2   2.5   1   2   1.9e-16   3.4e-13   50.8   0.2    17    73    12    79     5    84 0.84 -
ID=PSME_00017293     -            179 105470at3193         -            316   4.7e-16   60.2   2.5   2   2   0.00032      0.56   10.7   0.2   135   217    80   160    79   177 0.73 -
ID=PSME_00039742     -             88 105470at3193         -            316   7.9e-10   39.8   2.1   1   2    0.0055       9.8    6.6   0.1    73    90     2    19     1    22 0.90 -
ID=PSME_00039742     -             88 105470at3193         -            316   7.9e-10   39.8   2.1   2   2   2.3e-11   4.1e-08   34.1   0.4   127   188    20    81    17    86 0.89 -
ID=PSME_00048901     -            180 105470at3193         -            316     8e-10   39.7   0.0   1   1   5.5e-13   9.8e-10   39.5   0.0    41    96    91   147    64   160 0.84 -
ID=PSME_00052118     -            448 105470at3193         -            316   0.00012   22.7   0.4   1   3    0.0013       2.3    8.7   0.0   229   279    54   106    48   153 0.73 -
ID=PSME_00052118     -            448 105470at3193         -            316   0.00012   22.7   0.4   2   3       1.6   2.8e+03   -1.5   0.0    84   115   155   186   146   190 0.83 -
ID=PSME_00052118     -            448 105470at3193         -            316   0.00012   22.7   0.4   3   3   0.00028      0.49   10.9   0.0   230   280   260   312   254   359 0.64 -
ID=PSME_00031870     -            796 105470at3193         -            316   0.00013   22.6   5.0   1   4     0.012        21    5.5   0.0    71   115   161   205   122   211 0.86 -
ID=PSME_00031870     -            796 105470at3193         -            316   0.00013   22.6   5.0   2   4    0.0024       4.2    7.8   0.1   232   278   363   411   354   462 0.66 -
ID=PSME_00031870     -            796 105470at3193         -            316   0.00013   22.6   5.0   3   4      0.43   7.6e+02    0.4   0.1    89   115   462   488   443   492 0.75 -
ID=PSME_00031870     -            796 105470at3193         -            316   0.00013   22.6   5.0   4   4    0.0024       4.2    7.8   0.1   232   279   646   695   632   743 0.67 -
ID=PSME_00036316     -            490 105470at3193         -            316   0.00035   21.2   1.1   1   3         5   8.8e+03   -3.1   0.0   119   145    52    78    49    80 0.83 -
ID=PSME_00036316     -            490 105470at3193         -            316   0.00035   21.2   1.1   2   3    0.0025       4.5    7.7   0.0   229   277   111   161   100   192 0.78 -
ID=PSME_00036316     -            490 105470at3193         -            316   0.00035   21.2   1.1   3   3   0.00019      0.34   11.4   0.1   228   279   353   406   343   454 0.65 -
ID=PSME_00041958     -            817 105470at3193         -            316   0.00051   20.7   0.5   1   2   0.00052      0.92   10.0   0.1   229   278   409   460   399   505 0.80 -
ID=PSME_00041958     -            817 105470at3193         -            316   0.00051   20.7   0.5   2   2    0.0015       2.7    8.4   0.1   233   280   632   681   625   728 0.64 -
ID=PSME_00056478     -            115 105470at3193         -            316     0.011   16.3   0.2   1   1   1.1e-05     0.019   15.5   0.2   233   310    13   105     6   111 0.67 -
ID=PSME_00026641     -            195 105470at3193         -            316     0.026   15.1   0.0   1   1   2.6e-05     0.046   14.3   0.0   229   280    54   107    44   154 0.64 -
ID=PSME_00051186     -            115 105470at3193         -            316     0.035   14.7   0.1   1   1   3.6e-05     0.064   13.8   0.1   229   283     9    65     5   110 0.65 -
ID=PSME_00022568     -            343 105470at3193         -            316     0.041   14.4   0.0   1   1     5e-05     0.089   13.3   0.0   232   282   157   209   147   254 0.66 -
ID=PSME_00019678     -            149 105470at3193         -            316     0.044   14.3   0.1   1   2   4.4e-05     0.078   13.5   0.1    62    92    55    85    40   104 0.89 -
ID=PSME_00019678     -            149 105470at3193         -            316     0.044   14.3   0.1   2   2       2.5   4.3e+03   -2.1   0.0   234   252    97   115    84   125 0.73 -
ID=PSME_00027528     -            115 105470at3193         -            316     0.054   14.0   0.2   1   1   4.3e-05     0.076   13.5   0.2   231   280    11    62     5   111 0.70 -
ID=PSME_00047230     -            222 105470at3193         -            316     0.055   14.0   0.0   1   1   4.6e-05     0.081   13.4   0.0   229   278   154   205   144   216 0.79 -
ID=PSME_00022056     -            160 105470at3193         -            316     0.056   14.0   0.1   1   1   5.9e-05       0.1   13.1   0.1   229   280    54   107    46   154 0.65 -
ID=PSME_00014551     -            165 105470at3193         -            316     0.066   13.7   0.0   1   1   4.8e-05     0.084   13.4   0.0   230   279     7    58     3    77 0.84 -
ID=PSME_00022058     -            343 105470at3193         -            316     0.071   13.6   0.1   1   1   8.1e-05      0.14   12.6   0.1   229   280   154   207   145   254 0.68 -
ID=PSME_00014552     -            269 105470at3193         -            316     0.078   13.5   0.6   1   2       5.4   9.6e+03   -3.2   0.0   119   156    33    73    31    88 0.62 -
ID=PSME_00014552     -            269 105470at3193         -            316     0.078   13.5   0.6   2   2   7.6e-05      0.13   12.7   0.1   229   280   163   216   154   263 0.65 -
ID=PSME_00024520     -            137 105470at3193         -            316      0.11   13.0   0.1   1   1   7.5e-05      0.13   12.7   0.1   228   279    53   106    43   126 0.80 -
ID=PSME_00048521     -            201 105470at3193         -            316      0.12   12.8   0.1   1   1   0.00016      0.29   11.6   0.1   233   309    99   190    90   195 0.61 -
ID=PSME_00009990     -            114 105470at3193         -            316      0.16   12.5   0.1   1   1   0.00016      0.28   11.7   0.1   229   310     9   105     5   110 0.63 -
ID=PSME_00014499     -           1167 105470at3193         -            316      0.26   11.8   0.0   1   1    0.0003      0.53   10.8   0.0    14    64   827   881   818   886 0.85 -
ID=PSME_00046880     -            290 105470at3193         -            316      0.27   11.7   0.1   1   1   0.00031      0.55   10.7   0.1   233   280   158   207   151   256 0.61 -
ID=PSME_00047232     -             83 105470at3193         -            316      0.34   11.4   0.0   1   1    0.0002      0.36   11.3   0.0   229   279     9    61     5    80 0.78 -
ID=PSME_00041179     -            198 105470at3193         -            316      0.36   11.3   0.1   1   1   0.00037      0.66   10.5   0.1   233   279    13    61     7   111 0.65 -
ID=PSME_00020562     -            524 105470at3193         -            316       4.8    7.6   5.2   1   4     0.022        39    4.6   0.1   108   147    14    53     7    59 0.86 -
ID=PSME_00020562     -            524 105470at3193         -            316       4.8    7.6   5.2   2   4       9.1   1.6e+04   -4.0   0.0   176   204    97   125    95   129 0.86 -
ID=PSME_00020562     -            524 105470at3193         -            316       4.8    7.6   5.2   3   4     0.021        38    4.7   0.2   108   147   206   245   197   251 0.86 -
ID=PSME_00020562     -            524 105470at3193         -            316       4.8    7.6   5.2   4   4       9.1   1.6e+04   -4.0   0.0   176   204   289   317   287   321 0.86 -
#
# Program:         hmmsearch
# Version:         3.2.1 (June 2018)
# Pipeline mode:   SEARCH
# Query file:      /isg/shared/databases/BUSCO/odb10/embryophyta_odb10/hmms/105470at3193.hmm
# Target file:     /labs/Wegrzyn/ConiferGenomes/Psme/analysis/SURF_annotation/analyze_orig_maker/gfacs/filtered/maker_genes.fasta.faa
# Option settings: /usr/local/bin/hmmsearch --domtblout /labs/Wegrzyn/ConiferGenomes/Psme/analysis/SURF_annotation/analyze_orig_maker/busco/maker/run_embryophyta_odb10/hmmer_output/105470at3193.out --cpu 1 /isg/shared/databases/BUSCO/odb10/embryophyta_odb10/hmms/105470at3193.hmm /labs/Wegrzyn/ConiferGenomes/Psme/analysis/SURF_annotation/analyze_orig_maker/gfacs/filtered/maker_genes.fasta.faa 
# Current dir:     /labs/Wegrzyn/ConiferGenomes/Psme/analysis/SURF_annotation/analyze_orig_maker/busco
# Date:            Fri Jul 10 13:41:45 2020
# [ok]
