#                                                                            --- full sequence --- -------------- this domain -------------   hmm coord   ali coord   env coord
# target name        accession   tlen query name           accession   qlen   E-value  score  bias   #  of  c-Evalue  i-Evalue  score  bias  from    to  from    to  from    to  acc description of target
#------------------- ---------- ----- -------------------- ---------- ----- --------- ------ ----- --- --- --------- --------- ------ ----- ----- ----- ----- ----- ----- ----- ---- ---------------------
ID=PSME_00051084     -            107 108706at3193         -            274   4.2e-44  152.5   0.1   1   1   1.9e-47   4.6e-44  152.4   0.1   188   273    19   104     3   105 0.92 -
ID=PSME_00051083     -            177 108706at3193         -            274     1e-40  141.3   1.0   1   1   5.2e-44   1.3e-40  141.0   1.0     1   128    30   165    30   168 0.90 -
ID=PSME_00002833     -           1041 108706at3193         -            274   3.7e-14   54.3   3.2   1   5   0.00026      0.66   10.8   0.0   101   259    73   234    63   245 0.78 -
ID=PSME_00002833     -           1041 108706at3193         -            274   3.7e-14   54.3   3.2   2   5     0.044   1.1e+02    3.5   0.0   208   263   251   306   241   311 0.84 -
ID=PSME_00002833     -           1041 108706at3193         -            274   3.7e-14   54.3   3.2   3   5   1.6e-07    0.0004   21.4   0.2   130   225   310   404   297   407 0.91 -
ID=PSME_00002833     -           1041 108706at3193         -            274   3.7e-14   54.3   3.2   4   5   7.8e-06     0.019   15.8   0.0   205   265   418   478   415   486 0.92 -
ID=PSME_00002833     -           1041 108706at3193         -            274   3.7e-14   54.3   3.2   5   5       3.5   8.8e+03   -2.7   0.0   203   229   484   510   481   511 0.86 -
ID=PSME_00009529     -            452 108706at3193         -            274   1.8e-12   48.7   0.7   1   1   1.1e-15   2.8e-12   48.1   0.7    78   264   197   389   185   399 0.77 -
ID=PSME_00001060     -            983 108706at3193         -            274   2.7e-12   48.2   2.9   1   4    0.0018       4.5    8.1   0.0    92   252    52   215    32   235 0.74 -
ID=PSME_00001060     -            983 108706at3193         -            274   2.7e-12   48.2   2.9   2   4   3.8e-07   0.00094   20.2   0.2    79   222   243   389   227   396 0.86 -
ID=PSME_00001060     -            983 108706at3193         -            274   2.7e-12   48.2   2.9   3   4   3.1e-05     0.076   13.9   0.0   207   265   408   466   402   471 0.92 -
ID=PSME_00001060     -            983 108706at3193         -            274   2.7e-12   48.2   2.9   4   4     0.084   2.1e+02    2.6   0.0   203   229   472   498   469   501 0.91 -
ID=PSME_00049542     -            215 108706at3193         -            274   6.3e-08   33.8   0.0   1   1     4e-11   9.9e-08   33.2   0.0    82   117   151   186   135   200 0.89 -
ID=PSME_00008848     -            808 108706at3193         -            274     6e-06   27.4   2.1   1   6    0.0025       6.2    7.6   0.0   210   268   103   161    94   164 0.93 -
ID=PSME_00008848     -            808 108706at3193         -            274     6e-06   27.4   2.1   2   6      0.08     2e+02    2.7   0.1    85   154   179   259   166   265 0.65 -
ID=PSME_00008848     -            808 108706at3193         -            274     6e-06   27.4   2.1   3   6     0.024        59    4.4   0.0   203   248   239   284   236   290 0.92 -
ID=PSME_00008848     -            808 108706at3193         -            274     6e-06   27.4   2.1   4   6      0.19   4.9e+02    1.4   0.0    85   113   288   316   282   328 0.89 -
ID=PSME_00008848     -            808 108706at3193         -            274     6e-06   27.4   2.1   5   6    0.0043        11    6.8   0.0    78   131   390   443   342   454 0.77 -
ID=PSME_00008848     -            808 108706at3193         -            274     6e-06   27.4   2.1   6   6       2.8   7.1e+03   -2.4   0.0    19    44   527   552   525   553 0.86 -
ID=PSME_00013947     -            690 108706at3193         -            274     2e-05   25.6   9.8   1   3    0.0022       5.5    7.8   0.4    72   174    10   116     2   124 0.73 -
ID=PSME_00013947     -            690 108706at3193         -            274     2e-05   25.6   9.8   2   3    0.0063        16    6.3   0.2   125   183   238   298   232   313 0.79 -
ID=PSME_00013947     -            690 108706at3193         -            274     2e-05   25.6   9.8   3   3   9.6e-06     0.024   15.5   0.2    74   172   392   494   374   524 0.80 -
ID=PSME_00056052     -            773 108706at3193         -            274   4.6e-05   24.5   1.1   1   2   8.5e-08   0.00021   22.3   0.2   108   224   300   422   277   453 0.84 -
ID=PSME_00056052     -            773 108706at3193         -            274   4.6e-05   24.5   1.1   2   2      0.72   1.8e+03   -0.4   0.0   111   222   548   661   527   669 0.48 -
ID=PSME_00056090     -            852 108706at3193         -            274    0.0011   20.0   0.1   1   1     8e-07     0.002   19.1   0.1   100   253   346   495   338   506 0.87 -
ID=PSME_00056852     -            523 108706at3193         -            274     0.014   16.3   0.1   1   2    0.0012         3    8.6   0.0    73   124   338   389   331   398 0.84 -
ID=PSME_00056852     -            523 108706at3193         -            274     0.014   16.3   0.1   2   2     0.016        41    4.9   0.0    76   139   420   483   413   502 0.83 -
ID=PSME_00037319     -            354 108706at3193         -            274     0.018   15.9   1.2   1   2   0.00034      0.86   10.4   0.5    75   167   107   196    96   209 0.81 -
ID=PSME_00037319     -            354 108706at3193         -            274     0.018   15.9   1.2   2   2     0.058   1.4e+02    3.1   0.0    71   113   225   267   210   281 0.79 -
ID=PSME_00034275     -            493 108706at3193         -            274     0.046   14.6   7.9   1   4    0.0058        14    6.4   0.0   203   234    41    72    22    83 0.86 -
ID=PSME_00034275     -            493 108706at3193         -            274     0.046   14.6   7.9   2   4      0.28   6.9e+02    0.9   0.0   215   254    87   126    76   139 0.86 -
ID=PSME_00034275     -            493 108706at3193         -            274     0.046   14.6   7.9   3   4     0.043   1.1e+02    3.6   0.4    88   174   140   232   136   250 0.70 -
ID=PSME_00034275     -            493 108706at3193         -            274     0.046   14.6   7.9   4   4     0.015        38    5.0   0.3   101   171   305   379   258   400 0.66 -
ID=PSME_00028296     -            810 108706at3193         -            274      0.05   14.5   0.0   1   2    0.0026       6.6    7.5   0.0   201   251   300   349   275   362 0.84 -
ID=PSME_00028296     -            810 108706at3193         -            274      0.05   14.5   0.0   2   2     0.037        92    3.8   0.0   202   250   652   699   628   712 0.80 -
ID=PSME_00049230     -            393 108706at3193         -            274     0.053   14.4   0.2   1   1   5.5e-05      0.14   13.0   0.2    75   166   256   351   235   365 0.82 -
ID=PSME_00041899     -            225 108706at3193         -            274     0.086   13.7   0.5   1   1   5.1e-05      0.13   13.2   0.5    72   193    74   192    62   201 0.81 -
ID=PSME_00023831     -            423 108706at3193         -            274     0.088   13.7   1.4   1   3      0.19   4.8e+02    1.4   0.0   231   254    47    70    21    76 0.80 -
ID=PSME_00023831     -            423 108706at3193         -            274     0.088   13.7   1.4   2   3    0.0006       1.5    9.6   0.1   103   265   145   310   114   317 0.64 -
ID=PSME_00023831     -            423 108706at3193         -            274     0.088   13.7   1.4   3   3      0.97   2.4e+03   -0.9   0.1    84   121   332   369   321   408 0.70 -
ID=PSME_00053983     -            637 108706at3193         -            274       0.2   12.5   0.4   1   2    0.0013       3.2    8.6   0.2   124   230    32   143    26   158 0.84 -
ID=PSME_00053983     -            637 108706at3193         -            274       0.2   12.5   0.4   2   2      0.22   5.5e+02    1.2   0.0   209   238   385   414   356   429 0.79 -
ID=PSME_00031552     -            709 108706at3193         -            274      0.23   12.3   0.2   1   2       0.2   4.9e+02    1.4   0.1   163   219   198   255   169   275 0.71 -
ID=PSME_00031552     -            709 108706at3193         -            274      0.23   12.3   0.2   2   2    0.0017       4.3    8.1   0.0   203   254   299   349   282   354 0.88 -
ID=PSME_00014595     -            316 108706at3193         -            274      0.33   11.8   0.1   1   2   0.00027      0.67   10.8   0.0   109   156    23    74     9    82 0.79 -
ID=PSME_00014595     -            316 108706at3193         -            274      0.33   11.8   0.1   2   2       5.3   1.3e+04   -3.3   0.0    11    49   140   181   137   189 0.66 -
ID=PSME_00056618     -            593 108706at3193         -            274       0.4   11.5   0.2   1   1   0.00033      0.83   10.5   0.2    66   144    79   157    75   163 0.88 -
ID=PSME_00014924     -            570 108706at3193         -            274      0.45   11.4   0.1   1   2      0.57   1.4e+03   -0.1   0.0   174   218    69   114    55   135 0.71 -
ID=PSME_00014924     -            570 108706at3193         -            274      0.45   11.4   0.1   2   2    0.0013       3.1    8.6   0.0   203   254   159   209   137   213 0.87 -
#
# Program:         hmmsearch
# Version:         3.2.1 (June 2018)
# Pipeline mode:   SEARCH
# Query file:      /isg/shared/databases/BUSCO/odb10/embryophyta_odb10/hmms/108706at3193.hmm
# Target file:     /labs/Wegrzyn/ConiferGenomes/Psme/analysis/SURF_annotation/analyze_orig_maker/gfacs/filtered/maker_genes.fasta.faa
# Option settings: /usr/local/bin/hmmsearch --domtblout /labs/Wegrzyn/ConiferGenomes/Psme/analysis/SURF_annotation/analyze_orig_maker/busco/maker/run_embryophyta_odb10/hmmer_output/108706at3193.out --cpu 1 /isg/shared/databases/BUSCO/odb10/embryophyta_odb10/hmms/108706at3193.hmm /labs/Wegrzyn/ConiferGenomes/Psme/analysis/SURF_annotation/analyze_orig_maker/gfacs/filtered/maker_genes.fasta.faa 
# Current dir:     /labs/Wegrzyn/ConiferGenomes/Psme/analysis/SURF_annotation/analyze_orig_maker/busco
# Date:            Fri Jul 10 13:41:45 2020
# [ok]
