#                                                                            --- full sequence --- -------------- this domain -------------   hmm coord   ali coord   env coord
# target name        accession   tlen query name           accession   qlen   E-value  score  bias   #  of  c-Evalue  i-Evalue  score  bias  from    to  from    to  from    to  acc description of target
#------------------- ---------- ----- -------------------- ---------- ----- --------- ------ ----- --- --- --------- --------- ------ ----- ----- ----- ----- ----- ----- ----- ---- ---------------------
ID=PSME_00004529     -            314 109071at3193         -            320     3e-20   74.0   0.4   1   4      0.27   1.9e+02    2.3   0.0   232   256    17    41    10    51 0.78 -
ID=PSME_00004529     -            314 109071at3193         -            320     3e-20   74.0   0.4   2   4   1.1e-10   8.1e-08   33.1   0.0    40   121    65   147    55   158 0.90 -
ID=PSME_00004529     -            314 109071at3193         -            320     3e-20   74.0   0.4   3   4   3.3e-07   0.00023   21.8   0.0    40   118   167   246   158   263 0.84 -
ID=PSME_00004529     -            314 109071at3193         -            320     3e-20   74.0   0.4   4   4   0.00036      0.25   11.8   0.1   168   200   263   295   257   301 0.89 -
ID=PSME_00015250     -            412 109071at3193         -            320     3e-15   57.6   1.3   1   3   2.4e-10   1.7e-07   32.0   0.2     6   124    18   155    17   167 0.79 -
ID=PSME_00015250     -            412 109071at3193         -            320     3e-15   57.6   1.3   2   3   3.7e-05     0.027   15.0   0.0    41   116   171   247   157   264 0.85 -
ID=PSME_00015250     -            412 109071at3193         -            320     3e-15   57.6   1.3   3   3      0.64   4.6e+02    1.1   0.0    39    71   270   302   248   310 0.64 -
ID=PSME_00010684     -            367 109071at3193         -            320   2.8e-14   54.3   0.7   1   4      0.12        83    3.5   0.0    80   126    62   108    53   118 0.78 -
ID=PSME_00010684     -            367 109071at3193         -            320   2.8e-14   54.3   0.7   2   4   0.00012     0.088   13.3   0.0   165   257   118   205   114   211 0.80 -
ID=PSME_00010684     -            367 109071at3193         -            320   2.8e-14   54.3   0.7   3   4     1e-09   7.2e-07   30.0   0.0    12   119   185   303   177   318 0.78 -
ID=PSME_00010684     -            367 109071at3193         -            320   2.8e-14   54.3   0.7   4   4     0.013       8.9    6.7   0.0   166   205   320   359   315   365 0.78 -
ID=PSME_00045787     -            309 109071at3193         -            320     3e-14   54.3   5.1   1   4      0.03        21    5.5   0.0    88   116     7    35     3    44 0.84 -
ID=PSME_00045787     -            309 109071at3193         -            320     3e-14   54.3   5.1   2   4   0.00022      0.16   12.5   0.3    42   121    62   140    51   150 0.72 -
ID=PSME_00045787     -            309 109071at3193         -            320     3e-14   54.3   5.1   3   4   1.2e-09   8.6e-07   29.8   0.6    24   116   157   251   138   258 0.83 -
ID=PSME_00045787     -            309 109071at3193         -            320     3e-14   54.3   5.1   4   4      0.04        29    5.0   0.0    41    71   273   303   260   306 0.89 -
ID=PSME_00028218     -            330 109071at3193         -            320   1.7e-13   51.8   6.9   1   3   2.3e-08   1.7e-05   25.5   1.5     4   119    38   165    35   177 0.76 -
ID=PSME_00028218     -            330 109071at3193         -            320   1.7e-13   51.8   6.9   2   3     2e-06    0.0014   19.2   0.1   167   258   177   260   166   265 0.80 -
ID=PSME_00028218     -            330 109071at3193         -            320   1.7e-13   51.8   6.9   3   3     0.028        20    5.6   0.0   165   209   278   322   268   328 0.84 -
ID=PSME_00035735     -            331 109071at3193         -            320   1.9e-13   51.7   2.1   1   4   2.7e-07   0.00019   22.0   0.3     4   119    57   184    54   193 0.74 -
ID=PSME_00035735     -            331 109071at3193         -            320   1.9e-13   51.7   2.1   2   4   1.6e-05     0.011   16.2   0.1   166   257   195   277   189   277 0.69 -
ID=PSME_00035735     -            331 109071at3193         -            320   1.9e-13   51.7   2.1   3   4   9.2e-05     0.066   13.7   0.1    90   120   251   281   240   298 0.82 -
ID=PSME_00035735     -            331 109071at3193         -            320   1.9e-13   51.7   2.1   4   4      0.57     4e+02    1.3   0.0   165   198   296   329   287   331 0.79 -
ID=PSME_00010880     -            294 109071at3193         -            320     3e-13   51.0   6.6   1   3   7.1e-10     5e-07   30.5   1.3     3   117    21   147    19   150 0.78 -
ID=PSME_00010880     -            294 109071at3193         -            320     3e-13   51.0   6.6   2   3   2.4e-08   1.7e-05   25.5   1.0   120   252   114   235   106   237 0.84 -
ID=PSME_00010880     -            294 109071at3193         -            320     3e-13   51.0   6.6   3   3     0.036        25    5.2   0.1     3    42   211   250   209   263 0.75 -
ID=PSME_00038131     -            300 109071at3193         -            320   6.8e-13   49.8   4.9   1   4       0.3   2.1e+02    2.2   0.0    87   115     6    34     2    47 0.70 -
ID=PSME_00038131     -            300 109071at3193         -            320   6.8e-13   49.8   4.9   2   4   6.6e-05     0.047   14.2   0.3    42   125    62   144    47   155 0.70 -
ID=PSME_00038131     -            300 109071at3193         -            320   6.8e-13   49.8   4.9   3   4   1.7e-08   1.2e-05   26.0   0.1    36   115   162   241   155   249 0.91 -
ID=PSME_00038131     -            300 109071at3193         -            320   6.8e-13   49.8   4.9   4   4   0.00012     0.084   13.4   0.0    15    71   225   294   224   298 0.76 -
ID=PSME_00056522     -            388 109071at3193         -            320   8.9e-13   49.4   9.0   1   3   1.9e-08   1.3e-05   25.9   1.8     8   129    84   220    77   224 0.74 -
ID=PSME_00056522     -            388 109071at3193         -            320   8.9e-13   49.4   9.0   2   3   6.6e-07   0.00047   20.8   0.1    41   115   224   298   214   324 0.87 -
ID=PSME_00056522     -            388 109071at3193         -            320   8.9e-13   49.4   9.0   3   3     0.035        25    5.2   0.2   166   197   326   357   312   375 0.82 -
ID=PSME_00020527     -            394 109071at3193         -            320   2.9e-12   47.7   1.5   1   3   1.5e-07   0.00011   22.8   0.4     2   117    51   178    50   183 0.74 -
ID=PSME_00020527     -            394 109071at3193         -            320   2.9e-12   47.7   1.5   2   3   1.6e-07   0.00012   22.8   0.1     5   119   150   276   149   291 0.78 -
ID=PSME_00020527     -            394 109071at3193         -            320   2.9e-12   47.7   1.5   3   3      0.21   1.5e+02    2.7   0.0   165   200   292   327   284   339 0.80 -
ID=PSME_00038133     -            300 109071at3193         -            320   3.5e-12   47.5   3.7   1   4      0.33   2.4e+02    2.0   0.0    87   115     6    34     2    41 0.67 -
ID=PSME_00038133     -            300 109071at3193         -            320   3.5e-12   47.5   3.7   2   4   2.1e-05     0.015   15.8   0.2    42   125    62   144    48   157 0.83 -
ID=PSME_00038133     -            300 109071at3193         -            320   3.5e-12   47.5   3.7   3   4   9.4e-08   6.7e-05   23.5   0.3    33   116   160   242   140   251 0.88 -
ID=PSME_00038133     -            300 109071at3193         -            320   3.5e-12   47.5   3.7   4   4     0.013       9.5    6.6   0.0    19    71   229   294   228   298 0.69 -
ID=PSME_00035638     -            231 109071at3193         -            320     1e-11   45.9   0.1   1   3     0.013       9.1    6.7   0.0    79   129    12    64     6    85 0.75 -
ID=PSME_00035638     -            231 109071at3193         -            320     1e-11   45.9   0.1   2   3     1e-09   7.4e-07   30.0   0.0    39   120    88   168    67   182 0.86 -
ID=PSME_00035638     -            231 109071at3193         -            320     1e-11   45.9   0.1   3   3     0.018        13    6.2   0.0   166   205   184   223   180   229 0.84 -
ID=PSME_00056564     -            316 109071at3193         -            320   1.1e-11   45.9   2.6   1   4     0.059        42    4.5   0.0    94   118     6    34     2    49 0.63 -
ID=PSME_00056564     -            316 109071at3193         -            320   1.1e-11   45.9   2.6   2   4   2.9e-08     2e-05   25.3   0.0    32   117    67   152    63   169 0.87 -
ID=PSME_00056564     -            316 109071at3193         -            320   1.1e-11   45.9   2.6   3   4     0.005       3.6    8.0   0.5   165   255   171   249   164   255 0.77 -
ID=PSME_00056564     -            316 109071at3193         -            320   1.1e-11   45.9   2.6   4   4      0.13        91    3.4   0.0   166   203   271   308   267   314 0.87 -
ID=PSME_00025177     -            424 109071at3193         -            320   1.2e-11   45.7   0.7   1   3   2.3e-06    0.0017   19.0   0.1    10   117   151   268   145   277 0.82 -
ID=PSME_00025177     -            424 109071at3193         -            320   1.2e-11   45.7   0.7   2   3   2.7e-09   1.9e-06   28.6   0.3     4   120   239   365   237   383 0.83 -
ID=PSME_00025177     -            424 109071at3193         -            320   1.2e-11   45.7   0.7   3   3     0.059        42    4.5   0.0    41    71   384   414   368   420 0.85 -
ID=PSME_00013498     -            255 109071at3193         -            320   1.7e-11   45.2   0.2   1   3   2.7e-08   1.9e-05   25.3   0.1    33   116    37   119    26   130 0.85 -
ID=PSME_00013498     -            255 109071at3193         -            320   1.7e-11   45.2   0.2   2   3      0.02        14    6.0   0.0   164   200   137   173   129   183 0.85 -
ID=PSME_00013498     -            255 109071at3193         -            320   1.7e-11   45.2   0.2   3   3   0.00078      0.56   10.7   0.0    83   141   188   246   176   252 0.73 -
ID=PSME_00038130     -            305 109071at3193         -            320   1.8e-11   45.1   4.2   1   4      0.25   1.8e+02    2.4   0.0    90   115     9    34     3    43 0.60 -
ID=PSME_00038130     -            305 109071at3193         -            320   1.8e-11   45.1   4.2   2   4   0.00014       0.1   13.1   0.3    42   124    62   143    50   159 0.76 -
ID=PSME_00038130     -            305 109071at3193         -            320   1.8e-11   45.1   4.2   3   4     1e-07   7.4e-05   23.4   0.1    36   116   167   247   160   255 0.92 -
ID=PSME_00038130     -            305 109071at3193         -            320   1.8e-11   45.1   4.2   4   4    0.0082       5.8    7.3   0.0    19    71   234   299   233   303 0.71 -
ID=PSME_00056795     -            316 109071at3193         -            320   2.7e-11   44.5   2.8   1   4     0.058        41    4.5   0.0    94   118     6    34     2    51 0.64 -
ID=PSME_00056795     -            316 109071at3193         -            320   2.7e-11   44.5   2.8   2   4     7e-09     5e-06   27.3   0.1    31   129    66   164    53   175 0.87 -
ID=PSME_00056795     -            316 109071at3193         -            320   2.7e-11   44.5   2.8   3   4     0.031        22    5.4   0.5   168   255   174   249   165   255 0.62 -
ID=PSME_00056795     -            316 109071at3193         -            320   2.7e-11   44.5   2.8   4   4      0.11        78    3.6   0.0   166   203   271   308   267   314 0.87 -
ID=PSME_00031105     -            313 109071at3193         -            320   2.8e-11   44.5   2.0   1   3   1.1e-06    0.0008   20.0   0.2    43   205     9   158     5   158 0.79 -
ID=PSME_00031105     -            313 109071at3193         -            320   2.8e-11   44.5   2.0   2   3   2.8e-08     2e-05   25.3   0.5    28   123   112   206    87   235 0.79 -
ID=PSME_00031105     -            313 109071at3193         -            320   2.8e-11   44.5   2.0   3   3      0.44   3.1e+02    1.6   0.0    41    81   244   284   231   291 0.89 -
ID=PSME_00016801     -            471 109071at3193         -            320   3.5e-11   44.2   1.8   1   2   4.5e-12   3.2e-09   37.7   0.0     9   132    75   205    67   214 0.85 -
ID=PSME_00016801     -            471 109071at3193         -            320   3.5e-11   44.2   1.8   2   2     0.083        59    4.0   0.4   222   256   253   287   207   292 0.66 -
ID=PSME_00042455     -            700 109071at3193         -            320   5.5e-11   43.5   0.6   1   2   9.5e-09   6.7e-06   26.8   0.1     6   129   448   580   443   585 0.80 -
ID=PSME_00042455     -            700 109071at3193         -            320   5.5e-11   43.5   0.6   2   2   3.2e-05     0.023   15.2   0.0    42   123   586   668   579   682 0.80 -
ID=PSME_00002056     -            335 109071at3193         -            320   8.9e-11   42.9   0.1   1   2   1.9e-09   1.4e-06   29.1   0.0     5   116    39   163    34   174 0.78 -
ID=PSME_00002056     -            335 109071at3193         -            320   8.9e-11   42.9   0.1   2   2    0.0013       0.9   10.0   0.0    37   109   178   257   169   277 0.75 -
ID=PSME_00001431     -            201 109071at3193         -            320   1.7e-10   42.0   1.3   1   3    0.0017       1.2    9.6   0.1    91   117     1    27     1    41 0.89 -
ID=PSME_00001431     -            201 109071at3193         -            320   1.7e-10   42.0   1.3   2   3     4e-10   2.8e-07   31.4   0.1    41   124    43   125    34   155 0.82 -
ID=PSME_00001431     -            201 109071at3193         -            320   1.7e-10   42.0   1.3   3   3       3.6   2.5e+03   -1.4   0.0    31    82   137   191   127   197 0.61 -
ID=PSME_00044113     -            213 109071at3193         -            320   2.3e-10   41.5   0.1   1   2   7.2e-10   5.1e-07   30.5   0.0    12   119    31   149    21   165 0.76 -
ID=PSME_00044113     -            213 109071at3193         -            320   2.3e-10   41.5   0.1   2   2     0.005       3.6    8.0   0.0   165   205   165   205   162   211 0.87 -
ID=PSME_00015746     -            476 109071at3193         -            320   2.9e-10   41.2   8.1   1   3   9.1e-05     0.065   13.7   0.1    96   208   134   261   125   271 0.72 -
ID=PSME_00015746     -            476 109071at3193         -            320   2.9e-10   41.2   8.1   2   3     0.029        21    5.5   0.0    90   124   275   309   263   331 0.82 -
ID=PSME_00015746     -            476 109071at3193         -            320   2.9e-10   41.2   8.1   3   3   8.1e-07   0.00058   20.5   1.7   169   318   333   467   317   470 0.72 -
ID=PSME_00025366     -            302 109071at3193         -            320   9.5e-10   39.5   7.9   1   3   2.6e-10   1.8e-07   32.0   0.0     9   117    23   146    17   158 0.79 -
ID=PSME_00025366     -            302 109071at3193         -            320   9.5e-10   39.5   7.9   2   3       0.1        73    3.7   0.1   166   187   163   184   158   205 0.88 -
ID=PSME_00025366     -            302 109071at3193         -            320   9.5e-10   39.5   7.9   3   3      0.44   3.1e+02    1.6   2.4   165   198   256   289   209   296 0.56 -
ID=PSME_00009587     -            173 109071at3193         -            320   1.5e-09   38.8   0.1   1   2   4.1e-10   2.9e-07   31.3   0.0    35   118    10   103     5   120 0.78 -
ID=PSME_00009587     -            173 109071at3193         -            320   1.5e-09   38.8   0.1   2   2     0.027        19    5.6   0.0    40    71   132   163   124   169 0.76 -
ID=PSME_00023271     -            315 109071at3193         -            320   3.1e-09   37.8   0.2   1   2   1.8e-09   1.3e-06   29.2   0.0     5   119   126   251   122   263 0.79 -
ID=PSME_00023271     -            315 109071at3193         -            320   3.1e-09   37.8   0.2   2   2     0.026        19    5.6   0.0   166   205   268   307   265   313 0.79 -
ID=PSME_00032687     -            231 109071at3193         -            320   3.6e-09   37.6   0.3   1   3     0.034        24    5.3   0.0    89   119    22    52     9    83 0.73 -
ID=PSME_00032687     -            231 109071at3193         -            320   3.6e-09   37.6   0.3   2   3   2.5e-08   1.8e-05   25.4   0.0    39   119    88   167    61   182 0.85 -
ID=PSME_00032687     -            231 109071at3193         -            320   3.6e-09   37.6   0.3   3   3     0.088        63    3.9   0.1   166   203   184   221   180   229 0.73 -
ID=PSME_00036175     -            305 109071at3193         -            320   5.2e-09   37.1   0.1   1   3      0.11        77    3.6   0.0    89   115   112   138    95   170 0.69 -
ID=PSME_00036175     -            305 109071at3193         -            320   5.2e-09   37.1   0.1   2   3   5.6e-08     4e-05   24.3   0.0    39   119   175   254   144   258 0.85 -
ID=PSME_00036175     -            305 109071at3193         -            320   5.2e-09   37.1   0.1   3   3      0.02        14    6.0   0.0   165   205   258   298   254   304 0.81 -
ID=PSME_00030901     -            547 109071at3193         -            320   6.1e-09   36.8   0.5   1   3     0.003       2.1    8.7   0.0    41   128   207   297   199   305 0.83 -
ID=PSME_00030901     -            547 109071at3193         -            320   6.1e-09   36.8   0.5   2   3   6.3e-08   4.5e-05   24.1   0.1    37   123   315   398   306   433 0.80 -
ID=PSME_00030901     -            547 109071at3193         -            320   6.1e-09   36.8   0.5   3   3       1.4     1e+03   -0.0   0.0    37    70   421   454   417   460 0.85 -
ID=PSME_00004664     -            290 109071at3193         -            320   6.1e-09   36.8   1.8   1   5     0.021        15    6.0   0.0    87   119    29    61    13    79 0.77 -
ID=PSME_00004664     -            290 109071at3193         -            320   6.1e-09   36.8   1.8   2   5   3.8e-06    0.0027   18.3   0.0    80   116    80   117    59   129 0.79 -
ID=PSME_00004664     -            290 109071at3193         -            320   6.1e-09   36.8   1.8   3   5      0.12        85    3.5   0.0   164   200   135   171   127   181 0.84 -
ID=PSME_00004664     -            290 109071at3193         -            320   6.1e-09   36.8   1.8   4   5     0.093        66    3.9   0.0    89   121   192   224   191   244 0.80 -
ID=PSME_00004664     -            290 109071at3193         -            320   6.1e-09   36.8   1.8   5   5      0.75   5.3e+02    0.9   0.0   167   186   241   260   235   261 0.85 -
ID=PSME_00028062     -            328 109071at3193         -            320   6.2e-09   36.8   3.3   1   4     0.018        13    6.2   0.0    89   117    25    53    10    58 0.84 -
ID=PSME_00028062     -            328 109071at3193         -            320   6.2e-09   36.8   3.3   2   4   1.8e-05     0.013   16.0   0.1    36   117    68   148    59   163 0.81 -
ID=PSME_00028062     -            328 109071at3193         -            320   6.2e-09   36.8   3.3   3   4   0.00037      0.26   11.7   0.0    35   121   162   250   158   274 0.80 -
ID=PSME_00028062     -            328 109071at3193         -            320   6.2e-09   36.8   3.3   4   4       1.3     9e+02    0.1   0.0   167   185   267   285   262   287 0.82 -
ID=PSME_00003964     -            208 109071at3193         -            320   8.9e-09   36.3   0.0   1   3   0.00013     0.094   13.2   0.0    82   129     8    55     2    59 0.85 -
ID=PSME_00003964     -            208 109071at3193         -            320   8.9e-09   36.3   0.0   2   3    0.0042         3    8.3   0.0    26    71    46    90    44   103 0.88 -
ID=PSME_00003964     -            208 109071at3193         -            320   8.9e-09   36.3   0.0   3   3     4e-05     0.029   14.9   0.0     7    79   107   189   101   199 0.76 -
ID=PSME_00013496     -            201 109071at3193         -            320   9.1e-09   36.3   2.8   1   4   0.00028       0.2   12.1   0.1    90   115     1    27     1    40 0.87 -
ID=PSME_00013496     -            201 109071at3193         -            320   9.1e-09   36.3   2.8   2   4   0.00069      0.49   10.9   0.0   164   207    46    89    38   100 0.88 -
ID=PSME_00013496     -            201 109071at3193         -            320   9.1e-09   36.3   2.8   3   4    0.0018       1.3    9.5   0.0    88   118   102   132    90   146 0.85 -
ID=PSME_00013496     -            201 109071at3193         -            320   9.1e-09   36.3   2.8   4   4      0.37   2.6e+02    1.9   0.0   167   186   152   171   142   173 0.84 -
ID=PSME_00009586     -            192 109071at3193         -            320   9.3e-09   36.2   0.2   1   2   1.1e-06   0.00081   20.0   0.0    47   118     8    77     3    94 0.83 -
ID=PSME_00009586     -            192 109071at3193         -            320   9.3e-09   36.2   0.2   2   2   6.3e-05     0.045   14.3   0.1   165   254   103   184    99   192 0.81 -
ID=PSME_00030615     -            226 109071at3193         -            320   2.5e-07   31.5   0.0   1   2   6.4e-08   4.6e-05   24.1   0.0    39   120    83   163    52   178 0.83 -
ID=PSME_00030615     -            226 109071at3193         -            320   2.5e-07   31.5   0.0   2   2     0.027        19    5.6   0.0   165   205   178   218   175   224 0.87 -
ID=PSME_00021389     -            591 109071at3193         -            320   2.5e-07   31.5   0.5   1   2     2e-06    0.0014   19.2   0.0    30   116   155   244   117   252 0.76 -
ID=PSME_00021389     -            591 109071at3193         -            320   2.5e-07   31.5   0.5   2   2    0.0022       1.6    9.2   0.0   165   250   257   338   247   345 0.79 -
ID=PSME_00003665     -            384 109071at3193         -            320   3.3e-07   31.1   1.0   1   3   7.1e-06     0.005   17.4   0.1    43   119   124   201   109   214 0.83 -
ID=PSME_00003665     -            384 109071at3193         -            320   3.3e-07   31.1   1.0   2   3   0.00055      0.39   11.2   0.0   165   256   221   322   203   328 0.64 -
ID=PSME_00003665     -            384 109071at3193         -            320   3.3e-07   31.1   1.0   3   3       2.6   1.9e+03   -0.9   0.0    37    71   340   374   333   379 0.80 -
ID=PSME_00002366     -            338 109071at3193         -            320   1.3e-06   29.2   6.9   1   3    0.0078       5.5    7.4   1.0   140   240    54   166    34   168 0.67 -
ID=PSME_00002366     -            338 109071at3193         -            320   1.3e-06   29.2   6.9   2   3   1.3e-07   9.3e-05   23.1   0.1     6   116   154   274   149   280 0.82 -
ID=PSME_00002366     -            338 109071at3193         -            320   1.3e-06   29.2   6.9   3   3      0.18   1.3e+02    2.9   0.2   165   198   290   326   276   332 0.68 -
ID=PSME_00054673     -            318 109071at3193         -            320   1.3e-06   29.1   3.9   1   5     0.027        19    5.6   0.0    86   119    28    61    13    74 0.78 -
ID=PSME_00054673     -            318 109071at3193         -            320   1.3e-06   29.1   3.9   2   5   0.00076      0.54   10.7   0.3    14   108    40   145    29   153 0.71 -
ID=PSME_00054673     -            318 109071at3193         -            320   1.3e-06   29.1   3.9   3   5     0.085        60    4.0   0.0   164   199   163   198   155   209 0.82 -
ID=PSME_00054673     -            318 109071at3193         -            320   1.3e-06   29.1   3.9   4   5    0.0052       3.7    8.0   0.0    88   121   219   252   205   272 0.81 -
ID=PSME_00054673     -            318 109071at3193         -            320   1.3e-06   29.1   3.9   5   5       1.8   1.3e+03   -0.4   0.1   167   186   269   288   261   291 0.82 -
ID=PSME_00031339     -            175 109071at3193         -            320   1.4e-06   29.0   0.0   1   2   2.4e-07   0.00017   22.2   0.0    37   118    14   105     8   130 0.77 -
ID=PSME_00031339     -            175 109071at3193         -            320   1.4e-06   29.0   0.0   2   2     0.043        31    5.0   0.0    40    72   134   166   124   171 0.78 -
ID=PSME_00040188     -            478 109071at3193         -            320   1.5e-06   29.0   0.2   1   2   1.5e-07   0.00011   22.9   0.1    18   116    76   187    59   196 0.74 -
ID=PSME_00040188     -            478 109071at3193         -            320   1.5e-06   29.0   0.2   2   2     0.095        68    3.8   0.0    39   108   204   275   196   321 0.75 -
ID=PSME_00033737     -            363 109071at3193         -            320   1.5e-06   28.9   3.0   1   3     0.006       4.3    7.8   0.3    11   119    54   176    44   190 0.71 -
ID=PSME_00033737     -            363 109071at3193         -            320   1.5e-06   28.9   3.0   2   3   1.2e-06   0.00083   20.0   0.0    32   121   200   285   192   299 0.83 -
ID=PSME_00033737     -            363 109071at3193         -            320   1.5e-06   28.9   3.0   3   3       3.9   2.8e+03   -1.5   0.1    41    71   314   344   306   350 0.67 -
ID=PSME_00011611     -            344 109071at3193         -            320   1.5e-06   28.9  12.7   1   3   1.1e-05    0.0077   16.8   3.4    10   119    34   157    27   171 0.72 -
ID=PSME_00011611     -            344 109071at3193         -            320   1.5e-06   28.9  12.7   2   3    0.0001     0.072   13.6   0.4    37   132   177   287   171   292 0.63 -
ID=PSME_00011611     -            344 109071at3193         -            320   1.5e-06   28.9  12.7   3   3      0.48   3.4e+02    1.5   0.0   292   315   299   322   292   326 0.81 -
ID=PSME_00027733     -            345 109071at3193         -            320   3.1e-06   27.9   7.2   1   4     0.016        11    6.4   0.1    89   114    38    63    33    77 0.86 -
ID=PSME_00027733     -            345 109071at3193         -            320   3.1e-06   27.9   7.2   2   4      0.21   1.5e+02    2.7   0.1   167   202    79   115    68   122 0.83 -
ID=PSME_00027733     -            345 109071at3193         -            320   3.1e-06   27.9   7.2   3   4   2.3e-05     0.017   15.7   0.8   129   262   143   272   134   313 0.74 -
ID=PSME_00027733     -            345 109071at3193         -            320   3.1e-06   27.9   7.2   4   4      0.12        88    3.4   0.2    35    70   291   326   250   338 0.81 -
ID=PSME_00004669     -            331 109071at3193         -            320   4.3e-06   27.5   1.9   1   4     6e-05     0.043   14.3   0.1    35   116    77   158    43   171 0.83 -
ID=PSME_00004669     -            331 109071at3193         -            320   4.3e-06   27.5   1.9   2   4      0.13        96    3.3   0.0   164   200   176   212   168   223 0.85 -
ID=PSME_00004669     -            331 109071at3193         -            320   4.3e-06   27.5   1.9   3   4     0.018        13    6.2   0.0    88   119   232   263   217   284 0.80 -
ID=PSME_00004669     -            331 109071at3193         -            320   4.3e-06   27.5   1.9   4   4       2.5   1.8e+03   -0.8   0.0   166   186   281   301   272   302 0.83 -
ID=PSME_00052038     -            173 109071at3193         -            320   5.2e-06   27.2   0.0   1   2   8.7e-07   0.00062   20.4   0.0    40   118    15   103     7   127 0.76 -
ID=PSME_00052038     -            173 109071at3193         -            320   5.2e-06   27.2   0.0   2   2     0.043        31    4.9   0.0    40    72   132   164   123   169 0.78 -
ID=PSME_00015988     -            392 109071at3193         -            320   1.3e-05   25.9   2.5   1   3     0.001      0.73   10.3   0.1    41   119    56   137     7   144 0.79 -
ID=PSME_00015988     -            392 109071at3193         -            320   1.3e-05   25.9   2.5   2   3   0.00014     0.099   13.1   0.0   165   250   147   228   143   236 0.84 -
ID=PSME_00015988     -            392 109071at3193         -            320   1.3e-05   25.9   2.5   3   3     0.058        41    4.5   0.2    16    75   219   283   218   288 0.81 -
ID=PSME_00040798     -            427 109071at3193         -            320   1.7e-05   25.5  10.4   1   3   0.00098       0.7   10.3   3.4     8   119    98   226    93   245 0.62 -
ID=PSME_00040798     -            427 109071at3193         -            320   1.7e-05   25.5  10.4   2   3   5.9e-06    0.0042   17.6   0.0    40   127   245   344   236   350 0.73 -
ID=PSME_00040798     -            427 109071at3193         -            320   1.7e-05   25.5  10.4   3   3      0.44   3.2e+02    1.6   0.1   164   202   344   382   334   395 0.76 -
ID=PSME_00042650     -            127 109071at3193         -            320   3.9e-05   24.3   0.0   1   2     9e-05     0.064   13.8   0.0    60   120     5    64     1    79 0.80 -
ID=PSME_00042650     -            127 109071at3193         -            320   3.9e-05   24.3   0.0   2   2    0.0023       1.7    9.1   0.0   166   206    80   120    77   126 0.84 -
ID=PSME_00017763     -            199 109071at3193         -            320   4.6e-05   24.1   5.9   1   2   4.5e-07   0.00032   21.3   1.4    38   118    49   143    41   161 0.71 -
ID=PSME_00017763     -            199 109071at3193         -            320   4.6e-05   24.1   5.9   2   2     0.069        49    4.3   0.2   155   201   146   193   143   198 0.64 -
ID=PSME_00000346     -            433 109071at3193         -            320   7.8e-05   23.3   2.0   1   2      0.35   2.5e+02    2.0   0.0    10    51    50    89    36   154 0.73 -
ID=PSME_00000346     -            433 109071at3193         -            320   7.8e-05   23.3   2.0   2   2   2.9e-06    0.0021   18.6   1.9    41   139   252   347   194   357 0.86 -
ID=PSME_00004668     -            282 109071at3193         -            320   0.00012   22.8   2.5   1   5      0.14        99    3.3   0.0    94   118     1    25     1    37 0.88 -
ID=PSME_00004668     -            282 109071at3193         -            320   0.00012   22.8   2.5   2   5    0.0025       1.8    9.0   0.1    37   108    39   110    28   122 0.86 -
ID=PSME_00004668     -            282 109071at3193         -            320   0.00012   22.8   2.5   3   5      0.33   2.3e+02    2.1   0.0   165   201   153   189   144   199 0.84 -
ID=PSME_00004668     -            282 109071at3193         -            320   0.00012   22.8   2.5   4   5     0.052        37    4.7   0.0    88   127   208   247   195   265 0.80 -
ID=PSME_00004668     -            282 109071at3193         -            320   0.00012   22.8   2.5   5   5       3.5   2.5e+03   -1.3   0.0   167   186   258   277   249   278 0.84 -
ID=PSME_00040065     -            403 109071at3193         -            320   0.00017   22.2   2.7   1   4       1.2   8.3e+02    0.2   0.0     8    38    98   128    92   142 0.76 -
ID=PSME_00040065     -            403 109071at3193         -            320   0.00017   22.2   2.7   2   4       1.6   1.1e+03   -0.2   0.0   166   186   145   165   142   182 0.89 -
ID=PSME_00040065     -            403 109071at3193         -            320   0.00017   22.2   2.7   3   4   3.6e-06    0.0025   18.4   0.1    41   125   254   336   239   348 0.86 -
ID=PSME_00040065     -            403 109071at3193         -            320   0.00017   22.2   2.7   4   4       1.7   1.2e+03   -0.3   0.0   166   194   344   372   338   386 0.79 -
ID=PSME_00001863     -            380 109071at3193         -            320   0.00018   22.2   3.5   1   4      0.45   3.2e+02    1.6   0.0     7    32     9    34     4    47 0.74 -
ID=PSME_00001863     -            380 109071at3193         -            320   0.00018   22.2   3.5   2   4    0.0006      0.43   11.0   0.5    36   120    67   158    46   172 0.77 -
ID=PSME_00001863     -            380 109071at3193         -            320   0.00018   22.2   3.5   3   4     0.067        48    4.3   0.0    41   117   220   300   212   316 0.78 -
ID=PSME_00001863     -            380 109071at3193         -            320   0.00018   22.2   3.5   4   4      0.32   2.3e+02    2.1   0.0   166   203   320   357   313   374 0.73 -
ID=PSME_00007114     -            194 109071at3193         -            320   0.00034   21.2   0.1   1   3     0.001      0.71   10.3   0.0    37    76    25    64    18    76 0.81 -
ID=PSME_00007114     -            194 109071at3193         -            320   0.00034   21.2   0.1   2   3    0.0081       5.8    7.3   0.0    76   120    97   141    89   154 0.84 -
ID=PSME_00007114     -            194 109071at3193         -            320   0.00034   21.2   0.1   3   3       1.6   1.1e+03   -0.2   0.0    42    75   157   190   149   193 0.66 -
ID=PSME_00053523     -            145 109071at3193         -            320   0.00054   20.6   0.0   1   2   2.3e-05     0.017   15.7   0.0    59   122     4    72     1    97 0.84 -
ID=PSME_00053523     -            145 109071at3193         -            320   0.00054   20.6   0.0   2   2      0.14        96    3.3   0.0    39    71   100   132    91   137 0.86 -
ID=PSME_00011839     -            390 109071at3193         -            320   0.00077   20.1   4.2   1   4      0.11        81    3.6   0.0    91   117     9    35     1    56 0.69 -
ID=PSME_00011839     -            390 109071at3193         -            320   0.00077   20.1   4.2   2   4    0.0041       2.9    8.3   0.1   165   228    65   128    55   138 0.74 -
ID=PSME_00011839     -            390 109071at3193         -            320   0.00077   20.1   4.2   3   4      0.72   5.1e+02    0.9   0.0    83   121   286   324   252   340 0.68 -
ID=PSME_00011839     -            390 109071at3193         -            320   0.00077   20.1   4.2   4   4      0.07        50    4.3   0.1    39    68   341   370   297   386 0.68 -
ID=PSME_00042388     -            257 109071at3193         -            320    0.0008   20.0   0.0   1   3       2.6   1.9e+03   -0.9   0.0   102   116     5    19     1    26 0.82 -
ID=PSME_00042388     -            257 109071at3193         -            320    0.0008   20.0   0.0   2   3   0.00023      0.16   12.4   0.0   165   207    39    81    32    89 0.90 -
ID=PSME_00042388     -            257 109071at3193         -            320    0.0008   20.0   0.0   3   3     0.063        45    4.4   0.0    89   115    92   118    84   135 0.86 -
ID=PSME_00024109     -            467 109071at3193         -            320    0.0011   19.6   2.6   1   4       1.4   9.7e+02    0.0   0.0     8    38    96   126    90   142 0.76 -
ID=PSME_00024109     -            467 109071at3193         -            320    0.0011   19.6   2.6   2   4      0.74   5.3e+02    0.9   0.0   168   186   145   163   141   183 0.83 -
ID=PSME_00024109     -            467 109071at3193         -            320    0.0011   19.6   2.6   3   4   3.3e-05     0.023   15.2   0.2    39   122   250   331   238   344 0.83 -
ID=PSME_00024109     -            467 109071at3193         -            320    0.0011   19.6   2.6   4   4       1.9   1.4e+03   -0.5   0.0   165   194   341   370   323   384 0.73 -
ID=PSME_00005680     -            372 109071at3193         -            320    0.0011   19.6   0.6   1   3       0.9   6.4e+02    0.6   0.0     8    38    96   126    90   147 0.75 -
ID=PSME_00005680     -            372 109071at3193         -            320    0.0011   19.6   0.6   2   3   3.6e-05     0.026   15.1   0.3    40   122   224   304   210   319 0.86 -
ID=PSME_00005680     -            372 109071at3193         -            320    0.0011   19.6   0.6   3   3       1.3   9.1e+02    0.1   0.0   165   195   314   344   297   358 0.77 -
ID=PSME_00037055     -            124 109071at3193         -            320    0.0012   19.4   0.1   1   2       2.7   1.9e+03   -1.0   0.0   266   290    33    57    17    62 0.77 -
ID=PSME_00037055     -            124 109071at3193         -            320    0.0012   19.4   0.1   2   2   3.5e-06    0.0025   18.4   0.0   166   205    63   102    44   112 0.78 -
ID=PSME_00005681     -            464 109071at3193         -            320    0.0012   19.4   2.5   1   4       1.2   8.5e+02    0.2   0.0     8    38    95   125    89   144 0.75 -
ID=PSME_00005681     -            464 109071at3193         -            320    0.0012   19.4   2.5   2   4       1.8   1.3e+03   -0.4   0.0   168   186   144   162   140   180 0.84 -
ID=PSME_00005681     -            464 109071at3193         -            320    0.0012   19.4   2.5   3   4   2.1e-05     0.015   15.8   0.2    40   122   250   330   237   342 0.86 -
ID=PSME_00005681     -            464 109071at3193         -            320    0.0012   19.4   2.5   4   4       1.9   1.4e+03   -0.5   0.0   165   194   340   369   322   383 0.74 -
ID=PSME_00045362     -            103 109071at3193         -            320    0.0012   19.4   0.1   1   2    0.0019       1.3    9.4   0.1    88   118     8    38     2    56 0.67 -
ID=PSME_00045362     -            103 109071at3193         -            320    0.0012   19.4   0.1   2   2    0.0033       2.3    8.6   0.0   165   206    55    96    51   102 0.88 -
ID=PSME_00048882     -            176 109071at3193         -            320    0.0013   19.3   0.1   1   3      0.22   1.5e+02    2.6   0.0    11    30    27    46    18    69 0.68 -
ID=PSME_00048882     -            176 109071at3193         -            320    0.0013   19.3   0.1   2   3     0.011         8    6.9   0.0    65   118    59   111    46   128 0.63 -
ID=PSME_00048882     -            176 109071at3193         -            320    0.0013   19.3   0.1   3   3     0.013       9.5    6.6   0.0   166   204   129   167   123   174 0.67 -
ID=PSME_00007049     -            472 109071at3193         -            320    0.0013   19.3   2.7   1   4       1.2   8.7e+02    0.2   0.0     8    38   102   132    96   151 0.75 -
ID=PSME_00007049     -            472 109071at3193         -            320    0.0013   19.3   2.7   2   4       1.8   1.3e+03   -0.4   0.0   168   186   151   169   147   188 0.83 -
ID=PSME_00007049     -            472 109071at3193         -            320    0.0013   19.3   2.7   3   4   1.9e-05     0.014   16.0   0.2    39   122   256   337   244   350 0.86 -
ID=PSME_00007049     -            472 109071at3193         -            320    0.0013   19.3   2.7   4   4       1.9   1.4e+03   -0.5   0.0   165   194   347   376   329   390 0.73 -
ID=PSME_00025565     -            179 109071at3193         -            320    0.0027   18.3   0.1   1   1   6.4e-06    0.0045   17.5   0.0    45   120    52   127    40   148 0.87 -
ID=PSME_00003822     -            158 109071at3193         -            320    0.0051   17.4   1.1   1   1   0.00011     0.079   13.4   1.1    87   205    27   150     2   156 0.75 -
ID=PSME_00020316     -            392 109071at3193         -            320    0.0065   17.0   2.4   1   4       2.3   1.6e+03   -0.7   0.0     9    38    94   123    87   141 0.71 -
ID=PSME_00020316     -            392 109071at3193         -            320    0.0065   17.0   2.4   2   4      0.58   4.1e+02    1.2   0.0   166   187   140   161   128   179 0.85 -
ID=PSME_00020316     -            392 109071at3193         -            320    0.0065   17.0   2.4   3   4   0.00018      0.13   12.8   0.2    41   121   249   327   240   338 0.85 -
ID=PSME_00020316     -            392 109071at3193         -            320    0.0065   17.0   2.4   4   4         2   1.4e+03   -0.5   0.0   165   202   338   374   320   381 0.69 -
ID=PSME_00048150     -            171 109071at3193         -            320     0.017   15.6   0.0   1   1   4.2e-05      0.03   14.8   0.0    87   124    50    87     7   103 0.88 -
ID=PSME_00040064     -            380 109071at3193         -            320     0.021   15.3   3.3   1   4       1.2   8.5e+02    0.2   0.0    12    38    93   119    83   137 0.72 -
ID=PSME_00040064     -            380 109071at3193         -            320     0.021   15.3   3.3   2   4      0.75   5.3e+02    0.9   0.0   166   186   136   156   132   175 0.86 -
ID=PSME_00040064     -            380 109071at3193         -            320     0.021   15.3   3.3   3   4   0.00044      0.31   11.5   0.2    41   123   245   325   234   339 0.80 -
ID=PSME_00040064     -            380 109071at3193         -            320     0.021   15.3   3.3   4   4       2.3   1.7e+03   -0.7   0.0   166   193   335   362   327   375 0.66 -
ID=PSME_00015252     -            108 109071at3193         -            320     0.034   14.7   0.1   1   1   7.8e-05     0.056   14.0   0.1    91   130    19    58     8    73 0.66 -
ID=PSME_00042314     -            370 109071at3193         -            320     0.048   14.2   0.9   1   1   0.00021      0.15   12.5   0.8    20   135    45   182    36   191 0.71 -
ID=PSME_00042155     -            565 109071at3193         -            320     0.094   13.2   9.9   1   5       4.8   3.4e+03   -1.8   0.0    10    38     8    36     4    56 0.73 -
ID=PSME_00042155     -            565 109071at3193         -            320     0.094   13.2   9.9   2   5     0.015        10    6.5   0.2    37    71   145   178   132   193 0.75 -
ID=PSME_00042155     -            565 109071at3193         -            320     0.094   13.2   9.9   3   5       2.8     2e+03   -1.0   0.0     9    38   336   365   329   384 0.69 -
ID=PSME_00042155     -            565 109071at3193         -            320     0.094   13.2   9.9   4   5       2.7     2e+03   -1.0   0.0   167   186   383   402   379   421 0.79 -
ID=PSME_00042155     -            565 109071at3193         -            320     0.094   13.2   9.9   5   5    0.0015       1.1    9.7   0.2    39    71   475   507   461   522 0.81 -
ID=PSME_00055299     -            102 109071at3193         -            320      0.11   13.0   0.1   1   1   0.00017      0.12   12.9   0.1     3    51    34    84    32   100 0.65 -
ID=PSME_00057081     -            101 109071at3193         -            320      0.72   10.3   0.5   1   1    0.0016       1.1    9.7   0.5    41    71    59    89    47    96 0.89 -
ID=PSME_00033239     -            215 109071at3193         -            320       3.7    8.0   2.9   1   3      0.86   6.2e+02    0.7   0.0    17    38    14    35     4    53 0.73 -
ID=PSME_00033239     -            215 109071at3193         -            320       3.7    8.0   2.9   2   3       1.1     8e+02    0.3   0.0   166   185    52    71    49    80 0.86 -
ID=PSME_00033239     -            215 109071at3193         -            320       3.7    8.0   2.9   3   3     0.037        26    5.2   0.4    41    68   135   162   123   175 0.90 -
#
# Program:         hmmsearch
# Version:         3.2.1 (June 2018)
# Pipeline mode:   SEARCH
# Query file:      /isg/shared/databases/BUSCO/odb10/embryophyta_odb10/hmms/109071at3193.hmm
# Target file:     /labs/Wegrzyn/ConiferGenomes/Psme/analysis/SURF_annotation/analyze_orig_maker/gfacs/filtered/maker_genes.fasta.faa
# Option settings: /usr/local/bin/hmmsearch --domtblout /labs/Wegrzyn/ConiferGenomes/Psme/analysis/SURF_annotation/analyze_orig_maker/busco/maker/run_embryophyta_odb10/hmmer_output/109071at3193.out --cpu 1 /isg/shared/databases/BUSCO/odb10/embryophyta_odb10/hmms/109071at3193.hmm /labs/Wegrzyn/ConiferGenomes/Psme/analysis/SURF_annotation/analyze_orig_maker/gfacs/filtered/maker_genes.fasta.faa 
# Current dir:     /labs/Wegrzyn/ConiferGenomes/Psme/analysis/SURF_annotation/analyze_orig_maker/busco
# Date:            Fri Jul 10 13:41:55 2020
# [ok]
