#                                                                            --- full sequence --- -------------- this domain -------------   hmm coord   ali coord   env coord
# target name        accession   tlen query name           accession   qlen   E-value  score  bias   #  of  c-Evalue  i-Evalue  score  bias  from    to  from    to  from    to  acc description of target
#------------------- ---------- ----- -------------------- ---------- ----- --------- ------ ----- --- --- --------- --------- ------ ----- ----- ----- ----- ----- ----- ----- ---- ---------------------
ID=PSME_00045908     -            639 109434at3193         -            325   8.7e-91  305.8  12.2   1   4   2.4e-18   1.2e-14   55.6   0.1     1    68     9    97     9   106 0.76 -
ID=PSME_00045908     -            639 109434at3193         -            325   8.7e-91  305.8  12.2   2   4   2.3e-15   1.1e-11   45.7   2.3    66   132   123   217   119   224 0.75 -
ID=PSME_00045908     -            639 109434at3193         -            325   8.7e-91  305.8  12.2   3   4   2.5e-35   1.3e-31  111.3   0.2   124   224   231   335   229   344 0.90 -
ID=PSME_00045908     -            639 109434at3193         -            325   8.7e-91  305.8  12.2   4   4   1.4e-29     7e-26   92.5   0.0   202   306   498   606   487   628 0.90 -
ID=PSME_00021029     -            193 109434at3193         -            325   5.7e-16   59.9   0.1   1   2       1.1   5.6e+03   -2.5   0.0   207   221    21    35    18    39 0.78 -
ID=PSME_00021029     -            193 109434at3193         -            325   5.7e-16   59.9   0.1   2   2   2.3e-19   1.2e-15   58.9   0.0   222   309    65   155    59   169 0.92 -
ID=PSME_00025127     -            467 109434at3193         -            325   8.4e-08   33.0   0.1   1   1   2.4e-11   1.2e-07   32.5   0.1   160   251   130   223   116   242 0.79 -
ID=PSME_00008852     -            274 109434at3193         -            325     3e-07   31.2   0.0   1   1   8.4e-11   4.2e-07   30.7   0.0   160   236    54   136    40   159 0.80 -
ID=PSME_00041005     -            392 109434at3193         -            325     1e-06   29.4   0.0   1   1   3.2e-10   1.6e-06   28.9   0.0    30    78   259   309   245   321 0.86 -
ID=PSME_00003876     -            398 109434at3193         -            325   2.1e-06   28.4   0.0   1   1   5.8e-10   2.9e-06   28.0   0.0   160   237   180   263   164   316 0.79 -
ID=PSME_00007207     -            385 109434at3193         -            325   2.2e-05   25.1   0.1   1   1   6.2e-09   3.1e-05   24.6   0.1   160   249   182   278   165   303 0.82 -
ID=PSME_00033512     -            376 109434at3193         -            325   2.3e-05   25.0   0.0   1   1   6.4e-09   3.2e-05   24.6   0.0   160   236   156   238   143   264 0.81 -
ID=PSME_00008853     -            287 109434at3193         -            325   3.9e-05   24.3   0.1   1   1   1.1e-08   5.3e-05   23.8   0.1   160   236    67   149    54   178 0.81 -
ID=PSME_00006657     -            119 109434at3193         -            325    0.0021   18.6   0.2   1   1   4.6e-07    0.0023   18.5   0.2   179   233    18    80     5   108 0.72 -
ID=PSME_00027591     -            349 109434at3193         -            325     0.021   15.3   0.0   1   1   5.5e-06     0.027   14.9   0.0   146   234   102   197    81   264 0.71 -
#
# Program:         hmmsearch
# Version:         3.2.1 (June 2018)
# Pipeline mode:   SEARCH
# Query file:      /isg/shared/databases/BUSCO/odb10/embryophyta_odb10/hmms/109434at3193.hmm
# Target file:     /labs/Wegrzyn/ConiferGenomes/Psme/analysis/SURF_annotation/analyze_orig_maker/gfacs/filtered/maker_genes.fasta.faa
# Option settings: /usr/local/bin/hmmsearch --domtblout /labs/Wegrzyn/ConiferGenomes/Psme/analysis/SURF_annotation/analyze_orig_maker/busco/maker/run_embryophyta_odb10/hmmer_output/109434at3193.out --cpu 1 /isg/shared/databases/BUSCO/odb10/embryophyta_odb10/hmms/109434at3193.hmm /labs/Wegrzyn/ConiferGenomes/Psme/analysis/SURF_annotation/analyze_orig_maker/gfacs/filtered/maker_genes.fasta.faa 
# Current dir:     /labs/Wegrzyn/ConiferGenomes/Psme/analysis/SURF_annotation/analyze_orig_maker/busco
# Date:            Fri Jul 10 13:41:45 2020
# [ok]
