#                                                                            --- full sequence --- -------------- this domain -------------   hmm coord   ali coord   env coord
# target name        accession   tlen query name           accession   qlen   E-value  score  bias   #  of  c-Evalue  i-Evalue  score  bias  from    to  from    to  from    to  acc description of target
#------------------- ---------- ----- -------------------- ---------- ----- --------- ------ ----- --- --- --------- --------- ------ ----- ----- ----- ----- ----- ----- ----- ---- ---------------------
ID=PSME_00050835     -            379 109987at3193         -            304  2.6e-106  356.8   8.8   1   3   3.2e-05      0.35   11.6   0.0    46    82     3    39     3    75 0.70 -
ID=PSME_00050835     -            379 109987at3193         -            304  2.6e-106  356.8   8.8   2   3  2.7e-104    3e-100  336.9   4.6    78   279    87   301    69   310 0.92 -
ID=PSME_00050835     -            379 109987at3193         -            304  2.6e-106  356.8   8.8   3   3   0.00017       1.9    9.2   0.0   273   296   316   339   300   345 0.76 -
ID=PSME_00000612     -            658 109987at3193         -            304   2.9e-64  218.7   3.6   1   2     7e-10   7.7e-06   26.9   0.0    19    71    37    88    23   132 0.71 -
ID=PSME_00000612     -            658 109987at3193         -            304   2.9e-64  218.7   3.6   2   2   1.1e-59   1.2e-55  190.4   2.9   106   284   164   351   139   372 0.84 -
ID=PSME_00011807     -            246 109987at3193         -            304   4.8e-45  155.6   2.6   1   1   5.5e-49     6e-45  155.3   2.6   106   220   107   225    74   239 0.88 -
ID=PSME_00053068     -            148 109987at3193         -            304   7.9e-07   30.1   0.6   1   1   8.8e-11   9.6e-07   29.9   0.6   205   284     8    92     4   120 0.72 -
ID=PSME_00023992     -            419 109987at3193         -            304     1e-05   26.5   0.5   1   2   9.1e-10     1e-05   26.5   0.5   208   284    59   142    45   163 0.71 -
ID=PSME_00023992     -            419 109987at3193         -            304     1e-05   26.5   0.5   2   2         2   2.2e+04   -4.2   0.1    61    83   373   395   370   403 0.72 -
#
# Program:         hmmsearch
# Version:         3.2.1 (June 2018)
# Pipeline mode:   SEARCH
# Query file:      /isg/shared/databases/BUSCO/odb10/embryophyta_odb10/hmms/109987at3193.hmm
# Target file:     /labs/Wegrzyn/ConiferGenomes/Psme/analysis/SURF_annotation/analyze_orig_maker/gfacs/filtered/maker_genes.fasta.faa
# Option settings: /usr/local/bin/hmmsearch --domtblout /labs/Wegrzyn/ConiferGenomes/Psme/analysis/SURF_annotation/analyze_orig_maker/busco/maker/run_embryophyta_odb10/hmmer_output/109987at3193.out --cpu 1 /isg/shared/databases/BUSCO/odb10/embryophyta_odb10/hmms/109987at3193.hmm /labs/Wegrzyn/ConiferGenomes/Psme/analysis/SURF_annotation/analyze_orig_maker/gfacs/filtered/maker_genes.fasta.faa 
# Current dir:     /labs/Wegrzyn/ConiferGenomes/Psme/analysis/SURF_annotation/analyze_orig_maker/busco
# Date:            Fri Jul 10 13:41:46 2020
# [ok]
