#                                                                            --- full sequence --- -------------- this domain -------------   hmm coord   ali coord   env coord
# target name        accession   tlen query name           accession   qlen   E-value  score  bias   #  of  c-Evalue  i-Evalue  score  bias  from    to  from    to  from    to  acc description of target
#------------------- ---------- ----- -------------------- ---------- ----- --------- ------ ----- --- --- --------- --------- ------ ----- ----- ----- ----- ----- ----- ----- ---- ---------------------
ID=PSME_00027590     -            318 110810at3193         -            273     2e-17   65.0   7.4   1   3      0.14        42    4.9   0.0    17   269    25    51    11    55 0.59 -
ID=PSME_00027590     -            318 110810at3193         -            273     2e-17   65.0   7.4   2   3    0.0072       2.1    9.2   0.1    10    43    64    98    55   101 0.82 -
ID=PSME_00027590     -            318 110810at3193         -            273     2e-17   65.0   7.4   3   3   6.4e-14   1.9e-11   45.4   2.5     5   182   101   305    98   316 0.76 -
ID=PSME_00024193     -           1216 110810at3193         -            273   1.2e-16   62.5   6.6   1   4   2.7e-05    0.0077   17.2   0.1   205   269    54   121    32   125 0.80 -
ID=PSME_00024193     -           1216 110810at3193         -            273   1.2e-16   62.5   6.6   2   4   2.4e-05    0.0068   17.3   0.1     7    51   127   174   123   180 0.83 -
ID=PSME_00024193     -           1216 110810at3193         -            273   1.2e-16   62.5   6.6   3   4    0.0051       1.5    9.7   0.0    10    44   199   234   192   240 0.88 -
ID=PSME_00024193     -           1216 110810at3193         -            273   1.2e-16   62.5   6.6   4   4   2.6e-05    0.0074   17.2   0.2     8    51   241   285   236   300 0.85 -
ID=PSME_00007745     -            817 110810at3193         -            273   1.5e-16   62.1   0.3   1   2   1.9e-09   5.4e-07   30.8   0.1     8    80   111   191   106   197 0.82 -
ID=PSME_00007745     -            817 110810at3193         -            273   1.5e-16   62.1   0.3   2   2    0.0013      0.37   11.6   0.0    12    68   199   256   193   268 0.89 -
ID=PSME_00014453     -            610 110810at3193         -            273   1.5e-16   62.1   5.7   1   6         8   2.3e+03   -0.8   0.0   205   231   143   169   123   177 0.64 -
ID=PSME_00014453     -            610 110810at3193         -            273   1.5e-16   62.1   5.7   2   6   5.9e-09   1.7e-06   29.1   0.1    11    79   178   256   174   264 0.85 -
ID=PSME_00014453     -            610 110810at3193         -            273   1.5e-16   62.1   5.7   3   6   0.00056      0.16   12.8   0.0   166   269   333   448   304   452 0.77 -
ID=PSME_00014453     -            610 110810at3193         -            273   1.5e-16   62.1   5.7   4   6   3.5e-05      0.01   16.8   0.3    19    78   425   492   407   498 0.74 -
ID=PSME_00014453     -            610 110810at3193         -            273   1.5e-16   62.1   5.7   5   6     0.063        18    6.1   0.2     8    51   455   500   451   536 0.71 -
ID=PSME_00014453     -            610 110810at3193         -            273   1.5e-16   62.1   5.7   6   6    0.0011      0.33   11.8   0.0     7    45   538   577   532   603 0.81 -
ID=PSME_00003170     -            812 110810at3193         -            273   1.9e-16   61.8   0.1   1   3   5.3e-05     0.015   16.2   0.0     5    49    50    95    46    99 0.84 -
ID=PSME_00003170     -            812 110810at3193         -            273   1.9e-16   61.8   0.1   2   3   8.1e-09   2.3e-06   28.7   0.1     8    80    95   175    91   181 0.83 -
ID=PSME_00003170     -            812 110810at3193         -            273   1.9e-16   61.8   0.1   3   3   0.00057      0.16   12.8   0.0    12    69   183   241   179   247 0.88 -
ID=PSME_00051512     -           1207 110810at3193         -            273   1.1e-15   59.3   6.7   1   4   3.7e-05     0.011   16.7   0.0   205   269    54   121    31   125 0.79 -
ID=PSME_00051512     -           1207 110810at3193         -            273   1.1e-15   59.3   6.7   2   4   5.4e-05     0.016   16.1   0.1     8    52   128   175   123   182 0.83 -
ID=PSME_00051512     -           1207 110810at3193         -            273   1.1e-15   59.3   6.7   3   4    0.0071         2    9.2   0.0    10    45   199   235   192   241 0.88 -
ID=PSME_00051512     -           1207 110810at3193         -            273   1.1e-15   59.3   6.7   4   4   2.1e-05     0.006   17.5   0.3     8    52   241   286   236   299 0.85 -
ID=PSME_00015328     -            220 110810at3193         -            273   6.6e-15   56.7   1.2   1   3    0.0057       1.7    9.5   0.1   212   269    25    84     7    88 0.79 -
ID=PSME_00015328     -            220 110810at3193         -            273   6.6e-15   56.7   1.2   2   3    0.0013      0.38   11.6   0.0     4    49   131   179   129   182 0.86 -
ID=PSME_00015328     -            220 110810at3193         -            273   6.6e-15   56.7   1.2   3   3   2.1e-08     6e-06   27.3   0.0     7    46   178   218   173   219 0.89 -
ID=PSME_00009687     -            655 110810at3193         -            273   4.2e-14   54.1   5.2   1   5     0.043        13    6.6   0.0    30    45    74    89    67    95 0.71 -
ID=PSME_00009687     -            655 110810at3193         -            273   4.2e-14   54.1   5.2   2   5     0.042        12    6.7   0.0    10    45    95   131    91   137 0.84 -
ID=PSME_00009687     -            655 110810at3193         -            273   4.2e-14   54.1   5.2   3   5   4.3e-05     0.013   16.5   0.1    11    68   138   196   134   198 0.85 -
ID=PSME_00009687     -            655 110810at3193         -            273   4.2e-14   54.1   5.2   4   5     0.096        28    5.5   0.1    10    64   179   237   175   297 0.61 -
ID=PSME_00009687     -            655 110810at3193         -            273   4.2e-14   54.1   5.2   5   5   5.2e-06    0.0015   19.5   0.1   158   269   395   509   369   513 0.86 -
ID=PSME_00034555     -            547 110810at3193         -            273   1.2e-13   52.6   5.2   1   4      0.45   1.3e+02    3.3   0.1    10    43   171   205   163   226 0.74 -
ID=PSME_00034555     -            547 110810at3193         -            273   1.2e-13   52.6   5.2   2   4      0.37   1.1e+02    3.6   0.1   203   235   243   275   221   279 0.76 -
ID=PSME_00034555     -            547 110810at3193         -            273   1.2e-13   52.6   5.2   3   4   1.8e-07   5.1e-05   24.3   0.1     8    83   277   359   272   362 0.85 -
ID=PSME_00034555     -            547 110810at3193         -            273   1.2e-13   52.6   5.2   4   4   1.1e-06   0.00032   21.7   0.0     9    59   360   409   353   422 0.85 -
ID=PSME_00005685     -            234 110810at3193         -            273   3.1e-13   51.2   0.4   1   3    0.0044       1.3    9.9   0.0    11    43    21    54    13    58 0.81 -
ID=PSME_00005685     -            234 110810at3193         -            273   3.1e-13   51.2   0.4   2   3     5e-08   1.4e-05   26.1   0.1   194   270    59   138    54   141 0.89 -
ID=PSME_00005685     -            234 110810at3193         -            273   3.1e-13   51.2   0.4   3   3    0.0011      0.33   11.8   0.0     8    48   144   185   139   207 0.82 -
ID=PSME_00054687     -            317 110810at3193         -            273   2.4e-12   48.4   5.1   1   5   1.5e-08   4.4e-06   27.8   0.5   158   269    13   133     6   137 0.79 -
ID=PSME_00054687     -            317 110810at3193         -            273   2.4e-12   48.4   5.1   2   5   6.3e-08   1.8e-05   25.8   0.2    11    90    59   146    53   165 0.80 -
ID=PSME_00054687     -            317 110810at3193         -            273   2.4e-12   48.4   5.1   3   5    0.0034      0.98   10.3   0.0   218   270   168   223   154   226 0.83 -
ID=PSME_00054687     -            317 110810at3193         -            273   2.4e-12   48.4   5.1   4   5      0.77   2.2e+02    2.5   0.0    18    49   238   269   233   277 0.84 -
ID=PSME_00054687     -            317 110810at3193         -            273   2.4e-12   48.4   5.1   5   5      0.16        47    4.7   0.0    27    42   297   312   280   315 0.86 -
ID=PSME_00030545     -            524 110810at3193         -            273   4.2e-12   47.5   9.8   1   3   2.6e-07   7.4e-05   23.8   0.6   130   251   251   372   237   378 0.80 -
ID=PSME_00030545     -            524 110810at3193         -            273   4.2e-12   47.5   9.8   2   3   2.8e-05    0.0082   17.1   0.2    29    68   379   419   374   448 0.61 -
ID=PSME_00030545     -            524 110810at3193         -            273   4.2e-12   47.5   9.8   3   3    0.0026      0.76   10.6   0.3    27    69   466   508   445   523 0.76 -
ID=PSME_00014506     -            333 110810at3193         -            273   7.2e-12   46.8   0.3   1   2      0.48   1.4e+02    3.2   0.0    10    43    51    85    48    93 0.82 -
ID=PSME_00014506     -            333 110810at3193         -            273   7.2e-12   46.8   0.3   2   2     2e-12   5.9e-10   40.5   0.2    11   203    94   304    89   317 0.76 -
ID=PSME_00014235     -            413 110810at3193         -            273   1.6e-11   45.6   3.6   1   5      0.27        78    4.0   0.0    29    45    15    31     4    37 0.71 -
ID=PSME_00014235     -            413 110810at3193         -            273   1.6e-11   45.6   3.6   2   5     0.018       5.3    7.9   0.0    10    45    37    73    33    79 0.85 -
ID=PSME_00014235     -            413 110810at3193         -            273   1.6e-11   45.6   3.6   3   5   2.6e-05    0.0075   17.2   0.1    11    68    80   138    76   139 0.85 -
ID=PSME_00014235     -            413 110810at3193         -            273   1.6e-11   45.6   3.6   4   5      0.11        32    5.3   0.0    10    43   121   155   117   197 0.74 -
ID=PSME_00014235     -            413 110810at3193         -            273   1.6e-11   45.6   3.6   5   5     0.003      0.87   10.4   0.0   128   189   326   387   291   397 0.82 -
ID=PSME_00024443     -            461 110810at3193         -            273   4.9e-11   44.0   6.0   1   4   2.9e-06   0.00083   20.3   0.0   132   269   130   281   119   285 0.79 -
ID=PSME_00024443     -            461 110810at3193         -            273   4.9e-11   44.0   6.0   2   4     0.024       6.8    7.5   0.1     7    44   287   326   281   339 0.82 -
ID=PSME_00024443     -            461 110810at3193         -            273   4.9e-11   44.0   6.0   3   4       1.1   3.1e+02    2.1   0.0   237   270   344   379   333   382 0.72 -
ID=PSME_00024443     -            461 110810at3193         -            273   4.9e-11   44.0   6.0   4   4   0.00041      0.12   13.3   0.1     7    59   384   437   380   448 0.82 -
ID=PSME_00040435     -            391 110810at3193         -            273   9.6e-11   43.1   3.9   1   4   6.1e-05     0.018   16.0   0.0   165   269    57   172    28   175 0.78 -
ID=PSME_00040435     -            391 110810at3193         -            273   9.6e-11   43.1   3.9   2   4       1.1   3.3e+02    2.0   0.0   238   270   193   227   184   229 0.67 -
ID=PSME_00040435     -            391 110810at3193         -            273   9.6e-11   43.1   3.9   3   4   1.3e-06   0.00038   21.4   0.2     7    82   232   315   226   319 0.77 -
ID=PSME_00040435     -            391 110810at3193         -            273   9.6e-11   43.1   3.9   4   4    0.0033      0.95   10.3   0.1    11    70   278   339   270   343 0.79 -
ID=PSME_00001102     -            981 110810at3193         -            273   1.2e-10   42.8   0.1   1   4   1.3e-05    0.0039   18.1   0.0   171   267    46   146    17   150 0.79 -
ID=PSME_00001102     -            981 110810at3193         -            273   1.2e-10   42.8   0.1   2   4   1.6e-07   4.6e-05   24.5   0.0   155   270    73   191    68   194 0.86 -
ID=PSME_00001102     -            981 110810at3193         -            273   1.2e-10   42.8   0.1   3   4   0.00019     0.055   14.4   0.0   158   269   160   283   159   287 0.75 -
ID=PSME_00001102     -            981 110810at3193         -            273   1.2e-10   42.8   0.1   4   4       0.1        29    5.4   0.0   208   251   261   304   238   314 0.83 -
ID=PSME_00011774     -            522 110810at3193         -            273   1.9e-10   42.1   3.7   1   2   2.4e-11   6.9e-09   37.0   3.5    11   270    89   379    83   380 0.75 -
ID=PSME_00011774     -            522 110810at3193         -            273   1.9e-10   42.1   3.7   2   2     0.016       4.6    8.1   0.0     2    55   337   390   336   400 0.78 -
ID=PSME_00031008     -            598 110810at3193         -            273   2.2e-10   41.9   0.1   1   5   8.6e-06    0.0025   18.8   0.0   170   267    29   130     4   135 0.80 -
ID=PSME_00031008     -            598 110810at3193         -            273   2.2e-10   41.9   0.1   2   5   3.4e-08   9.9e-06   26.6   0.0   151   270    54   175    32   178 0.84 -
ID=PSME_00031008     -            598 110810at3193         -            273   2.2e-10   41.9   0.1   3   5    0.0068         2    9.3   0.0     9    53   140   185   135   208 0.82 -
ID=PSME_00031008     -            598 110810at3193         -            273   2.2e-10   41.9   0.1   4   5      0.11        33    5.3   0.0   204   269   198   267   180   269 0.78 -
ID=PSME_00031008     -            598 110810at3193         -            273   2.2e-10   41.9   0.1   5   5     0.052        15    6.4   0.0   211   252   248   289   222   301 0.85 -
ID=PSME_00040762     -            835 110810at3193         -            273   2.2e-10   41.9   0.8   1   4   0.00021     0.062   14.2   0.0   196   269   393   468   376   470 0.84 -
ID=PSME_00040762     -            835 110810at3193         -            273   2.2e-10   41.9   0.8   2   4      0.75   2.2e+02    2.6   0.0    12    43   478   510   473   517 0.83 -
ID=PSME_00040762     -            835 110810at3193         -            273   2.2e-10   41.9   0.8   3   4   2.9e-06   0.00084   20.3   0.1    12    87   520   603   516   614 0.72 -
ID=PSME_00040762     -            835 110810at3193         -            273   2.2e-10   41.9   0.8   4   4     0.069        20    6.0   0.0   217   264   580   631   573   633 0.70 -
ID=PSME_00005357     -            440 110810at3193         -            273   4.4e-10   40.9   7.3   1   2      0.27        79    4.0   0.0   238   269   123   155   106   159 0.73 -
ID=PSME_00005357     -            440 110810at3193         -            273   4.4e-10   40.9   7.3   2   2   4.8e-11   1.4e-08   36.0   3.0    11   193   165   369   160   395 0.75 -
ID=PSME_00011743     -            275 110810at3193         -            273   8.1e-10   40.1   1.4   1   4     0.038        11    6.8   0.0    10    79    32   109    27   111 0.69 -
ID=PSME_00011743     -            275 110810at3193         -            273   8.1e-10   40.1   1.4   2   4   4.6e-05     0.013   16.4   0.3   219   270    96   150    83   153 0.79 -
ID=PSME_00011743     -            275 110810at3193         -            273   8.1e-10   40.1   1.4   3   4   8.9e-06    0.0026   18.7   0.1     6    69   112   176   108   177 0.89 -
ID=PSME_00011743     -            275 110810at3193         -            273   8.1e-10   40.1   1.4   4   4   5.2e-05     0.015   16.2   0.0     7    84   155   235   151   242 0.75 -
ID=PSME_00016934     -            396 110810at3193         -            273   8.9e-10   39.9   3.0   1   4      0.74   2.1e+02    2.6   0.0   248   270    32    54    15    57 0.77 -
ID=PSME_00016934     -            396 110810at3193         -            273   8.9e-10   39.9   3.0   2   4     0.085        25    5.7   0.0   200   270    68   141    55   144 0.77 -
ID=PSME_00016934     -            396 110810at3193         -            273   8.9e-10   39.9   3.0   3   4   2.8e-05     0.008   17.1   0.1   136   269   131   268   123   270 0.72 -
ID=PSME_00016934     -            396 110810at3193         -            273   8.9e-10   39.9   3.0   4   4   0.00029     0.083   13.8   0.1     7    63   274   332   268   335 0.80 -
ID=PSME_00014505     -            274 110810at3193         -            273   1.1e-09   39.7   7.8   1   3   0.00012     0.036   15.0   1.1    19    78    24    91    13    96 0.69 -
ID=PSME_00014505     -            274 110810at3193         -            273   1.1e-09   39.7   7.8   2   3   0.00013     0.038   14.9   0.2     6    79   149   188   102   194 0.48 -
ID=PSME_00014505     -            274 110810at3193         -            273   1.1e-09   39.7   7.8   3   3   6.2e-07   0.00018   22.5   0.2     7    83   150   234   144   244 0.75 -
ID=PSME_00004967     -           1191 110810at3193         -            273   2.4e-09   38.5   0.3   1   4     0.096        28    5.5   0.0     7    48   394   437   388   443 0.77 -
ID=PSME_00004967     -           1191 110810at3193         -            273   2.4e-09   38.5   0.3   2   4    0.0033      0.96   10.3   0.1   141   232   443   541   439   547 0.73 -
ID=PSME_00004967     -           1191 110810at3193         -            273   2.4e-09   38.5   0.3   3   4      0.37   1.1e+02    3.6   0.0    12    41   550   582   546   609 0.83 -
ID=PSME_00004967     -           1191 110810at3193         -            273   2.4e-09   38.5   0.3   4   4   0.00037      0.11   13.4   0.0   123   206   944  1027   895  1076 0.81 -
ID=PSME_00016646     -            363 110810at3193         -            273   3.1e-09   38.2   0.3   1   3     4e-06    0.0012   19.9   0.1   138   270    94   226    76   229 0.78 -
ID=PSME_00016646     -            363 110810at3193         -            273   3.1e-09   38.2   0.3   2   3   0.00041      0.12   13.3   0.0   211   270   257   319   229   322 0.69 -
ID=PSME_00016646     -            363 110810at3193         -            273   3.1e-09   38.2   0.3   3   3   0.00047      0.13   13.1   0.0   134   269   265   318   251   361 0.51 -
ID=PSME_00044539     -            487 110810at3193         -            273   3.2e-09   38.1   1.1   1   4    0.0015      0.43   11.4   0.0   120   148    13    41     8    61 0.62 -
ID=PSME_00044539     -            487 110810at3193         -            273   3.2e-09   38.1   1.1   2   4       1.1   3.1e+02    2.1   0.0    10    45    47    83    43    89 0.86 -
ID=PSME_00044539     -            487 110810at3193         -            273   3.2e-09   38.1   1.1   3   4     2e-05    0.0057   17.6   0.1    11    69    90   149    85   150 0.88 -
ID=PSME_00044539     -            487 110810at3193         -            273   3.2e-09   38.1   1.1   4   4     0.083        24    5.7   0.1    10    64   131   189   126   252 0.62 -
ID=PSME_00014824     -            450 110810at3193         -            273     4e-09   37.8   0.6   1   3      0.13        38    5.1   0.0   211   232   155   176   149   226 0.86 -
ID=PSME_00014824     -            450 110810at3193         -            273     4e-09   37.8   0.6   2   3    0.0093       2.7    8.8   0.0    15    56   240   281   228   294 0.73 -
ID=PSME_00014824     -            450 110810at3193         -            273     4e-09   37.8   0.6   3   3   5.5e-06    0.0016   19.4   0.0     4    52   313   361   310   383 0.80 -
ID=PSME_00030324     -            583 110810at3193         -            273   4.3e-09   37.7   4.3   1   6      0.24        70    4.2   0.0   188   239   107   159    77   213 0.83 -
ID=PSME_00030324     -            583 110810at3193         -            273   4.3e-09   37.7   4.3   2   6       3.3   9.6e+02    0.4   0.0     8    43   175   211   171   232 0.63 -
ID=PSME_00030324     -            583 110810at3193         -            273   4.3e-09   37.7   4.3   3   6     0.099        29    5.4   0.0   168   263   291   398   260   402 0.70 -
ID=PSME_00030324     -            583 110810at3193         -            273   4.3e-09   37.7   4.3   4   6     0.049        14    6.4   0.1     8    43   404   441   399   454 0.84 -
ID=PSME_00030324     -            583 110810at3193         -            273   4.3e-09   37.7   4.3   5   6       4.5   1.3e+03    0.0   0.0   238   270   461   495   450   498 0.75 -
ID=PSME_00030324     -            583 110810at3193         -            273   4.3e-09   37.7   4.3   6   6   4.7e-05     0.014   16.3   0.1     7    79   500   580   494   583 0.75 -
ID=PSME_00016647     -            283 110810at3193         -            273   4.4e-09   37.6   1.0   1   4    0.0032      0.92   10.4   0.0     7    43    22    59    18    80 0.83 -
ID=PSME_00016647     -            283 110810at3193         -            273   4.4e-09   37.6   1.0   2   4       2.7   7.7e+02    0.8   0.0    27    42   102   117    81   133 0.70 -
ID=PSME_00016647     -            283 110810at3193         -            273   4.4e-09   37.6   1.0   3   4       1.3   3.7e+02    1.8   0.0   132   172   145   182   131   204 0.70 -
ID=PSME_00016647     -            283 110810at3193         -            273   4.4e-09   37.6   1.0   4   4     4e-06    0.0012   19.8   0.0     7    66   205   265   199   271 0.89 -
ID=PSME_00048532     -            614 110810at3193         -            273   6.9e-09   37.0   3.2   1   5     0.051        15    6.4   0.0    28    45   166   183   147   191 0.65 -
ID=PSME_00048532     -            614 110810at3193         -            273   6.9e-09   37.0   3.2   2   5       0.2        59    4.4   0.0    10    45   189   225   186   230 0.84 -
ID=PSME_00048532     -            614 110810at3193         -            273   6.9e-09   37.0   3.2   3   5   0.00097      0.28   12.0   0.0    11    64   232   286   227   291 0.82 -
ID=PSME_00048532     -            614 110810at3193         -            273   6.9e-09   37.0   3.2   4   5       0.2        57    4.5   0.0   158   213   276   332   267   350 0.80 -
ID=PSME_00048532     -            614 110810at3193         -            273   6.9e-09   37.0   3.2   5   5     0.046        13    6.6   0.0   131   188   549   606   543   612 0.80 -
ID=PSME_00035897     -            319 110810at3193         -            273   8.9e-09   36.6   5.7   1   5      0.79   2.3e+02    2.5   0.2   246   270    92   118    85   121 0.68 -
ID=PSME_00035897     -            319 110810at3193         -            273   8.9e-09   36.6   5.7   2   5    0.0018      0.52   11.1   0.1     8    47   124   162   119   176 0.84 -
ID=PSME_00035897     -            319 110810at3193         -            273   8.9e-09   36.6   5.7   3   5       1.6   4.6e+02    1.5   0.0     7    43   170   208   164   220 0.77 -
ID=PSME_00035897     -            319 110810at3193         -            273   8.9e-09   36.6   5.7   4   5    0.0066       1.9    9.3   0.1    10    42   221   252   218   256 0.84 -
ID=PSME_00035897     -            319 110810at3193         -            273   8.9e-09   36.6   5.7   5   5    0.0024      0.69   10.8   0.0     8    51   263   312   260   316 0.79 -
ID=PSME_00022796     -            424 110810at3193         -            273   1.5e-08   35.9   1.1   1   2   6.3e-08   1.8e-05   25.8   0.5   130   269   134   280   111   284 0.81 -
ID=PSME_00022796     -            424 110810at3193         -            273   1.5e-08   35.9   1.1   2   2     0.012       3.5    8.4   0.0   217   271   310   367   290   369 0.81 -
ID=PSME_00016314     -            482 110810at3193         -            273   1.7e-08   35.7   0.7   1   4   0.00065      0.19   12.6   0.0   205   269   210   277   190   282 0.84 -
ID=PSME_00016314     -            482 110810at3193         -            273   1.7e-08   35.7   0.7   2   4     0.014       4.2    8.2   0.0    10    45   287   324   278   333 0.80 -
ID=PSME_00016314     -            482 110810at3193         -            273   1.7e-08   35.7   0.7   3   4      0.01       2.9    8.7   0.0   219   269   349   401   329   404 0.78 -
ID=PSME_00016314     -            482 110810at3193         -            273   1.7e-08   35.7   0.7   4   4       1.8   5.1e+02    1.3   0.1   250   269   462   481   435   481 0.70 -
ID=PSME_00007492     -           1061 110810at3193         -            273   4.2e-08   34.4  10.3   1   6     0.037        11    6.9   0.0   132   190   313   373   301   377 0.74 -
ID=PSME_00007492     -           1061 110810at3193         -            273   4.2e-08   34.4  10.3   2   6     0.014         4    8.3   0.0     8    69   377   439   372   448 0.80 -
ID=PSME_00007492     -           1061 110810at3193         -            273   4.2e-08   34.4  10.3   3   6      0.12        34    5.2   0.1    27   187   724   783   707   791 0.48 -
ID=PSME_00007492     -           1061 110810at3193         -            273   4.2e-08   34.4  10.3   4   6   0.00091      0.26   12.1   0.2    11    78   753   824   744   830 0.73 -
ID=PSME_00007492     -           1061 110810at3193         -            273   4.2e-08   34.4  10.3   5   6   0.00072      0.21   12.5   0.0     8    69   790   852   785   867 0.80 -
ID=PSME_00007492     -           1061 110810at3193         -            273   4.2e-08   34.4  10.3   6   6       2.6   7.6e+02    0.8   0.2    18    65   920   967   908   988 0.78 -
ID=PSME_00013937     -            325 110810at3193         -            273   4.3e-08   34.4   4.2   1   4    0.0046       1.3    9.8   0.0   210   269    94   158    39   162 0.57 -
ID=PSME_00013937     -            325 110810at3193         -            273   4.3e-08   34.4   4.2   2   4   2.2e-05    0.0065   17.4   0.5    19    78   135   202   112   207 0.67 -
ID=PSME_00013937     -            325 110810at3193         -            273   4.3e-08   34.4   4.2   3   4    0.0056       1.6    9.5   0.4     8    44   165   203   159   258 0.80 -
ID=PSME_00013937     -            325 110810at3193         -            273   4.3e-08   34.4   4.2   4   4   0.00019     0.054   14.4   0.0     7    45   261   300   255   322 0.83 -
ID=PSME_00032329     -            349 110810at3193         -            273   4.8e-08   34.2   2.2   1   3      0.17        49    4.7   0.0   135   205    70   142    53   179 0.77 -
ID=PSME_00032329     -            349 110810at3193         -            273   4.8e-08   34.2   2.2   2   3   0.00016     0.047   14.6   0.4    20    80   196   256   191   264 0.81 -
ID=PSME_00032329     -            349 110810at3193         -            273   4.8e-08   34.2   2.2   3   3   0.00048      0.14   13.0   0.1     7    60   268   322   262   335 0.82 -
ID=PSME_00020924     -            249 110810at3193         -            273   4.9e-08   34.2   0.4   1   3       0.2        57    4.5   0.0   254   271    54    71    26    73 0.86 -
ID=PSME_00020924     -            249 110810at3193         -            273   4.9e-08   34.2   0.4   2   3   0.00013     0.038   14.9   0.0   205   272    95   167    82   168 0.83 -
ID=PSME_00020924     -            249 110810at3193         -            273   4.9e-08   34.2   0.4   3   3    0.0014       0.4   11.5   0.0     7    42   173   209   169   213 0.90 -
ID=PSME_00021391     -            613 110810at3193         -            273     5e-08   34.2   6.7   1   4       4.6   1.3e+03   -0.0   0.0    26    42    95   111    80   118 0.58 -
ID=PSME_00021391     -            613 110810at3193         -            273     5e-08   34.2   6.7   2   4   2.5e-05    0.0071   17.3   0.3     6    84   120   202   115   220 0.82 -
ID=PSME_00021391     -            613 110810at3193         -            273     5e-08   34.2   6.7   3   4     0.013       3.7    8.3   0.1   131   188   399   458   387   465 0.78 -
ID=PSME_00021391     -            613 110810at3193         -            273     5e-08   34.2   6.7   4   4   0.00024     0.069   14.0   0.3     6    96   422   517   417   530 0.79 -
ID=PSME_00005268     -            284 110810at3193         -            273   5.8e-08   34.0   0.2   1   3         6   1.7e+03   -0.4   0.0     7    44    32    71    27    88 0.70 -
ID=PSME_00005268     -            284 110810at3193         -            273   5.8e-08   34.0   0.2   2   3     0.015       4.3    8.1   0.1    27   166   101   137    73   148 0.56 -
ID=PSME_00005268     -            284 110810at3193         -            273   5.8e-08   34.0   0.2   3   3   3.9e-07   0.00011   23.2   0.0   125   198   140   217   134   225 0.77 -
ID=PSME_00016635     -            729 110810at3193         -            273     6e-08   33.9   0.0   1   5   0.00011     0.033   15.1   0.0   172   259   115   206    89   216 0.76 -
ID=PSME_00016635     -            729 110810at3193         -            273     6e-08   33.9   0.0   2   5   5.3e-06    0.0015   19.5   0.0   157   270   143   259   139   263 0.86 -
ID=PSME_00016635     -            729 110810at3193         -            273     6e-08   33.9   0.0   3   5     0.027       7.7    7.3   0.0     9    52   224   268   219   297 0.79 -
ID=PSME_00016635     -            729 110810at3193         -            273     6e-08   33.9   0.0   4   5     0.064        18    6.1   0.0   205   269   283   351   269   354 0.73 -
ID=PSME_00016635     -            729 110810at3193         -            273     6e-08   33.9   0.0   5   5      0.09        26    5.6   0.0   183   236   304   357   296   372 0.77 -
ID=PSME_00003075     -            548 110810at3193         -            273   8.3e-08   33.4   0.5   1   3       8.3   2.4e+03   -0.9   0.0   212   230   243   261   230   267 0.85 -
ID=PSME_00003075     -            548 110810at3193         -            273   8.3e-08   33.4   0.5   2   3   0.00013     0.037   14.9   0.2    25    90   294   368   278   400 0.78 -
ID=PSME_00003075     -            548 110810at3193         -            273   8.3e-08   33.4   0.5   3   3   0.00021      0.06   14.2   0.0     6    44   402   440   397   445 0.91 -
ID=PSME_00001956     -            795 110810at3193         -            273   1.1e-07   33.1   0.4   1   3      0.02       5.9    7.7   0.0   210   269   465   527   446   531 0.81 -
ID=PSME_00001956     -            795 110810at3193         -            273   1.1e-07   33.1   0.4   2   3     0.027       7.8    7.3   0.0    10    45   537   573   528   593 0.82 -
ID=PSME_00001956     -            795 110810at3193         -            273   1.1e-07   33.1   0.4   3   3   0.00021      0.06   14.2   0.2   128   269   592   736   583   736 0.81 -
ID=PSME_00025081     -            394 110810at3193         -            273   1.4e-07   32.7   2.9   1   3    0.0053       1.5    9.6   0.0   168   269    75   187    45   190 0.65 -
ID=PSME_00025081     -            394 110810at3193         -            273   1.4e-07   32.7   2.9   2   3      0.67   1.9e+02    2.7   0.0     9    41   207   240   199   244 0.76 -
ID=PSME_00025081     -            394 110810at3193         -            273   1.4e-07   32.7   2.9   3   3   1.6e-05    0.0047   17.8   0.2     7    82   247   330   241   351 0.77 -
ID=PSME_00000602     -            950 110810at3193         -            273   1.5e-07   32.6   1.8   1   3   2.1e-05    0.0061   17.5   0.1   210   270   545   608   528   611 0.86 -
ID=PSME_00000602     -            950 110810at3193         -            273   1.5e-07   32.6   1.8   2   3     0.012       3.4    8.5   0.0    10    49   617   658   608   668 0.81 -
ID=PSME_00000602     -            950 110810at3193         -            273   1.5e-07   32.6   1.8   3   3       0.2        59    4.4   0.1   153   269   697   814   674   814 0.75 -
ID=PSME_00018509     -            527 110810at3193         -            273   1.6e-07   32.5   0.1   1   4    0.0027      0.79   10.6   0.0   191   270    90   173    62   176 0.80 -
ID=PSME_00018509     -            527 110810at3193         -            273   1.6e-07   32.5   0.1   2   4      0.15        43    4.9   0.0   122   149   149   176   130   189 0.71 -
ID=PSME_00018509     -            527 110810at3193         -            273   1.6e-07   32.5   0.1   3   4    0.0091       2.6    8.8   0.0   216   270   213   268   203   268 0.80 -
ID=PSME_00018509     -            527 110810at3193         -            273   1.6e-07   32.5   0.1   4   4   0.00073      0.21   12.4   0.0   139   192   261   316   253   326 0.84 -
ID=PSME_00012180     -            596 110810at3193         -            273   1.7e-07   32.4   0.7   1   4   0.00011     0.031   15.2   0.0   200   269   218   290   207   294 0.69 -
ID=PSME_00012180     -            596 110810at3193         -            273   1.7e-07   32.4   0.7   2   4   0.00011     0.031   15.2   0.3     4    53   251   301   248   338 0.76 -
ID=PSME_00012180     -            596 110810at3193         -            273   1.7e-07   32.4   0.7   3   4    0.0024      0.69   10.8   0.0    19    78   355   421   348   429 0.71 -
ID=PSME_00012180     -            596 110810at3193         -            273   1.7e-07   32.4   0.7   4   4     0.082        24    5.7   0.0     8    47   386   425   382   453 0.81 -
ID=PSME_00012603     -            332 110810at3193         -            273     2e-07   32.2   1.6   1   4     0.022       6.5    7.6   0.0    30    45    96   111    89   115 0.71 -
ID=PSME_00012603     -            332 110810at3193         -            273     2e-07   32.2   1.6   2   4     0.048        14    6.5   0.0    10    45   117   153   113   159 0.85 -
ID=PSME_00012603     -            332 110810at3193         -            273     2e-07   32.2   1.6   3   4     0.001       0.3   11.9   0.1    11    68   160   218   156   220 0.82 -
ID=PSME_00012603     -            332 110810at3193         -            273     2e-07   32.2   1.6   4   4     0.097        28    5.5   0.0     9    43   200   235   193   308 0.84 -
ID=PSME_00020195     -            462 110810at3193         -            273   2.3e-07   32.0   0.0   1   3   5.8e-05     0.017   16.0   0.0   172   267    51   150    31   156 0.81 -
ID=PSME_00020195     -            462 110810at3193         -            273   2.3e-07   32.0   0.0   2   3    0.0089       2.6    8.9   0.0     9    52   160   204   153   218 0.83 -
ID=PSME_00020195     -            462 110810at3193         -            273   2.3e-07   32.0   0.0   3   3       0.5   1.5e+02    3.1   0.0   204   262   218   280   205   284 0.79 -
ID=PSME_00019641     -            306 110810at3193         -            273   6.6e-07   30.5   2.7   1   3      0.13        38    5.1   0.1    28    75    13    58     8   125 0.78 -
ID=PSME_00019641     -            306 110810at3193         -            273   6.6e-07   30.5   2.7   2   3   0.00046      0.13   13.1   0.1    13    67   136   193   132   220 0.74 -
ID=PSME_00019641     -            306 110810at3193         -            273   6.6e-07   30.5   2.7   3   3     0.013       3.9    8.3   0.0    17    46   231   261   225   268 0.85 -
ID=PSME_00037908     -            515 110810at3193         -            273   6.6e-07   30.5   0.2   1   4      0.84   2.4e+02    2.4   0.0    32   117   136   150   107   217 0.58 -
ID=PSME_00037908     -            515 110810at3193         -            273   6.6e-07   30.5   0.2   2   4      0.05        14    6.4   0.0   167   264   229   338   214   346 0.74 -
ID=PSME_00037908     -            515 110810at3193         -            273   6.6e-07   30.5   0.2   3   4       2.3   6.6e+02    1.0   0.0    14    42   386   415   378   419 0.59 -
ID=PSME_00037908     -            515 110810at3193         -            273   6.6e-07   30.5   0.2   4   4   0.00012     0.036   15.0   0.0     7    51   421   467   416   478 0.83 -
ID=PSME_00009187     -            674 110810at3193         -            273   6.8e-07   30.5   0.0   1   2   9.1e-08   2.6e-05   25.2   0.1   150   270    51   173    18   176 0.84 -
ID=PSME_00009187     -            674 110810at3193         -            273   6.8e-07   30.5   0.0   2   2      0.63   1.8e+02    2.8   0.0   204   258   196   250   179   254 0.87 -
ID=PSME_00008005     -            554 110810at3193         -            273     9e-07   30.0   1.4   1   4     0.021       6.1    7.6   0.0    28    45    23    40    11    45 0.72 -
ID=PSME_00008005     -            554 110810at3193         -            273     9e-07   30.0   1.4   2   4    0.0038       1.1   10.1   0.0    10    59    46    96    42   103 0.85 -
ID=PSME_00008005     -            554 110810at3193         -            273     9e-07   30.0   1.4   3   4       9.4   2.7e+03   -1.0   0.0    11    44   216   249   211   266 0.76 -
ID=PSME_00008005     -            554 110810at3193         -            273     9e-07   30.0   1.4   4   4     0.012       3.4    8.5   0.0   130   194   272   336   237   346 0.79 -
ID=PSME_00004465     -            525 110810at3193         -            273   1.1e-06   29.8   2.6   1   4     0.027       7.7    7.3   0.0    30    45    38    53    33    72 0.71 -
ID=PSME_00004465     -            525 110810at3193         -            273   1.1e-06   29.8   2.6   2   4      0.19        53    4.6   0.0    17    68    87   139    77   141 0.80 -
ID=PSME_00004465     -            525 110810at3193         -            273   1.1e-06   29.8   2.6   3   4     0.074        21    5.9   0.0    10    64   122   180   118   233 0.60 -
ID=PSME_00004465     -            525 110810at3193         -            273   1.1e-06   29.8   2.6   4   4    0.0091       2.6    8.8   0.0   129   194   396   461   379   475 0.78 -
ID=PSME_00010476     -            192 110810at3193         -            273   1.4e-06   29.4   3.6   1   3    0.0085       2.5    8.9   0.1     7    42    14    51     8    67 0.83 -
ID=PSME_00010476     -            192 110810at3193         -            273   1.4e-06   29.4   3.6   2   3      0.17        49    4.7   0.1   238   270    72   106    60   109 0.72 -
ID=PSME_00010476     -            192 110810at3193         -            273   1.4e-06   29.4   3.6   3   3   0.00013     0.039   14.8   0.0     7    58   111   163   108   177 0.81 -
ID=PSME_00031002     -            269 110810at3193         -            273   1.4e-06   29.4   0.9   1   2   2.4e-05    0.0068   17.3   0.0   163   269    59   177    32   181 0.75 -
ID=PSME_00031002     -            269 110810at3193         -            273   1.4e-06   29.4   0.9   2   2    0.0026      0.74   10.7   0.4     7    53   183   231   177   257 0.76 -
ID=PSME_00044122     -            268 110810at3193         -            273   1.6e-06   29.2   0.1   1   2      0.66   1.9e+02    2.8   0.0    14    44    18    49    14    70 0.84 -
ID=PSME_00044122     -            268 110810at3193         -            273   1.6e-06   29.2   0.1   2   2   2.2e-07   6.4e-05   24.0   0.0   132   269    77   215    64   221 0.73 -
ID=PSME_00014349     -            701 110810at3193         -            273   1.8e-06   29.1   0.0   1   2   2.1e-05    0.0059   17.5   0.0   170   267   117   218    89   222 0.76 -
ID=PSME_00014349     -            701 110810at3193         -            273   1.8e-06   29.1   0.0   2   2   1.3e-05    0.0038   18.2   0.0   156   268   146   261   144   266 0.86 -
ID=PSME_00000474     -            316 110810at3193         -            273   2.4e-06   28.6   0.1   1   3      0.61   1.8e+02    2.9   0.0   203   231    21    49     9    60 0.81 -
ID=PSME_00000474     -            316 110810at3193         -            273   2.4e-06   28.6   0.1   2   3   3.8e-05     0.011   16.6   0.0    14   126    60   186    51   213 0.69 -
ID=PSME_00000474     -            316 110810at3193         -            273   2.4e-06   28.6   0.1   3   3      0.12        34    5.2   0.0    29    72   232   272   222   279 0.63 -
ID=PSME_00031480     -            676 110810at3193         -            273   3.9e-06   28.0   0.2   1   3      0.89   2.6e+02    2.3   0.0    10    44   220   255   212   275 0.83 -
ID=PSME_00031480     -            676 110810at3193         -            273   3.9e-06   28.0   0.2   2   3   8.1e-05     0.023   15.6   0.0    12    75   317   385   313   399 0.79 -
ID=PSME_00031480     -            676 110810at3193         -            273   3.9e-06   28.0   0.2   3   3     0.059        17    6.2   0.0     9    46   409   447   403   457 0.80 -
ID=PSME_00036554     -            152 110810at3193         -            273   4.4e-06   27.8   1.6   1   3       1.3   3.7e+02    1.8   0.1    39    66     5    34     2    41 0.75 -
ID=PSME_00036554     -            152 110810at3193         -            273   4.4e-06   27.8   1.6   2   3   6.1e-06    0.0018   19.3   0.2     8    82    38   120    31   125 0.79 -
ID=PSME_00036554     -            152 110810at3193         -            273   4.4e-06   27.8   1.6   3   3    0.0002     0.058   14.3   0.1     7    45    79   118    73   149 0.81 -
ID=PSME_00024307     -           1014 110810at3193         -            273   5.2e-06   27.6   0.1   1   3   0.00023     0.067   14.1   0.1   171   267   218   318   189   324 0.78 -
ID=PSME_00024307     -           1014 110810at3193         -            273   5.2e-06   27.6   0.1   2   3   1.4e-05    0.0041   18.1   0.0   155   270   245   363   242   366 0.85 -
ID=PSME_00024307     -           1014 110810at3193         -            273   5.2e-06   27.6   0.1   3   3      0.54   1.6e+02    3.0   0.0   178   241   353   423   333   453 0.50 -
ID=PSME_00048095     -            349 110810at3193         -            273   5.5e-06   27.5   1.2   1   3     0.023       6.6    7.5   0.0    10    78     7    89     2    90 0.60 -
ID=PSME_00048095     -            349 110810at3193         -            273   5.5e-06   27.5   1.2   2   3   0.00033     0.094   13.6   0.0     8    47    95   133    91   147 0.85 -
ID=PSME_00048095     -            349 110810at3193         -            273   5.5e-06   27.5   1.2   3   3       5.2   1.5e+03   -0.2   0.0   133   226   160   250   149   264 0.59 -
ID=PSME_00034105     -            325 110810at3193         -            273   6.1e-06   27.3   0.9   1   4     0.033       9.5    7.0   0.0    29    45     3    19     1    25 0.62 -
ID=PSME_00034105     -            325 110810at3193         -            273   6.1e-06   27.3   0.9   2   4      0.12        34    5.2   0.0    10    44    25    60    21    67 0.83 -
ID=PSME_00034105     -            325 110810at3193         -            273   6.1e-06   27.3   0.9   3   4      0.18        52    4.6   0.0    11    39    68    97    63   108 0.79 -
ID=PSME_00034105     -            325 110810at3193         -            273   6.1e-06   27.3   0.9   4   4     0.052        15    6.4   0.0   131   188   260   317   214   323 0.84 -
ID=PSME_00037330     -            519 110810at3193         -            273   7.3e-06   27.1   4.0   1   4      0.52   1.5e+02    3.1   0.0   135   204   193   264   178   318 0.76 -
ID=PSME_00037330     -            519 110810at3193         -            273   7.3e-06   27.1   4.0   2   4     0.032       9.2    7.1   0.2     9    48   343   384   336   407 0.77 -
ID=PSME_00037330     -            519 110810at3193         -            273   7.3e-06   27.1   4.0   3   4       1.3   3.6e+02    1.8   0.1   242   270   403   433   391   435 0.56 -
ID=PSME_00037330     -            519 110810at3193         -            273   7.3e-06   27.1   4.0   4   4   0.00047      0.14   13.1   0.0     7    48   438   480   432   501 0.79 -
ID=PSME_00014113     -            542 110810at3193         -            273   1.1e-05   26.5   0.1   1   2      0.91   2.6e+02    2.3   0.0   131   149   197   215   172   241 0.65 -
ID=PSME_00014113     -            542 110810at3193         -            273   1.1e-05   26.5   0.1   2   2   3.1e-06   0.00089   20.2   0.0   137   232   252   352   246   356 0.87 -
ID=PSME_00010140     -           1404 110810at3193         -            273   1.5e-05   26.1   0.2   1   2      0.56   1.6e+02    3.0   0.0   216   271  1099  1162  1084  1164 0.70 -
ID=PSME_00010140     -           1404 110810at3193         -            273   1.5e-05   26.1   0.2   2   2   9.3e-06    0.0027   18.7   0.2   117   246  1229  1363  1132  1396 0.68 -
ID=PSME_00033595     -            464 110810at3193         -            273   1.6e-05   25.9   8.3   1   5       1.8   5.3e+02    1.3   0.0    17    43    15    42     2    53 0.46 -
ID=PSME_00033595     -            464 110810at3193         -            273   1.6e-05   25.9   8.3   2   5       1.2   3.4e+02    1.9   0.0   135   203   105   175    91   187 0.80 -
ID=PSME_00033595     -            464 110810at3193         -            273   1.6e-05   25.9   8.3   3   5       0.1        30    5.4   0.1     8    43   240   277   234   299 0.82 -
ID=PSME_00033595     -            464 110810at3193         -            273   1.6e-05   25.9   8.3   4   5   0.00063      0.18   12.7   0.4    10    80   297   368   288   376 0.72 -
ID=PSME_00033595     -            464 110810at3193         -            273   1.6e-05   25.9   8.3   5   5      0.14        40    5.0   0.1    12    51   376   416   370   427 0.76 -
ID=PSME_00041381     -            794 110810at3193         -            273   1.7e-05   25.9   2.2   1   2   1.9e-05    0.0056   17.6   1.2    11   246   475   743   468   744 0.65 -
ID=PSME_00041381     -            794 110810at3193         -            273   1.7e-05   25.9   2.2   2   2       7.5   2.2e+03   -0.7   0.1    28   152   713   734   693   782 0.53 -
ID=PSME_00016963     -            516 110810at3193         -            273   1.7e-05   25.9   1.3   1   2     0.039        11    6.8   0.1    17    62   238   286   233   305 0.70 -
ID=PSME_00016963     -            516 110810at3193         -            273   1.7e-05   25.9   1.3   2   2   3.5e-05      0.01   16.8   0.1   131   272   346   493   318   494 0.80 -
ID=PSME_00042814     -            572 110810at3193         -            273   1.7e-05   25.8   0.6   1   4       1.2   3.5e+02    1.9   0.0   204   230   270   296   250   303 0.83 -
ID=PSME_00042814     -            572 110810at3193         -            273   1.7e-05   25.8   0.6   2   4     0.052        15    6.4   0.1    19    65   321   369   309   401 0.75 -
ID=PSME_00042814     -            572 110810at3193         -            273   1.7e-05   25.8   0.6   3   4   0.00011     0.032   15.1   0.6   138   270   339   466   333   469 0.69 -
ID=PSME_00042814     -            572 110810at3193         -            273   1.7e-05   25.8   0.6   4   4    0.0012      0.36   11.7   0.0     6    47   429   470   424   487 0.86 -
ID=PSME_00042991     -            522 110810at3193         -            273   2.2e-05   25.5   1.9   1   4     0.067        19    6.0   0.0    31    45     8    22     2    27 0.78 -
ID=PSME_00042991     -            522 110810at3193         -            273   2.2e-05   25.5   1.9   2   4     0.048        14    6.5   0.0    10    47    28    66    25    76 0.83 -
ID=PSME_00042991     -            522 110810at3193         -            273   2.2e-05   25.5   1.9   3   4       3.5     1e+03    0.4   0.0    26    43    77    94    66   116 0.78 -
ID=PSME_00042991     -            522 110810at3193         -            273   2.2e-05   25.5   1.9   4   4     0.024         7    7.4   0.1   130   189   335   394   296   408 0.79 -
ID=PSME_00028453     -            207 110810at3193         -            273   3.2e-05   25.0   2.2   1   3      0.12        35    5.2   0.1    16    43    21    50    10    64 0.66 -
ID=PSME_00028453     -            207 110810at3193         -            273   3.2e-05   25.0   2.2   2   3      0.33        96    3.7   0.1   237   270    69   104    61   107 0.73 -
ID=PSME_00028453     -            207 110810at3193         -            273   3.2e-05   25.0   2.2   3   3   0.00013     0.039   14.9   0.0     6    45   108   148   103   165 0.81 -
ID=PSME_00042937     -            387 110810at3193         -            273   3.6e-05   24.8   2.2   1   3     0.031       8.9    7.1   0.1   135   206    86   159    72   250 0.61 -
ID=PSME_00042937     -            387 110810at3193         -            273   3.6e-05   24.8   2.2   2   3   0.00025     0.072   14.0   0.3    11    79   214   290   204   302 0.56 -
ID=PSME_00042937     -            387 110810at3193         -            273   3.6e-05   24.8   2.2   3   3   0.00042      0.12   13.2   0.1     7    60   252   306   247   343 0.68 -
ID=PSME_00011504     -            954 110810at3193         -            273   3.8e-05   24.7   1.3   1   2   8.2e-06    0.0024   18.8   0.1   205   269    94   161    80   164 0.87 -
ID=PSME_00011504     -            954 110810at3193         -            273   3.8e-05   24.7   1.3   2   2      0.58   1.7e+02    2.9   0.0    82   190   229   338   223   350 0.62 -
ID=PSME_00032417     -            228 110810at3193         -            273   4.8e-05   24.4   0.0   1   1   2.4e-07   6.9e-05   23.9   0.0   163   270    38   156     3   158 0.76 -
ID=PSME_00005552     -           1172 110810at3193         -            273   6.2e-05   24.0   0.7   1   3    0.0048       1.4    9.8   0.1   212   267   122   181   112   186 0.82 -
ID=PSME_00005552     -           1172 110810at3193         -            273   6.2e-05   24.0   0.7   2   3     0.018       5.1    7.9   0.0   176   239   172   240   171   255 0.76 -
ID=PSME_00005552     -           1172 110810at3193         -            273   6.2e-05   24.0   0.7   3   3      0.08        23    5.7   0.0   221   270   266   318   252   320 0.83 -
ID=PSME_00050500     -            314 110810at3193         -            273   6.6e-05   23.9   2.1   1   2    0.0021      0.61   10.9   0.5   205   269    54   121    33   124 0.78 -
ID=PSME_00050500     -            314 110810at3193         -            273   6.6e-05   23.9   2.1   2   2    0.0014      0.39   11.6   0.0     8    44   128   165   127   171 0.85 -
ID=PSME_00044301     -            442 110810at3193         -            273   6.7e-05   23.9   0.0   1   2   0.00047      0.14   13.1   0.0   205   270    16    84     5    87 0.86 -
ID=PSME_00044301     -            442 110810at3193         -            273   6.7e-05   23.9   0.0   2   2     0.013       3.7    8.4   0.0   204   269   107   176    91   179 0.82 -
ID=PSME_00046033     -            283 110810at3193         -            273   6.8e-05   23.9   1.8   1   3    0.0068         2    9.3   0.1   134   269    45   194    30   194 0.75 -
ID=PSME_00046033     -            283 110810at3193         -            273   6.8e-05   23.9   1.8   2   3   4.7e-05     0.014   16.4   0.7    19    78   171   238   155   242 0.67 -
ID=PSME_00046033     -            283 110810at3193         -            273   6.8e-05   23.9   1.8   3   3    0.0075       2.2    9.1   0.1     8    43   201   238   197   259 0.85 -
ID=PSME_00001329     -            852 110810at3193         -            273   7.7e-05   23.7   0.5   1   2     6e-05     0.017   16.0   0.0     8    68   152   213   146   221 0.83 -
ID=PSME_00001329     -            852 110810at3193         -            273   7.7e-05   23.7   0.5   2   2      0.11        33    5.3   0.1     1    32   231   263   231   268 0.76 -
ID=PSME_00032983     -            558 110810at3193         -            273     8e-05   23.7   0.2   1   2    0.0026      0.76   10.6   0.0   132   190   279   339   239   344 0.74 -
ID=PSME_00032983     -            558 110810at3193         -            273     8e-05   23.7   0.2   2   2    0.0024       0.7   10.7   0.1     8    68   343   404   339   413 0.80 -
ID=PSME_00014231     -            371 110810at3193         -            273   0.00011   23.2   3.4   1   5       3.5     1e+03    0.4   0.0   215   236   100   120    84   155 0.78 -
ID=PSME_00014231     -            371 110810at3193         -            273   0.00011   23.2   3.4   2   5     0.088        25    5.6   0.2    27   114   177   237   127   243 0.45 -
ID=PSME_00014231     -            371 110810at3193         -            273   0.00011   23.2   3.4   3   5   0.00011     0.031   15.2   1.3     7    86   202   285   196   293 0.78 -
ID=PSME_00014231     -            371 110810at3193         -            273   0.00011   23.2   3.4   4   5    0.0027      0.79   10.6   0.2     8    70   243   306   240   319 0.79 -
ID=PSME_00014231     -            371 110810at3193         -            273   0.00011   23.2   3.4   5   5       1.5   4.2e+02    1.6   0.0    15    45   336   366   330   368 0.80 -
ID=PSME_00037056     -            492 110810at3193         -            273   0.00016   22.7   0.2   1   1   1.9e-06   0.00055   20.9   0.1     8    57    51   101    46   123 0.86 -
ID=PSME_00055600     -            493 110810at3193         -            273   0.00016   22.7   9.8   1   4      0.11        32    5.3   0.1    26    65   220   259   202   262 0.81 -
ID=PSME_00055600     -            493 110810at3193         -            273   0.00016   22.7   9.8   2   4   6.5e-05     0.019   15.9   0.1    11    45   246   280   241   329 0.71 -
ID=PSME_00055600     -            493 110810at3193         -            273   0.00016   22.7   9.8   3   4       1.8   5.2e+02    1.3   0.0    16    43   319   347   297   356 0.81 -
ID=PSME_00055600     -            493 110810at3193         -            273   0.00016   22.7   9.8   4   4     0.033       9.6    7.0   0.6    11    83   360   429   356   438 0.69 -
ID=PSME_00008688     -           1666 110810at3193         -            273   0.00019   22.4   0.3   1   3   4.6e-05     0.013   16.4   0.0   198   270  1376  1451  1371  1454 0.88 -
ID=PSME_00008688     -           1666 110810at3193         -            273   0.00019   22.4   0.3   2   3       2.1   5.9e+02    1.1   0.1     6    57  1481  1533  1477  1550 0.76 -
ID=PSME_00008688     -           1666 110810at3193         -            273   0.00019   22.4   0.3   3   3       3.6     1e+03    0.3   0.0   159   198  1614  1653  1579  1659 0.81 -
ID=PSME_00013038     -            683 110810at3193         -            273   0.00022   22.2   0.8   1   4       3.4   9.8e+02    0.4   0.0    20    51    62    94    50   114 0.72 -
ID=PSME_00013038     -            683 110810at3193         -            273   0.00022   22.2   0.8   2   4       3.9   1.1e+03    0.2   0.0    13    44   240   272   215   283 0.78 -
ID=PSME_00013038     -            683 110810at3193         -            273   0.00022   22.2   0.8   3   4   0.00015     0.043   14.7   0.0   171   270   469   573   449   577 0.81 -
ID=PSME_00013038     -            683 110810at3193         -            273   0.00022   22.2   0.8   4   4         3   8.5e+02    0.6   0.0     7    42   580   615   574   617 0.67 -
ID=PSME_00049142     -            504 110810at3193         -            273   0.00023   22.1   0.1   1   3   0.00028      0.08   13.8   0.0   123   193    30   101    23   115 0.75 -
ID=PSME_00049142     -            504 110810at3193         -            273   0.00023   22.1   0.1   2   3      0.45   1.3e+02    3.3   0.0    22    60   180   219   170   230 0.78 -
ID=PSME_00049142     -            504 110810at3193         -            273   0.00023   22.1   0.1   3   3         3   8.8e+02    0.6   0.0     8    42   329   364   315   373 0.86 -
ID=PSME_00025080     -            450 110810at3193         -            273   0.00024   22.1   1.6   1   4       9.9   2.9e+03   -1.1   0.0   256   271   133   148   108   158 0.65 -
ID=PSME_00025080     -            450 110810at3193         -            273   0.00024   22.1   1.6   2   4   0.00049      0.14   13.0   0.1   135   269   210   358   195   359 0.76 -
ID=PSME_00025080     -            450 110810at3193         -            273   0.00024   22.1   1.6   3   4   8.9e-05     0.026   15.4   0.7    19    77   335   401   321   405 0.69 -
ID=PSME_00025080     -            450 110810at3193         -            273   0.00024   22.1   1.6   4   4      0.17        50    4.7   0.1     7    42   364   401   359   425 0.84 -
ID=PSME_00044281     -            184 110810at3193         -            273   0.00026   22.0   2.9   1   2    0.0025      0.74   10.7   0.4   131   195    35   101    20   114 0.58 -
ID=PSME_00044281     -            184 110810at3193         -            273   0.00026   22.0   2.9   2   2   0.00078      0.22   12.4   0.4    11    63   103   156    98   172 0.78 -
ID=PSME_00009596     -            675 110810at3193         -            273   0.00028   21.9   0.0   1   3   0.00074      0.21   12.4   0.0   206   270    17    84     6    87 0.85 -
ID=PSME_00009596     -            675 110810at3193         -            273   0.00028   21.9   0.0   2   3      0.12        34    5.2   0.0   204   269   107   176    89   178 0.79 -
ID=PSME_00009596     -            675 110810at3193         -            273   0.00028   21.9   0.0   3   3      0.11        31    5.3   0.0   211   251   157   197   147   210 0.85 -
ID=PSME_00019723     -            286 110810at3193         -            273   0.00033   21.7   1.7   1   2    0.0065       1.9    9.3   0.2     8    52    15    61     8    95 0.62 -
ID=PSME_00019723     -            286 110810at3193         -            273   0.00033   21.7   1.7   2   2    0.0036         1   10.2   0.1     7    47    98   139    92   162 0.77 -
ID=PSME_00001105     -            855 110810at3193         -            273   0.00033   21.7   0.0   1   2   0.00036       0.1   13.5   0.0   205   270    16    84     5    87 0.87 -
ID=PSME_00001105     -            855 110810at3193         -            273   0.00033   21.7   0.0   2   2     0.077        22    5.8   0.0   206   269   109   176    96   199 0.74 -
ID=PSME_00045770     -            397 110810at3193         -            273   0.00036   21.5   0.1   1   1   4.3e-06    0.0013   19.7   0.1   121   271   160   322   152   324 0.72 -
ID=PSME_00004313     -            429 110810at3193         -            273   0.00036   21.5   0.2   1   3       1.8   5.3e+02    1.3   0.0    27    42    80    95    67   101 0.86 -
ID=PSME_00004313     -            429 110810at3193         -            273   0.00036   21.5   0.2   2   3      0.42   1.2e+02    3.4   0.0   156   238   104   185    88   201 0.69 -
ID=PSME_00004313     -            429 110810at3193         -            273   0.00036   21.5   0.2   3   3   0.00075      0.22   12.4   0.0   211   270   226   288   198   295 0.75 -
ID=PSME_00014135     -            293 110810at3193         -            273   0.00039   21.4   0.4   1   3       3.3   9.4e+02    0.5   0.0   107   120    47    60    16   119 0.62 -
ID=PSME_00014135     -            293 110810at3193         -            273   0.00039   21.4   0.4   2   3       1.1   3.2e+02    2.0   0.0   168   205   137   174   127   222 0.76 -
ID=PSME_00014135     -            293 110810at3193         -            273   0.00039   21.4   0.4   3   3   9.2e-05     0.026   15.4   0.2    19    70   227   278   211   287 0.83 -
ID=PSME_00045044     -            433 110810at3193         -            273   0.00039   21.4   1.4   1   2   9.3e-05     0.027   15.4   0.1     8    52   128   175   128   184 0.81 -
ID=PSME_00045044     -            433 110810at3193         -            273   0.00039   21.4   1.4   2   2      0.32        93    3.8   0.0    10    42   199   232   192   240 0.87 -
ID=PSME_00014903     -            490 110810at3193         -            273   0.00055   20.9   0.5   1   4      0.55   1.6e+02    3.0   0.0    21    46    25    51    19    57 0.76 -
ID=PSME_00014903     -            490 110810at3193         -            273   0.00055   20.9   0.5   2   4     0.012       3.5    8.5   0.1    13    53    61   102    55   112 0.84 -
ID=PSME_00014903     -            490 110810at3193         -            273   0.00055   20.9   0.5   3   4       4.3   1.2e+03    0.1   0.0    21    58   175   213   156   225 0.72 -
ID=PSME_00014903     -            490 110810at3193         -            273   0.00055   20.9   0.5   4   4      0.39   1.1e+02    3.5   0.0     8    46   325   364   318   372 0.85 -
ID=PSME_00033522     -            393 110810at3193         -            273   0.00058   20.8   0.5   1   1   3.1e-05     0.009   16.9   0.4    12    99    90   186    85   192 0.59 -
ID=PSME_00024143     -            251 110810at3193         -            273   0.00058   20.8   1.1   1   2      0.21        60    4.4   0.0    17    45     4    33     2    48 0.81 -
ID=PSME_00024143     -            251 110810at3193         -            273   0.00058   20.8   1.1   2   2   0.00045      0.13   13.1   1.0   128   269    52   196    44   196 0.81 -
ID=PSME_00045876     -            317 110810at3193         -            273    0.0006   20.8   0.6   1   3      0.37   1.1e+02    3.6   0.0    14    43     8    38     3    52 0.84 -
ID=PSME_00045876     -            317 110810at3193         -            273    0.0006   20.8   0.6   2   3      0.01         3    8.7   0.2   217   269    66   121    49   125 0.71 -
ID=PSME_00045876     -            317 110810at3193         -            273    0.0006   20.8   0.6   3   3      0.12        33    5.2   0.0    10    42   159   192   154   239 0.89 -
ID=PSME_00026479     -            175 110810at3193         -            273   0.00069   20.6   2.1   1   3       3.5     1e+03    0.4   0.1    40    80     6    46     3    55 0.60 -
ID=PSME_00026479     -            175 110810at3193         -            273   0.00069   20.6   2.1   2   3      0.18        52    4.6   0.1   238   270    54    89    42    92 0.62 -
ID=PSME_00026479     -            175 110810at3193         -            273   0.00069   20.6   2.1   3   3   0.00018     0.051   14.5   0.0     6    59    93   147    88   159 0.79 -
ID=PSME_00026539     -            413 110810at3193         -            273    0.0007   20.6   0.6   1   2      0.59   1.7e+02    2.9   0.0    25    43   242   260   227   270 0.73 -
ID=PSME_00026539     -            413 110810at3193         -            273    0.0007   20.6   0.6   2   2   8.4e-05     0.024   15.5   0.2     8    83   270   349   263   367 0.80 -
ID=PSME_00014297     -            652 110810at3193         -            273   0.00088   20.2   0.1   1   2      0.13        37    5.1   0.0    11    41    13    46     9    78 0.79 -
ID=PSME_00014297     -            652 110810at3193         -            273   0.00088   20.2   0.1   2   2    0.0014      0.41   11.5   0.0   175   270   370   468   351   481 0.69 -
ID=PSME_00020863     -            540 110810at3193         -            273    0.0009   20.2   1.0   1   3       1.3   3.7e+02    1.8   0.0    25    44   296   315   281   326 0.71 -
ID=PSME_00020863     -            540 110810at3193         -            273    0.0009   20.2   1.0   2   3     0.003      0.87   10.4   0.0     8    69   324   386   318   401 0.81 -
ID=PSME_00020863     -            540 110810at3193         -            273    0.0009   20.2   1.0   3   3      0.17        49    4.7   0.1    18    95   420   500   413   514 0.61 -
ID=PSME_00040399     -            261 110810at3193         -            273   0.00094   20.1   0.7   1   3      0.57   1.6e+02    3.0   0.0   126   178    16    69     4   101 0.76 -
ID=PSME_00040399     -            261 110810at3193         -            273   0.00094   20.1   0.7   2   3     0.021         6    7.7   0.1   135   165   120   150   108   157 0.87 -
ID=PSME_00040399     -            261 110810at3193         -            273   0.00094   20.1   0.7   3   3     0.062        18    6.1   0.1   129   150   158   179   148   185 0.63 -
ID=PSME_00008859     -           1082 110810at3193         -            273   0.00094   20.1   0.7   1   4       5.7   1.7e+03   -0.3   0.0   197   269   497   530   488   534 0.57 -
ID=PSME_00008859     -           1082 110810at3193         -            273   0.00094   20.1   0.7   2   4    0.0015      0.43   11.4   0.0     6    64   604   661   601   690 0.79 -
ID=PSME_00008859     -           1082 110810at3193         -            273   0.00094   20.1   0.7   3   4      0.58   1.7e+02    2.9   0.0    13    49   651   689   643   716 0.75 -
ID=PSME_00008859     -           1082 110810at3193         -            273   0.00094   20.1   0.7   4   4      0.57   1.6e+02    3.0   0.0   222   270   767   818   729   826 0.60 -
ID=PSME_00007905     -            652 110810at3193         -            273    0.0011   20.0   2.3   1   4      0.62   1.8e+02    2.8   0.0   245   270   376   401   346   404 0.78 -
ID=PSME_00007905     -            652 110810at3193         -            273    0.0011   20.0   2.3   2   4     0.051        15    6.4   0.0   128   189   433   493   424   497 0.78 -
ID=PSME_00007905     -            652 110810at3193         -            273    0.0011   20.0   2.3   3   4       1.9   5.5e+02    1.2   0.6    25    66   523   563   508   570 0.75 -
ID=PSME_00007905     -            652 110810at3193         -            273    0.0011   20.0   2.3   4   4      0.27        78    4.0   0.0     9    43   593   628   591   642 0.84 -
ID=PSME_00031935     -            526 110810at3193         -            273    0.0011   19.9   1.3   1   3       6.5   1.9e+03   -0.5   0.0   134   167    79   112    59   122 0.56 -
ID=PSME_00031935     -            526 110810at3193         -            273    0.0011   19.9   1.3   2   3      0.94   2.7e+02    2.3   0.0    25    45   400   420   385   436 0.70 -
ID=PSME_00031935     -            526 110810at3193         -            273    0.0011   19.9   1.3   3   3   0.00014     0.041   14.8   0.1     8    81   428   505   422   519 0.80 -
ID=PSME_00007253     -            816 110810at3193         -            273    0.0012   19.9   2.8   1   2       0.1        30    5.4   0.0    26    59   206   239   194   258 0.79 -
ID=PSME_00007253     -            816 110810at3193         -            273    0.0012   19.9   2.8   2   2    0.0009      0.26   12.1   0.0   132   190   258   316   245   335 0.81 -
ID=PSME_00024217     -            162 110810at3193         -            273    0.0012   19.8   0.1   1   2   0.00043      0.12   13.2   0.0   138   188    24    78     2    95 0.74 -
ID=PSME_00024217     -            162 110810at3193         -            273    0.0012   19.8   0.1   2   2      0.16        45    4.8   0.0     3    46   105   150   103   158 0.81 -
ID=PSME_00026862     -            353 110810at3193         -            273    0.0013   19.7   1.5   1   2     0.067        19    6.0   0.1    28   162   228   259   203   264 0.53 -
ID=PSME_00026862     -            353 110810at3193         -            273    0.0013   19.7   1.5   2   2    0.0011      0.31   11.9   0.1     6    54   248   298   243   301 0.83 -
ID=PSME_00026651     -            352 110810at3193         -            273    0.0014   19.6   0.3   1   1   7.8e-06    0.0023   18.9   0.2   120   271   174   337   153   339 0.76 -
ID=PSME_00049615     -            187 110810at3193         -            273    0.0014   19.6   0.2   1   2     0.031       8.9    7.1   0.0    11    45     8    43     3    59 0.82 -
ID=PSME_00049615     -            187 110810at3193         -            273    0.0014   19.6   0.2   2   2     0.017       4.9    8.0   0.0    10    53    88   131    79   137 0.79 -
ID=PSME_00015159     -           1006 110810at3193         -            273    0.0014   19.6   1.3   1   3      0.12        35    5.2   0.0   132   183   282   335   269   354 0.74 -
ID=PSME_00015159     -           1006 110810at3193         -            273    0.0014   19.6   1.3   2   3       1.7     5e+02    1.4   0.0    25    46   683   704   667   723 0.70 -
ID=PSME_00015159     -           1006 110810at3193         -            273    0.0014   19.6   1.3   3   3     0.013       3.8    8.3   0.0     9    68   712   772   704   783 0.78 -
ID=PSME_00020225     -            253 110810at3193         -            273    0.0016   19.4   0.1   1   2       1.5   4.4e+02    1.6   0.0    26    42   144   160   124   172 0.76 -
ID=PSME_00020225     -            253 110810at3193         -            273    0.0016   19.4   0.1   2   2   7.2e-05     0.021   15.7   0.0     7    69   176   239   170   249 0.86 -
ID=PSME_00004692     -            453 110810at3193         -            273    0.0017   19.3   0.0   1   2      0.02       5.7    7.7   0.0   205   268   285   351   208   351 0.82 -
ID=PSME_00004692     -            453 110810at3193         -            273    0.0017   19.3   0.0   2   2   0.00011     0.031   15.2   0.0   134   214   341   421   336   429 0.78 -
ID=PSME_00047021     -            388 110810at3193         -            273    0.0017   19.3   0.4   1   3    0.0044       1.3    9.9   0.0     5    51   186   232   182   252 0.84 -
ID=PSME_00047021     -            388 110810at3193         -            273    0.0017   19.3   0.4   2   3      0.96   2.8e+02    2.2   0.0    13    56   241   288   229   301 0.66 -
ID=PSME_00047021     -            388 110810at3193         -            273    0.0017   19.3   0.4   3   3         1     3e+02    2.1   0.0   226   271   313   361   294   364 0.59 -
ID=PSME_00043427     -            246 110810at3193         -            273    0.0018   19.2   0.4   1   2      0.26        74    4.1   0.0    13    44   118   148   114   169 0.72 -
ID=PSME_00043427     -            246 110810at3193         -            273    0.0018   19.2   0.4   2   2   0.00061      0.18   12.7   0.1    29    79   177   232   155   243 0.66 -
ID=PSME_00046185     -            216 110810at3193         -            273    0.0023   18.9   0.3   1   2       0.1        29    5.4   0.0     9    42   119   151    58   153 0.63 -
ID=PSME_00046185     -            216 110810at3193         -            273    0.0023   18.9   0.3   2   2   2.4e-05    0.0069   17.3   0.2     9    81   119   195   111   209 0.78 -
ID=PSME_00001515     -            286 110810at3193         -            273    0.0024   18.8   1.1   1   4       2.5   7.2e+02    0.9   0.1   140   168    16    44     1    65 0.57 -
ID=PSME_00001515     -            286 110810at3193         -            273    0.0024   18.8   1.1   2   4      0.32        92    3.8   0.0    17    64   120   167   109   173 0.82 -
ID=PSME_00001515     -            286 110810at3193         -            273    0.0024   18.8   1.1   3   4      0.02       5.7    7.8   0.0   131   179   173   221   165   232 0.81 -
ID=PSME_00001515     -            286 110810at3193         -            273    0.0024   18.8   1.1   4   4       1.2   3.5e+02    1.9   0.0     7    40   245   283   239   285 0.76 -
ID=PSME_00000461     -            538 110810at3193         -            273    0.0024   18.8   1.5   1   2     0.092        27    5.6   0.1   148   235    50   144    21   167 0.72 -
ID=PSME_00000461     -            538 110810at3193         -            273    0.0024   18.8   1.5   2   2    0.0024      0.69   10.8   0.2    10    56   359   408   356   522 0.85 -
ID=PSME_00006857     -            215 110810at3193         -            273    0.0026   18.7   0.1   1   2    0.0036         1   10.2   0.0    11    46    26    63    23    76 0.83 -
ID=PSME_00006857     -            215 110810at3193         -            273    0.0026   18.7   0.1   2   2     0.068        20    6.0   0.0   207   253    77   123    64   144 0.88 -
ID=PSME_00041218     -            401 110810at3193         -            273    0.0027   18.6   0.1   1   1   3.4e-05      0.01   16.8   0.0   134   269   187   325   164   328 0.77 -
ID=PSME_00018904     -            656 110810at3193         -            273     0.003   18.5   0.0   1   2   8.3e-05     0.024   15.5   0.0   123   192    65   135    55   146 0.79 -
ID=PSME_00018904     -            656 110810at3193         -            273     0.003   18.5   0.0   2   2       9.3   2.7e+03   -1.0   0.0    10    42   366   399   363   406 0.85 -
ID=PSME_00019614     -            461 110810at3193         -            273    0.0031   18.5   0.7   1   4     0.022       6.4    7.6   0.1    10    49   153   191   148   207 0.87 -
ID=PSME_00019614     -            461 110810at3193         -            273    0.0031   18.5   0.7   2   4       3.4   9.7e+02    0.4   0.0    22    49   245   272   228   283 0.72 -
ID=PSME_00019614     -            461 110810at3193         -            273    0.0031   18.5   0.7   3   4      0.46   1.3e+02    3.3   0.0     6    51   285   329   280   339 0.65 -
ID=PSME_00019614     -            461 110810at3193         -            273    0.0031   18.5   0.7   4   4       1.7   4.9e+02    1.4   0.0    29    48   377   396   354   411 0.69 -
ID=PSME_00024236     -            563 110810at3193         -            273    0.0037   18.2   0.0   1   2    0.0052       1.5    9.6   0.0   124   236   295   416   281   435 0.67 -
ID=PSME_00024236     -            563 110810at3193         -            273    0.0037   18.2   0.0   2   2     0.069        20    6.0   0.0   131   163   441   473   426   479 0.82 -
ID=PSME_00010333     -            611 110810at3193         -            273    0.0037   18.2   0.0   1   3   0.00079      0.23   12.3   0.0   124   189   140   206   132   223 0.75 -
ID=PSME_00010333     -            611 110810at3193         -            273    0.0037   18.2   0.0   2   3       5.3   1.5e+03   -0.2   0.0    22    58   289   326   281   338 0.70 -
ID=PSME_00010333     -            611 110810at3193         -            273    0.0037   18.2   0.0   3   3       2.1   6.1e+02    1.1   0.0     8    43   438   474   432   483 0.85 -
ID=PSME_00002176     -            912 110810at3193         -            273    0.0039   18.1   0.8   1   3      0.68     2e+02    2.7   0.0    11   190   158   194   150   204 0.54 -
ID=PSME_00002176     -            912 110810at3193         -            273    0.0039   18.1   0.8   2   3      0.23        66    4.3   0.0    13    47   220   256   216   296 0.75 -
ID=PSME_00002176     -            912 110810at3193         -            273    0.0039   18.1   0.8   3   3     0.021         6    7.7   0.1    11    45   305   341   297   354 0.80 -
ID=PSME_00012692     -            418 110810at3193         -            273    0.0042   18.0   2.6   1   2       4.9   1.4e+03   -0.1   0.0    28    43   100   115    83   120 0.51 -
ID=PSME_00012692     -            418 110810at3193         -            273    0.0042   18.0   2.6   2   2     4e-05     0.011   16.6   1.0     9    90   122   205   116   215 0.69 -
ID=PSME_00031092     -            245 110810at3193         -            273    0.0042   18.0   1.7   1   2       1.8   5.2e+02    1.3   0.0    21    45     3    28     1    43 0.77 -
ID=PSME_00031092     -            245 110810at3193         -            273    0.0042   18.0   1.7   2   2   0.00022     0.063   14.2   1.9   104   269    16   191    13   191 0.77 -
ID=PSME_00001612     -           1070 110810at3193         -            273    0.0043   18.0   0.0   1   2      0.32        92    3.8   0.0    16    46   352   384   340   402 0.81 -
ID=PSME_00001612     -           1070 110810at3193         -            273    0.0043   18.0   0.0   2   2    0.0022      0.62   10.9   0.0   122   191   823   892   754   972 0.66 -
ID=PSME_00042033     -            378 110810at3193         -            273    0.0046   17.9   0.1   1   1   2.8e-05    0.0082   17.1   0.1     8    81   254   331   247   346 0.81 -
ID=PSME_00029703     -            513 110810at3193         -            273    0.0047   17.9   1.2   1   2      0.16        46    4.8   0.0   135   202   225   294   208   307 0.80 -
ID=PSME_00029703     -            513 110810at3193         -            273    0.0047   17.9   1.2   2   2    0.0022      0.64   10.9   0.3    10    67   337   396   330   416 0.78 -
ID=PSME_00007486     -            456 110810at3193         -            273    0.0062   17.5   0.2   1   3     0.012       3.3    8.5   0.0   219   270    34    88    20    91 0.80 -
ID=PSME_00007486     -            456 110810at3193         -            273    0.0062   17.5   0.2   2   3       2.3   6.6e+02    1.0   0.0    28    46   167   185   143   211 0.69 -
ID=PSME_00007486     -            456 110810at3193         -            273    0.0062   17.5   0.2   3   3      0.29        85    3.9   0.0   123   169   204   248   200   325 0.72 -
ID=PSME_00039137     -            147 110810at3193         -            273    0.0084   17.0   0.0   1   1   3.6e-05      0.01   16.7   0.0   137   226    24   117     7   127 0.75 -
ID=PSME_00016664     -            545 110810at3193         -            273    0.0092   16.9   1.3   1   2   0.00028     0.082   13.8   1.2    20   118    62   176    54   260 0.65 -
ID=PSME_00016664     -            545 110810at3193         -            273    0.0092   16.9   1.3   2   2       2.7   7.7e+02    0.8   0.0    12    38   232   259   222   298 0.62 -
ID=PSME_00039843     -            340 110810at3193         -            273     0.012   16.6   0.2   1   2      0.68     2e+02    2.7   0.0    25    44   146   165   131   179 0.71 -
ID=PSME_00039843     -            340 110810at3193         -            273     0.012   16.6   0.2   2   2    0.0016      0.47   11.3   0.0     8    67   174   232   167   249 0.84 -
ID=PSME_00015089     -            114 110810at3193         -            273     0.015   16.2   0.1   1   1   0.00011     0.033   15.1   0.1    14    68    39    93    24    98 0.78 -
ID=PSME_00006527     -             75 110810at3193         -            273     0.018   16.0   0.0   1   1   7.3e-05     0.021   15.7   0.0   118   148     6    37     2    67 0.70 -
ID=PSME_00038141     -            180 110810at3193         -            273     0.018   15.9   0.1   1   1    0.0001     0.029   15.3   0.1   133   269    42   179    20   179 0.82 -
ID=PSME_00011021     -            620 110810at3193         -            273      0.02   15.8   0.2   1   3     0.069        20    6.0   0.0   209   269    76   129    67   129 0.72 -
ID=PSME_00011021     -            620 110810at3193         -            273      0.02   15.8   0.2   2   3    0.0027      0.79   10.6   0.0    20    68   105   154    93   162 0.81 -
ID=PSME_00011021     -            620 110810at3193         -            273      0.02   15.8   0.2   3   3       3.7   1.1e+03    0.3   0.0     4    33   176   206   173   225 0.74 -
ID=PSME_00016071     -            515 110810at3193         -            273     0.022   15.7   0.3   1   4       1.5   4.4e+02    1.6   0.0    13    46    15    51     7    74 0.54 -
ID=PSME_00016071     -            515 110810at3193         -            273     0.022   15.7   0.3   2   4     0.011       3.2    8.6   0.0   213   270   381   441   322   444 0.72 -
ID=PSME_00016071     -            515 110810at3193         -            273     0.022   15.7   0.3   3   4     0.022       6.3    7.6   0.0    11    56   408   456   403   463 0.80 -
ID=PSME_00016071     -            515 110810at3193         -            273     0.022   15.7   0.3   4   4       5.3   1.5e+03   -0.2   0.0    90   117   469   496   460   508 0.81 -
ID=PSME_00047152     -            241 110810at3193         -            273     0.022   15.7   0.2   1   2    0.0014      0.41   11.5   0.0   214   270    22    81    18    84 0.81 -
ID=PSME_00047152     -            241 110810at3193         -            273     0.022   15.7   0.2   2   2     0.002      0.58   11.0   0.2    11    92    48   129    46   185 0.63 -
ID=PSME_00009165     -            630 110810at3193         -            273     0.023   15.6   0.0   1   3      0.21        61    4.4   0.0    12    41    48    80    44   109 0.83 -
ID=PSME_00009165     -            630 110810at3193         -            273     0.023   15.6   0.0   2   3       8.2   2.4e+03   -0.8   0.0    45    83   133   176    95   185 0.67 -
ID=PSME_00009165     -            630 110810at3193         -            273     0.023   15.6   0.0   3   3     0.025       7.1    7.4   0.0   161   263   396   501   389   505 0.70 -
ID=PSME_00012971     -            700 110810at3193         -            273     0.023   15.6   0.0   1   1    0.0002     0.057   14.3   0.0   185   270   460   550   437   553 0.74 -
ID=PSME_00016103     -            712 110810at3193         -            273     0.023   15.6   0.0   1   1   0.00014     0.041   14.8   0.0     5    48    27    70    11    89 0.83 -
ID=PSME_00050035     -            110 110810at3193         -            273     0.031   15.2   0.3   1   2    0.0018      0.52   11.2   0.0    11    56     3    51     1    56 0.80 -
ID=PSME_00050035     -            110 110810at3193         -            273     0.031   15.2   0.3   2   2      0.76   2.2e+02    2.5   0.0    90   117    64    91    55   105 0.79 -
ID=PSME_00007357     -            162 110810at3193         -            273     0.039   14.8   0.1   1   1   0.00044      0.13   13.2   0.0    29   185    99   153    84   160 0.63 -
ID=PSME_00016538     -            135 110810at3193         -            273     0.039   14.8   0.1   1   1   0.00018     0.051   14.5   0.1   122   151    64    93    24   131 0.71 -
ID=PSME_00051515     -            162 110810at3193         -            273     0.039   14.8   0.0   1   2    0.0023      0.67   10.8   0.0   137   190    24    80    10    93 0.81 -
ID=PSME_00051515     -            162 110810at3193         -            273     0.039   14.8   0.0   2   2         1     3e+02    2.1   0.0     2    46   104   150   103   155 0.76 -
ID=PSME_00014973     -            324 110810at3193         -            273     0.044   14.7   0.0   1   3       0.5   1.5e+02    3.1   0.0    11    45    11    46     4    61 0.81 -
ID=PSME_00014973     -            324 110810at3193         -            273     0.044   14.7   0.0   2   3    0.0094       2.7    8.8   0.1   220   269    72   123    48   126 0.61 -
ID=PSME_00014973     -            324 110810at3193         -            273     0.044   14.7   0.0   3   3     0.017       4.9    8.0   0.1    10    53    91   134    83   180 0.87 -
ID=PSME_00054559     -            361 110810at3193         -            273     0.045   14.7   0.0   1   1   0.00057      0.17   12.8   0.0   134   189    83   138    69   143 0.80 -
ID=PSME_00002097     -           1622 110810at3193         -            273     0.045   14.7   0.5   1   3     0.037        11    6.8   0.1     8    45  1200  1238  1193  1283 0.82 -
ID=PSME_00002097     -           1622 110810at3193         -            273     0.045   14.7   0.5   2   3      0.58   1.7e+02    2.9   0.0   116   187  1311  1384  1294  1391 0.77 -
ID=PSME_00002097     -           1622 110810at3193         -            273     0.045   14.7   0.5   3   3         3   8.6e+02    0.6   0.0   247   268  1599  1620  1590  1621 0.69 -
ID=PSME_00053207     -            162 110810at3193         -            273     0.045   14.6   0.0   1   2    0.0029      0.85   10.5   0.0   137   190    24    80     9    94 0.80 -
ID=PSME_00053207     -            162 110810at3193         -            273     0.045   14.6   0.0   2   2      0.91   2.6e+02    2.3   0.0     3    46   105   150   103   155 0.76 -
ID=PSME_00010984     -           1409 110810at3193         -            273     0.048   14.5   0.1   1   2    0.0057       1.6    9.5   0.0     9    43   250   286   247   306 0.88 -
ID=PSME_00010984     -           1409 110810at3193         -            273     0.048   14.5   0.1   2   2       1.2   3.5e+02    1.9   0.0     6    44   369   409   365   427 0.73 -
ID=PSME_00008817     -             97 110810at3193         -            273     0.049   14.5   0.0   1   1   0.00021      0.06   14.2   0.0     6    59    15    69    10    84 0.82 -
ID=PSME_00022351     -            455 110810at3193         -            273      0.05   14.5   0.0   1   1   0.00027     0.077   13.9   0.0   159   270   315   429   296   432 0.82 -
ID=PSME_00005767     -            374 110810at3193         -            273     0.065   14.1   0.0   1   2    0.0039       1.1   10.1   0.0    10    51   213   255   207   269 0.80 -
ID=PSME_00005767     -            374 110810at3193         -            273     0.065   14.1   0.0   2   2       3.1   8.9e+02    0.6   0.0    55    80   288   312   274   350 0.76 -
ID=PSME_00014933     -            423 110810at3193         -            273     0.068   14.1   0.4   1   2    0.0021       0.6   10.9   0.4   114   231   127   252   112   255 0.77 -
ID=PSME_00014933     -            423 110810at3193         -            273     0.068   14.1   0.4   2   2     0.096        28    5.5   0.0    12    44   219   253   207   268 0.80 -
ID=PSME_00049720     -             82 110810at3193         -            273     0.069   14.0   0.0   1   1   0.00025     0.074   13.9   0.0    29    68    22    61    14    78 0.85 -
ID=PSME_00023132     -            523 110810at3193         -            273     0.078   13.9   0.1   1   2     0.006       1.7    9.4   0.0   217   270   349   405   291   408 0.77 -
ID=PSME_00023132     -            523 110810at3193         -            273     0.078   13.9   0.1   2   2       2.3   6.5e+02    1.0   0.0    89   120   432   464   423   507 0.73 -
ID=PSME_00000732     -            256 110810at3193         -            273      0.08   13.8   0.0   1   1   0.00084      0.24   12.3   0.0     9    54   164   210   161   230 0.85 -
ID=PSME_00017542     -            502 110810at3193         -            273     0.081   13.8   0.0   1   2         2   5.7e+02    1.2   0.0    14    43   370   400   364   405 0.57 -
ID=PSME_00017542     -            502 110810at3193         -            273     0.081   13.8   0.0   2   2    0.0034      0.98   10.3   0.0    11    57   410   457   400   486 0.69 -
ID=PSME_00037469     -            155 110810at3193         -            273     0.082   13.8   0.0   1   1   0.00036       0.1   13.5   0.0   176   263    48   136    34   142 0.90 -
ID=PSME_00051286     -            154 110810at3193         -            273     0.084   13.8   0.3   1   1   0.00083      0.24   12.3   0.3    10    57     4    54     2   144 0.79 -
ID=PSME_00021651     -            462 110810at3193         -            273     0.087   13.7   0.0   1   1   0.00058      0.17   12.8   0.0   160   270   179   292   160   346 0.83 -
ID=PSME_00034030     -            481 110810at3193         -            273     0.099   13.5   0.0   1   1    0.0028       0.8   10.5   0.0   213   270   261   321   251   323 0.84 -
ID=PSME_00024324     -            563 110810at3193         -            273      0.11   13.4   0.0   1   1    0.0017      0.49   11.2   0.0   203   270   393   463   374   466 0.83 -
ID=PSME_00046143     -            334 110810at3193         -            273      0.11   13.4   0.1   1   2    0.0054       1.5    9.6   0.0   134   187   145   199   120   225 0.84 -
ID=PSME_00046143     -            334 110810at3193         -            273      0.11   13.4   0.1   2   2       1.7   4.8e+02    1.4   0.0    11    48   274   312   254   324 0.62 -
ID=PSME_00008574     -            297 110810at3193         -            273      0.11   13.3   0.0   1   1   0.00091      0.26   12.1   0.0   134   214   185   265   160   287 0.81 -
ID=PSME_00027473     -            595 110810at3193         -            273      0.12   13.3   0.0   1   2    0.0037       1.1   10.1   0.0   213   270   343   403   311   419 0.78 -
ID=PSME_00027473     -            595 110810at3193         -            273      0.12   13.3   0.0   2   2       3.7   1.1e+03    0.3   0.0    90   123   431   464   422   529 0.74 -
ID=PSME_00015259     -            323 110810at3193         -            273      0.13   13.2   0.1   1   2      0.29        83    3.9   0.0     9    36    45    73    37    76 0.83 -
ID=PSME_00015259     -            323 110810at3193         -            273      0.13   13.2   0.1   2   2     0.056        16    6.3   0.1   212   251    76   115    73   126 0.87 -
ID=PSME_00022364     -            432 110810at3193         -            273      0.13   13.1   0.0   1   2      0.53   1.5e+02    3.1   0.0    12    43    31    65    28    98 0.72 -
ID=PSME_00022364     -            432 110810at3193         -            273      0.13   13.1   0.0   2   2     0.027       7.7    7.3   0.0   213   269   370   429   324   431 0.77 -
ID=PSME_00017357     -            635 110810at3193         -            273      0.13   13.1   0.0   1   1   0.00077      0.22   12.4   0.0   196   269   544   623   500   626 0.73 -
ID=PSME_00009570     -            484 110810at3193         -            273      0.14   13.0   0.1   1   2    0.0032      0.93   10.3   0.1   141   268    75   211    60   215 0.74 -
ID=PSME_00009570     -            484 110810at3193         -            273      0.14   13.0   0.1   2   2      0.81   2.3e+02    2.5   0.0    12    41   182   211   176   236 0.91 -
ID=PSME_00034086     -            152 110810at3193         -            273      0.15   12.9   0.2   1   1    0.0025      0.73   10.7   0.2    11    57     3    52     1   141 0.81 -
ID=PSME_00018909     -            841 110810at3193         -            273      0.16   12.8   0.1   1   3         4   1.1e+03    0.2   0.0    27    48   611   632   591   647 0.68 -
ID=PSME_00018909     -            841 110810at3193         -            273      0.16   12.8   0.1   2   3    0.0071       2.1    9.2   0.1   207   270   661   729   643   734 0.68 -
ID=PSME_00018909     -            841 110810at3193         -            273      0.16   12.8   0.1   3   3      0.02       5.7    7.7   0.0    14    48   698   734   692   754 0.80 -
ID=PSME_00021254     -            444 110810at3193         -            273      0.17   12.7   0.1   1   2      0.23        68    4.2   0.0     6    46   195   235   190   307 0.66 -
ID=PSME_00021254     -            444 110810at3193         -            273      0.17   12.7   0.1   2   2     0.059        17    6.2   0.0    14    45   333   366   327   406 0.80 -
ID=PSME_00043526     -            250 110810at3193         -            273      0.23   12.3   0.0   1   2    0.0045       1.3    9.8   0.0   213   270    30    90    20   105 0.81 -
ID=PSME_00043526     -            250 110810at3193         -            273      0.23   12.3   0.0   2   2       4.4   1.3e+03    0.1   0.0    90   117   118   145   110   193 0.77 -
ID=PSME_00026538     -            259 110810at3193         -            273      0.23   12.3   0.1   1   2      0.57   1.6e+02    3.0   0.0   132   168   150   189   137   195 0.68 -
ID=PSME_00026538     -            259 110810at3193         -            273      0.23   12.3   0.1   2   2     0.067        19    6.0   0.0   222   265   199   243   193   249 0.76 -
ID=PSME_00020926     -             56 110810at3193         -            273      0.25   12.2   0.0   1   2       4.5   1.3e+03    0.0   0.0   176   187     6    17     1    26 0.69 -
ID=PSME_00020926     -             56 110810at3193         -            273      0.25   12.2   0.0   2   2    0.0028       0.8   10.5   0.0   250   270    25    45    16    48 0.82 -
ID=PSME_00038106     -            211 110810at3193         -            273      0.26   12.1   0.0   1   2     0.011       3.2    8.6   0.0   137   186    73   125    45   140 0.79 -
ID=PSME_00038106     -            211 110810at3193         -            273      0.26   12.1   0.0   2   2       1.8   5.1e+02    1.4   0.0     3    46   154   199   152   203 0.74 -
ID=PSME_00031870     -            796 110810at3193         -            273      0.29   12.0   0.5   1   1    0.0026      0.74   10.6   0.2    19    64   123   170   107   191 0.74 -
ID=PSME_00043360     -            260 110810at3193         -            273      0.29   12.0   0.2   1   1    0.0061       1.8    9.4   0.2    11    56    67   115    64   201 0.84 -
ID=PSME_00023192     -            546 110810at3193         -            273       0.3   11.9   0.4   1   2     0.038        11    6.8   0.2    36    71    89   124    78   142 0.51 -
ID=PSME_00023192     -            546 110810at3193         -            273       0.3   11.9   0.4   2   2      0.62   1.8e+02    2.8   0.0    10    51   159   200   150   211 0.81 -
ID=PSME_00049670     -            198 110810at3193         -            273      0.32   11.9   0.2   1   1    0.0042       1.2    9.9   0.2    11    56     5    53     3   143 0.86 -
ID=PSME_00022297     -            298 110810at3193         -            273      0.32   11.8   0.2   1   1    0.0046       1.3    9.8   0.2    11    56   113   161   110   247 0.86 -
ID=PSME_00002967     -            541 110810at3193         -            273      0.34   11.8   0.5   1   2     0.021       5.9    7.7   0.1    18   271   195   263   178   269 0.52 -
ID=PSME_00002967     -            541 110810at3193         -            273      0.34   11.8   0.5   2   2       1.3   3.8e+02    1.8   0.0     6    80   308   379   303   396 0.68 -
ID=PSME_00005266     -            144 110810at3193         -            273      0.46   11.3   0.0   1   1    0.0024       0.7   10.7   0.0   220   270    12    67     5    76 0.64 -
#
# Program:         hmmsearch
# Version:         3.2.1 (June 2018)
# Pipeline mode:   SEARCH
# Query file:      /isg/shared/databases/BUSCO/odb10/embryophyta_odb10/hmms/110810at3193.hmm
# Target file:     /labs/Wegrzyn/ConiferGenomes/Psme/analysis/SURF_annotation/analyze_orig_maker/gfacs/filtered/maker_genes.fasta.faa
# Option settings: /usr/local/bin/hmmsearch --domtblout /labs/Wegrzyn/ConiferGenomes/Psme/analysis/SURF_annotation/analyze_orig_maker/busco/maker/run_embryophyta_odb10/hmmer_output/110810at3193.out --cpu 1 /isg/shared/databases/BUSCO/odb10/embryophyta_odb10/hmms/110810at3193.hmm /labs/Wegrzyn/ConiferGenomes/Psme/analysis/SURF_annotation/analyze_orig_maker/gfacs/filtered/maker_genes.fasta.faa 
# Current dir:     /labs/Wegrzyn/ConiferGenomes/Psme/analysis/SURF_annotation/analyze_orig_maker/busco
# Date:            Fri Jul 10 13:42:20 2020
# [ok]
