#                                                                            --- full sequence --- -------------- this domain -------------   hmm coord   ali coord   env coord
# target name        accession   tlen query name           accession   qlen   E-value  score  bias   #  of  c-Evalue  i-Evalue  score  bias  from    to  from    to  from    to  acc description of target
#------------------- ---------- ----- -------------------- ---------- ----- --------- ------ ----- --- --- --------- --------- ------ ----- ----- ----- ----- ----- ----- ----- ---- ---------------------
ID=PSME_00020678     -            303 111634at3193         -            287   2.3e-14   55.1   0.0   1   2   2.7e-15   2.3e-12   48.5   0.0    48   131    44   122    26   124 0.90 -
ID=PSME_00020678     -            303 111634at3193         -            287   2.3e-14   55.1   0.0   2   2     0.092        77    4.1   0.0   168   211   132   174   129   184 0.89 -
ID=PSME_00013623     -            862 111634at3193         -            287   5.9e-06   27.5   0.2   1   3    0.0075       6.3    7.7   0.0    80   129    97   146    27   150 0.72 -
ID=PSME_00013623     -            862 111634at3193         -            287   5.9e-06   27.5   0.2   2   3     0.007       5.9    7.8   0.0    80   129   405   454   335   466 0.73 -
ID=PSME_00013623     -            862 111634at3193         -            287   5.9e-06   27.5   0.2   3   3    0.0054       4.6    8.1   0.0    72   130   614   678   595   681 0.74 -
ID=PSME_00005507     -            724 111634at3193         -            287   0.00014   23.0   0.0   1   2   0.00089      0.75   10.7   0.0    37   129    53   147    45   150 0.75 -
ID=PSME_00005507     -            724 111634at3193         -            287   0.00014   23.0   0.0   2   2    0.0017       1.5    9.8   0.0    37   129   389   483   381   486 0.75 -
ID=PSME_00020214     -            329 111634at3193         -            287   0.00057   21.0   0.0   1   2   3.6e-06    0.0031   18.6   0.0    83   130    84   131    44   133 0.84 -
ID=PSME_00020214     -            329 111634at3193         -            287   0.00057   21.0   0.0   2   2       2.1   1.7e+03   -0.3   0.0   170   212   147   188   135   200 0.77 -
ID=PSME_00039471     -            400 111634at3193         -            287   0.00086   20.4   0.0   1   2   1.9e-05     0.016   16.2   0.0    74   131    97   158    85   160 0.84 -
ID=PSME_00039471     -            400 111634at3193         -            287   0.00086   20.4   0.0   2   2      0.47     4e+02    1.8   0.0   105   131   274   300   261   302 0.87 -
ID=PSME_00033199     -            359 111634at3193         -            287    0.0044   18.1   0.0   1   1   8.3e-06     0.007   17.4   0.0    74   129    86   145    79   148 0.84 -
ID=PSME_00038261     -            217 111634at3193         -            287    0.0045   18.0   0.0   1   1   7.3e-06    0.0062   17.6   0.0    74   131    95   156    68   158 0.86 -
ID=PSME_00000268     -            502 111634at3193         -            287    0.0049   17.9   0.2   1   2    0.0053       4.5    8.2   0.0    80   129    13    62     1    65 0.78 -
ID=PSME_00000268     -            502 111634at3193         -            287    0.0049   17.9   0.2   2   2    0.0077       6.5    7.6   0.0    81   129   266   314   220   317 0.76 -
ID=PSME_00016024     -            350 111634at3193         -            287    0.0055   17.7   0.0   1   1   9.5e-06     0.008   17.2   0.0    75   131    94   151    47   153 0.77 -
ID=PSME_00020562     -            524 111634at3193         -            287    0.0061   17.6   0.0   1   3     0.017        14    6.5   0.0    74   130    80   138    53   142 0.84 -
ID=PSME_00020562     -            524 111634at3193         -            287    0.0061   17.6   0.0   2   3     0.017        14    6.5   0.0    74   130   272   330   245   334 0.84 -
ID=PSME_00020562     -            524 111634at3193         -            287    0.0061   17.6   0.0   3   3       9.2   7.7e+03   -2.4   0.0   188   210   362   384   352   394 0.84 -
ID=PSME_00048140     -            355 111634at3193         -            287    0.0067   17.5   0.0   1   1   1.2e-05    0.0099   16.9   0.0    74   131    88   146    46   148 0.75 -
ID=PSME_00038262     -            353 111634at3193         -            287    0.0082   17.2   0.0   1   1   1.6e-05     0.013   16.5   0.0    74   131    79   140    65   142 0.84 -
ID=PSME_00008875     -            382 111634at3193         -            287     0.011   16.8   0.0   1   1   1.8e-05     0.015   16.3   0.0    83   129   170   216   132   219 0.85 -
ID=PSME_00024986     -             75 111634at3193         -            287     0.011   16.7   0.0   1   1   1.6e-05     0.013   16.5   0.0    74   130    11    70     8    73 0.83 -
ID=PSME_00052206     -            205 111634at3193         -            287     0.013   16.5   0.1   1   2      0.17   1.4e+02    3.3   0.0    88   131    21    65    10    73 0.79 -
ID=PSME_00052206     -            205 111634at3193         -            287     0.013   16.5   0.1   2   2   0.00056      0.47   11.4   0.0    48   129   115   195    98   202 0.75 -
ID=PSME_00048006     -            328 111634at3193         -            287     0.016   16.2   0.0   1   1   2.8e-05     0.024   15.7   0.0    35   130    44   141    37   147 0.87 -
ID=PSME_00016025     -            365 111634at3193         -            287     0.028   15.4   0.0   1   1     5e-05     0.042   14.8   0.0    77   131   107   162    59   164 0.76 -
ID=PSME_00008526     -            236 111634at3193         -            287     0.031   15.3   0.1   1   1   4.6e-05     0.039   14.9   0.1    30    91    53   119    34   166 0.73 -
ID=PSME_00005115     -            337 111634at3193         -            287     0.031   15.3   0.1   1   1   8.6e-05     0.073   14.1   0.1    84   133    99   148    76   165 0.73 -
ID=PSME_00016027     -            367 111634at3193         -            287     0.032   15.2   0.0   1   1   5.8e-05     0.049   14.6   0.0    75   131   107   164    59   166 0.66 -
ID=PSME_00048601     -            324 111634at3193         -            287     0.033   15.2   0.0   1   1   8.3e-05      0.07   14.1   0.0    74   129    68   128    42   131 0.74 -
ID=PSME_00030113     -            361 111634at3193         -            287     0.034   15.1   0.0   1   1   6.5e-05     0.055   14.5   0.0    74   129    87   146    75   149 0.84 -
ID=PSME_00012219     -            333 111634at3193         -            287     0.046   14.7   0.0   1   1   0.00013      0.11   13.5   0.0    74   131    81   143    44   156 0.71 -
ID=PSME_00026709     -            366 111634at3193         -            287     0.054   14.5   0.0   1   1   0.00011     0.094   13.7   0.0    37   129    49   143    42   147 0.81 -
ID=PSME_00048508     -            360 111634at3193         -            287     0.055   14.5   0.0   1   1   9.7e-05     0.082   13.9   0.0    76   132    96   153    52   162 0.82 -
ID=PSME_00048113     -            323 111634at3193         -            287     0.066   14.2   0.1   1   2   0.00016      0.14   13.1   0.0    45   130    50   134     5   138 0.77 -
ID=PSME_00048113     -            323 111634at3193         -            287     0.066   14.2   0.1   2   2       9.8   8.2e+03   -2.5   0.0   167   212   144   191   136   199 0.67 -
ID=PSME_00037176     -            351 111634at3193         -            287     0.066   14.2   0.0   1   1   0.00012      0.11   13.5   0.0    37   129    47   141    40   145 0.78 -
ID=PSME_00033703     -            323 111634at3193         -            287     0.068   14.1   0.0   1   1   0.00016      0.14   13.1   0.0    45   130    50   134     5   140 0.78 -
ID=PSME_00035788     -            347 111634at3193         -            287     0.069   14.1   0.0   1   2    0.0022       1.9    9.4   0.0    73   130    92   151    58   154 0.77 -
ID=PSME_00035788     -            347 111634at3193         -            287     0.069   14.1   0.0   2   2      0.31   2.6e+02    2.4   0.0   220   267   284   331   275   335 0.91 -
ID=PSME_00024987     -            258 111634at3193         -            287     0.091   13.7   0.1   1   1   0.00021      0.18   12.8   0.1    72   129    11    71     9    76 0.84 -
ID=PSME_00031686     -            323 111634at3193         -            287     0.092   13.7   0.0   1   2   0.00024       0.2   12.6   0.0    47   130    52   134    16   141 0.81 -
ID=PSME_00031686     -            323 111634at3193         -            287     0.092   13.7   0.0   2   2       9.8   8.2e+03   -2.5   0.0   167   212   144   191   136   199 0.67 -
ID=PSME_00030624     -            354 111634at3193         -            287     0.092   13.7   0.0   1   1   0.00017      0.14   13.1   0.0    77   131    96   151    47   153 0.74 -
ID=PSME_00048823     -            353 111634at3193         -            287       0.1   13.5   0.0   1   1   0.00018      0.16   13.0   0.0    47   130    60   143    42   146 0.73 -
ID=PSME_00049361     -            378 111634at3193         -            287      0.12   13.3   0.0   1   1   0.00021      0.18   12.8   0.0    86   131   111   157    65   159 0.88 -
ID=PSME_00030114     -            352 111634at3193         -            287      0.14   13.1   0.0   1   1   0.00025      0.21   12.5   0.0    74   131    79   140    49   142 0.81 -
ID=PSME_00037177     -            359 111634at3193         -            287      0.15   13.0   0.0   1   1   0.00026      0.22   12.5   0.0    52   130    72   150    50   153 0.70 -
ID=PSME_00031056     -            293 111634at3193         -            287      0.15   13.0   0.0   1   1   0.00026      0.22   12.5   0.0    36   130    45   141    38   147 0.79 -
ID=PSME_00049328     -            326 111634at3193         -            287      0.17   12.9   0.0   1   1   0.00045      0.38   11.7   0.0    78   129    87   138    42   141 0.70 -
ID=PSME_00042870     -            357 111634at3193         -            287      0.17   12.9   0.0   1   1   0.00033      0.28   12.2   0.0    36   131    52   149    44   151 0.79 -
ID=PSME_00023917     -            361 111634at3193         -            287      0.17   12.8   0.0   1   1   0.00031      0.26   12.2   0.0    52   130    73   151    51   154 0.70 -
ID=PSME_00047961     -            326 111634at3193         -            287      0.17   12.8   0.0   1   1   0.00043      0.36   11.8   0.0    53   129    63   138    37   141 0.71 -
ID=PSME_00033380     -            336 111634at3193         -            287      0.18   12.7   0.0   1   2    0.0021       1.8    9.5   0.0    81   129    83   131    40   134 0.80 -
ID=PSME_00033380     -            336 111634at3193         -            287      0.18   12.7   0.0   2   2      0.78   6.6e+02    1.1   0.0   168   212   143   189   137   220 0.77 -
ID=PSME_00020943     -            116 111634at3193         -            287      0.19   12.7   0.0   1   1   0.00026      0.22   12.5   0.0   174   219    29    76    12    90 0.83 -
ID=PSME_00008665     -            370 111634at3193         -            287       0.2   12.6   0.0   1   1   0.00039      0.33   11.9   0.0    48   129    94   174    78   178 0.80 -
ID=PSME_00023918     -            363 111634at3193         -            287      0.21   12.5   0.0   1   1   0.00039      0.33   11.9   0.0    52   130    75   153    53   156 0.70 -
ID=PSME_00043953     -            373 111634at3193         -            287      0.23   12.4   0.0   1   1   0.00044      0.37   11.7   0.0    94   131   116   153   103   155 0.85 -
ID=PSME_00024738     -            321 111634at3193         -            287      0.26   12.2   0.0   1   1    0.0007      0.59   11.1   0.0    81   129    88   135    37   138 0.75 -
ID=PSME_00031054     -            351 111634at3193         -            287      0.27   12.2   0.0   1   1   0.00047       0.4   11.6   0.0    75   130    88   144    41   147 0.69 -
ID=PSME_00005925     -            344 111634at3193         -            287      0.28   12.1   0.0   1   2    0.0013       1.1   10.2   0.0    80   129    85   134    41   145 0.74 -
ID=PSME_00005925     -            344 111634at3193         -            287      0.28   12.1   0.0   2   2       2.7   2.2e+03   -0.7   0.0   167   211   145   191   137   197 0.72 -
ID=PSME_00043599     -            338 111634at3193         -            287      0.28   12.1   0.0   1   1   0.00051      0.43   11.5   0.0    82   130   103   150    76   153 0.82 -
ID=PSME_00037211     -            357 111634at3193         -            287       0.3   12.0   0.0   1   2   0.00096      0.81   10.6   0.0    83   129    88   134    48   145 0.78 -
ID=PSME_00037211     -            357 111634at3193         -            287       0.3   12.0   0.0   2   2         7   5.9e+03   -2.1   0.0   167   211   145   191   135   196 0.68 -
ID=PSME_00025930     -            264 111634at3193         -            287       0.3   12.0   0.0   1   1   0.00051      0.43   11.5   0.0    86   136    88   137    33   146 0.76 -
ID=PSME_00000737     -            346 111634at3193         -            287      0.32   11.9   0.0   1   1   0.00059      0.49   11.3   0.0    47   129    73   153    63   156 0.70 -
ID=PSME_00048574     -            325 111634at3193         -            287      0.34   11.9   0.0   1   1   0.00062      0.52   11.2   0.0    45   129    54   137    41   140 0.76 -
ID=PSME_00016120     -           1212 111634at3193         -            287      0.35   11.8   0.0   1   4       1.2     1e+03    0.5   0.0    89   130    97   138    87   152 0.82 -
ID=PSME_00016120     -           1212 111634at3193         -            287      0.35   11.8   0.0   2   4      0.52   4.4e+02    1.6   0.0    87   129   348   390   304   393 0.85 -
ID=PSME_00016120     -           1212 111634at3193         -            287      0.35   11.8   0.0   3   4      0.52   4.4e+02    1.6   0.0    87   129   668   710   624   713 0.85 -
ID=PSME_00016120     -           1212 111634at3193         -            287      0.35   11.8   0.0   4   4      0.52   4.4e+02    1.7   0.0    87   129   977  1019   932  1022 0.85 -
ID=PSME_00052088     -            201 111634at3193         -            287      0.36   11.8   0.0   1   2     0.001      0.84   10.6   0.0    73   130    83   142    51   147 0.82 -
ID=PSME_00052088     -            201 111634at3193         -            287      0.36   11.8   0.0   2   2         7   5.9e+03   -2.1   0.0   189   210   175   196   165   198 0.84 -
ID=PSME_00048445     -            378 111634at3193         -            287      0.37   11.7   0.0   1   1   0.00069      0.58   11.1   0.0    94   131   120   157    89   159 0.85 -
ID=PSME_00023636     -            398 111634at3193         -            287      0.38   11.7   0.0   1   3    0.0024         2    9.3   0.0    73   134    76   142    28   148 0.79 -
ID=PSME_00023636     -            398 111634at3193         -            287      0.38   11.7   0.0   2   3       8.4   7.1e+03   -2.3   0.0   191   212   190   211   156   236 0.79 -
ID=PSME_00023636     -            398 111634at3193         -            287      0.38   11.7   0.0   3   3       3.3   2.8e+03   -1.0   0.0   190   211   242   263   211   268 0.82 -
ID=PSME_00027225     -            258 111634at3193         -            287      0.41   11.6   0.0   1   1   0.00067      0.57   11.1   0.0    51   128    56   132    33   146 0.74 -
ID=PSME_00047559     -            335 111634at3193         -            287      0.41   11.6   0.0   1   2    0.0013       1.1   10.2   0.0    45   129    66   149    32   152 0.72 -
ID=PSME_00047559     -            335 111634at3193         -            287      0.41   11.6   0.0   2   2         6     5e+03   -1.8   0.0   168   214   161   209   157   230 0.67 -
ID=PSME_00045441     -             90 111634at3193         -            287      0.44   11.5   0.0   1   1   0.00056      0.47   11.4   0.0    89   130    31    72    10    79 0.83 -
ID=PSME_00048363     -            330 111634at3193         -            287      0.46   11.4   0.0   1   2    0.0016       1.3    9.9   0.0    95   130    99   134    48   137 0.84 -
ID=PSME_00048363     -            330 111634at3193         -            287      0.46   11.4   0.0   2   2       6.4   5.4e+03   -1.9   0.0   188   211   166   189   142   198 0.84 -
ID=PSME_00038303     -            327 111634at3193         -            287      0.48   11.4   0.0   1   1   0.00087      0.73   10.8   0.0    47   129    60   141    46   144 0.69 -
ID=PSME_00007139     -            359 111634at3193         -            287      0.55   11.2   0.0   1   1   0.00098      0.83   10.6   0.0    46   129    78   160    63   164 0.77 -
ID=PSME_00036104     -            335 111634at3193         -            287      0.57   11.1   0.0   1   2    0.0057       4.8    8.1   0.0    82   130    94   142    57   145 0.83 -
ID=PSME_00036104     -            335 111634at3193         -            287      0.57   11.1   0.0   2   2      0.97   8.2e+02    0.8   0.0   166   221   151   210   147   227 0.65 -
#
# Program:         hmmsearch
# Version:         3.2.1 (June 2018)
# Pipeline mode:   SEARCH
# Query file:      /isg/shared/databases/BUSCO/odb10/embryophyta_odb10/hmms/111634at3193.hmm
# Target file:     /labs/Wegrzyn/ConiferGenomes/Psme/analysis/SURF_annotation/analyze_orig_maker/gfacs/filtered/maker_genes.fasta.faa
# Option settings: /usr/local/bin/hmmsearch --domtblout /labs/Wegrzyn/ConiferGenomes/Psme/analysis/SURF_annotation/analyze_orig_maker/busco/maker/run_embryophyta_odb10/hmmer_output/111634at3193.out --cpu 1 /isg/shared/databases/BUSCO/odb10/embryophyta_odb10/hmms/111634at3193.hmm /labs/Wegrzyn/ConiferGenomes/Psme/analysis/SURF_annotation/analyze_orig_maker/gfacs/filtered/maker_genes.fasta.faa 
# Current dir:     /labs/Wegrzyn/ConiferGenomes/Psme/analysis/SURF_annotation/analyze_orig_maker/busco
# Date:            Fri Jul 10 13:41:47 2020
# [ok]
