#                                                                            --- full sequence --- -------------- this domain -------------   hmm coord   ali coord   env coord
# target name        accession   tlen query name           accession   qlen   E-value  score  bias   #  of  c-Evalue  i-Evalue  score  bias  from    to  from    to  from    to  acc description of target
#------------------- ---------- ----- -------------------- ---------- ----- --------- ------ ----- --- --- --------- --------- ------ ----- ----- ----- ----- ----- ----- ----- ---- ---------------------
ID=PSME_00029164     -            357 111949at3193         -            275  1.2e-136  455.7   0.4   1   1  7.9e-139  1.7e-136  455.3   0.4    35   265    55   285    50   291 0.98 -
ID=PSME_00000837     -            552 111949at3193         -            275   2.5e-52  179.2   0.1   1   2     1e-26   2.2e-24   87.5   0.0    17   262    65   290    52   297 0.82 -
ID=PSME_00000837     -            552 111949at3193         -            275   2.5e-52  179.2   0.1   2   2   3.9e-27   8.2e-25   88.9   0.0    17   265   319   547   309   550 0.81 -
ID=PSME_00001487     -           3191 111949at3193         -            275   2.7e-45  156.1  20.5   1   8   5.9e-05     0.012   16.2   0.0    21   113   356   445   339   463 0.84 -
ID=PSME_00001487     -           3191 111949at3193         -            275   2.7e-45  156.1  20.5   2   8   0.00063      0.13   12.8   0.0   149   253   758   843   740   861 0.84 -
ID=PSME_00001487     -           3191 111949at3193         -            275   2.7e-45  156.1  20.5   3   8   1.2e-07   2.6e-05   25.0   0.0    25   111  1241  1324  1217  1346 0.79 -
ID=PSME_00001487     -           3191 111949at3193         -            275   2.7e-45  156.1  20.5   4   8   5.6e-07   0.00012   22.8   0.2    16   196  1585  1738  1574  1792 0.69 -
ID=PSME_00001487     -           3191 111949at3193         -            275   2.7e-45  156.1  20.5   5   8   7.4e-07   0.00016   22.4   0.3    24   111  1953  2037  1941  2064 0.82 -
ID=PSME_00001487     -           3191 111949at3193         -            275   2.7e-45  156.1  20.5   6   8   0.00012     0.025   15.2   0.0    32   111  2190  2266  2167  2287 0.75 -
ID=PSME_00001487     -           3191 111949at3193         -            275   2.7e-45  156.1  20.5   7   8   3.6e-07   7.5e-05   23.5   0.0    25   111  2589  2672  2565  2695 0.78 -
ID=PSME_00001487     -           3191 111949at3193         -            275   2.7e-45  156.1  20.5   8   8   1.3e-05    0.0028   18.3   0.1   149   249  3085  3166  3078  3177 0.85 -
ID=PSME_00016535     -           1277 111949at3193         -            275   7.2e-37  128.5   4.3   1   2   6.8e-19   1.4e-16   61.9   0.1    17   253   390   611   375   620 0.77 -
ID=PSME_00016535     -           1277 111949at3193         -            275   7.2e-37  128.5   4.3   2   2   3.7e-20   7.8e-18   66.0   0.9    21   256  1043  1260  1022  1267 0.80 -
ID=PSME_00023523     -           1291 111949at3193         -            275   7.2e-36  125.2   4.5   1   2   2.3e-18   4.9e-16   60.2   0.7    15   258   406   633   396   639 0.77 -
ID=PSME_00023523     -           1291 111949at3193         -            275   7.2e-36  125.2   4.5   2   2   7.7e-20   1.6e-17   65.0   0.2    15   254  1045  1269  1033  1279 0.79 -
ID=PSME_00038380     -           1264 111949at3193         -            275   5.4e-34  119.0   3.5   1   2   4.3e-17   9.1e-15   56.0   0.2    21   255   394   610   374   624 0.77 -
ID=PSME_00038380     -           1264 111949at3193         -            275   5.4e-34  119.0   3.5   2   2   3.6e-19   7.5e-17   62.8   0.4    27   247  1036  1238  1022  1248 0.75 -
ID=PSME_00009726     -           1349 111949at3193         -            275   9.5e-34  118.2   7.6   1   2   1.6e-18   3.4e-16   60.7   0.8    15   251   427   648   419   663 0.76 -
ID=PSME_00009726     -           1349 111949at3193         -            275   9.5e-34  118.2   7.6   2   2   2.9e-18   6.1e-16   59.8   1.0    25   256  1118  1332  1096  1345 0.80 -
ID=PSME_00039058     -           1189 111949at3193         -            275   2.3e-33  117.0   4.5   1   2   2.7e-17   5.7e-15   56.6   0.1    21   256   375   592   356   609 0.78 -
ID=PSME_00039058     -           1189 111949at3193         -            275   2.3e-33  117.0   4.5   2   2   1.6e-18   3.4e-16   60.7   1.0    26   226   960  1143   945  1174 0.76 -
ID=PSME_00023264     -           1238 111949at3193         -            275   2.4e-33  117.0   4.1   1   2   2.3e-17   4.9e-15   56.9   0.1    21   256   375   592   356   609 0.78 -
ID=PSME_00023264     -           1238 111949at3193         -            275   2.4e-33  117.0   4.1   2   2   2.5e-18   5.3e-16   60.0   0.9    22   225  1005  1191   990  1222 0.75 -
ID=PSME_00023263     -           1098 111949at3193         -            275   3.1e-33  116.6   4.3   1   2   1.6e-17   3.4e-15   57.4   0.1    21   256   235   452   214   469 0.78 -
ID=PSME_00023263     -           1098 111949at3193         -            275   3.1e-33  116.6   4.3   2   2   3.4e-18   7.2e-16   59.6   0.8    26   226   869  1052   854  1083 0.76 -
ID=PSME_00031965     -           1246 111949at3193         -            275   6.2e-33  115.6   2.6   1   2   2.1e-16   4.5e-14   53.7   0.1    28   253   382   589   359   603 0.75 -
ID=PSME_00031965     -           1246 111949at3193         -            275   6.2e-33  115.6   2.6   2   2   1.6e-18   3.3e-16   60.7   0.5    27   247  1018  1220  1004  1232 0.75 -
ID=PSME_00011041     -           1259 111949at3193         -            275   1.3e-32  114.5   6.9   1   2   2.2e-18   4.6e-16   60.2   0.9    21   252   388   601   371   627 0.79 -
ID=PSME_00011041     -           1259 111949at3193         -            275   1.3e-32  114.5   6.9   2   2   3.8e-17   7.9e-15   56.2   0.6    26   249  1032  1237  1012  1245 0.78 -
ID=PSME_00027754     -           1353 111949at3193         -            275   3.3e-32  113.2   4.1   1   2   1.1e-17   2.3e-15   58.0   0.2    15   246   429   645   421   665 0.73 -
ID=PSME_00027754     -           1353 111949at3193         -            275   3.3e-32  113.2   4.1   2   2   6.6e-17   1.4e-14   55.4   0.6    25   256  1122  1336  1100  1346 0.80 -
ID=PSME_00026486     -           1367 111949at3193         -            275     8e-32  111.9   6.0   1   2   4.4e-18   9.2e-16   59.3   0.3    15   252   443   665   435   679 0.78 -
ID=PSME_00026486     -           1367 111949at3193         -            275     8e-32  111.9   6.0   2   2   1.6e-16   3.3e-14   54.2   0.9    25   251  1136  1345  1117  1355 0.80 -
ID=PSME_00023484     -           1364 111949at3193         -            275   1.3e-31  111.3   4.2   1   2   3.2e-15   6.7e-13   49.9   0.2    21   252   465   677   454   685 0.76 -
ID=PSME_00023484     -           1364 111949at3193         -            275   1.3e-31  111.3   4.2   2   2   1.2e-18   2.6e-16   61.1   0.6    24   251  1120  1329  1103  1336 0.78 -
ID=PSME_00030174     -           1318 111949at3193         -            275   8.2e-31  108.6   6.9   1   2   1.3e-17   2.7e-15   57.7   0.4    15   251   394   615   386   630 0.75 -
ID=PSME_00030174     -           1318 111949at3193         -            275   8.2e-31  108.6   6.9   2   2   4.3e-16     9e-14   52.7   1.4    25   254  1087  1299  1065  1312 0.80 -
ID=PSME_00001908     -           1230 111949at3193         -            275   3.4e-30  106.6   2.2   1   2   1.1e-15   2.4e-13   51.3   0.1    15   253   352   575   340   594 0.77 -
ID=PSME_00001908     -           1230 111949at3193         -            275   3.4e-30  106.6   2.2   2   2   1.8e-16   3.9e-14   53.9   0.4    15   250   986  1206   973  1216 0.79 -
ID=PSME_00039275     -           1254 111949at3193         -            275   1.1e-29  104.9   3.9   1   2   5.1e-16   1.1e-13   52.5   0.1    15   254   379   603   368   622 0.78 -
ID=PSME_00039275     -           1254 111949at3193         -            275   1.1e-29  104.9   3.9   2   2   6.1e-16   1.3e-13   52.2   0.7    25   250  1022  1229   997  1240 0.79 -
ID=PSME_00036536     -           1254 111949at3193         -            275   1.2e-29  104.8   3.8   1   2   4.1e-16   8.5e-14   52.8   0.1    21   253   391   605   376   626 0.77 -
ID=PSME_00036536     -           1254 111949at3193         -            275   1.2e-29  104.8   3.8   2   2   1.2e-15   2.5e-13   51.3   1.1    25   253  1023  1232   999  1242 0.75 -
ID=PSME_00001910     -           1271 111949at3193         -            275   1.9e-29  104.1   1.8   1   2     2e-14   4.1e-12   47.3   0.0    20   253   402   617   391   639 0.78 -
ID=PSME_00001910     -           1271 111949at3193         -            275   1.9e-29  104.1   1.8   2   2   1.2e-16   2.5e-14   54.6   0.7    11   249  1022  1245  1013  1255 0.75 -
ID=PSME_00023028     -           1259 111949at3193         -            275   2.3e-29  103.9   3.3   1   2   1.1e-14   2.2e-12   48.2   0.0    10   259   378   612   371   628 0.76 -
ID=PSME_00023028     -           1259 111949at3193         -            275   2.3e-29  103.9   3.3   2   2   1.1e-16   2.4e-14   54.6   1.1    15   250  1014  1234  1002  1245 0.74 -
ID=PSME_00004142     -           1185 111949at3193         -            275   2.4e-29  103.8   1.2   1   2   1.5e-13   3.1e-11   44.4   0.0    20   253   312   527   302   540 0.78 -
ID=PSME_00004142     -           1185 111949at3193         -            275   2.4e-29  103.8   1.2   2   2   2.2e-17   4.6e-15   57.0   0.2    28   256   952  1162   936  1174 0.84 -
ID=PSME_00020852     -           1263 111949at3193         -            275     1e-28  101.8   4.1   1   2   2.8e-13   5.9e-11   43.5   0.1    21   253   393   607   375   626 0.76 -
ID=PSME_00020852     -           1263 111949at3193         -            275     1e-28  101.8   4.1   2   2   1.2e-17   2.4e-15   57.9   1.3    15   251  1018  1238  1006  1247 0.77 -
ID=PSME_00042040     -           1202 111949at3193         -            275   1.1e-28  101.6   2.4   1   2   8.7e-15   1.8e-12   48.4   0.0    21   253   336   550   326   570 0.77 -
ID=PSME_00042040     -           1202 111949at3193         -            275   1.1e-28  101.6   2.4   2   2   1.1e-15   2.4e-13   51.3   0.8    25   251   971  1178   946  1185 0.75 -
ID=PSME_00043262     -            941 111949at3193         -            275   1.3e-28  101.5   4.2   1   2   9.6e-15     2e-12   48.3   0.0    21   252    74   287    56   306 0.76 -
ID=PSME_00043262     -            941 111949at3193         -            275   1.3e-28  101.5   4.2   2   2   6.1e-16   1.3e-13   52.2   1.7    25   251   709   916   685   925 0.75 -
ID=PSME_00038180     -           1250 111949at3193         -            275   3.7e-28   99.9   4.3   1   2   1.1e-15   2.2e-13   51.4   0.1    21   253   388   602   373   623 0.77 -
ID=PSME_00038180     -           1250 111949at3193         -            275   3.7e-28   99.9   4.3   2   2   1.2e-14   2.4e-12   48.0   1.3    26   254  1021  1230   996  1244 0.75 -
ID=PSME_00036003     -            289 111949at3193         -            275   1.2e-27   98.2   0.0   1   1   1.1e-29   2.2e-27   97.4   0.0    17   265    56   284    45   287 0.83 -
ID=PSME_00006521     -           1282 111949at3193         -            275   2.7e-27   97.1   4.9   1   2   2.8e-14   5.8e-12   46.8   0.1    21   258   409   628   392   646 0.76 -
ID=PSME_00006521     -           1282 111949at3193         -            275   2.7e-27   97.1   4.9   2   2   2.1e-15   4.5e-13   50.4   1.3    25   251  1050  1257  1025  1265 0.73 -
ID=PSME_00006519     -           1190 111949at3193         -            275   3.7e-27   96.6   5.6   1   2   7.9e-15   1.7e-12   48.6   0.2    23   258   337   554   320   572 0.78 -
ID=PSME_00006519     -           1190 111949at3193         -            275   3.7e-27   96.6   5.6   2   2   5.7e-15   1.2e-12   49.0   1.1    25   251   958  1165   933  1174 0.73 -
ID=PSME_00020479     -            303 111949at3193         -            275   4.3e-27   96.4   0.0   1   1   3.4e-29   7.2e-27   95.7   0.0    18   265    71   298    57   301 0.84 -
ID=PSME_00037733     -           1271 111949at3193         -            275   1.2e-26   95.0   5.5   1   2   1.4e-13     3e-11   44.5   0.1    21   253   407   621   390   640 0.76 -
ID=PSME_00037733     -           1271 111949at3193         -            275   1.2e-26   95.0   5.5   2   2   1.4e-15   2.9e-13   51.1   1.4    25   251  1040  1247  1016  1256 0.81 -
ID=PSME_00001938     -           1330 111949at3193         -            275   1.6e-26   94.6   3.2   1   2     5e-17     1e-14   55.8   0.2    15   255   404   629   395   642 0.75 -
ID=PSME_00001938     -           1330 111949at3193         -            275   1.6e-26   94.6   3.2   2   2   1.9e-11     4e-09   37.5   0.3    25   253  1099  1311  1079  1321 0.76 -
ID=PSME_00021092     -           1222 111949at3193         -            275   3.5e-26   93.4   3.7   1   2   6.5e-13   1.4e-10   42.3   0.1    25   253   378   588   364   602 0.77 -
ID=PSME_00021092     -           1222 111949at3193         -            275   3.5e-26   93.4   3.7   2   2   2.4e-15   5.1e-13   50.3   0.7    21   251   980  1192   962  1199 0.80 -
ID=PSME_00049879     -            274 111949at3193         -            275   9.7e-26   92.0   0.0   1   1   8.3e-28   1.7e-25   91.1   0.0    27   265    52   269    35   272 0.81 -
ID=PSME_00036002     -            273 111949at3193         -            275   1.6e-25   91.2   0.1   1   1   1.4e-27     3e-25   90.4   0.1    18   260    41   263    30   271 0.79 -
ID=PSME_00045612     -            906 111949at3193         -            275   2.1e-24   87.6   0.5   1   2     3e-14   6.2e-12   46.7   0.1    21   196   167   352   149   388 0.79 -
ID=PSME_00045612     -            906 111949at3193         -            275   2.1e-24   87.6   0.5   2   2     7e-11   1.5e-08   35.6   0.1    30   189   506   645   488   658 0.83 -
ID=PSME_00001491     -           1030 111949at3193         -            275   2.2e-24   87.5   7.9   1   2   6.3e-12   1.3e-09   39.0   1.1    26   232   197   399   180   421 0.72 -
ID=PSME_00001491     -           1030 111949at3193         -            275   2.2e-24   87.5   7.9   2   2   1.8e-15   3.8e-13   50.7   0.8    25   249   798  1004   774  1014 0.74 -
ID=PSME_00037475     -           1244 111949at3193         -            275   6.7e-23   82.7   3.9   1   2   1.6e-10   3.3e-08   34.5   0.1    21   252   419   619   407   639 0.78 -
ID=PSME_00037475     -           1244 111949at3193         -            275   6.7e-23   82.7   3.9   2   2   2.4e-14     5e-12   47.0   1.3    10   251   999  1225   992  1231 0.77 -
ID=PSME_00005534     -           1235 111949at3193         -            275   2.1e-22   81.0   5.2   1   3   1.2e-06   0.00025   21.7   0.0    15    74   371   433   363   438 0.84 -
ID=PSME_00005534     -           1235 111949at3193         -            275   2.1e-22   81.0   5.2   2   3   3.3e-05    0.0068   17.0   0.3   148   255   445   533   435   548 0.81 -
ID=PSME_00005534     -           1235 111949at3193         -            275   2.1e-22   81.0   5.2   3   3   8.4e-13   1.8e-10   41.9   0.3    25   253  1003  1215   981  1225 0.77 -
ID=PSME_00009725     -           1046 111949at3193         -            275   3.2e-22   80.4   2.0   1   2   5.7e-05     0.012   16.2   0.0    15    69   283   340   275   348 0.83 -
ID=PSME_00009725     -           1046 111949at3193         -            275   3.2e-22   80.4   2.0   2   2   9.4e-19     2e-16   61.4   1.6    25   255   815  1028   793  1039 0.80 -
ID=PSME_00046830     -            968 111949at3193         -            275   2.7e-21   77.4   6.0   1   2   1.2e-09   2.4e-07   31.6   0.2    32   252   137   339   108   354 0.74 -
ID=PSME_00046830     -            968 111949at3193         -            275   2.7e-21   77.4   6.0   2   2     6e-14   1.3e-11   45.7   1.6    15   251   721   942   708   957 0.74 -
ID=PSME_00014276     -           1486 111949at3193         -            275   3.8e-21   76.9   1.4   1   2   2.7e-10   5.7e-08   33.7   0.1    15   191   488   661   476   711 0.81 -
ID=PSME_00014276     -           1486 111949at3193         -            275   3.8e-21   76.9   1.4   2   2   1.2e-12   2.5e-10   41.4   0.2    26   252  1250  1459  1235  1471 0.75 -
ID=PSME_00021941     -           1133 111949at3193         -            275   4.2e-21   76.8   6.5   1   3   3.2e-05    0.0068   17.1   0.0    25    74   320   369   311   377 0.91 -
ID=PSME_00021941     -           1133 111949at3193         -            275   4.2e-21   76.8   6.5   2   3   3.1e-05    0.0065   17.1   0.4   148   263   381   477   371   486 0.81 -
ID=PSME_00021941     -           1133 111949at3193         -            275   4.2e-21   76.8   6.5   3   3   6.3e-13   1.3e-10   42.3   0.2    25   253   902  1113   883  1123 0.76 -
ID=PSME_00048726     -            534 111949at3193         -            275   6.2e-21   76.2   2.0   1   2   2.7e-12   5.6e-10   40.3   0.8    17    74   123   180   115   328 0.91 -
ID=PSME_00048726     -            534 111949at3193         -            275   6.2e-21   76.2   2.0   2   2   1.2e-08   2.5e-06   28.3   0.0    12    73   445   506   436   511 0.86 -
ID=PSME_00000836     -            282 111949at3193         -            275   2.7e-20   74.1   0.1   1   2     1e-13   2.2e-11   44.9   0.0    17   126    61   169    51   176 0.77 -
ID=PSME_00000836     -            282 111949at3193         -            275   2.7e-20   74.1   0.1   2   2   3.9e-08   8.2e-06   26.6   0.0   175   265   196   277   190   280 0.89 -
ID=PSME_00021093     -           1119 111949at3193         -            275   3.1e-19   70.7   3.0   1   2   4.2e-07   8.8e-05   23.2   0.1    91   256   219   368   201   384 0.73 -
ID=PSME_00021093     -           1119 111949at3193         -            275   3.1e-19   70.7   3.0   2   2   3.8e-14   8.1e-12   46.3   0.4    21   242   780   983   761   999 0.74 -
ID=PSME_00036222     -           1182 111949at3193         -            275   4.9e-19   70.0   1.0   1   2   5.2e-13   1.1e-10   42.6   0.1    23   254   386   599   369   615 0.77 -
ID=PSME_00036222     -           1182 111949at3193         -            275   4.9e-19   70.0   1.0   2   2   3.9e-07   8.2e-05   23.3   0.2   148   255  1076  1164  1066  1169 0.86 -
ID=PSME_00005535     -           1066 111949at3193         -            275   6.8e-19   69.5   1.8   1   2     2e-16   4.3e-14   53.8   0.2    15   207   203   392   195   429 0.79 -
ID=PSME_00005535     -           1066 111949at3193         -            275   6.8e-19   69.5   1.8   2   2   0.00016     0.034   14.7   0.1    29   110   838   917   821   931 0.79 -
ID=PSME_00000646     -            396 111949at3193         -            275   1.4e-18   68.5   0.5   1   1   1.6e-20   3.3e-18   67.3   0.5    18   252    24   245    19   253 0.81 -
ID=PSME_00002896     -            675 111949at3193         -            275   2.2e-18   67.9   0.0   1   1   2.6e-20   5.4e-18   66.6   0.0    19   245    50   262    41   272 0.77 -
ID=PSME_00015619     -            721 111949at3193         -            275   2.4e-18   67.8   5.3   1   2   1.7e-05    0.0035   18.0   0.1   149   253     9    94     5   111 0.84 -
ID=PSME_00015619     -            721 111949at3193         -            275   2.4e-18   67.8   5.3   2   2   2.9e-15   6.1e-13   50.0   1.3    21   249   485   695   465   705 0.75 -
ID=PSME_00000106     -            709 111949at3193         -            275   3.4e-18   67.3   0.4   1   1   1.9e-19   4.1e-17   63.7   0.4    20   251    98   339    91   344 0.75 -
ID=PSME_00005319     -            712 111949at3193         -            275   3.4e-18   67.3   0.0   1   1   3.7e-20   7.8e-18   66.0   0.0    19   245    87   299    81   309 0.77 -
ID=PSME_00002898     -            762 111949at3193         -            275   3.8e-18   67.1   0.0   1   1   4.2e-20   8.7e-18   65.9   0.0    19   245   137   349   129   359 0.77 -
ID=PSME_00018696     -            395 111949at3193         -            275     1e-17   65.7   0.3   1   1   1.9e-19   4.1e-17   63.7   0.3    26   258   164   381   154   389 0.83 -
ID=PSME_00056379     -            695 111949at3193         -            275   2.1e-16   61.4   0.2   1   1   1.7e-18   3.5e-16   60.6   0.2    28   256   118   336   113   345 0.73 -
ID=PSME_00031976     -            987 111949at3193         -            275   3.6e-16   60.6   4.7   1   2     0.036       7.7    7.0   0.1   209   253   293   336   272   356 0.84 -
ID=PSME_00031976     -            987 111949at3193         -            275   3.6e-16   60.6   4.7   2   2   2.9e-16   6.2e-14   53.3   1.9    25   253   756   965   731   974 0.75 -
ID=PSME_00023924     -           1148 111949at3193         -            275   4.1e-16   60.4   7.4   1   3   0.00011     0.022   15.4   0.0    21    80   329   388   312   402 0.88 -
ID=PSME_00023924     -           1148 111949at3193         -            275   4.1e-16   60.4   7.4   2   3    0.0047      0.98   10.0   0.3   149   250   445   527   440   537 0.79 -
ID=PSME_00023924     -           1148 111949at3193         -            275   4.1e-16   60.4   7.4   3   3   2.4e-10   5.1e-08   33.9   2.3    25   248   912  1121   887  1132 0.76 -
ID=PSME_00034515     -            526 111949at3193         -            275   8.4e-16   59.4   0.6   1   1   8.7e-18   1.8e-15   58.3   0.6    26   207   297   471   281   512 0.77 -
ID=PSME_00024036     -            949 111949at3193         -            275   8.6e-16   59.4   0.1   1   2       8.5   1.8e+03   -0.7   0.0   191   239   231   281   226   287 0.79 -
ID=PSME_00024036     -            949 111949at3193         -            275   8.6e-16   59.4   0.1   2   2   2.7e-17   5.7e-15   56.7   0.1    15   208   358   548   350   594 0.76 -
ID=PSME_00020482     -            370 111949at3193         -            275   9.4e-16   59.2   0.0   1   1   6.3e-18   1.3e-15   58.7   0.0    23   185   132   289   114   317 0.79 -
ID=PSME_00034795     -            693 111949at3193         -            275   1.4e-15   58.7   0.0   1   1   1.4e-17   2.9e-15   57.6   0.0    27   214   109   291   102   328 0.82 -
ID=PSME_00033760     -            909 111949at3193         -            275   1.6e-15   58.5   0.1   1   1   1.6e-17   3.4e-15   57.4   0.1    15   205   348   535   340   561 0.75 -
ID=PSME_00026671     -           1043 111949at3193         -            275   1.8e-15   58.3   4.7   1   3       3.1   6.5e+02    0.7   0.0    26    57   295   326   284   331 0.81 -
ID=PSME_00026671     -           1043 111949at3193         -            275   1.8e-15   58.3   4.7   2   3   1.5e-05    0.0031   18.2   0.1   149   253   364   449   348   462 0.83 -
ID=PSME_00026671     -           1043 111949at3193         -            275   1.8e-15   58.3   4.7   3   3   1.9e-11     4e-09   37.5   0.1    15   189   865  1036   853  1042 0.72 -
ID=PSME_00005988     -            704 111949at3193         -            275   2.6e-15   57.8   0.0   1   1     2e-17   4.2e-15   57.1   0.0    27   211    68   248    57   262 0.82 -
ID=PSME_00031356     -            891 111949at3193         -            275   2.7e-15   57.7   0.1   1   1   3.2e-17   6.7e-15   56.4   0.1    15   246   267   483   259   497 0.73 -
ID=PSME_00021039     -            836 111949at3193         -            275   3.1e-15   57.5   0.3   1   1   3.4e-17   7.1e-15   56.3   0.3    25   248   237   434   218   450 0.79 -
ID=PSME_00030599     -            499 111949at3193         -            275   3.4e-15   57.4   0.1   1   1   3.5e-17   7.3e-15   56.3   0.0    26   201   276   442   244   467 0.89 -
ID=PSME_00009312     -            651 111949at3193         -            275     5e-15   56.8   0.0   1   1   1.5e-16   3.1e-14   54.3   0.0    12   244   344   559   335   577 0.75 -
ID=PSME_00055047     -            550 111949at3193         -            275   7.4e-15   56.3   0.2   1   1   5.9e-17   1.2e-14   55.6   0.2    28   204    41   214    37   266 0.71 -
ID=PSME_00030029     -            941 111949at3193         -            275     9e-15   56.0   0.2   1   1     7e-17   1.5e-14   55.3   0.2    26   196   341   508   320   560 0.81 -
ID=PSME_00029501     -            748 111949at3193         -            275   1.4e-14   55.4   0.0   1   1   1.1e-16   2.2e-14   54.7   0.0    29   214   119   300    92   332 0.82 -
ID=PSME_00032229     -            850 111949at3193         -            275   1.5e-14   55.3   0.1   1   1   1.3e-16   2.7e-14   54.4   0.1    26   195   250   416   232   472 0.81 -
ID=PSME_00039347     -            755 111949at3193         -            275   1.6e-14   55.2   0.1   1   1   1.4e-16   2.9e-14   54.3   0.1    15   208   248   428   239   474 0.77 -
ID=PSME_00005285     -            796 111949at3193         -            275   1.7e-14   55.1   0.0   1   1   1.3e-16   2.8e-14   54.4   0.0    26   201   346   512   336   544 0.90 -
ID=PSME_00052931     -            467 111949at3193         -            275   1.7e-14   55.1   0.9   1   1   1.5e-16   3.2e-14   54.2   0.9    26   207   239   414   222   453 0.78 -
ID=PSME_00030389     -            854 111949at3193         -            275   2.2e-14   54.7   0.4   1   1   3.5e-16   7.3e-14   53.0   0.4    16   249   380   598   370   608 0.80 -
ID=PSME_00005287     -            800 111949at3193         -            275   2.7e-14   54.4   0.0   1   1   2.1e-16   4.5e-14   53.7   0.0    21   201   340   510   330   542 0.89 -
ID=PSME_00034484     -            848 111949at3193         -            275   2.8e-14   54.4   0.5   1   1   4.8e-16     1e-13   52.6   0.5    15   253   267   490   259   500 0.78 -
ID=PSME_00036453     -            553 111949at3193         -            275   4.8e-14   53.6   0.0   1   1   3.8e-16     8e-14   52.9   0.0    27   203    86   260    80   308 0.82 -
ID=PSME_00021576     -            448 111949at3193         -            275     5e-14   53.6   1.5   1   1   4.6e-16   9.7e-14   52.6   1.5    26   229   219   405   204   433 0.78 -
ID=PSME_00040636     -            437 111949at3193         -            275   6.7e-14   53.2   0.9   1   1   8.1e-16   1.7e-13   51.8   0.9    26   205   237   407   231   435 0.78 -
ID=PSME_00015981     -            600 111949at3193         -            275   8.8e-14   52.8   0.0   1   2   1.2e-07   2.4e-05   25.1   0.0    13   201    75   263    66   276 0.76 -
ID=PSME_00015981     -            600 111949at3193         -            275   8.8e-14   52.8   0.0   2   2     1e-06   0.00021   22.0   0.0    26    72   398   444   389   456 0.87 -
ID=PSME_00033865     -            441 111949at3193         -            275     1e-13   52.6   0.0   1   2   7.5e-06    0.0016   19.1   0.0    25    63    95   133    70   136 0.76 -
ID=PSME_00033865     -            441 111949at3193         -            275     1e-13   52.6   0.0   2   2   9.7e-10     2e-07   31.9   0.0    96   206   135   237   131   250 0.87 -
ID=PSME_00030171     -            745 111949at3193         -            275   1.4e-13   52.1   0.8   1   1   1.9e-15     4e-13   50.6   0.8    26   245   309   510   289   522 0.75 -
ID=PSME_00012238     -            267 111949at3193         -            275   1.7e-13   51.8   1.9   1   1   2.1e-15   4.5e-13   50.4   1.9    25   250    37   244    17   252 0.76 -
ID=PSME_00013022     -            447 111949at3193         -            275     2e-13   51.6   3.5   1   1   2.1e-15   4.4e-13   50.5   1.4    26   251   227   423   212   430 0.82 -
ID=PSME_00019068     -            847 111949at3193         -            275   2.2e-13   51.4   0.4   1   2   1.3e-14   2.7e-12   47.9   0.3    16   191   377   549   368   578 0.81 -
ID=PSME_00019068     -            847 111949at3193         -            275   2.2e-13   51.4   0.4   2   2       1.6   3.3e+02    1.7   0.1   219   250   554   584   550   593 0.86 -
ID=PSME_00005442     -            675 111949at3193         -            275   3.3e-13   50.9   0.0   1   1   2.3e-15   4.9e-13   50.3   0.0    28   201   314   478   285   514 0.87 -
ID=PSME_00007371     -            226 111949at3193         -            275   6.2e-13   50.0   1.4   1   1   7.1e-15   1.5e-12   48.7   1.4    29   247     2   203     1   214 0.73 -
ID=PSME_00023991     -           1237 111949at3193         -            275   6.8e-13   49.8   3.0   1   2   7.7e-06    0.0016   19.1   0.7    25   263   135   342   130   355 0.67 -
ID=PSME_00023991     -           1237 111949at3193         -            275   6.8e-13   49.8   3.0   2   2   8.5e-08   1.8e-05   25.5   0.1    15   245   747   960   742   989 0.72 -
ID=PSME_00033312     -            273 111949at3193         -            275   7.4e-13   49.7   0.3   1   2   6.2e-12   1.3e-09   39.1   0.0    25   105    59   137    41   155 0.86 -
ID=PSME_00033312     -            273 111949at3193         -            275   7.4e-13   49.7   0.3   2   2      0.01       2.1    8.9   0.0   142   184   200   235   167   243 0.77 -
ID=PSME_00007700     -            720 111949at3193         -            275   7.6e-13   49.7   0.0   1   1   8.5e-15   1.8e-12   48.5   0.0    17   214    57   251    54   285 0.79 -
ID=PSME_00031136     -            577 111949at3193         -            275   8.4e-13   49.5   0.3   1   1   1.1e-14   2.3e-12   48.1   0.3    15   228   354   553   346   574 0.69 -
ID=PSME_00007229     -            343 111949at3193         -            275   1.4e-12   48.8   0.0   1   1     1e-14   2.1e-12   48.2   0.0    18   181   126   285   112   298 0.82 -
ID=PSME_00032551     -            938 111949at3193         -            275   1.6e-12   48.6   0.8   1   1   2.2e-14   4.7e-12   47.1   0.8    15   251   348   569   340   586 0.73 -
ID=PSME_00001268     -           1484 111949at3193         -            275   2.6e-12   48.0   0.5   1   3    0.0099       2.1    8.9   0.0    29    78   156   208   146   239 0.76 -
ID=PSME_00001268     -           1484 111949at3193         -            275   2.6e-12   48.0   0.5   2   3       1.2   2.6e+02    2.0   0.0   142   171   305   333   275   361 0.71 -
ID=PSME_00001268     -           1484 111949at3193         -            275   2.6e-12   48.0   0.5   3   3   5.1e-10   1.1e-07   32.8   0.1    24   206   904  1083   893  1101 0.82 -
ID=PSME_00054519     -            392 111949at3193         -            275   3.8e-12   47.4   0.1   1   1   5.7e-14   1.2e-11   45.8   0.1    37   254    10   209     2   225 0.77 -
ID=PSME_00023061     -            954 111949at3193         -            275   3.9e-12   47.4   0.1   1   1   4.2e-14   8.8e-12   46.2   0.1    15   204   354   540   346   587 0.74 -
ID=PSME_00044147     -            686 111949at3193         -            275   4.3e-12   47.2   0.6   1   1   7.3e-14   1.5e-11   45.4   0.1    25   253   218   428   205   442 0.77 -
ID=PSME_00017831     -            793 111949at3193         -            275   4.7e-12   47.1   0.5   1   1   6.4e-14   1.3e-11   45.6   0.5    22   246   242   448   225   456 0.73 -
ID=PSME_00022740     -            676 111949at3193         -            275   7.5e-12   46.4   2.0   1   4   2.3e-05    0.0048   17.5   0.1    38    69   130   161   122   164 0.93 -
ID=PSME_00022740     -            676 111949at3193         -            275   7.5e-12   46.4   2.0   2   4     0.017       3.6    8.1   0.0   131   199   268   333   247   349 0.72 -
ID=PSME_00022740     -            676 111949at3193         -            275   7.5e-12   46.4   2.0   3   4   0.00016     0.035   14.7   0.0    41    69   445   473   426   478 0.82 -
ID=PSME_00022740     -            676 111949at3193         -            275   7.5e-12   46.4   2.0   4   4       1.2   2.5e+02    2.1   0.0   137   202   525   583   502   610 0.71 -
ID=PSME_00030919     -           1023 111949at3193         -            275   1.4e-11   45.5   1.5   1   2   2.5e-05    0.0052   17.4   0.2   139   253   400   494   392   512 0.82 -
ID=PSME_00030919     -           1023 111949at3193         -            275   1.4e-11   45.5   1.5   2   2   4.5e-08   9.4e-06   26.4   0.1    25   111   915   998   891  1018 0.79 -
ID=PSME_00045465     -            706 111949at3193         -            275   1.6e-11   45.3   0.7   1   1   1.2e-13   2.6e-11   44.7   0.0    17   197   113   285   106   342 0.74 -
ID=PSME_00042092     -            524 111949at3193         -            275   2.5e-11   44.7   1.1   1   1   3.5e-13   7.4e-11   43.2   1.1    40   227   148   318   138   355 0.70 -
ID=PSME_00015426     -            627 111949at3193         -            275   4.6e-11   43.8   0.1   1   1   6.4e-13   1.4e-10   42.3   0.1    15   252   364   586   352   602 0.75 -
ID=PSME_00014750     -            773 111949at3193         -            275   4.9e-11   43.8   0.2   1   1   4.8e-13     1e-10   42.7   0.2    26   249   140   351   130   361 0.78 -
ID=PSME_00013473     -            822 111949at3193         -            275   5.1e-11   43.7   0.5   1   2   5.6e-08   1.2e-05   26.1   0.0    23    74   316   367   299   387 0.90 -
ID=PSME_00013473     -            822 111949at3193         -            275   5.1e-11   43.7   0.5   2   2   0.00012     0.026   15.1   0.2   147   240   395   482   376   494 0.76 -
ID=PSME_00054478     -            147 111949at3193         -            275   6.2e-11   43.4   0.0   1   1   5.3e-13   1.1e-10   42.6   0.0   142   265    35   142    12   145 0.83 -
ID=PSME_00003012     -           1423 111949at3193         -            275   8.4e-11   43.0   3.5   1   2   9.5e-05      0.02   15.5   0.7    26   264   322   529   316   541 0.68 -
ID=PSME_00003012     -           1423 111949at3193         -            275   8.4e-11   43.0   3.5   2   2   5.6e-07   0.00012   22.8   0.1    14   201   932  1114   928  1174 0.74 -
ID=PSME_00043620     -            367 111949at3193         -            275     1e-10   42.7   0.1   1   2   2.2e-05    0.0047   17.6   0.0    16    57   110   157    96   160 0.73 -
ID=PSME_00043620     -            367 111949at3193         -            275     1e-10   42.7   0.1   2   2   2.4e-07     5e-05   24.1   0.0   126   197   157   223   155   272 0.81 -
ID=PSME_00037831     -            711 111949at3193         -            275   1.9e-10   41.9   0.1   1   1   1.5e-12   3.1e-10   41.1   0.1    26   192   123   284   117   337 0.81 -
ID=PSME_00008903     -            659 111949at3193         -            275   2.8e-10   41.3  10.0   1   4   0.00044     0.093   13.3   0.2     7    70   106   172    98   180 0.79 -
ID=PSME_00008903     -            659 111949at3193         -            275   2.8e-10   41.3  10.0   2   4     0.021       4.4    7.8   0.0   149   170   220   241   210   253 0.83 -
ID=PSME_00008903     -            659 111949at3193         -            275   2.8e-10   41.3  10.0   3   4   5.9e-07   0.00012   22.8   0.4    29    76   425   472   419   487 0.92 -
ID=PSME_00008903     -            659 111949at3193         -            275   2.8e-10   41.3  10.0   4   4         4   8.4e+02    0.3   0.1   179   202   568   591   558   654 0.48 -
ID=PSME_00028351     -            831 111949at3193         -            275   2.9e-10   41.2   0.2   1   2   4.3e-07   8.9e-05   23.2   0.0    28   113   254   336   237   347 0.85 -
ID=PSME_00028351     -            831 111949at3193         -            275   2.9e-10   41.2   0.2   2   2   9.7e-05      0.02   15.5   0.2   147   206   349   401   338   439 0.81 -
ID=PSME_00010270     -            446 111949at3193         -            275   3.9e-10   40.8   1.1   1   2   3.9e-06   0.00083   20.0   0.0    15    70   248   306   240   318 0.85 -
ID=PSME_00010270     -            446 111949at3193         -            275   3.9e-10   40.8   1.1   2   2   1.9e-05     0.004   17.8   0.9   148   245   360   438   347   444 0.73 -
ID=PSME_00014724     -           1491 111949at3193         -            275   4.7e-10   40.5   3.4   1   3   0.00055      0.12   13.0   0.0    27   114   177   262   158   288 0.82 -
ID=PSME_00014724     -           1491 111949at3193         -            275   4.7e-10   40.5   3.4   2   3      0.65   1.4e+02    2.9   0.0   141   204   327   384   295   397 0.66 -
ID=PSME_00014724     -           1491 111949at3193         -            275   4.7e-10   40.5   3.4   3   3   8.5e-07   0.00018   22.2   0.5    28   206   892  1067   882  1102 0.75 -
ID=PSME_00024822     -            330 111949at3193         -            275   5.9e-10   40.2   0.1   1   2   5.5e-05     0.012   16.3   0.0    25    58    88   121    76   124 0.89 -
ID=PSME_00024822     -            330 111949at3193         -            275   5.9e-10   40.2   0.1   2   2   5.7e-07   0.00012   22.8   0.0   126   193   120   182   118   232 0.87 -
ID=PSME_00014748     -            765 111949at3193         -            275   6.6e-10   40.0   0.1   1   1   6.1e-12   1.3e-09   39.1   0.1    26   249   132   343   123   352 0.79 -
ID=PSME_00011596     -            626 111949at3193         -            275   7.4e-10   39.9   0.1   1   1   1.4e-11   2.9e-09   38.0   0.1    25   253   186   396   171   409 0.77 -
ID=PSME_00015447     -           1506 111949at3193         -            275   8.3e-10   39.7   0.3   1   2    0.0033       0.7   10.4   0.0    27    74   243   293   230   334 0.84 -
ID=PSME_00015447     -           1506 111949at3193         -            275   8.3e-10   39.7   0.3   2   2   5.4e-08   1.1e-05   26.2   0.2    29   209   934  1111   916  1153 0.77 -
ID=PSME_00035350     -            765 111949at3193         -            275     1e-09   39.4   0.1   1   1   9.6e-12     2e-09   38.5   0.1    16   199   396   576   383   608 0.76 -
ID=PSME_00015395     -           1468 111949at3193         -            275   1.4e-09   38.9   2.4   1   3    0.0043      0.91   10.1   0.0    27   114   177   262   158   288 0.82 -
ID=PSME_00015395     -           1468 111949at3193         -            275   1.4e-09   38.9   2.4   2   3      0.52   1.1e+02    3.3   0.0   141   204   327   384   295   424 0.72 -
ID=PSME_00015395     -           1468 111949at3193         -            275   1.4e-09   38.9   2.4   3   3   6.1e-07   0.00013   22.7   0.3    28   206   892  1067   885  1099 0.77 -
ID=PSME_00001267     -           1305 111949at3193         -            275   1.7e-09   38.7   1.2   1   3     0.013       2.7    8.5   0.0    37    82    68   116    54   143 0.78 -
ID=PSME_00001267     -           1305 111949at3193         -            275   1.7e-09   38.7   1.2   2   3       3.2   6.8e+02    0.6   0.0   139   169   225   254   213   273 0.73 -
ID=PSME_00001267     -           1305 111949at3193         -            275   1.7e-09   38.7   1.2   3   3   5.3e-08   1.1e-05   26.2   0.2    28   206   729   904   719   936 0.80 -
ID=PSME_00001762     -           1486 111949at3193         -            275   3.9e-09   37.5   0.8   1   3      0.57   1.2e+02    3.1   0.0    29    77   188   239   179   270 0.77 -
ID=PSME_00001762     -           1486 111949at3193         -            275   3.9e-09   37.5   0.8   2   3      0.45        94    3.5   0.0   121   205   318   394   311   436 0.70 -
ID=PSME_00001762     -           1486 111949at3193         -            275   3.9e-09   37.5   0.8   3   3   2.8e-08   5.9e-06   27.1   0.1    28   207   910  1086   905  1126 0.77 -
ID=PSME_00004629     -            521 111949at3193         -            275   5.2e-09   37.1   0.0   1   1     7e-11   1.5e-08   35.6   0.0    30   266   300   516   280   520 0.79 -
ID=PSME_00007073     -           1467 111949at3193         -            275   5.4e-09   37.1   4.4   1   3    0.0084       1.8    9.1   0.0    28   114   179   263   164   288 0.82 -
ID=PSME_00007073     -           1467 111949at3193         -            275   5.4e-09   37.1   4.4   2   3      0.43        89    3.5   0.1   141   204   328   385   296   430 0.67 -
ID=PSME_00007073     -           1467 111949at3193         -            275   5.4e-09   37.1   4.4   3   3   4.6e-07   9.7e-05   23.1   0.4    28   206   892  1067   884  1101 0.73 -
ID=PSME_00018956     -            344 111949at3193         -            275   6.1e-09   36.9   0.1   1   1   4.4e-11   9.2e-09   36.3   0.1    23   113   233   320   216   339 0.83 -
ID=PSME_00026230     -            821 111949at3193         -            275   6.6e-09   36.8   3.3   1   1   8.2e-10   1.7e-07   32.1   3.3    26   254   292   484   282   500 0.79 -
ID=PSME_00006916     -            680 111949at3193         -            275   8.5e-09   36.4   0.3   1   2   3.9e-09   8.2e-07   29.9   0.0    15   113   262   360   254   378 0.82 -
ID=PSME_00006916     -            680 111949at3193         -            275   8.5e-09   36.4   0.3   2   2      0.25        53    4.3   0.1   216   254   412   450   394   466 0.77 -
ID=PSME_00001078     -            424 111949at3193         -            275     1e-08   36.2   3.1   1   2   1.4e-05    0.0028   18.3   0.1    26    70   220   264   205   287 0.87 -
ID=PSME_00001078     -            424 111949at3193         -            275     1e-08   36.2   3.1   2   2   1.7e-05    0.0036   18.0   0.5   146   225   316   377   268   409 0.73 -
ID=PSME_00033736     -            295 111949at3193         -            275   1.3e-08   35.8   0.1   1   1   9.5e-11     2e-08   35.2   0.1    26   113   186   270   169   289 0.83 -
ID=PSME_00015513     -            262 111949at3193         -            275   3.8e-08   34.3   0.0   1   1   2.8e-10   5.9e-08   33.7   0.0    26   127   141   239   128   249 0.83 -
ID=PSME_00005403     -           1464 111949at3193         -            275   4.5e-08   34.0   0.7   1   3      0.67   1.4e+02    2.9   0.0    45    76   177   211   173   244 0.74 -
ID=PSME_00005403     -           1464 111949at3193         -            275   4.5e-08   34.0   0.7   2   3       1.4   2.8e+02    1.9   0.0   141   204   309   366   280   409 0.69 -
ID=PSME_00005403     -           1464 111949at3193         -            275   4.5e-08   34.0   0.7   3   3   1.1e-07   2.3e-05   25.1   0.1    28   206   888  1063   873  1102 0.81 -
ID=PSME_00022442     -            724 111949at3193         -            275   5.6e-08   33.7   0.1   1   2   4.8e-07    0.0001   23.0   0.0    26    74   220   268   206   304 0.92 -
ID=PSME_00022442     -            724 111949at3193         -            275   5.6e-08   33.7   0.1   2   2     0.015       3.2    8.3   0.0   148   205   343   393   330   432 0.79 -
ID=PSME_00049548     -            132 111949at3193         -            275     6e-08   33.6   0.1   1   1   3.5e-10   7.5e-08   33.3   0.1    26    77    63   114    43   124 0.91 -
ID=PSME_00012870     -           1527 111949at3193         -            275   8.1e-08   33.2   0.3   1   3     0.023       4.7    7.7   0.0    28    68   172   210   158   257 0.76 -
ID=PSME_00012870     -           1527 111949at3193         -            275   8.1e-08   33.2   0.3   2   3       4.5   9.4e+02    0.2   0.0   142   165   333   356   321   391 0.77 -
ID=PSME_00012870     -           1527 111949at3193         -            275   8.1e-08   33.2   0.3   3   3   4.3e-06   0.00091   19.9   0.2    28   247   889  1097   878  1106 0.72 -
ID=PSME_00013320     -           1482 111949at3193         -            275     9e-08   33.0   0.5   1   3      0.54   1.1e+02    3.2   0.0    28    76   169   220   156   253 0.75 -
ID=PSME_00013320     -           1482 111949at3193         -            275     9e-08   33.0   0.5   2   3      0.46        96    3.4   0.0   142   207   319   378   291   417 0.73 -
ID=PSME_00013320     -           1482 111949at3193         -            275     9e-08   33.0   0.5   3   3     1e-06   0.00021   22.0   0.1    28   206   906  1081   893  1121 0.80 -
ID=PSME_00000869     -           1457 111949at3193         -            275   1.3e-07   32.6   1.2   1   3       0.7   1.5e+02    2.8   0.0    29    81   191   246   182   274 0.75 -
ID=PSME_00000869     -           1457 111949at3193         -            275   1.3e-07   32.6   1.2   2   3       1.1   2.2e+02    2.2   0.0   138   187   336   378   316   403 0.70 -
ID=PSME_00000869     -           1457 111949at3193         -            275   1.3e-07   32.6   1.2   3   3   2.8e-07   5.8e-05   23.8   0.2    29   204   910  1082   894  1093 0.79 -
ID=PSME_00014913     -            172 111949at3193         -            275   1.6e-07   32.3   0.1   1   1   8.9e-10   1.9e-07   32.0   0.1    26   113    63   147    43   166 0.81 -
ID=PSME_00003974     -             71 111949at3193         -            275   1.6e-07   32.2   0.0   1   1   8.3e-10   1.7e-07   32.1   0.0    45    91     2    48     1    55 0.95 -
ID=PSME_00008988     -            919 111949at3193         -            275   2.2e-07   31.8   1.0   1   3      0.59   1.2e+02    3.1   0.0    45    83     7    48     4    74 0.80 -
ID=PSME_00008988     -            919 111949at3193         -            275   2.2e-07   31.8   1.0   2   3       4.2   8.7e+02    0.3   0.0   134   172   132   169   114   199 0.71 -
ID=PSME_00008988     -            919 111949at3193         -            275   2.2e-07   31.8   1.0   3   3   2.1e-07   4.4e-05   24.2   0.1    10   206   675   868   667   878 0.79 -
ID=PSME_00020613     -            135 111949at3193         -            275   2.6e-07   31.5   0.0   1   1   1.2e-09   2.6e-07   31.5   0.0    27   127     5   102     2   134 0.82 -
ID=PSME_00006204     -           1418 111949at3193         -            275   3.1e-07   31.3   2.9   1   2     0.055        12    6.4   0.0    28    83   163   221   154   248 0.79 -
ID=PSME_00006204     -           1418 111949at3193         -            275   3.1e-07   31.3   2.9   2   2     1e-06   0.00022   22.0   1.0    28   206   842  1017   830  1051 0.71 -
ID=PSME_00021000     -           1307 111949at3193         -            275   3.2e-07   31.2   0.2   1   1   2.2e-07   4.7e-05   24.1   0.0    10   256   408   629   400   639 0.62 -
ID=PSME_00000867     -           1467 111949at3193         -            275   3.5e-07   31.1   0.4   1   3      0.27        57    4.2   0.0    29    68   174   211   169   257 0.71 -
ID=PSME_00000867     -           1467 111949at3193         -            275   3.5e-07   31.1   0.4   2   3       4.8     1e+03    0.1   0.0   142   164   323   345   289   381 0.71 -
ID=PSME_00000867     -           1467 111949at3193         -            275   3.5e-07   31.1   0.4   3   3   1.1e-06   0.00023   21.8   0.1    28   208   892  1069   879  1105 0.76 -
ID=PSME_00000647     -           1456 111949at3193         -            275   3.7e-07   31.0   0.8   1   2      0.14        29    5.1   0.0    28    66   156   194   151   218 0.81 -
ID=PSME_00000647     -           1456 111949at3193         -            275   3.7e-07   31.0   0.8   2   2   5.4e-07   0.00011   22.9   0.1    28   203   885  1057   863  1069 0.80 -
ID=PSME_00006856     -            376 111949at3193         -            275   4.2e-07   30.9   0.0   1   1   3.3e-09   6.8e-07   30.2   0.0    27   124   260   354   253   365 0.82 -
ID=PSME_00051283     -            172 111949at3193         -            275   4.2e-07   30.8   0.0   1   1   2.5e-09   5.3e-07   30.5   0.0    24   124    61   155    43   167 0.81 -
ID=PSME_00023134     -           1436 111949at3193         -            275   5.9e-07   30.4   0.4   1   1   3.3e-07   6.9e-05   23.6   0.1    10   256   636   852   628   866 0.65 -
ID=PSME_00002846     -            112 111949at3193         -            275   9.7e-07   29.7   0.0   1   2   3.9e-06   0.00082   20.1   0.0    26    66    12    52     7    58 0.91 -
ID=PSME_00002846     -            112 111949at3193         -            275   9.7e-07   29.7   0.0   2   2     0.017       3.5    8.2   0.0   127   167    59    99    54   111 0.88 -
ID=PSME_00013091     -            336 111949at3193         -            275     1e-06   29.6   0.1   1   1   7.3e-09   1.5e-06   29.0   0.1    26   110   227   308   212   330 0.78 -
ID=PSME_00021918     -           1528 111949at3193         -            275   1.2e-06   29.4   1.7   1   1     6e-07   0.00013   22.7   0.1    13   257   642   856   634   869 0.65 -
ID=PSME_00015316     -           1528 111949at3193         -            275   1.2e-06   29.4   4.1   1   3      0.19        39    4.7   0.0    28    79   188   242   180   272 0.79 -
ID=PSME_00015316     -           1528 111949at3193         -            275   1.2e-06   29.4   4.1   2   3      0.28        59    4.1   0.0   141   206   337   396   301   434 0.68 -
ID=PSME_00015316     -           1528 111949at3193         -            275   1.2e-06   29.4   4.1   3   3   5.9e-05     0.012   16.2   1.2    28   207   920  1096   915  1136 0.61 -
ID=PSME_00033402     -            332 111949at3193         -            275   1.5e-06   29.0   0.0   1   1   1.6e-08   3.3e-06   27.9   0.0    26    76   263   313   247   322 0.89 -
ID=PSME_00010124     -            337 111949at3193         -            275   1.6e-06   29.0   0.1   1   1   1.2e-08   2.6e-06   28.3   0.1    21    77   223   279   206   328 0.86 -
ID=PSME_00013830     -            416 111949at3193         -            275     2e-06   28.6   0.1   1   1   1.3e-08   2.8e-06   28.2   0.1    25   114   281   367   261   415 0.72 -
ID=PSME_00009768     -           1071 111949at3193         -            275     2e-06   28.6   0.3   1   3      0.47     1e+02    3.4   0.0    45    83   297   338   292   364 0.80 -
ID=PSME_00009768     -           1071 111949at3193         -            275     2e-06   28.6   0.3   2   3       8.9   1.9e+03   -0.8   0.0   134   170   422   457   406   489 0.69 -
ID=PSME_00009768     -           1071 111949at3193         -            275     2e-06   28.6   0.3   3   3   1.8e-06   0.00037   21.2   0.0    26   202   843  1016   820  1028 0.80 -
ID=PSME_00003531     -            125 111949at3193         -            275   2.2e-06   28.5   0.0   1   1   1.2e-08   2.6e-06   28.2   0.0    27   129     5   104     2   115 0.86 -
ID=PSME_00009192     -           1497 111949at3193         -            275   2.4e-06   28.4   2.0   1   4      0.37        77    3.7   0.0    29    74   170   212   159   254 0.71 -
ID=PSME_00009192     -           1497 111949at3193         -            275   2.4e-06   28.4   2.0   2   4       1.3   2.8e+02    1.9   0.0   141   205   318   376   292   418 0.67 -
ID=PSME_00009192     -           1497 111949at3193         -            275   2.4e-06   28.4   2.0   3   4    0.0083       1.7    9.1   0.1    28    65   892   929   885   949 0.84 -
ID=PSME_00009192     -           1497 111949at3193         -            275   2.4e-06   28.4   2.0   4   4      0.01       2.2    8.8   0.0   172   207  1062  1097  1016  1138 0.71 -
ID=PSME_00005733     -           1350 111949at3193         -            275   3.1e-06   28.0   3.1   1   2   5.3e-06    0.0011   19.6   0.7    29    76   570   617   565   622 0.94 -
ID=PSME_00005733     -           1350 111949at3193         -            275   3.1e-06   28.0   3.1   2   2     0.041       8.5    6.9   0.0   149   200   677   722   618   782 0.73 -
ID=PSME_00048779     -            143 111949at3193         -            275   3.1e-06   28.0   0.0   1   1   1.9e-08   3.9e-06   27.7   0.0   148   247    53   138    34   142 0.84 -
ID=PSME_00012924     -            539 111949at3193         -            275   3.4e-06   27.9   1.0   1   2     0.035       7.4    7.1   0.0    28    51    41    64    38    77 0.92 -
ID=PSME_00012924     -            539 111949at3193         -            275   3.4e-06   27.9   1.0   2   2   5.3e-06    0.0011   19.6   0.1   122   255    94   214    64   224 0.69 -
ID=PSME_00021011     -           1249 111949at3193         -            275   4.1e-06   27.6   4.5   1   1   1.5e-06   0.00032   21.4   1.9    30   198   505   654   500   714 0.64 -
ID=PSME_00006871     -            902 111949at3193         -            275   4.6e-06   27.4   0.3   1   3       1.2   2.4e+02    2.1   0.0    45    82     7    45     4    58 0.83 -
ID=PSME_00006871     -            902 111949at3193         -            275   4.6e-06   27.4   0.3   2   3       8.5   1.8e+03   -0.7   0.0   134   164   130   160   113   180 0.72 -
ID=PSME_00006871     -            902 111949at3193         -            275   4.6e-06   27.4   0.3   3   3   1.8e-06   0.00039   21.1   0.1    28   207   631   807   621   842 0.76 -
ID=PSME_00022643     -            211 111949at3193         -            275   4.7e-06   27.4   0.9   1   1   5.9e-08   1.2e-05   26.0   0.9    27   207    15   192     3   200 0.78 -
ID=PSME_00022190     -            215 111949at3193         -            275   4.8e-06   27.4   1.7   1   1     2e-07   4.3e-05   24.3   1.7    28   205    16   190     9   201 0.65 -
ID=PSME_00019798     -            278 111949at3193         -            275   4.9e-06   27.4   1.3   1   2    0.0018      0.37   11.3   0.0     8    62    43   100    37   110 0.78 -
ID=PSME_00019798     -            278 111949at3193         -            275   4.9e-06   27.4   1.3   2   2   0.00016     0.034   14.8   0.5    26    75   128   177   107   182 0.86 -
ID=PSME_00011251     -           1162 111949at3193         -            275   5.2e-06   27.3   0.1   1   2   1.8e-05    0.0038   17.9   0.1    25    76   692   743   667   755 0.85 -
ID=PSME_00011251     -           1162 111949at3193         -            275   5.2e-06   27.3   0.1   2   2     0.063        13    6.3   0.0   149   169   803   823   790   926 0.83 -
ID=PSME_00030497     -            773 111949at3193         -            275   6.3e-06   27.0   0.0   1   1   8.2e-08   1.7e-05   25.6   0.0    16   252   346   561   336   580 0.73 -
ID=PSME_00039126     -            315 111949at3193         -            275   6.5e-06   26.9   0.7   1   1   1.5e-07   3.2e-05   24.7   0.7   147   251   207   291   128   300 0.69 -
ID=PSME_00026724     -            395 111949at3193         -            275     7e-06   26.8   0.1   1   1   9.7e-08     2e-05   25.3   0.1    30   188    86   241    65   297 0.73 -
ID=PSME_00021746     -            165 111949at3193         -            275   8.1e-06   26.6   0.1   1   1   4.9e-08     1e-05   26.3   0.1   148   244    71   163    55   165 0.76 -
ID=PSME_00020162     -            253 111949at3193         -            275   8.4e-06   26.6   1.3   1   1   4.3e-07     9e-05   23.2   1.3    28    61    83   116    65   207 0.87 -
ID=PSME_00031853     -            278 111949at3193         -            275   8.7e-06   26.5   0.4   1   2      0.87   1.8e+02    2.5   0.0    26    53    95   122    78   126 0.88 -
ID=PSME_00031853     -            278 111949at3193         -            275   8.7e-06   26.5   0.4   2   2   1.6e-06   0.00033   21.4   0.3   148   228   165   227   152   256 0.74 -
ID=PSME_00003090     -            589 111949at3193         -            275   9.2e-06   26.5   0.2   1   1   8.7e-08   1.8e-05   25.5   0.2    28   247    13   221     4   236 0.78 -
ID=PSME_00043612     -            253 111949at3193         -            275   1.2e-05   26.1   0.1   1   2   2.7e-07   5.7e-05   23.8   0.0    28    60    83   115    65   143 0.87 -
ID=PSME_00043612     -            253 111949at3193         -            275   1.2e-05   26.1   0.1   2   2       5.7   1.2e+03   -0.2   0.0   178   200   168   190   159   218 0.67 -
ID=PSME_00012292     -           1265 111949at3193         -            275   1.4e-05   25.9   0.6   1   2       7.5   1.6e+03   -0.5   0.0   141   165   116   140    73   163 0.76 -
ID=PSME_00012292     -           1265 111949at3193         -            275   1.4e-05   25.9   0.6   2   2   4.5e-07   9.5e-05   23.1   0.1    30   207   692   866   686   910 0.76 -
ID=PSME_00012048     -            131 111949at3193         -            275   1.4e-05   25.8   0.5   1   1   1.7e-07   3.6e-05   24.5   0.5   148   247    25   105    14   117 0.74 -
ID=PSME_00040794     -            188 111949at3193         -            275   1.4e-05   25.8   0.5   1   1   1.1e-07   2.4e-05   25.1   0.5   148   245    93   176    84   180 0.83 -
ID=PSME_00038299     -            326 111949at3193         -            275   1.5e-05   25.7   0.0   1   1   1.1e-07   2.3e-05   25.2   0.0    25   121   194   287   187   319 0.79 -
ID=PSME_00010123     -            131 111949at3193         -            275   1.6e-05   25.7   0.3   1   1   2.4e-07   5.1e-05   24.0   0.3   149   249    26   107    15   117 0.79 -
ID=PSME_00017232     -            592 111949at3193         -            275   1.9e-05   25.4   1.4   1   1   6.2e-07   0.00013   22.7   1.4    28   206    16   191     9   218 0.67 -
ID=PSME_00015152     -            918 111949at3193         -            275   2.2e-05   25.2   0.2   1   2       1.4     3e+02    1.8   0.0   138   170   134   165   118   201 0.76 -
ID=PSME_00015152     -            918 111949at3193         -            275   2.2e-05   25.2   0.2   2   2   3.4e-06   0.00071   20.3   0.1    28   203   711   883   702   896 0.80 -
ID=PSME_00051284     -            131 111949at3193         -            275   2.6e-05   25.0   0.4   1   1   2.7e-07   5.7e-05   23.9   0.4   147   209    24    79    12   117 0.76 -
ID=PSME_00029982     -           1406 111949at3193         -            275   3.5e-05   24.6   7.4   1   4    0.0007      0.15   12.7   0.2    26    77   691   742   673   748 0.91 -
ID=PSME_00029982     -           1406 111949at3193         -            275   3.5e-05   24.6   7.4   2   4      0.68   1.4e+02    2.9   0.0   149   169   801   821   747   895 0.74 -
ID=PSME_00029982     -           1406 111949at3193         -            275   3.5e-05   24.6   7.4   3   4     0.026       5.6    7.5   0.1    30    65  1237  1272  1221  1303 0.75 -
ID=PSME_00029982     -           1406 111949at3193         -            275   3.5e-05   24.6   7.4   4   4       1.3   2.8e+02    1.9   0.1   175   203  1316  1344  1298  1373 0.83 -
ID=PSME_00004238     -            899 111949at3193         -            275   4.3e-05   24.3   0.4   1   4      0.49     1e+02    3.3   0.0    45    83    43    84    40   110 0.80 -
ID=PSME_00004238     -            899 111949at3193         -            275   4.3e-05   24.3   0.4   2   4      0.47        98    3.4   0.0   134   185   168   212   149   240 0.67 -
ID=PSME_00004238     -            899 111949at3193         -            275   4.3e-05   24.3   0.4   3   4       1.9   3.9e+02    1.4   0.0    28    59   671   702   645   711 0.80 -
ID=PSME_00004238     -            899 111949at3193         -            275   4.3e-05   24.3   0.4   4   4    0.0047      0.98   10.0   0.0   172   208   769   805   726   838 0.82 -
ID=PSME_00024672     -            173 111949at3193         -            275   4.3e-05   24.2   0.3   1   1   3.3e-07   6.9e-05   23.6   0.3   148   245    78   161    12   165 0.72 -
ID=PSME_00041915     -            282 111949at3193         -            275   5.3e-05   24.0   0.0   1   1   3.7e-07   7.7e-05   23.4   0.0    89   245    44   188    16   201 0.69 -
ID=PSME_00003815     -            184 111949at3193         -            275   7.7e-05   23.4   0.2   1   1     5e-07    0.0001   23.0   0.2   148   245    90   173    40   177 0.81 -
ID=PSME_00047115     -            238 111949at3193         -            275     8e-05   23.4   0.0   1   1     1e-06   0.00021   22.0   0.0   129   191    32    89    17   145 0.85 -
ID=PSME_00000252     -           1162 111949at3193         -            275   9.5e-05   23.1   1.1   1   3     0.001      0.21   12.2   0.1     8    75   612   682   606   688 0.83 -
ID=PSME_00000252     -           1162 111949at3193         -            275   9.5e-05   23.1   1.1   2   3     0.052        11    6.5   0.0   148   169   742   763   692   784 0.83 -
ID=PSME_00000252     -           1162 111949at3193         -            275   9.5e-05   23.1   1.1   3   3       2.4     5e+02    1.1   0.0   175   201  1056  1082  1042  1107 0.84 -
ID=PSME_00013457     -            721 111949at3193         -            275   9.7e-05   23.1   1.3   1   1   3.2e-06   0.00067   20.4   1.3    28   197   402   569   390   612 0.71 -
ID=PSME_00029337     -            543 111949at3193         -            275   0.00011   22.9   0.7   1   1   1.1e-06   0.00022   21.9   0.7    28   208   216   393   199   432 0.75 -
ID=PSME_00038316     -            204 111949at3193         -            275   0.00015   22.5   0.1   1   1   9.1e-07   0.00019   22.1   0.1   148   245    77   160    18   165 0.85 -
ID=PSME_00014759     -            329 111949at3193         -            275   0.00016   22.4   0.0   1   1   1.2e-06   0.00026   21.7   0.0    27   102   251   324   243   327 0.82 -
ID=PSME_00046831     -            329 111949at3193         -            275   0.00017   22.3   0.6   1   1     2e-06   0.00042   21.0   0.6    28   207    12   188     5   198 0.77 -
ID=PSME_00022482     -            187 111949at3193         -            275   0.00017   22.3   0.1   1   1   1.1e-06   0.00023   21.9   0.1   148   245    92   175    26   179 0.76 -
ID=PSME_00028259     -            685 111949at3193         -            275   0.00017   22.3   0.4   1   2    0.0017      0.37   11.4   0.2    28    66   375   413   362   437 0.82 -
ID=PSME_00028259     -            685 111949at3193         -            275   0.00017   22.3   0.4   2   2     0.011       2.3    8.7   0.0   174   207   505   538   475   573 0.79 -
ID=PSME_00011677     -           1083 111949at3193         -            275   0.00018   22.2   0.2   1   3      0.16        34    4.9   0.0    45    79    93   130    86   159 0.82 -
ID=PSME_00011677     -           1083 111949at3193         -            275   0.00018   22.2   0.2   2   3      0.69   1.5e+02    2.8   0.0   137   189   217   262   194   321 0.65 -
ID=PSME_00011677     -           1083 111949at3193         -            275   0.00018   22.2   0.2   3   3    0.0045      0.94   10.0   0.0   130   204   635   707   630   718 0.72 -
ID=PSME_00017479     -            933 111949at3193         -            275    0.0002   22.1   1.0   1   4       1.7   3.5e+02    1.6   0.0    45    82     7    47     4    58 0.81 -
ID=PSME_00017479     -            933 111949at3193         -            275    0.0002   22.1   1.0   2   4      0.46        97    3.4   0.0   123   187   142   197   128   223 0.68 -
ID=PSME_00017479     -            933 111949at3193         -            275    0.0002   22.1   1.0   3   4       1.1   2.4e+02    2.1   0.0    13    58   678   723   667   730 0.77 -
ID=PSME_00017479     -            933 111949at3193         -            275    0.0002   22.1   1.0   4   4    0.0063       1.3    9.5   0.0   172   205   820   853   754   868 0.78 -
ID=PSME_00014914     -            131 111949at3193         -            275   0.00022   21.9   0.5   1   1   3.1e-06   0.00065   20.4   0.5   148   248    25   106    15   117 0.74 -
ID=PSME_00014970     -            184 111949at3193         -            275   0.00024   21.8   0.4   1   1   1.7e-06   0.00036   21.2   0.4   148   245    90   173    41   177 0.83 -
ID=PSME_00032914     -            460 111949at3193         -            275   0.00026   21.7   0.1   1   1   2.5e-06   0.00053   20.7   0.1    28   198    12   179     7   194 0.80 -
ID=PSME_00044880     -            277 111949at3193         -            275   0.00026   21.7   0.6   1   1     3e-06   0.00063   20.4   0.6   148   253    61   147     1   166 0.73 -
ID=PSME_00033055     -            231 111949at3193         -            275   0.00037   21.2   0.6   1   1   5.1e-06    0.0011   19.7   0.6   104   253     8   144     1   149 0.72 -
ID=PSME_00042896     -           1257 111949at3193         -            275   0.00038   21.1   2.7   1   2    0.0008      0.17   12.5   0.4    26    76   660   710   645   718 0.89 -
ID=PSME_00042896     -           1257 111949at3193         -            275   0.00038   21.1   2.7   2   2     0.076        16    6.0   0.1   149   169   770   790   712   862 0.82 -
ID=PSME_00006563     -            974 111949at3193         -            275   0.00048   20.8   5.8   1   3     0.071        15    6.1   0.1    46   184    95   243    90   272 0.50 -
ID=PSME_00006563     -            974 111949at3193         -            275   0.00048   20.8   5.8   2   3      0.22        46    4.5   0.2    28    63   757   792   746   808 0.87 -
ID=PSME_00006563     -            974 111949at3193         -            275   0.00048   20.8   5.8   3   3    0.0094         2    9.0   0.1   150   204   857   904   822   915 0.69 -
ID=PSME_00011320     -            949 111949at3193         -            275    0.0005   20.8   0.2   1   3      0.28        59    4.1   0.0    27    76    44    96    24   115 0.80 -
ID=PSME_00011320     -            949 111949at3193         -            275    0.0005   20.8   0.2   2   3      0.31        64    4.0   0.0   141   205   194   252   154   290 0.71 -
ID=PSME_00011320     -            949 111949at3193         -            275    0.0005   20.8   0.2   3   3     0.016       3.3    8.2   0.0   172   203   863   894   831   906 0.83 -
ID=PSME_00018640     -            830 111949at3193         -            275   0.00061   20.5   0.3   1   2    0.0039      0.83   10.2   0.1    28    77   406   457   393   464 0.83 -
ID=PSME_00018640     -            830 111949at3193         -            275   0.00061   20.5   0.3   2   2     0.019         4    8.0   0.0   173   202   525   554   513   594 0.78 -
ID=PSME_00000251     -           1250 111949at3193         -            275   0.00069   20.3   0.1   1   2    0.0029       0.6   10.7   0.1     8    77   604   676   598   683 0.83 -
ID=PSME_00000251     -           1250 111949at3193         -            275   0.00069   20.3   0.1   2   2     0.091        19    5.7   0.0   149   169   735   755   726   774 0.86 -
ID=PSME_00002220     -            976 111949at3193         -            275   0.00077   20.1   2.1   1   2      0.55   1.2e+02    3.2   0.0   125   171   133   176   121   192 0.69 -
ID=PSME_00002220     -            976 111949at3193         -            275   0.00077   20.1   2.1   2   2   0.00097       0.2   12.2   0.8    40   239   729   904   714   927 0.55 -
ID=PSME_00027891     -            169 111949at3193         -            275   0.00078   20.1   0.0   1   2   1.5e-05    0.0032   18.1   0.0    26    66    61   101    34   109 0.81 -
ID=PSME_00027891     -            169 111949at3193         -            275   0.00078   20.1   0.0   2   2       5.6   1.2e+03   -0.1   0.0    91   112   109   130   105   154 0.78 -
ID=PSME_00050152     -            210 111949at3193         -            275    0.0013   19.4   0.6   1   1   3.2e-05    0.0068   17.0   0.6    91   245    12   150     5   178 0.70 -
ID=PSME_00007341     -            567 111949at3193         -            275    0.0014   19.3   0.9   1   1   1.4e-05     0.003   18.2   0.9    43   207     6   167     1   176 0.74 -
ID=PSME_00035958     -            173 111949at3193         -            275    0.0015   19.2   0.1   1   1     9e-06    0.0019   18.9   0.1   147   244    77   160    11   165 0.71 -
ID=PSME_00043193     -            299 111949at3193         -            275    0.0019   18.8   0.0   1   1     2e-05    0.0042   17.7   0.0    43   194     4   142     2   156 0.83 -
ID=PSME_00051941     -            285 111949at3193         -            275    0.0032   18.1   0.1   1   1   2.9e-05     0.006   17.2   0.1   129   202     9    80     1   130 0.72 -
ID=PSME_00011704     -            794 111949at3193         -            275     0.004   17.8   2.2   1   3       2.5   5.2e+02    1.0   0.0   134   188    56   103    38   129 0.68 -
ID=PSME_00011704     -            794 111949at3193         -            275     0.004   17.8   2.2   2   3      0.08        17    5.9   0.1    37    75   582   622   570   630 0.72 -
ID=PSME_00011704     -            794 111949at3193         -            275     0.004   17.8   2.2   3   3     0.018       3.7    8.1   0.1   170   203   690   723   642   735 0.80 -
ID=PSME_00043836     -            305 111949at3193         -            275    0.0042   17.7   0.0   1   2   0.00038     0.079   13.5   0.0     9    75    17    86    10    90 0.78 -
ID=PSME_00043836     -            305 111949at3193         -            275    0.0042   17.7   0.0   2   2       1.3   2.8e+02    1.9   0.0   149   169   147   167   130   185 0.81 -
ID=PSME_00005062     -            836 111949at3193         -            275    0.0049   17.5   1.2   1   1   0.00091      0.19   12.3   0.9    28   208   653   818   648   827 0.63 -
ID=PSME_00011558     -           1411 111949at3193         -            275    0.0053   17.4   0.1   1   2    0.0018      0.37   11.3   0.0    28    77   714   763   692   769 0.90 -
ID=PSME_00011558     -           1411 111949at3193         -            275    0.0053   17.4   0.1   2   2       1.1   2.3e+02    2.2   0.0   149   169   822   842   814   873 0.83 -
ID=PSME_00024544     -            168 111949at3193         -            275    0.0067   17.1   0.0   1   1     4e-05    0.0084   16.7   0.0    92   204    22   125    12   143 0.65 -
ID=PSME_00034475     -            329 111949at3193         -            275     0.008   16.8   0.0   1   1   9.8e-05     0.021   15.5   0.0    10    71   259   323   250   327 0.82 -
ID=PSME_00013090     -             77 111949at3193         -            275     0.015   16.0   0.1   1   1   8.2e-05     0.017   15.7   0.1   152   204    22    67    14    75 0.87 -
ID=PSME_00033032     -            193 111949at3193         -            275     0.016   15.8   0.0   1   1   9.1e-05     0.019   15.6   0.0   148   204   105   150    41   168 0.73 -
ID=PSME_00004240     -            132 111949at3193         -            275     0.018   15.6   0.0   1   1   0.00015     0.032   14.8   0.0   172   227    37    82    20   126 0.72 -
ID=PSME_00046957     -            326 111949at3193         -            275      0.02   15.5   0.0   1   1   0.00014      0.03   14.9   0.0   113   207   148   233   114   272 0.64 -
ID=PSME_00031702     -            174 111949at3193         -            275     0.023   15.3   0.1   1   1   0.00063      0.13   12.8   0.1   149   249    55   136    46   144 0.69 -
ID=PSME_00050951     -            133 111949at3193         -            275     0.024   15.2   0.1   1   1   0.00012     0.026   15.1   0.1    26   111     6    88     2   118 0.83 -
ID=PSME_00041578     -            327 111949at3193         -            275     0.029   15.0   0.6   1   2      0.47        99    3.4   0.3    36    60   107   131   101   150 0.82 -
ID=PSME_00041578     -            327 111949at3193         -            275     0.029   15.0   0.6   2   2    0.0052       1.1    9.8   0.0   148   170   205   227   159   243 0.82 -
ID=PSME_00038436     -            418 111949at3193         -            275     0.043   14.4   0.0   1   2    0.0025      0.52   10.9   0.0    10    75    45   113    37   117 0.75 -
ID=PSME_00038436     -            418 111949at3193         -            275     0.043   14.4   0.0   2   2       2.3   4.8e+02    1.1   0.0   149   168   174   193   158   211 0.81 -
ID=PSME_00007343     -            478 111949at3193         -            275     0.049   14.2   0.1   1   1    0.0057       1.2    9.7   0.1    45   206    25   198    19   207 0.54 -
ID=PSME_00041169     -            169 111949at3193         -            275     0.051   14.2   1.0   1   2     0.061        13    6.3   0.4    36    75    34    73    29    89 0.87 -
ID=PSME_00041169     -            169 111949at3193         -            275     0.051   14.2   1.0   2   2     0.049        10    6.6   0.0   149   169   133   153   105   166 0.85 -
ID=PSME_00056496     -            116 111949at3193         -            275     0.068   13.8   0.2   1   1   0.00044     0.092   13.3   0.2    28    75    15    64     4    77 0.81 -
ID=PSME_00025669     -            179 111949at3193         -            275     0.081   13.5   0.0   1   1   0.00045     0.095   13.3   0.0    32    76    43    88    16   105 0.80 -
ID=PSME_00028133     -            111 111949at3193         -            275       0.1   13.2   0.0   1   1   0.00052      0.11   13.1   0.0   145   195    53    96     2   107 0.63 -
ID=PSME_00011293     -            209 111949at3193         -            275       0.1   13.2   0.1   1   1   0.00079      0.17   12.5   0.1   150   238    76   148    23   173 0.66 -
ID=PSME_00011269     -            682 111949at3193         -            275       0.1   13.2   0.0   1   1   0.00088      0.18   12.4   0.0   151   209   255   306   200   349 0.66 -
ID=PSME_00050153     -            165 111949at3193         -            275      0.11   13.1   0.0   1   1   0.00054      0.11   13.0   0.0    33    77    63   107    32   149 0.84 -
ID=PSME_00051242     -            337 111949at3193         -            275      0.12   13.0   0.0   1   2    0.0083       1.7    9.2   0.0     9    75   158   227   151   231 0.78 -
ID=PSME_00051242     -            337 111949at3193         -            275      0.12   13.0   0.0   2   2       1.7   3.6e+02    1.6   0.0   149   169   288   308   271   325 0.81 -
ID=PSME_00026672     -             67 111949at3193         -            275      0.12   13.0   0.0   1   1   0.00067      0.14   12.7   0.0   219   251     6    37     3    46 0.87 -
ID=PSME_00048284     -            144 111949at3193         -            275      0.15   12.6   0.0   1   1   0.00078      0.16   12.5   0.0   148   204    56   101    10   119 0.81 -
ID=PSME_00052418     -            169 111949at3193         -            275      0.16   12.6   0.5   1   2      0.23        48    4.4   0.1    28    62    85   119    58   125 0.83 -
ID=PSME_00052418     -            169 111949at3193         -            275      0.16   12.6   0.5   2   2     0.038         8    7.0   0.0   178   202   130   154   120   165 0.77 -
ID=PSME_00002076     -            136 111949at3193         -            275      0.19   12.3   0.0   1   1    0.0013      0.26   11.8   0.0    56    87    48    79    39   104 0.83 -
ID=PSME_00030569     -            507 111949at3193         -            275      0.19   12.3   0.0   1   1    0.0016      0.34   11.5   0.0   172   207   204   239   161   275 0.79 -
ID=PSME_00048312     -            207 111949at3193         -            275      0.19   12.3   0.0   1   1    0.0013      0.27   11.8   0.0   148   188    46    79    34    99 0.78 -
ID=PSME_00033551     -            174 111949at3193         -            275      0.19   12.3   0.0   1   1     0.002      0.41   11.2   0.0   172   248    41   109    27   118 0.74 -
ID=PSME_00048056     -            315 111949at3193         -            275      0.19   12.3   0.0   1   1    0.0013      0.28   11.8   0.0   172   203   139   170    87   182 0.73 -
ID=PSME_00015036     -            354 111949at3193         -            275      0.19   12.3   0.1   1   1    0.0017      0.36   11.4   0.1   172   207   243   278   121   293 0.80 -
ID=PSME_00048867     -            142 111949at3193         -            275       0.2   12.3   0.0   1   1    0.0011      0.23   12.0   0.0    92   173    32   115    23   141 0.53 -
ID=PSME_00021415     -            219 111949at3193         -            275       0.2   12.2   0.1   1   2    0.0074       1.6    9.3   0.0    29    51    84   106    65   110 0.84 -
ID=PSME_00021415     -            219 111949at3193         -            275       0.2   12.2   0.1   2   2       3.5   7.3e+02    0.5   0.0   123   147   148   172   124   183 0.61 -
ID=PSME_00033053     -            295 111949at3193         -            275       0.2   12.2   0.0   1   1    0.0016      0.34   11.5   0.0    26    79   226   279   212   292 0.87 -
ID=PSME_00004924     -            382 111949at3193         -            275      0.23   12.0   0.2   1   1     0.002      0.41   11.2   0.2    29   193   123   284   113   287 0.61 -
ID=PSME_00001400     -            229 111949at3193         -            275      0.24   12.0   0.0   1   1    0.0014       0.3   11.7   0.0   172   206   134   168    86   218 0.76 -
ID=PSME_00002013     -            760 111949at3193         -            275      0.24   12.0   0.0   1   1    0.0023      0.47   11.0   0.0    28    64   447   483   427   492 0.87 -
ID=PSME_00007099     -            182 111949at3193         -            275      0.29   11.7   0.0   1   1     0.002      0.41   11.2   0.0   148   188    48    81    39   100 0.83 -
ID=PSME_00041267     -            252 111949at3193         -            275      0.32   11.6   0.2   1   2     0.067        14    6.2   0.0    28    63   156   191   139   215 0.86 -
ID=PSME_00041267     -            252 111949at3193         -            275      0.32   11.6   0.2   2   2      0.43        90    3.5   0.1    28    62   210   244   196   247 0.87 -
ID=PSME_00028607     -            174 111949at3193         -            275      0.37   11.4   0.0   1   1    0.0038       0.8   10.2   0.0   173   248    42   109    20   117 0.71 -
ID=PSME_00022378     -            201 111949at3193         -            275      0.42   11.2   0.0   1   1    0.0027      0.56   10.8   0.0   172   206   101   135    71   145 0.87 -
ID=PSME_00046724     -            397 111949at3193         -            275      0.53   10.8   0.0   1   1    0.0039      0.82   10.2   0.0   148   204   308   353   243   368 0.81 -
ID=PSME_00004239     -            362 111949at3193         -            275      0.54   10.8   0.1   1   1     0.013       2.7    8.5   0.0    28    75   289   338   269   347 0.81 -
#
# Program:         hmmsearch
# Version:         3.2.1 (June 2018)
# Pipeline mode:   SEARCH
# Query file:      /isg/shared/databases/BUSCO/odb10/embryophyta_odb10/hmms/111949at3193.hmm
# Target file:     /labs/Wegrzyn/ConiferGenomes/Psme/analysis/SURF_annotation/analyze_orig_maker/gfacs/filtered/maker_genes.fasta.faa
# Option settings: /usr/local/bin/hmmsearch --domtblout /labs/Wegrzyn/ConiferGenomes/Psme/analysis/SURF_annotation/analyze_orig_maker/busco/maker/run_embryophyta_odb10/hmmer_output/111949at3193.out --cpu 1 /isg/shared/databases/BUSCO/odb10/embryophyta_odb10/hmms/111949at3193.hmm /labs/Wegrzyn/ConiferGenomes/Psme/analysis/SURF_annotation/analyze_orig_maker/gfacs/filtered/maker_genes.fasta.faa 
# Current dir:     /labs/Wegrzyn/ConiferGenomes/Psme/analysis/SURF_annotation/analyze_orig_maker/busco
# Date:            Fri Jul 10 13:42:23 2020
# [ok]
