#                                                                            --- full sequence --- -------------- this domain -------------   hmm coord   ali coord   env coord
# target name        accession   tlen query name           accession   qlen   E-value  score  bias   #  of  c-Evalue  i-Evalue  score  bias  from    to  from    to  from    to  acc description of target
#------------------- ---------- ----- -------------------- ---------- ----- --------- ------ ----- --- --- --------- --------- ------ ----- ----- ----- ----- ----- ----- ----- ---- ---------------------
ID=PSME_00007434     -            684 112291at3193         -            265  5.1e-132  440.7   9.7   1   2   7.9e-69   3.2e-66  225.0   1.6     1   245    54   310    54   319 0.88 -
ID=PSME_00007434     -            684 112291at3193         -            265  5.1e-132  440.7   9.7   2   2   1.9e-67   7.6e-65  220.5   1.4     1   256   399   675   399   681 0.86 -
ID=PSME_00045911     -            381 112291at3193         -            265   8.9e-77  259.6   0.1   1   1   2.8e-79   1.2e-76  259.2   0.1     1   258    93   374    93   378 0.89 -
ID=PSME_00031769     -            363 112291at3193         -            265   9.3e-77  259.6   0.4   1   1   2.9e-79   1.2e-76  259.2   0.4     1   258    71   340    71   346 0.91 -
ID=PSME_00031770     -            354 112291at3193         -            265     2e-75  255.2   0.5   1   1   5.9e-78   2.4e-75  254.9   0.5     1   258    72   341    72   348 0.91 -
ID=PSME_00014679     -            348 112291at3193         -            265   2.8e-75  254.7   0.7   1   1   8.9e-78   3.7e-75  254.3   0.7     1   257    66   341    66   345 0.89 -
ID=PSME_00046508     -            369 112291at3193         -            265   6.6e-75  253.5   0.2   1   1     2e-77   8.3e-75  253.2   0.2     1   258    77   346    77   353 0.91 -
ID=PSME_00046573     -            390 112291at3193         -            265   3.1e-73  248.0   3.3   1   1     2e-75     8e-73  246.6   3.3     1   257    94   382    94   387 0.87 -
ID=PSME_00020050     -            326 112291at3193         -            265     3e-72  244.8   5.1   1   1   8.8e-75   3.6e-72  244.5   5.1     1   258    49   318    49   324 0.91 -
ID=PSME_00019845     -            368 112291at3193         -            265   4.6e-70  237.6   0.3   1   1   1.4e-72   5.7e-70  237.3   0.3     1   257    86   361    86   366 0.89 -
ID=PSME_00029824     -            367 112291at3193         -            265     9e-70  236.6   0.6   1   1   2.8e-72   1.1e-69  236.3   0.6     1   257    38   312    38   319 0.89 -
ID=PSME_00001710     -            372 112291at3193         -            265   1.8e-69  235.6   1.8   1   1   5.9e-72   2.4e-69  235.2   1.8     1   258    71   352    71   357 0.91 -
ID=PSME_00028366     -            349 112291at3193         -            265   2.2e-68  232.1   0.3   1   1   7.9e-71   3.2e-68  231.5   0.3     1   258    64   342    64   347 0.88 -
ID=PSME_00020049     -            339 112291at3193         -            265   3.4e-68  231.5   3.4   1   1     1e-70   4.2e-68  231.2   3.4     1   218   111   334   111   338 0.93 -
ID=PSME_00045164     -            348 112291at3193         -            265   1.2e-66  226.5   0.4   1   1   3.4e-69   1.4e-66  226.2   0.4     1   258    67   342    67   346 0.88 -
ID=PSME_00045263     -            349 112291at3193         -            265   2.2e-66  225.5   2.2   1   2   1.6e-45   6.6e-43  148.6   0.1     1   151    85   245    85   247 0.91 -
ID=PSME_00045263     -            349 112291at3193         -            265   2.2e-66  225.5   2.2   2   2   3.3e-24   1.4e-21   78.7   0.2   172   258   245   342   242   346 0.86 -
ID=PSME_00007433     -            340 112291at3193         -            265   8.4e-66  223.6   1.4   1   1   2.6e-68   1.1e-65  223.3   1.4     1   256    55   331    55   337 0.86 -
ID=PSME_00046034     -            294 112291at3193         -            265   4.8e-65  221.2   0.4   1   1   1.4e-67   5.9e-65  220.9   0.4     1   258    22   287    22   292 0.90 -
ID=PSME_00029825     -            330 112291at3193         -            265   5.1e-65  221.1   0.8   1   1     2e-67   8.1e-65  220.4   0.8     1   257    38   322    38   328 0.85 -
ID=PSME_00000917     -            412 112291at3193         -            265   7.1e-65  220.6   1.6   1   1   2.5e-67     1e-64  220.1   1.6     1   258    95   378    95   383 0.86 -
ID=PSME_00008576     -            367 112291at3193         -            265     1e-64  220.1   0.4   1   1   6.1e-67   2.5e-64  218.8   0.4     1   259    72   353    72   359 0.86 -
ID=PSME_00005566     -            583 112291at3193         -            265   2.9e-64  218.6   2.2   1   1   1.1e-66   4.6e-64  217.9   2.2     1   258   255   539   255   545 0.86 -
ID=PSME_00006227     -            372 112291at3193         -            265   8.2e-62  210.5   0.0   1   1   2.6e-64   1.1e-61  210.2   0.0     2   257    85   364    84   368 0.88 -
ID=PSME_00045931     -            345 112291at3193         -            265   1.6e-61  209.6   0.2   1   1   4.8e-64     2e-61  209.3   0.2     1   258    57   336    57   341 0.87 -
ID=PSME_00008575     -            310 112291at3193         -            265   9.5e-61  207.1   0.2   1   1     3e-63   1.2e-60  206.7   0.2    24   257    42   291    28   297 0.87 -
ID=PSME_00035275     -            383 112291at3193         -            265   8.3e-60  204.0   0.1   1   1   2.7e-62   1.1e-59  203.6   0.1     3   258    97   376    95   381 0.86 -
ID=PSME_00005567     -            271 112291at3193         -            265   5.9e-59  201.2   1.2   1   1   1.7e-61   6.8e-59  201.0   1.2    30   258     2   251     1   258 0.87 -
ID=PSME_00020051     -            388 112291at3193         -            265   5.3e-57  194.8   1.3   1   2   3.7e-05     0.015   16.3   0.2     1    31   167   198   167   201 0.88 -
ID=PSME_00020051     -            388 112291at3193         -            265   5.3e-57  194.8   1.3   2   2   1.1e-54   4.5e-52  178.6   0.1    87   257   198   382   195   385 0.89 -
ID=PSME_00045462     -            419 112291at3193         -            265   3.1e-55  189.0   0.4   1   1   9.8e-58     4e-55  188.6   0.4     1   258   109   387   109   393 0.87 -
ID=PSME_00033773     -            363 112291at3193         -            265     8e-55  187.6   0.4   1   1   2.7e-57   1.1e-54  187.2   0.4     1   259    74   356    74   360 0.85 -
ID=PSME_00046586     -            399 112291at3193         -            265   1.3e-54  187.0   0.1   1   1     5e-57   2.1e-54  186.3   0.1     1   257   101   366   101   372 0.86 -
ID=PSME_00019844     -            284 112291at3193         -            265   1.9e-54  186.4   1.5   1   1   5.9e-57   2.4e-54  186.1   1.5     1   190    64   254    64   260 0.92 -
ID=PSME_00008319     -            577 112291at3193         -            265   3.4e-53  182.3   0.0   1   1   1.4e-55   5.8e-53  181.5   0.0     3   257   283   566   281   571 0.83 -
ID=PSME_00008316     -            564 112291at3193         -            265   2.6e-52  179.4   0.2   1   1   9.2e-54   3.7e-51  175.6   0.2     3   257   263   553   261   558 0.81 -
ID=PSME_00011641     -            277 112291at3193         -            265   7.6e-52  177.9   0.2   1   1   2.3e-54   9.4e-52  177.6   0.2    29   258     4   254     1   259 0.87 -
ID=PSME_00034460     -            219 112291at3193         -            265   1.8e-51  176.6   0.5   1   1   5.2e-54   2.1e-51  176.4   0.5    29   216     3   207     1   217 0.89 -
ID=PSME_00008320     -            581 112291at3193         -            265   2.7e-51  176.1   0.0   1   1   4.7e-53   1.9e-50  173.3   0.0     3   257   280   570   278   576 0.82 -
ID=PSME_00022635     -            628 112291at3193         -            265   1.3e-50  173.8   0.7   1   1     5e-53   2.1e-50  173.2   0.7    28   216   411   616   406   626 0.89 -
ID=PSME_00050068     -            224 112291at3193         -            265   1.7e-50  173.4   1.2   1   1   5.1e-53   2.1e-50  173.2   1.2     1   184    16   205    16   212 0.90 -
ID=PSME_00007923     -            219 112291at3193         -            265   3.6e-50  172.4   0.6   1   1     1e-52   4.1e-50  172.2   0.6    29   216     3   207     1   217 0.90 -
ID=PSME_00008322     -            555 112291at3193         -            265   1.7e-49  170.1   0.0   1   1   3.9e-51   1.6e-48  167.0   0.0     3   257   254   544   252   549 0.82 -
ID=PSME_00008321     -            577 112291at3193         -            265   2.2e-49  169.8   0.0   1   1   4.4e-51   1.8e-48  166.8   0.0     3   257   276   566   274   571 0.82 -
ID=PSME_00008314     -            554 112291at3193         -            265   6.3e-48  165.0   0.6   1   1   1.3e-49   5.3e-47  162.0   0.6     3   257   250   541   248   548 0.82 -
ID=PSME_00015801     -            200 112291at3193         -            265     1e-46  161.1   0.7   1   1     3e-49   1.2e-46  160.8   0.7    93   252    13   191     2   198 0.85 -
ID=PSME_00008313     -            562 112291at3193         -            265   6.5e-46  158.4   0.6   1   1   1.4e-47   5.9e-45  155.3   0.6     3   257   255   546   253   551 0.81 -
ID=PSME_00027673     -            554 112291at3193         -            265   8.6e-46  158.0   0.1   1   1   2.4e-47   9.9e-45  154.6   0.1     1   255   251   541   251   547 0.79 -
ID=PSME_00038239     -            647 112291at3193         -            265   1.3e-45  157.4   1.1   1   1   5.1e-48   2.1e-45  156.8   1.1     3   258   344   628   342   634 0.80 -
ID=PSME_00054775     -            556 112291at3193         -            265   3.6e-45  156.0   1.0   1   1   1.6e-47   6.6e-45  155.1   1.0     1   257   255   538   255   546 0.82 -
ID=PSME_00025865     -            575 112291at3193         -            265   3.8e-45  155.9   0.5   1   1   1.7e-47   6.9e-45  155.1   0.5     1   259   276   560   276   565 0.81 -
ID=PSME_00056054     -            565 112291at3193         -            265   8.8e-45  154.7   1.1   1   1   3.4e-47   1.4e-44  154.1   1.1     1   256   266   548   266   555 0.82 -
ID=PSME_00026861     -            610 112291at3193         -            265   9.2e-45  154.7   0.5   1   1   3.6e-47   1.5e-44  154.0   0.5     1   257   303   587   303   594 0.81 -
ID=PSME_00001493     -            191 112291at3193         -            265   9.4e-45  154.6   2.7   1   1   2.6e-47     1e-44  154.5   2.7    30   204     2   190     1   190 0.90 -
ID=PSME_00051651     -            547 112291at3193         -            265   1.2e-44  154.3   0.8   1   1   4.8e-47     2e-44  153.6   0.8     1   256   151   433   151   439 0.82 -
ID=PSME_00048380     -            615 112291at3193         -            265   2.1e-44  153.5   1.2   1   1   8.6e-47   3.5e-44  152.7   1.2     1   256   316   598   316   604 0.81 -
ID=PSME_00035570     -            601 112291at3193         -            265   4.8e-44  152.3   0.4   1   1   2.1e-46   8.5e-44  151.5   0.4     1   257   299   583   299   588 0.78 -
ID=PSME_00012293     -            568 112291at3193         -            265   5.7e-44  152.1   2.4   1   1   2.4e-46   9.9e-44  151.3   2.4     1   257   277   551   277   556 0.83 -
ID=PSME_00029098     -            537 112291at3193         -            265   1.3e-43  150.9   2.4   1   1   5.6e-46   2.3e-43  150.1   2.4     1   256   235   518   235   523 0.80 -
ID=PSME_00022041     -            280 112291at3193         -            265   2.1e-43  150.2   0.1   1   1   6.4e-46   2.6e-43  149.9   0.1     3   189    79   278    77   279 0.86 -
ID=PSME_00023344     -            574 112291at3193         -            265   6.1e-43  148.7   0.5   1   1   2.2e-45     9e-43  148.1   0.5     1   257   280   554   280   561 0.84 -
ID=PSME_00007922     -            609 112291at3193         -            265   5.3e-42  145.6   1.4   1   1   2.2e-44     9e-42  144.9   1.4     1   256   301   584   301   589 0.79 -
ID=PSME_00007432     -            207 112291at3193         -            265   1.1e-41  144.6   1.9   1   1   3.6e-44   1.5e-41  144.2   1.9     1   154    41   200    41   203 0.88 -
ID=PSME_00033188     -            657 112291at3193         -            265   1.4e-41  144.2   0.5   1   1   5.8e-44   2.4e-41  143.5   0.5     1   255   353   633   353   644 0.79 -
ID=PSME_00003000     -            902 112291at3193         -            265   3.2e-41  143.0   1.1   1   1   1.3e-43   5.3e-41  142.3   1.1     3   238   302   562   300   582 0.80 -
ID=PSME_00014681     -            280 112291at3193         -            265     1e-40  141.4   1.7   1   2   1.3e-17   5.5e-15   57.0   0.9     1    90    66   153    66   157 0.91 -
ID=PSME_00014681     -            280 112291at3193         -            265     1e-40  141.4   1.7   2   2   1.7e-26     7e-24   86.2   0.0   150   257   150   273   150   277 0.86 -
ID=PSME_00031881     -            582 112291at3193         -            265   1.8e-40  140.6   0.8   1   1   7.3e-43     3e-40  139.9   0.8     1   239   282   545   282   571 0.79 -
ID=PSME_00039059     -            587 112291at3193         -            265   2.5e-40  140.1   0.4   1   1   9.9e-43     4e-40  139.4   0.4     1   239   287   550   287   576 0.81 -
ID=PSME_00020069     -            439 112291at3193         -            265   4.3e-40  139.4   0.2   1   1   1.7e-42   6.8e-40  138.7   0.2     1   257   138   420   138   426 0.82 -
ID=PSME_00014260     -            425 112291at3193         -            265   6.6e-40  138.7   1.6   1   1   2.8e-42   1.1e-39  138.0   1.6     1   256   138   419   138   422 0.81 -
ID=PSME_00055419     -            546 112291at3193         -            265   8.6e-40  138.4   2.4   1   1   3.5e-42   1.4e-39  137.6   2.4     1   243   244   511   244   533 0.79 -
ID=PSME_00039060     -            587 112291at3193         -            265   1.4e-39  137.7   0.4   1   1   5.5e-42   2.2e-39  137.0   0.4     1   239   287   550   287   576 0.81 -
ID=PSME_00040694     -            558 112291at3193         -            265   1.8e-38  134.0   0.4   1   1   6.9e-41   2.8e-38  133.4   0.4     1   256   260   539   260   547 0.79 -
ID=PSME_00015802     -            172 112291at3193         -            265   5.6e-38  132.4   0.7   1   1   1.6e-40   6.4e-38  132.2   0.7   111   250     3   161     1   170 0.85 -
ID=PSME_00027800     -            345 112291at3193         -            265   9.9e-38  131.6   0.9   1   2   3.7e-06    0.0015   19.5   0.0    24    97   102   179    91   187 0.82 -
ID=PSME_00027800     -            345 112291at3193         -            265   9.9e-38  131.6   0.9   2   2   6.2e-34   2.5e-31  110.6   0.4   125   258   191   336   185   341 0.86 -
ID=PSME_00053557     -            202 112291at3193         -            265   5.9e-37  129.1   2.2   1   1   1.2e-38   4.8e-36  126.1   2.2   118   236     1   148     1   185 0.75 -
ID=PSME_00046878     -            285 112291at3193         -            265   2.4e-35  123.8   5.4   1   2   8.7e-17   3.6e-14   54.4   2.4     1    90    18   105    18   110 0.90 -
ID=PSME_00046878     -            285 112291at3193         -            265   2.4e-35  123.8   5.4   2   2   4.3e-22   1.7e-19   71.8   0.1   153   257   105   224   102   232 0.81 -
ID=PSME_00046951     -            315 112291at3193         -            265     3e-35  123.5   0.8   1   2   6.9e-16   2.8e-13   51.4   0.7     1    89   101   187   101   192 0.91 -
ID=PSME_00046951     -            315 112291at3193         -            265     3e-35  123.5   0.8   2   2   7.3e-22     3e-19   71.0   0.0   153   258   188   308   185   313 0.82 -
ID=PSME_00039327     -            164 112291at3193         -            265   8.4e-35  122.0   0.1   1   2   1.7e-31     7e-29  102.6   0.2    87   179     8   103     3   105 0.91 -
ID=PSME_00039327     -            164 112291at3193         -            265   8.4e-35  122.0   0.1   2   2   3.3e-06    0.0013   19.7   0.0   222   258   101   141    97   147 0.83 -
ID=PSME_00038370     -            570 112291at3193         -            265   2.8e-33  117.0   0.4   1   1   1.3e-35   5.1e-33  116.2   0.4     1   240   268   532   268   559 0.77 -
ID=PSME_00038369     -            459 112291at3193         -            265   1.2e-32  114.9   0.2   1   1   4.4e-35   1.8e-32  114.4   0.2     1   187   248   439   248   454 0.86 -
ID=PSME_00049386     -            126 112291at3193         -            265   1.5e-29  104.8   0.1   1   1     4e-32   1.6e-29  104.7   0.1    89   198     3   115     1   123 0.90 -
ID=PSME_00006613     -            236 112291at3193         -            265   1.7e-29  104.6   0.4   1   1   7.5e-32     3e-29  103.8   0.4    28   149   100   230    95   233 0.91 -
ID=PSME_00050091     -            328 112291at3193         -            265   4.6e-29  103.2   0.5   1   1   2.1e-31   8.4e-29  102.3   0.5    28   149   192   322   187   325 0.90 -
ID=PSME_00015405     -            136 112291at3193         -            265   4.6e-29  103.2   0.3   1   1   1.4e-31   5.5e-29  102.9   0.3    30   149     2   130     1   133 0.90 -
ID=PSME_00048753     -            137 112291at3193         -            265   7.8e-29  102.4   0.2   1   1   2.1e-31   8.8e-29  102.3   0.2    29   145     4   129     1   134 0.91 -
ID=PSME_00015291     -            136 112291at3193         -            265   9.5e-29  102.2   0.5   1   1   2.8e-31   1.1e-28  101.9   0.5    30   149     2   130     1   133 0.90 -
ID=PSME_00024240     -            325 112291at3193         -            265   1.7e-28  101.3   7.9   1   1   4.2e-30   1.7e-27   98.1   7.9     1   215    79   323    79   324 0.72 -
ID=PSME_00009229     -            136 112291at3193         -            265   2.4e-28  100.8   0.4   1   1     7e-31   2.9e-28  100.6   0.4    30   149     2   130     1   133 0.90 -
ID=PSME_00041622     -            136 112291at3193         -            265   2.4e-28  100.8   0.2   1   1   7.1e-31   2.9e-28  100.6   0.2    30   149     2   130     1   133 0.90 -
ID=PSME_00038368     -            511 112291at3193         -            265   6.4e-28   99.5   0.1   1   1   3.1e-30   1.3e-27   98.5   0.1    72   256   278   492   238   501 0.75 -
ID=PSME_00044264     -            136 112291at3193         -            265   1.9e-27   97.9   0.6   1   1   5.5e-30   2.2e-27   97.7   0.6    30   149     2   130     1   133 0.91 -
ID=PSME_00046212     -            221 112291at3193         -            265   2.2e-27   97.7   0.2   1   1   9.4e-30   3.8e-27   96.9   0.2    85   251     1   197     1   208 0.78 -
ID=PSME_00036943     -            136 112291at3193         -            265   4.2e-27   96.8   0.3   1   1   1.2e-29   4.9e-27   96.6   0.3    30   149     2   130     1   133 0.89 -
ID=PSME_00036359     -            202 112291at3193         -            265   4.4e-27   96.7   1.3   1   1   1.5e-29   5.9e-27   96.3   1.3    28   149    66   196    56   199 0.89 -
ID=PSME_00052331     -            301 112291at3193         -            265   4.8e-27   96.6   0.4   1   1   2.1e-29   8.7e-27   95.7   0.4    28   149   165   295   160   298 0.89 -
ID=PSME_00055999     -            136 112291at3193         -            265   6.1e-27   96.2   0.5   1   1   1.8e-29   7.4e-27   96.0   0.5    30   149     2   130     1   133 0.90 -
ID=PSME_00052277     -            313 112291at3193         -            265   1.1e-26   95.4   0.9   1   1   4.5e-29   1.9e-26   94.7   0.9    28   149   177   307   172   310 0.90 -
ID=PSME_00017538     -            138 112291at3193         -            265   3.2e-26   93.9   0.4   1   1   9.3e-29   3.8e-26   93.6   0.4    28   149     2   132     1   135 0.90 -
ID=PSME_00038258     -            481 112291at3193         -            265   3.2e-25   90.6   0.6   1   1   1.2e-27   4.7e-25   90.0   0.6     1   153   316   466   316   473 0.85 -
ID=PSME_00048918     -            437 112291at3193         -            265   4.6e-25   90.1   0.1   1   1     2e-27   8.3e-25   89.2   0.1    28   149   301   431   294   434 0.90 -
ID=PSME_00020334     -            539 112291at3193         -            265   5.3e-25   89.9   1.7   1   2   1.5e-20   6.2e-18   66.7   0.9     1   122   267   392   267   397 0.82 -
ID=PSME_00020334     -            539 112291at3193         -            265   5.3e-25   89.9   1.7   2   2   7.8e-07   0.00032   21.8   0.0   163   258   410   531   393   535 0.66 -
ID=PSME_00026429     -            476 112291at3193         -            265     1e-23   85.7   1.6   1   1   3.5e-26   1.4e-23   85.2   1.6     1   148   178   321   178   332 0.85 -
ID=PSME_00046432     -            141 112291at3193         -            265   2.4e-23   84.5   1.1   1   1   7.2e-26   2.9e-23   84.2   1.1    64   149    44   135    20   138 0.85 -
ID=PSME_00055859     -            122 112291at3193         -            265   8.5e-22   79.4   0.7   1   1   3.7e-24   1.5e-21   78.6   0.7    30   149     2   116     1   119 0.84 -
ID=PSME_00031216     -            131 112291at3193         -            265   1.9e-21   78.2   0.0   1   1   5.1e-24   2.1e-21   78.1   0.0   154   257     5   124     1   129 0.82 -
ID=PSME_00054510     -            128 112291at3193         -            265   1.5e-20   75.3   0.1   1   1   4.2e-23   1.7e-20   75.1   0.1   154   258     5   119     1   124 0.82 -
ID=PSME_00055917     -            130 112291at3193         -            265   4.5e-20   73.7   0.2   1   1   1.3e-22   5.4e-20   73.5   0.2    30   149     2   124     1   127 0.89 -
ID=PSME_00029099     -             78 112291at3193         -            265   3.3e-19   70.9   1.5   1   1   8.6e-22   3.5e-19   70.8   1.5    76   150     2    77     1    77 0.94 -
ID=PSME_00055369     -            557 112291at3193         -            265   2.3e-17   64.8   0.0   1   1   9.2e-20   3.8e-17   64.1   0.0    29   127   433   539   427   547 0.87 -
ID=PSME_00045057     -            161 112291at3193         -            265   1.4e-16   62.2   0.0   1   1   4.7e-19   1.9e-16   61.8   0.0   117   179    13    76     3    91 0.86 -
ID=PSME_00051536     -             89 112291at3193         -            265   2.5e-16   61.4   0.1   1   1   6.8e-19   2.8e-16   61.3   0.1    95   150    14    69     2    77 0.91 -
ID=PSME_00043857     -            493 112291at3193         -            265   5.1e-14   53.9   0.0   1   1   1.9e-16   7.7e-14   53.3   0.0   151   219   337   410   321   448 0.81 -
ID=PSME_00012941     -            154 112291at3193         -            265   1.7e-13   52.1   0.3   1   1   6.2e-16   2.5e-13   51.6   0.3    90   149    89   148    79   151 0.87 -
ID=PSME_00041913     -            598 112291at3193         -            265   5.8e-13   50.4   0.0   1   1     2e-15   8.3e-13   49.9   0.0   150   218     1    74     1   117 0.85 -
ID=PSME_00028367     -             89 112291at3193         -            265   6.6e-13   50.2   0.0   1   1   1.8e-15   7.5e-13   50.0   0.0   189   258     3    82     1    87 0.87 -
ID=PSME_00025277     -            689 112291at3193         -            265   3.4e-12   47.9   0.0   1   1   1.3e-14   5.4e-12   47.2   0.0   152   217   284   354   275   375 0.86 -
ID=PSME_00034914     -            164 112291at3193         -            265   2.5e-10   41.7   5.2   1   3     0.023       9.3    7.1   0.1    33    58     3    30     1    35 0.76 -
ID=PSME_00034914     -            164 112291at3193         -            265   2.5e-10   41.7   5.2   2   3   3.4e-05     0.014   16.4   0.7   117   147    50    80    41    85 0.89 -
ID=PSME_00034914     -            164 112291at3193         -            265   2.5e-10   41.7   5.2   3   3   3.2e-06    0.0013   19.7   0.0   170   204    84   121    79   148 0.79 -
ID=PSME_00019020     -            207 112291at3193         -            265   3.7e-10   41.2   0.0   1   1   1.1e-12   4.7e-10   40.9   0.0    90   141    88   139    75   171 0.86 -
ID=PSME_00032989     -            389 112291at3193         -            265   7.8e-08   33.6   0.1   1   1   3.1e-10   1.3e-07   32.9   0.1    12    83    39   108    31   121 0.82 -
ID=PSME_00029989     -            250 112291at3193         -            265   5.7e-07   30.8   0.0   1   1     2e-09   8.1e-07   30.3   0.0    93   119   136   162   130   167 0.90 -
ID=PSME_00050953     -             93 112291at3193         -            265   4.8e-06   27.7   0.0   1   2   1.1e-06   0.00044   21.3   0.0   157   195    11    50     5    52 0.84 -
ID=PSME_00050953     -             93 112291at3193         -            265   4.8e-06   27.7   0.0   2   2     0.042        17    6.3   0.0   222   257    47    86    45    90 0.68 -
ID=PSME_00048510     -            101 112291at3193         -            265   8.7e-06   26.9   0.0   1   2   5.7e-06    0.0023   18.9   0.0   152   190     4    45     1    48 0.82 -
ID=PSME_00048510     -            101 112291at3193         -            265   8.7e-06   26.9   0.0   2   2     0.019       7.9    7.3   0.0   220   244    45    72    44    91 0.76 -
ID=PSME_00054238     -             90 112291at3193         -            265     1e-05   26.6   0.0   1   2   5.6e-06    0.0023   18.9   0.0   154   192     5    44     1    47 0.82 -
ID=PSME_00054238     -             90 112291at3193         -            265     1e-05   26.6   0.0   2   2     0.016       6.6    7.6   0.0   221   257    43    83    41    87 0.84 -
ID=PSME_00042050     -             87 112291at3193         -            265   4.4e-05   24.6   0.0   1   1   1.2e-07   5.1e-05   24.4   0.0   206   258     1    65     1    71 0.77 -
ID=PSME_00041122     -             87 112291at3193         -            265   7.6e-05   23.8   0.0   1   1   2.2e-07   9.1e-05   23.5   0.0   206   258     1    65     1    70 0.75 -
ID=PSME_00014682     -             87 112291at3193         -            265   0.00085   20.4   0.1   1   1   2.8e-06    0.0011   19.9   0.1     1    40    45    84    45    85 0.87 -
ID=PSME_00055886     -            335 112291at3193         -            265    0.0012   19.8   0.2   1   1   4.7e-06    0.0019   19.2   0.2     1    54   255   311   255   325 0.85 -
ID=PSME_00039326     -             95 112291at3193         -            265    0.0036   18.3   0.1   1   1   1.6e-05    0.0064   17.5   0.0     1    28    66    94    66    94 0.90 -
ID=PSME_00007924     -            490 112291at3193         -            265    0.0036   18.3   0.2   1   1   2.1e-05    0.0088   17.0   0.1     1    53   277   332   277   349 0.81 -
ID=PSME_00046211     -            331 112291at3193         -            265    0.0037   18.3   0.2   1   1   1.3e-05    0.0054   17.7   0.2     1    68   250   320   250   327 0.78 -
ID=PSME_00051841     -            504 112291at3193         -            265     0.004   18.2   0.2   1   1   1.6e-05    0.0065   17.5   0.2     1    91   410   498   410   502 0.80 -
ID=PSME_00030408     -            102 112291at3193         -            265    0.0055   17.7   0.0   1   2       5.2   2.1e+03   -0.6   0.0   136   152     2    18     1    27 0.81 -
ID=PSME_00030408     -            102 112291at3193         -            265    0.0055   17.7   0.0   2   2     4e-05     0.016   16.2   0.0   209   258    39    90    24    96 0.83 -
ID=PSME_00001933     -            319 112291at3193         -            265    0.0061   17.6   0.1   1   1   2.1e-05    0.0088   17.0   0.1     1    68   235   306   235   314 0.83 -
ID=PSME_00015800     -            200 112291at3193         -            265     0.018   16.0   0.0   1   1   6.1e-05     0.025   15.6   0.0     1    27   171   198   171   199 0.92 -
ID=PSME_00011640     -            157 112291at3193         -            265     0.044   14.7   0.0   1   1   0.00018     0.072   14.0   0.0     1    29   122   151   122   154 0.89 -
ID=PSME_00049374     -            392 112291at3193         -            265      0.24   12.3   0.1   1   1    0.0013      0.54   11.2   0.0     1    28   363   391   363   391 0.92 -
#
# Program:         hmmsearch
# Version:         3.2.1 (June 2018)
# Pipeline mode:   SEARCH
# Query file:      /isg/shared/databases/BUSCO/odb10/embryophyta_odb10/hmms/112291at3193.hmm
# Target file:     /labs/Wegrzyn/ConiferGenomes/Psme/analysis/SURF_annotation/analyze_orig_maker/gfacs/filtered/maker_genes.fasta.faa
# Option settings: /usr/local/bin/hmmsearch --domtblout /labs/Wegrzyn/ConiferGenomes/Psme/analysis/SURF_annotation/analyze_orig_maker/busco/maker/run_embryophyta_odb10/hmmer_output/112291at3193.out --cpu 1 /isg/shared/databases/BUSCO/odb10/embryophyta_odb10/hmms/112291at3193.hmm /labs/Wegrzyn/ConiferGenomes/Psme/analysis/SURF_annotation/analyze_orig_maker/gfacs/filtered/maker_genes.fasta.faa 
# Current dir:     /labs/Wegrzyn/ConiferGenomes/Psme/analysis/SURF_annotation/analyze_orig_maker/busco
# Date:            Fri Jul 10 13:42:05 2020
# [ok]
