#                                                                            --- full sequence --- -------------- this domain -------------   hmm coord   ali coord   env coord
# target name        accession   tlen query name           accession   qlen   E-value  score  bias   #  of  c-Evalue  i-Evalue  score  bias  from    to  from    to  from    to  acc description of target
#------------------- ---------- ----- -------------------- ---------- ----- --------- ------ ----- --- --- --------- --------- ------ ----- ----- ----- ----- ----- ----- ----- ---- ---------------------
ID=PSME_00026344     -            348 112609at3193         -            300   2.5e-24   87.6   0.4   1   3     3e-23   1.3e-20   75.4   0.2     2   170     4   190     3   208 0.81 -
ID=PSME_00026344     -            348 112609at3193         -            300   2.5e-24   87.6   0.4   2   3       1.4   6.3e+02    0.9   0.0   255   285   200   233   192   246 0.75 -
ID=PSME_00026344     -            348 112609at3193         -            300   2.5e-24   87.6   0.4   3   3     0.035        15    6.2   0.0    79   100   282   303   264   345 0.67 -
ID=PSME_00037488     -            388 112609at3193         -            300   5.6e-24   86.4   2.8   1   2   1.5e-24   6.8e-22   79.6   0.9     2   191    15   232    14   257 0.81 -
ID=PSME_00037488     -            388 112609at3193         -            300   5.6e-24   86.4   2.8   2   2     0.086        38    4.9   0.0   169   218   312   356   302   373 0.79 -
ID=PSME_00028383     -            411 112609at3193         -            300   9.3e-22   79.1   0.8   1   2   1.1e-22   4.9e-20   73.5   0.4     2   204    70   291    69   299 0.73 -
ID=PSME_00028383     -            411 112609at3193         -            300   9.3e-22   79.1   0.8   2   2       4.1   1.8e+03   -0.6   0.0   272   295   287   309   283   317 0.56 -
ID=PSME_00028384     -            411 112609at3193         -            300   6.2e-21   76.4   1.8   1   1   1.4e-22     6e-20   73.2   1.4     2   204    70   291    69   302 0.77 -
ID=PSME_00054586     -            500 112609at3193         -            300   6.9e-19   69.7   1.0   1   2   9.6e-14   4.2e-11   44.2   0.1     6   168     2   186     1   191 0.78 -
ID=PSME_00054586     -            500 112609at3193         -            300   6.9e-19   69.7   1.0   2   2   5.8e-07   0.00025   21.9   0.1    46   170   212   343   190   418 0.68 -
ID=PSME_00037971     -            453 112609at3193         -            300   1.2e-16   62.4   4.4   1   2   3.5e-18   1.5e-15   58.7   3.7     2   205   116   337   115   348 0.73 -
ID=PSME_00037971     -            453 112609at3193         -            300   1.2e-16   62.4   4.4   2   2       2.8   1.2e+03   -0.1   0.0   157   181   332   355   328   359 0.77 -
ID=PSME_00051218     -            461 112609at3193         -            300   3.4e-15   57.6   2.5   1   2   7.9e-16   3.5e-13   51.0   0.9     6   262     4   304     1   326 0.72 -
ID=PSME_00051218     -            461 112609at3193         -            300   3.4e-15   57.6   2.5   2   2      0.79   3.5e+02    1.8   0.0   241   286   410   456   368   460 0.62 -
ID=PSME_00034829     -            513 112609at3193         -            300   1.8e-13   51.9   0.0   1   1   2.5e-15   1.1e-12   49.3   0.0     2   169   132   331   131   340 0.75 -
ID=PSME_00013002     -            599 112609at3193         -            300   1.9e-13   51.9   1.1   1   1   2.6e-15   1.1e-12   49.3   0.9     2   173   139   335   138   357 0.69 -
ID=PSME_00045577     -            435 112609at3193         -            300   2.5e-13   51.5   2.2   1   1   3.4e-15   1.5e-12   48.9   2.2     2   193    75   284    74   311 0.68 -
ID=PSME_00020537     -            359 112609at3193         -            300   3.9e-13   50.8   0.2   1   1   4.6e-15     2e-12   48.5   0.0     2   168     3   185     2   202 0.74 -
ID=PSME_00028993     -            385 112609at3193         -            300     5e-13   50.5   0.0   1   1   4.7e-15   2.1e-12   48.4   0.0     2   170     3   204     2   212 0.75 -
ID=PSME_00011487     -            459 112609at3193         -            300   1.6e-12   48.8   0.1   1   1   7.3e-14   3.2e-11   44.6   0.1     2   181     3   208     2   217 0.70 -
ID=PSME_00001161     -            360 112609at3193         -            300   2.8e-12   48.0   0.4   1   1   2.9e-14   1.3e-11   45.9   0.1     2   168     3   186     2   200 0.69 -
ID=PSME_00056152     -            437 112609at3193         -            300   4.8e-12   47.2   0.7   1   4     0.092        41    4.8   0.0     4    43    54    93    51   125 0.87 -
ID=PSME_00056152     -            437 112609at3193         -            300   4.8e-12   47.2   0.7   2   4   1.5e-09   6.6e-07   30.4   0.0    84   189   163   276   147   286 0.81 -
ID=PSME_00056152     -            437 112609at3193         -            300   4.8e-12   47.2   0.7   3   4      0.17        74    4.0   0.0   156   190   293   327   287   343 0.89 -
ID=PSME_00056152     -            437 112609at3193         -            300   4.8e-12   47.2   0.7   4   4      0.27   1.2e+02    3.3   0.0    61    96   348   387   342   394 0.78 -
ID=PSME_00051055     -            299 112609at3193         -            300   6.4e-12   46.8   0.3   1   4   0.00014     0.063   14.0   0.0     6    38     4    36     1    42 0.90 -
ID=PSME_00051055     -            299 112609at3193         -            300   6.4e-12   46.8   0.3   2   4   9.2e-07   0.00041   21.2   0.1    57   168    81   189    72   196 0.79 -
ID=PSME_00051055     -            299 112609at3193         -            300   6.4e-12   46.8   0.3   3   4     0.023        10    6.8   0.0    80   110   203   233   189   240 0.77 -
ID=PSME_00051055     -            299 112609at3193         -            300   6.4e-12   46.8   0.3   4   4       2.5   1.1e+03    0.1   0.0   252   290   245   284   238   288 0.81 -
ID=PSME_00041380     -            338 112609at3193         -            300   6.4e-12   46.8   1.5   1   1   6.5e-14   2.9e-11   44.7   1.5     6   262     4   283     2   314 0.75 -
ID=PSME_00056552     -            362 112609at3193         -            300   6.7e-12   46.8   0.0   1   1   6.6e-14   2.9e-11   44.7   0.0     2   195     3   219     2   228 0.73 -
ID=PSME_00041379     -            338 112609at3193         -            300   8.8e-12   46.4   0.8   1   1   1.4e-13   6.3e-11   43.6   0.7     6   199     4   218     2   285 0.75 -
ID=PSME_00056722     -            350 112609at3193         -            300   1.6e-11   45.6   0.4   1   3   8.8e-05     0.038   14.7   0.0     6    38     4    36     1    42 0.90 -
ID=PSME_00056722     -            350 112609at3193         -            300   1.6e-11   45.6   0.4   2   3   5.9e-08   2.6e-05   25.2   0.2    49   189    73   216    70   229 0.73 -
ID=PSME_00056722     -            350 112609at3193         -            300   1.6e-11   45.6   0.4   3   3      0.13        58    4.3   0.0    81   110   202   231   190   247 0.82 -
ID=PSME_00045583     -            644 112609at3193         -            300   1.8e-11   45.4   2.1   1   2   1.7e-10   7.3e-08   33.5   0.9     6   223     4   241     1   256 0.67 -
ID=PSME_00045583     -            644 112609at3193         -            300   1.8e-11   45.4   2.1   2   2     0.023        10    6.8   0.0   105   144   384   424   345   434 0.81 -
ID=PSME_00028186     -            373 112609at3193         -            300   2.3e-11   45.0   0.2   1   2   1.5e-05    0.0068   17.2   0.0     2    39     3    40     2    45 0.92 -
ID=PSME_00028186     -            373 112609at3193         -            300   2.3e-11   45.0   0.2   2   2   4.1e-08   1.8e-05   25.7   0.2    61   224    89   255    76   267 0.77 -
ID=PSME_00031562     -            474 112609at3193         -            300   3.2e-11   44.5   0.6   1   2   3.4e-10   1.5e-07   32.5   0.0     2    44    40    82    39    97 0.90 -
ID=PSME_00031562     -            474 112609at3193         -            300   3.2e-11   44.5   0.6   2   2      0.01       4.6    7.9   0.1    81   169   175   260   167   264 0.73 -
ID=PSME_00043596     -            375 112609at3193         -            300   2.3e-10   41.7   0.1   1   1   6.1e-12   2.7e-09   38.2   0.1     2   168     3   190     2   214 0.68 -
ID=PSME_00021712     -            459 112609at3193         -            300   5.9e-10   40.4   0.5   1   2   2.2e-08   9.5e-06   26.6   0.0     2    43    83   124    82   128 0.95 -
ID=PSME_00021712     -            459 112609at3193         -            300   5.9e-10   40.4   0.5   2   2   0.00074      0.32   11.7   0.2    61   169   176   285   167   295 0.71 -
ID=PSME_00056762     -            375 112609at3193         -            300     6e-10   40.4   0.1   1   1   2.1e-11   9.1e-09   36.5   0.1     2   168     3   190     2   214 0.69 -
ID=PSME_00021713     -            459 112609at3193         -            300   8.6e-10   39.9   1.1   1   2   2.2e-08   9.5e-06   26.6   0.0     2    43    83   124    82   128 0.95 -
ID=PSME_00021713     -            459 112609at3193         -            300   8.6e-10   39.9   1.1   2   2     0.001      0.45   11.2   0.4    61   169   176   285   167   295 0.62 -
ID=PSME_00034827     -            358 112609at3193         -            300     1e-09   39.6   0.0   1   2   2.1e-09   9.4e-07   29.9   0.0     2    41    32    71    31    74 0.93 -
ID=PSME_00034827     -            358 112609at3193         -            300     1e-09   39.6   0.0   2   2     0.027        12    6.6   0.0    81   169   143   238   131   254 0.74 -
ID=PSME_00043594     -            375 112609at3193         -            300   1.6e-09   39.0   0.0   1   3   1.1e-07   4.7e-05   24.3   0.0     2    41     3    42     2    46 0.94 -
ID=PSME_00043594     -            375 112609at3193         -            300   1.6e-09   39.0   0.0   2   3   0.00087      0.38   11.5   0.1    57   168    81   193    72   203 0.70 -
ID=PSME_00043594     -            375 112609at3193         -            300   1.6e-09   39.0   0.0   3   3      0.16        68    4.1   0.0    88   169   166   194   126   247 0.59 -
ID=PSME_00021544     -            472 112609at3193         -            300   2.3e-09   38.5   0.9   1   3   1.2e-07   5.3e-05   24.1   0.2     2    57    40    94    39   128 0.85 -
ID=PSME_00021544     -            472 112609at3193         -            300   2.3e-09   38.5   0.9   2   3    0.0022      0.96   10.1   0.0    85   170   178   260   169   272 0.69 -
ID=PSME_00021544     -            472 112609at3193         -            300   2.3e-09   38.5   0.9   3   3       6.1   2.7e+03   -1.2   0.0   261   288   345   379   337   386 0.60 -
ID=PSME_00056698     -            256 112609at3193         -            300     3e-09   38.1   0.5   1   2   1.9e-10   8.4e-08   33.3   0.4     6   168     4   185     1   208 0.71 -
ID=PSME_00056698     -            256 112609at3193         -            300     3e-09   38.1   0.5   2   2       2.7   1.2e+03    0.0   0.0   107   140   193   228   187   253 0.59 -
ID=PSME_00028189     -            217 112609at3193         -            300   3.7e-09   37.8   0.0   1   2     3e-07   0.00013   22.8   0.0     2    39     3    40     2    45 0.92 -
ID=PSME_00028189     -            217 112609at3193         -            300   3.7e-09   37.8   0.0   2   2    0.0003      0.13   13.0   0.0    61   168    89   196    78   204 0.77 -
ID=PSME_00040132     -            353 112609at3193         -            300   9.3e-09   36.5   1.6   1   2     4e-07   0.00018   22.4   0.1     2    40     8    46     7    71 0.86 -
ID=PSME_00040132     -            353 112609at3193         -            300   9.3e-09   36.5   1.6   2   2   0.00032      0.14   12.9   0.1    63   168    90   186    83   193 0.78 -
ID=PSME_00041378     -            154 112609at3193         -            300   1.1e-08   36.2   0.2   1   1   1.7e-10   7.6e-08   33.5   0.2     6   134     4   145     1   151 0.77 -
ID=PSME_00057091     -            381 112609at3193         -            300   2.1e-08   35.3   0.1   1   2   8.6e-05     0.038   14.8   0.0     2    39     3    40     2    45 0.93 -
ID=PSME_00057091     -            381 112609at3193         -            300   2.1e-08   35.3   0.1   2   2   6.9e-06     0.003   18.4   0.1    80   229   116   264    89   271 0.71 -
ID=PSME_00011750     -            421 112609at3193         -            300   3.4e-08   34.6   5.1   1   3     0.024        10    6.8   0.1     3    41    48    86    46    94 0.93 -
ID=PSME_00011750     -            421 112609at3193         -            300   3.4e-08   34.6   5.1   2   3     6e-08   2.7e-05   25.1   0.1   106   196   173   273   134   318 0.62 -
ID=PSME_00011750     -            421 112609at3193         -            300   3.4e-08   34.6   5.1   3   3       0.3   1.3e+02    3.1   0.3    43    92   322   371   305   380 0.77 -
ID=PSME_00021455     -            378 112609at3193         -            300     7e-08   33.6   0.7   1   2   3.9e-09   1.7e-06   29.0   0.4     2   180     3   207     2   220 0.70 -
ID=PSME_00021455     -            378 112609at3193         -            300     7e-08   33.6   0.7   2   2       0.1        45    4.6   0.0    83   168   158   244   147   251 0.59 -
ID=PSME_00049484     -            338 112609at3193         -            300   1.1e-07   32.9   0.1   1   2   8.7e-09   3.8e-06   27.9   0.0     6   168     4   179     1   182 0.70 -
ID=PSME_00049484     -            338 112609at3193         -            300   1.1e-07   32.9   0.1   2   2      0.15        67    4.1   0.0   107   168   165   227   156   237 0.79 -
ID=PSME_00029407     -            320 112609at3193         -            300   1.9e-07   32.1   0.2   1   1   2.7e-09   1.2e-06   29.5   0.2    38   169    16   158    11   219 0.74 -
ID=PSME_00057030     -            569 112609at3193         -            300     3e-07   31.5   0.1   1   2   4.2e-08   1.8e-05   25.6   0.0     3   202   225   437   223   456 0.74 -
ID=PSME_00057030     -            569 112609at3193         -            300     3e-07   31.5   0.1   2   2      0.74   3.2e+02    1.8   0.0   260   293   464   500   453   504 0.78 -
ID=PSME_00027630     -            192 112609at3193         -            300   3.4e-07   31.3   0.1   1   1   5.3e-09   2.3e-06   28.6   0.1     5   141     3   178     1   186 0.69 -
ID=PSME_00029409     -            301 112609at3193         -            300     6e-07   30.5   0.2   1   1     6e-09   2.7e-06   28.4   0.2    39   232    17   216    12   228 0.70 -
ID=PSME_00006728     -            156 112609at3193         -            300   8.5e-07   30.0   0.2   1   2   1.9e-08   8.5e-06   26.7   0.1     2    95     3   119     2   125 0.76 -
ID=PSME_00006728     -            156 112609at3193         -            300   8.5e-07   30.0   0.2   2   2       5.2   2.3e+03   -0.9   0.0   273   296   130   153   122   155 0.81 -
ID=PSME_00029406     -            301 112609at3193         -            300   1.2e-06   29.5   0.1   1   1   8.5e-09   3.7e-06   27.9   0.1    39   169    17   158    12   208 0.73 -
ID=PSME_00028382     -            256 112609at3193         -            300   1.3e-06   29.4   0.1   1   1   5.7e-09   2.5e-06   28.5   0.1    79   204     8   138     4   143 0.76 -
ID=PSME_00011751     -            404 112609at3193         -            300   2.6e-06   28.4   5.2   1   4     0.039        17    6.0   0.0     3    41    31    69    29    83 0.92 -
ID=PSME_00011751     -            404 112609at3193         -            300   2.6e-06   28.4   5.2   2   4   2.2e-06   0.00097   20.0   0.1   113   192   168   252   139   289 0.58 -
ID=PSME_00011751     -            404 112609at3193         -            300   2.6e-06   28.4   5.2   3   4       4.6     2e+03   -0.8   0.0   270   292   269   292   250   302 0.62 -
ID=PSME_00011751     -            404 112609at3193         -            300   2.6e-06   28.4   5.2   4   4      0.59   2.6e+02    2.2   0.4    43    92   305   354   294   363 0.74 -
ID=PSME_00056949     -            353 112609at3193         -            300   4.3e-06   27.7   0.6   1   2   2.1e-06    0.0009   20.1   0.0     6    38     4    36     1    44 0.91 -
ID=PSME_00056949     -            353 112609at3193         -            300   4.3e-06   27.7   0.6   2   2     0.077        34    5.1   0.1    57   169    93   201    77   226 0.62 -
ID=PSME_00049485     -            310 112609at3193         -            300   4.4e-06   27.7   0.1   1   1   1.2e-07   5.3e-05   24.1   0.0     6   168     4   199     1   206 0.65 -
ID=PSME_00007891     -            263 112609at3193         -            300   6.2e-06   27.2   0.3   1   3   0.00049      0.22   12.3   0.0     3    40     4    41     2    48 0.92 -
ID=PSME_00007891     -            263 112609at3193         -            300   6.2e-06   27.2   0.3   2   3     0.002      0.86   10.3   0.2   119   225    74   185    71   193 0.61 -
ID=PSME_00007891     -            263 112609at3193         -            300   6.2e-06   27.2   0.3   3   3      0.42   1.8e+02    2.7   0.3   243   293   179   235   174   240 0.66 -
ID=PSME_00044056     -            219 112609at3193         -            300   7.4e-06   26.9   0.2   1   2     0.065        29    5.3   0.0    18    41     1    24     1    27 0.89 -
ID=PSME_00044056     -            219 112609at3193         -            300   7.4e-06   26.9   0.2   2   2   2.5e-06    0.0011   19.8   0.0    53   189    61   204    52   216 0.69 -
ID=PSME_00007198     -            412 112609at3193         -            300   7.7e-06   26.9   0.4   1   2   2.3e-07    0.0001   23.2   0.1     6    44     6    44     3    89 0.86 -
ID=PSME_00007198     -            412 112609at3193         -            300   7.7e-06   26.9   0.4   2   2       1.6   6.9e+02    0.8   0.0   268   289   365   386   333   390 0.73 -
ID=PSME_00044506     -            352 112609at3193         -            300   1.3e-05   26.2   0.1   1   2   4.7e-06    0.0021   18.9   0.1     5    43     9    48     7    53 0.91 -
ID=PSME_00044506     -            352 112609at3193         -            300   1.3e-05   26.2   0.1   2   2      0.12        54    4.4   0.0   254   286   167   199   159   206 0.89 -
ID=PSME_00029404     -             92 112609at3193         -            300   1.5e-05   25.9   0.0   1   1     8e-08   3.5e-05   24.7   0.0     6    41     4    39     1    90 0.78 -
ID=PSME_00013592     -            439 112609at3193         -            300   1.6e-05   25.9   0.2   1   3     1e-06   0.00045   21.1   0.1     2    42    64   104    63   114 0.91 -
ID=PSME_00013592     -            439 112609at3193         -            300   1.6e-05   25.9   0.2   2   3       9.6   4.2e+03   -1.8   0.0   268   290   122   144   118   155 0.80 -
ID=PSME_00013592     -            439 112609at3193         -            300   1.6e-05   25.9   0.2   3   3       1.2   5.1e+02    1.2   0.0   233   289   195   256   174   263 0.72 -
ID=PSME_00057161     -            352 112609at3193         -            300   1.6e-05   25.8   0.8   1   2     2e-06   0.00088   20.1   0.0     6    39     4    37     1    42 0.91 -
ID=PSME_00057161     -            352 112609at3193         -            300   1.6e-05   25.8   0.8   2   2      0.27   1.2e+02    3.3   0.1    57   102    89   133    79   215 0.77 -
ID=PSME_00044505     -            259 112609at3193         -            300   1.6e-05   25.8   0.1   1   3     4e-06    0.0018   19.1   0.0     5    43     9    48     7    56 0.90 -
ID=PSME_00044505     -            259 112609at3193         -            300   1.6e-05   25.8   0.1   2   3       8.2   3.6e+03   -1.6   0.0   247   280    91   126    82   139 0.62 -
ID=PSME_00044505     -            259 112609at3193         -            300   1.6e-05   25.8   0.1   3   3      0.26   1.1e+02    3.3   0.0   254   286   167   199   159   205 0.87 -
ID=PSME_00036785     -            449 112609at3193         -            300     2e-05   25.5   0.1   1   2   1.5e-07   6.5e-05   23.8   0.1     2    42   210   250   209   298 0.94 -
ID=PSME_00036785     -            449 112609at3193         -            300     2e-05   25.5   0.1   2   2       9.8   4.3e+03   -1.8   0.0    85    98   353   366   343   384 0.69 -
ID=PSME_00056099     -            444 112609at3193         -            300   2.2e-05   25.4   0.8   1   2   2.9e-07   0.00013   22.9   0.1     6    44    27    65    24    97 0.86 -
ID=PSME_00056099     -            444 112609at3193         -            300   2.2e-05   25.4   0.8   2   2       4.9   2.1e+03   -0.8   0.0   268   286   397   415   357   421 0.63 -
ID=PSME_00054640     -            390 112609at3193         -            300   2.3e-05   25.3   0.3   1   1   1.9e-07   8.1e-05   23.5   0.1     6    58     4    57     2    83 0.82 -
ID=PSME_00029408     -            291 112609at3193         -            300   2.3e-05   25.3   0.3   1   1   1.9e-07   8.5e-05   23.5   0.2    55   219    10   174     1   195 0.66 -
ID=PSME_00023192     -            546 112609at3193         -            300   3.2e-05   24.9   0.1   1   1   2.6e-07   0.00011   23.1   0.1     4    98   358   474   355   524 0.68 -
ID=PSME_00051047     -            325 112609at3193         -            300   3.4e-05   24.8   0.3   1   2   1.8e-06   0.00079   20.3   0.1    18   168     3   166     1   172 0.69 -
ID=PSME_00051047     -            325 112609at3193         -            300   3.4e-05   24.8   0.3   2   2      0.16        72    4.0   0.0   106   168   151   214   125   223 0.76 -
ID=PSME_00056112     -            186 112609at3193         -            300   3.6e-05   24.7   1.2   1   1   1.4e-07   6.1e-05   23.9   1.2    60   204    29   179     7   183 0.71 -
ID=PSME_00010608     -            620 112609at3193         -            300   3.6e-05   24.7   0.1   1   3   2.7e-05     0.012   16.4   0.1     6    43    10    47     7    53 0.94 -
ID=PSME_00010608     -            620 112609at3193         -            300   3.6e-05   24.7   0.1   2   3       1.1     5e+02    1.2   0.0   255   288   169   202   163   207 0.82 -
ID=PSME_00010608     -            620 112609at3193         -            300   3.6e-05   24.7   0.1   3   3      0.78   3.4e+02    1.8   0.0   253   288   490   525   483   531 0.83 -
ID=PSME_00017683     -            334 112609at3193         -            300   3.8e-05   24.6   1.7   1   3   8.1e-05     0.036   14.8   0.2     5    57    14    67    12    89 0.80 -
ID=PSME_00017683     -            334 112609at3193         -            300   3.8e-05   24.6   1.7   2   3      0.99   4.4e+02    1.4   0.0   256   289   181   214   176   224 0.82 -
ID=PSME_00017683     -            334 112609at3193         -            300   3.8e-05   24.6   1.7   3   3     0.033        14    6.3   0.0   199   291   214   308   207   313 0.69 -
ID=PSME_00031790     -            398 112609at3193         -            300   4.3e-05   24.4   0.1   1   3    0.0065       2.8    8.6   0.0    89   171   124   205   110   236 0.62 -
ID=PSME_00031790     -            398 112609at3193         -            300   4.3e-05   24.4   0.1   2   3   8.6e-05     0.038   14.8   0.1    80   191   163   280   162   286 0.73 -
ID=PSME_00031790     -            398 112609at3193         -            300   4.3e-05   24.4   0.1   3   3      0.93   4.1e+02    1.5   0.0    82   140   283   342   279   351 0.69 -
ID=PSME_00056238     -            347 112609at3193         -            300   4.5e-05   24.4   0.8   1   2     2e-06   0.00086   20.1   0.0     6    39     4    37     1    42 0.91 -
ID=PSME_00056238     -            347 112609at3193         -            300   4.5e-05   24.4   0.8   2   2      0.79   3.4e+02    1.8   0.1    61   101    91   127    76   210 0.72 -
ID=PSME_00043233     -            361 112609at3193         -            300   5.6e-05   24.0   0.4   1   3   2.2e-06   0.00098   20.0   0.0     6    39     4    37     1    43 0.91 -
ID=PSME_00043233     -            361 112609at3193         -            300   5.6e-05   24.0   0.4   2   3       2.7   1.2e+03    0.0   0.0   145   168   116   139    72   153 0.56 -
ID=PSME_00043233     -            361 112609at3193         -            300   5.6e-05   24.0   0.4   3   3       5.4   2.4e+03   -1.0   0.0   111   135   180   204   157   245 0.63 -
ID=PSME_00016413     -            432 112609at3193         -            300   6.5e-05   23.8   0.3   1   3     6e-05     0.026   15.3   0.0     4    43    20    59    17    73 0.92 -
ID=PSME_00016413     -            432 112609at3193         -            300   6.5e-05   23.8   0.3   2   3      0.43   1.9e+02    2.6   0.0   145   168   201   224   176   230 0.73 -
ID=PSME_00016413     -            432 112609at3193         -            300   6.5e-05   23.8   0.3   3   3      0.87   3.8e+02    1.6   0.0   249   291   357   402   344   412 0.79 -
ID=PSME_00057087     -            424 112609at3193         -            300   8.1e-05   23.5   0.4   1   3   4.9e-05     0.021   15.6   0.0     4    44    12    52     9    66 0.91 -
ID=PSME_00057087     -            424 112609at3193         -            300   8.1e-05   23.5   0.4   2   3      0.46     2e+02    2.5   0.0   146   168   194   216   163   223 0.73 -
ID=PSME_00057087     -            424 112609at3193         -            300   8.1e-05   23.5   0.4   3   3       1.3   5.7e+02    1.0   0.0   249   291   349   394   338   404 0.76 -
ID=PSME_00046063     -            387 112609at3193         -            300   9.1e-05   23.3   0.1   1   3   3.3e-06    0.0015   19.4   0.0     5    44     9    48     6    88 0.92 -
ID=PSME_00046063     -            387 112609at3193         -            300   9.1e-05   23.3   0.1   2   3       3.5   1.5e+03   -0.4   0.0   268   289   184   205   165   212 0.73 -
ID=PSME_00046063     -            387 112609at3193         -            300   9.1e-05   23.3   0.1   3   3       4.6     2e+03   -0.8   0.0   145   169   338   362   314   375 0.72 -
ID=PSME_00049562     -            424 112609at3193         -            300   0.00012   23.0   0.2   1   3   0.00017     0.076   13.8   0.0     4    44    20    60    17    74 0.91 -
ID=PSME_00049562     -            424 112609at3193         -            300   0.00012   23.0   0.2   2   3      0.36   1.6e+02    2.9   0.0   145   168   201   224   156   230 0.77 -
ID=PSME_00049562     -            424 112609at3193         -            300   0.00012   23.0   0.2   3   3      0.57   2.5e+02    2.2   0.0   248   291   358   404   353   413 0.81 -
ID=PSME_00011746     -            246 112609at3193         -            300   0.00015   22.6   1.8   1   2   3.1e-06    0.0014   19.5   0.1    78   172    21   122     4   141 0.67 -
ID=PSME_00011746     -            246 112609at3193         -            300   0.00015   22.6   1.8   2   2      0.41   1.8e+02    2.7   0.4    43    97   141   195   131   241 0.70 -
ID=PSME_00056225     -            424 112609at3193         -            300   0.00019   22.3   2.1   1   3   4.9e-05     0.021   15.6   0.0     4    44    12    52     9    66 0.91 -
ID=PSME_00056225     -            424 112609at3193         -            300   0.00019   22.3   2.1   2   3      0.34   1.5e+02    2.9   0.0   136   168   181   216   162   223 0.76 -
ID=PSME_00056225     -            424 112609at3193         -            300   0.00019   22.3   2.1   3   3       1.2   5.1e+02    1.2   0.0    56    81   380   405   348   409 0.74 -
ID=PSME_00037301     -            290 112609at3193         -            300   0.00031   21.6   1.2   1   3   1.4e-05    0.0063   17.3   0.1     3    44    10    51     8    85 0.90 -
ID=PSME_00037301     -            290 112609at3193         -            300   0.00031   21.6   1.2   2   3       4.4   1.9e+03   -0.7   0.0   271   288   115   132    93   145 0.70 -
ID=PSME_00037301     -            290 112609at3193         -            300   0.00031   21.6   1.2   3   3      0.58   2.5e+02    2.2   0.1   256   289   236   267   112   273 0.67 -
ID=PSME_00011747     -            404 112609at3193         -            300   0.00031   21.6   4.9   1   4       0.2        88    3.7   0.0     4    41    37    74    34    90 0.90 -
ID=PSME_00011747     -            404 112609at3193         -            300   0.00031   21.6   4.9   2   4   5.8e-05     0.025   15.3   0.0   114   192   159   247   137   281 0.60 -
ID=PSME_00011747     -            404 112609at3193         -            300   0.00031   21.6   4.9   3   4      0.93   4.1e+02    1.5   0.0   256   297   249   293   244   295 0.66 -
ID=PSME_00011747     -            404 112609at3193         -            300   0.00031   21.6   4.9   4   4      0.79   3.5e+02    1.7   0.7    41   118   298   378   279   401 0.66 -
ID=PSME_00006727     -            254 112609at3193         -            300   0.00034   21.5   0.2   1   1   6.1e-06    0.0027   18.5   0.2     9   182     2   197     1   200 0.66 -
ID=PSME_00039626     -            187 112609at3193         -            300   0.00092   20.1   0.1   1   1   2.8e-06    0.0012   19.6   0.1     6    44    43    81    40   135 0.84 -
ID=PSME_00017352     -            410 112609at3193         -            300    0.0011   19.8   3.6   1   4   0.00047      0.21   12.3   0.1     5    46    28    70    24    82 0.87 -
ID=PSME_00017352     -            410 112609at3193         -            300    0.0011   19.8   3.6   2   4       1.1   4.6e+02    1.3   0.1   271   293   245   267   208   278 0.76 -
ID=PSME_00017352     -            410 112609at3193         -            300    0.0011   19.8   3.6   3   4      0.25   1.1e+02    3.4   0.0   134   168   288   322   274   330 0.89 -
ID=PSME_00017352     -            410 112609at3193         -            300    0.0011   19.8   3.6   4   4       6.4   2.8e+03   -1.2   0.0    26    67   339   381   332   385 0.78 -
ID=PSME_00006053     -            415 112609at3193         -            300    0.0013   19.6   1.0   1   3   6.9e-05      0.03   15.1   0.3     5    45    14    54    12    77 0.81 -
ID=PSME_00006053     -            415 112609at3193         -            300    0.0013   19.6   1.0   2   3       2.9   1.3e+03   -0.1   0.0   260   288   185   213   163   220 0.69 -
ID=PSME_00006053     -            415 112609at3193         -            300    0.0013   19.6   1.0   3   3       1.8   8.1e+02    0.5   0.0   137   287   350   385   288   391 0.55 -
ID=PSME_00044206     -            444 112609at3193         -            300    0.0017   19.2   0.1   1   3   9.7e-05     0.043   14.6   0.0     5    41    16    52    13    69 0.93 -
ID=PSME_00044206     -            444 112609at3193         -            300    0.0017   19.2   0.1   2   3       3.9   1.7e+03   -0.5   0.0   263   286   188   211   151   218 0.65 -
ID=PSME_00044206     -            444 112609at3193         -            300    0.0017   19.2   0.1   3   3       2.1   9.4e+02    0.3   0.0   256   293   384   424   359   427 0.75 -
ID=PSME_00021877     -            612 112609at3193         -            300     0.002   18.9   0.0   1   1     1e-05    0.0044   17.8   0.0     3    44   461   502   459   511 0.91 -
ID=PSME_00042591     -            309 112609at3193         -            300    0.0022   18.8   0.0   1   2   6.1e-05     0.027   15.2   0.0     5    41    16    52    13    68 0.94 -
ID=PSME_00042591     -            309 112609at3193         -            300    0.0022   18.8   0.0   2   2       1.9   8.1e+02    0.5   0.0   270   287   195   212   152   221 0.75 -
ID=PSME_00010716     -            305 112609at3193         -            300    0.0026   18.6   0.0   1   2    0.0039       1.7    9.3   0.0    81   209    54   190    47   199 0.68 -
ID=PSME_00010716     -            305 112609at3193         -            300    0.0026   18.6   0.0   2   2     0.036        16    6.2   0.0    52    99   232   280   206   287 0.64 -
ID=PSME_00054463     -            658 112609at3193         -            300    0.0029   18.4   0.6   1   1     1e-05    0.0045   17.8   0.6    82   190   527   639   521   657 0.72 -
ID=PSME_00040068     -            405 112609at3193         -            300     0.003   18.4   0.1   1   1   1.5e-05    0.0067   17.2   0.1     5    48    58   101    54   142 0.88 -
ID=PSME_00032153     -            793 112609at3193         -            300    0.0033   18.2   0.3   1   2   0.00018     0.078   13.7   0.0    81   170   552   634   548   639 0.76 -
ID=PSME_00032153     -            793 112609at3193         -            300    0.0033   18.2   0.3   2   2      0.81   3.6e+02    1.7   0.1    98   168   708   726   642   759 0.55 -
ID=PSME_00003770     -            619 112609at3193         -            300    0.0037   18.1   0.1   1   3    0.0001     0.045   14.5   0.0     3    44    10    51     9    92 0.86 -
ID=PSME_00003770     -            619 112609at3193         -            300    0.0037   18.1   0.1   2   3       5.6   2.5e+03   -1.0   0.0   271   290   197   216   173   222 0.74 -
ID=PSME_00003770     -            619 112609at3193         -            300    0.0037   18.1   0.1   3   3       5.8   2.5e+03   -1.1   0.0   123   172   357   407   350   415 0.72 -
ID=PSME_00052411     -            398 112609at3193         -            300    0.0054   17.5   2.3   1   2   8.6e-05     0.038   14.8   0.4     2    40    29    67    28   219 0.93 -
ID=PSME_00052411     -            398 112609at3193         -            300    0.0054   17.5   2.3   2   2       1.7   7.5e+02    0.6   0.1    43    71   346   375   338   393 0.75 -
ID=PSME_00026380     -            139 112609at3193         -            300    0.0059   17.4   0.0   1   1   2.6e-05     0.011   16.5   0.0     6    39     4    37     1    46 0.92 -
ID=PSME_00028187     -            164 112609at3193         -            300    0.0061   17.4   0.2   1   1   2.1e-05    0.0091   16.8   0.2   152   226    53   128    11   137 0.69 -
ID=PSME_00009514     -            386 112609at3193         -            300    0.0091   16.8   0.9   1   2   0.00032      0.14   12.9   0.1     3    40    31    68    29    71 0.92 -
ID=PSME_00009514     -            386 112609at3193         -            300    0.0091   16.8   0.9   2   2       1.3   5.8e+02    1.0   0.0    42    70   337   366   329   375 0.81 -
ID=PSME_00056950     -            532 112609at3193         -            300      0.01   16.7   0.0   1   1   0.00011     0.047   14.4   0.0     5    41    14    50    11    60 0.94 -
ID=PSME_00040759     -            724 112609at3193         -            300     0.012   16.4   0.3   1   2    0.0031       1.4    9.7   0.0     5    49    27    71    25    79 0.92 -
ID=PSME_00040759     -            724 112609at3193         -            300     0.012   16.4   0.3   2   2      0.12        54    4.4   0.1    12    49   483   520   476   522 0.89 -
ID=PSME_00030033     -            376 112609at3193         -            300     0.013   16.3   0.0   1   2   0.00079      0.34   11.6   0.0     6    43    10    47     7    53 0.93 -
ID=PSME_00030033     -            376 112609at3193         -            300     0.013   16.3   0.0   2   2       0.7   3.1e+02    1.9   0.0   256   288   170   202   164   207 0.82 -
ID=PSME_00057006     -            153 112609at3193         -            300     0.013   16.3   0.7   1   1   0.00011     0.048   14.4   0.7    53   169    19   131     8   135 0.75 -
ID=PSME_00017973     -            153 112609at3193         -            300     0.014   16.2   0.2   1   1    0.0069         3    8.5   0.0   153   198    26    78     2    79 0.70 -
ID=PSME_00056608     -             68 112609at3193         -            300     0.018   15.8   0.0   1   1   4.1e-05     0.018   15.8   0.0     6    38     4    36     1    65 0.91 -
ID=PSME_00044766     -            109 112609at3193         -            300     0.019   15.8   0.1   1   1   5.7e-05     0.025   15.3   0.1    52   101    12    59     7    97 0.63 -
ID=PSME_00029405     -            103 112609at3193         -            300      0.02   15.7   0.1   1   1   6.1e-05     0.027   15.3   0.1   108   168     7    74     2    80 0.79 -
ID=PSME_00026381     -            196 112609at3193         -            300     0.021   15.6   0.1   1   1   9.4e-05     0.041   14.6   0.0    85   171    15    93     2   114 0.69 -
ID=PSME_00030742     -            153 112609at3193         -            300     0.041   14.7   0.5   1   1   0.00097      0.43   11.3   0.5    53   169    19   131     8   135 0.68 -
ID=PSME_00056716     -            386 112609at3193         -            300     0.042   14.6   1.0   1   1   0.00032      0.14   12.9   0.1     4    40    31    67    28    70 0.92 -
ID=PSME_00055241     -            423 112609at3193         -            300     0.043   14.6   0.0   1   1   0.00022     0.098   13.4   0.0     6    41    78   113    74   131 0.92 -
ID=PSME_00052768     -            595 112609at3193         -            300     0.054   14.3   0.5   1   2     0.001      0.45   11.2   0.1     9    43   179   213   173   222 0.90 -
ID=PSME_00052768     -            595 112609at3193         -            300     0.054   14.3   0.5   2   2       3.1   1.3e+03   -0.2   0.0   150   285   370   390   356   428 0.62 -
ID=PSME_00004605     -            292 112609at3193         -            300     0.076   13.8   2.8   1   2   0.00042      0.18   12.5   0.7     6    58    29    82    14   101 0.77 -
ID=PSME_00004605     -            292 112609at3193         -            300     0.076   13.8   2.8   2   2       5.1   2.2e+03   -0.9   0.0   157   169   196   208   171   216 0.77 -
ID=PSME_00051473     -            434 112609at3193         -            300       0.1   13.3   4.3   1   3   0.00058      0.26   12.0   0.4     6    66    15    75    12    94 0.77 -
ID=PSME_00051473     -            434 112609at3193         -            300       0.1   13.3   4.3   2   3       5.8   2.5e+03   -1.1   0.0   268   286   187   205   169   235 0.73 -
ID=PSME_00051473     -            434 112609at3193         -            300       0.1   13.3   4.3   3   3       1.5   6.6e+02    0.8   0.1   129   171   347   391   339   405 0.79 -
ID=PSME_00031207     -            710 112609at3193         -            300      0.12   13.1   0.1   1   1   0.00047       0.2   12.3   0.1     6    43   308   345   304   353 0.94 -
ID=PSME_00052792     -            508 112609at3193         -            300      0.13   13.0   0.4   1   2    0.0022      0.95   10.2   0.1     9    43    16    50    11    60 0.90 -
ID=PSME_00052792     -            508 112609at3193         -            300      0.13   13.0   0.4   2   2       2.5   1.1e+03    0.1   0.0   151   288   197   219   182   254 0.57 -
ID=PSME_00057214     -            428 112609at3193         -            300      0.13   13.0   1.0   1   1   0.00049      0.22   12.3   0.1     6    46    70   110    66   124 0.87 -
ID=PSME_00057003     -            318 112609at3193         -            300      0.14   12.9   0.1   1   1   0.00054      0.24   12.1   0.1     3    43     8    48     6    54 0.89 -
ID=PSME_00027740     -            188 112609at3193         -            300      0.15   12.8   0.1   1   1   0.00048      0.21   12.3   0.1     5    41    45    81    43   100 0.88 -
ID=PSME_00012437     -            455 112609at3193         -            300      0.18   12.5   0.3   1   1   0.00078      0.34   11.6   0.1     2    47     7    52     6    74 0.85 -
ID=PSME_00010357     -            475 112609at3193         -            300      0.24   12.1   0.5   1   2     0.006       2.6    8.7   0.1     6    40   124   158   120   168 0.92 -
ID=PSME_00010357     -            475 112609at3193         -            300      0.24   12.1   0.5   2   2       2.2   9.7e+02    0.3   0.0    29   167   266   300   252   306 0.58 -
ID=PSME_00023190     -            131 112609at3193         -            300      0.25   12.1   0.0   1   1   0.00078      0.34   11.6   0.0    57    95    70   114    62   122 0.80 -
ID=PSME_00029966     -            232 112609at3193         -            300      0.28   11.9   0.0   1   1   0.00093      0.41   11.4   0.0     2    20    25    43    24    54 0.88 -
ID=PSME_00033535     -            367 112609at3193         -            300       0.3   11.8   0.1   1   1    0.0011      0.48   11.1   0.1     5    49    27    71    25    82 0.91 -
ID=PSME_00055190     -            422 112609at3193         -            300      0.31   11.8   0.1   1   1    0.0011      0.47   11.1   0.1     2    55    41    95    40   112 0.81 -
ID=PSME_00052412     -            384 112609at3193         -            300      0.33   11.7   0.1   1   1   0.00076      0.33   11.7   0.1     2    39    20    57    19    61 0.91 -
ID=PSME_00025201     -            433 112609at3193         -            300      0.34   11.6   0.1   1   1    0.0015      0.65   10.7   0.1     5    45     7    47     5    53 0.87 -
ID=PSME_00033869     -            250 112609at3193         -            300      0.35   11.6   0.1   1   1    0.0012      0.54   11.0   0.1     5    38    45    78    43    88 0.89 -
ID=PSME_00023823     -            422 112609at3193         -            300      0.38   11.5   0.2   1   1    0.0015      0.65   10.7   0.2     5    45     3    43     1    54 0.92 -
ID=PSME_00012850     -            454 112609at3193         -            300      0.46   11.2   0.0   1   1    0.0017      0.75   10.5   0.0     5    49    27    71    25    79 0.92 -
ID=PSME_00017880     -            544 112609at3193         -            300      0.53   11.0   0.1   1   1    0.0022      0.95   10.2   0.1     5    40    60    95    58   105 0.87 -
ID=PSME_00039936     -            407 112609at3193         -            300      0.56   10.9   0.1   1   1    0.0022      0.96   10.2   0.1     2    46     7    51     6    60 0.89 -
#
# Program:         hmmsearch
# Version:         3.2.1 (June 2018)
# Pipeline mode:   SEARCH
# Query file:      /isg/shared/databases/BUSCO/odb10/embryophyta_odb10/hmms/112609at3193.hmm
# Target file:     /labs/Wegrzyn/ConiferGenomes/Psme/analysis/SURF_annotation/analyze_orig_maker/gfacs/filtered/maker_genes.fasta.faa
# Option settings: /usr/local/bin/hmmsearch --domtblout /labs/Wegrzyn/ConiferGenomes/Psme/analysis/SURF_annotation/analyze_orig_maker/busco/maker/run_embryophyta_odb10/hmmer_output/112609at3193.out --cpu 1 /isg/shared/databases/BUSCO/odb10/embryophyta_odb10/hmms/112609at3193.hmm /labs/Wegrzyn/ConiferGenomes/Psme/analysis/SURF_annotation/analyze_orig_maker/gfacs/filtered/maker_genes.fasta.faa 
# Current dir:     /labs/Wegrzyn/ConiferGenomes/Psme/analysis/SURF_annotation/analyze_orig_maker/busco
# Date:            Fri Jul 10 13:42:02 2020
# [ok]
