#                                                                            --- full sequence --- -------------- this domain -------------   hmm coord   ali coord   env coord
# target name        accession   tlen query name           accession   qlen   E-value  score  bias   #  of  c-Evalue  i-Evalue  score  bias  from    to  from    to  from    to  acc description of target
#------------------- ---------- ----- -------------------- ---------- ----- --------- ------ ----- --- --- --------- --------- ------ ----- ----- ----- ----- ----- ----- ----- ---- ---------------------
ID=PSME_00013310     -            334 113230at3193         -            333     5e-87  293.9   7.1   1   1   5.4e-89     3e-85  288.1   7.1    20   206     4   212     2   212 0.96 -
ID=PSME_00006449     -            566 113230at3193         -            333   9.6e-06   26.7   0.0   1   1   3.2e-09   1.7e-05   25.9   0.0   166   301    61   197    35   203 0.78 -
ID=PSME_00009923     -            871 113230at3193         -            333   2.3e-05   25.5   0.6   1   2       3.5   1.9e+04   -3.9   0.4    12    35   335   358   315   378 0.63 -
ID=PSME_00009923     -            871 113230at3193         -            333   2.3e-05   25.5   0.6   2   2     6e-09   3.3e-05   24.9   0.0   172   269   502   598   395   606 0.86 -
ID=PSME_00025186     -           1033 113230at3193         -            333   0.00048   21.1   0.0   1   1   1.8e-07   0.00097   20.1   0.0   166   266   414   513   388   529 0.86 -
ID=PSME_00007021     -            632 113230at3193         -            333    0.0069   17.3   0.0   1   1   2.2e-06     0.012   16.5   0.0   169   267   181   278   155   319 0.80 -
ID=PSME_00054911     -            661 113230at3193         -            333     0.014   16.4   0.0   1   2   6.2e-06     0.034   15.0   0.0   174   302   201   330   178   335 0.81 -
ID=PSME_00054911     -            661 113230at3193         -            333     0.014   16.4   0.0   2   2       1.7   9.4e+03   -2.8   0.0    53   113   412   477   379   506 0.62 -
ID=PSME_00029392     -            282 113230at3193         -            333     0.077   13.9   0.0   1   1     2e-05      0.11   13.4   0.0   162   233    51   125    27   156 0.77 -
ID=PSME_00027719     -            422 113230at3193         -            333      0.17   12.7   6.7   1   4    0.0047        26    5.6   0.3     1    64    10    80    10    95 0.75 -
ID=PSME_00027719     -            422 113230at3193         -            333      0.17   12.7   6.7   2   4      0.46   2.5e+03   -1.0   0.0   310   332   185   208   169   209 0.79 -
ID=PSME_00027719     -            422 113230at3193         -            333      0.17   12.7   6.7   3   4       2.7   1.5e+04   -3.5   0.3    86   101   323   338   299   350 0.44 -
ID=PSME_00027719     -            422 113230at3193         -            333      0.17   12.7   6.7   4   4   0.00029       1.6    9.5   0.0   300   332   380   413   370   414 0.88 -
ID=PSME_00028105     -            238 113230at3193         -            333      0.31   11.9   0.0   1   1   7.7e-05      0.42   11.5   0.0   177   226    80   131    60   141 0.80 -
ID=PSME_00021033     -            397 113230at3193         -            333      0.33   11.8   4.2   1   4      0.47   2.6e+03   -1.0   0.1     1    60     4    70     4    92 0.58 -
ID=PSME_00021033     -            397 113230at3193         -            333      0.33   11.8   4.2   2   4      0.18   9.7e+02    0.4   0.0   298   332   161   199   157   200 0.77 -
ID=PSME_00021033     -            397 113230at3193         -            333      0.33   11.8   4.2   3   4         3   1.6e+04   -3.6   0.5    89   104   286   301   274   324 0.43 -
ID=PSME_00021033     -            397 113230at3193         -            333      0.33   11.8   4.2   4   4   8.4e-05      0.46   11.3   0.0   300   332   355   388   338   389 0.88 -
#
# Program:         hmmsearch
# Version:         3.2.1 (June 2018)
# Pipeline mode:   SEARCH
# Query file:      /isg/shared/databases/BUSCO/odb10/embryophyta_odb10/hmms/113230at3193.hmm
# Target file:     /labs/Wegrzyn/ConiferGenomes/Psme/analysis/SURF_annotation/analyze_orig_maker/gfacs/filtered/maker_genes.fasta.faa
# Option settings: /usr/local/bin/hmmsearch --domtblout /labs/Wegrzyn/ConiferGenomes/Psme/analysis/SURF_annotation/analyze_orig_maker/busco/maker/run_embryophyta_odb10/hmmer_output/113230at3193.out --cpu 1 /isg/shared/databases/BUSCO/odb10/embryophyta_odb10/hmms/113230at3193.hmm /labs/Wegrzyn/ConiferGenomes/Psme/analysis/SURF_annotation/analyze_orig_maker/gfacs/filtered/maker_genes.fasta.faa 
# Current dir:     /labs/Wegrzyn/ConiferGenomes/Psme/analysis/SURF_annotation/analyze_orig_maker/busco
# Date:            Fri Jul 10 13:41:48 2020
# [ok]
