#                                                                            --- full sequence --- -------------- this domain -------------   hmm coord   ali coord   env coord
# target name        accession   tlen query name           accession   qlen   E-value  score  bias   #  of  c-Evalue  i-Evalue  score  bias  from    to  from    to  from    to  acc description of target
#------------------- ---------- ----- -------------------- ---------- ----- --------- ------ ----- --- --- --------- --------- ------ ----- ----- ----- ----- ----- ----- ----- ---- ---------------------
ID=PSME_00042943     -            174 113514at3193         -            294   2.5e-62  212.4   0.2   1   1   6.8e-66   3.1e-62  212.1   0.2   147   293     1   167     1   168 0.88 -
ID=PSME_00012038     -            418 113514at3193         -            294   8.6e-18   66.3   6.3   1   1   3.9e-21   1.8e-17   65.2   6.3    50   219    24   208    12   215 0.79 -
ID=PSME_00046279     -            484 113514at3193         -            294   1.6e-16   62.1  11.0   1   1   7.9e-20   3.6e-16   60.9  11.0    51   219    22   205    13   213 0.80 -
ID=PSME_00012039     -            199 113514at3193         -            294   3.2e-07   31.5   1.8   1   1   1.5e-10     7e-07   30.5   1.8   118   219     3   110     1   118 0.66 -
ID=PSME_00043821     -            232 113514at3193         -            294   1.1e-06   29.8   0.4   1   1     4e-10   1.8e-06   29.1   0.4    54   149    10   115     4   121 0.79 -
ID=PSME_00034044     -            337 113514at3193         -            294     4e-06   28.0   4.3   1   1   1.8e-09   8.3e-06   26.9   3.0    84   174     5   102     3   110 0.78 -
ID=PSME_00043822     -            240 113514at3193         -            294   0.00011   23.2   1.5   1   1   3.3e-08   0.00015   22.8   1.5   117   220     2   111     1   118 0.79 -
ID=PSME_00040998     -            128 113514at3193         -            294     0.002   19.1   0.0   1   1   5.2e-07    0.0024   18.9   0.0   140   242    15   126     7   127 0.81 -
ID=PSME_00040997     -            142 113514at3193         -            294    0.0027   18.7   0.0   1   1   6.5e-07     0.003   18.5   0.0   140   242    29   140     2   141 0.80 -
ID=PSME_00040231     -            287 113514at3193         -            294    0.0091   16.9   0.1   1   1   3.3e-06     0.015   16.2   0.1    86   151    18    93     7   100 0.75 -
ID=PSME_00012359     -            339 113514at3193         -            294     0.016   16.1   2.2   1   1   6.1e-06     0.028   15.3   2.2    78   151    30   114    15   119 0.71 -
ID=PSME_00045643     -            161 113514at3193         -            294     0.089   13.7   0.2   1   2    0.0011         5    8.0   0.0    57    81    17    42     2    52 0.82 -
ID=PSME_00045643     -            161 113514at3193         -            294     0.089   13.7   0.2   2   2     0.017        77    4.0   0.0   205   234    85   115    73   138 0.74 -
#
# Program:         hmmsearch
# Version:         3.2.1 (June 2018)
# Pipeline mode:   SEARCH
# Query file:      /isg/shared/databases/BUSCO/odb10/embryophyta_odb10/hmms/113514at3193.hmm
# Target file:     /labs/Wegrzyn/ConiferGenomes/Psme/analysis/SURF_annotation/analyze_orig_maker/gfacs/filtered/maker_genes.fasta.faa
# Option settings: /usr/local/bin/hmmsearch --domtblout /labs/Wegrzyn/ConiferGenomes/Psme/analysis/SURF_annotation/analyze_orig_maker/busco/maker/run_embryophyta_odb10/hmmer_output/113514at3193.out --cpu 1 /isg/shared/databases/BUSCO/odb10/embryophyta_odb10/hmms/113514at3193.hmm /labs/Wegrzyn/ConiferGenomes/Psme/analysis/SURF_annotation/analyze_orig_maker/gfacs/filtered/maker_genes.fasta.faa 
# Current dir:     /labs/Wegrzyn/ConiferGenomes/Psme/analysis/SURF_annotation/analyze_orig_maker/busco
# Date:            Fri Jul 10 13:41:48 2020
# [ok]
