#                                                                            --- full sequence --- -------------- this domain -------------   hmm coord   ali coord   env coord
# target name        accession   tlen query name           accession   qlen   E-value  score  bias   #  of  c-Evalue  i-Evalue  score  bias  from    to  from    to  from    to  acc description of target
#------------------- ---------- ----- -------------------- ---------- ----- --------- ------ ----- --- --- --------- --------- ------ ----- ----- ----- ----- ----- ----- ----- ---- ---------------------
ID=PSME_00016875     -            573 115437at3193         -            258   0.00078   20.2   0.4   1   2   7.7e-05       2.1    8.9   0.1    51    88    55    93    51   104 0.89 -
ID=PSME_00016875     -            573 115437at3193         -            258   0.00078   20.2   0.4   2   2   7.5e-05         2    9.0   0.0    51    88   371   409   367   421 0.89 -
ID=PSME_00034908     -            869 115437at3193         -            258      0.48   11.0   0.0   1   2   0.00011         3    8.4   0.0    72   127   534   584   528   615 0.82 -
ID=PSME_00034908     -            869 115437at3193         -            258      0.48   11.0   0.0   2   2     0.061   1.7e+03   -0.6   0.0   217   253   783   819   778   829 0.66 -
#
# Program:         hmmsearch
# Version:         3.2.1 (June 2018)
# Pipeline mode:   SEARCH
# Query file:      /isg/shared/databases/BUSCO/odb10/embryophyta_odb10/hmms/115437at3193.hmm
# Target file:     /labs/Wegrzyn/ConiferGenomes/Psme/analysis/SURF_annotation/analyze_orig_maker/gfacs/filtered/maker_genes.fasta.faa
# Option settings: /usr/local/bin/hmmsearch --domtblout /labs/Wegrzyn/ConiferGenomes/Psme/analysis/SURF_annotation/analyze_orig_maker/busco/maker/run_embryophyta_odb10/hmmer_output/115437at3193.out --cpu 1 /isg/shared/databases/BUSCO/odb10/embryophyta_odb10/hmms/115437at3193.hmm /labs/Wegrzyn/ConiferGenomes/Psme/analysis/SURF_annotation/analyze_orig_maker/gfacs/filtered/maker_genes.fasta.faa 
# Current dir:     /labs/Wegrzyn/ConiferGenomes/Psme/analysis/SURF_annotation/analyze_orig_maker/busco
# Date:            Fri Jul 10 13:41:51 2020
# [ok]
