#                                                                            --- full sequence --- -------------- this domain -------------   hmm coord   ali coord   env coord
# target name        accession   tlen query name           accession   qlen   E-value  score  bias   #  of  c-Evalue  i-Evalue  score  bias  from    to  from    to  from    to  acc description of target
#------------------- ---------- ----- -------------------- ---------- ----- --------- ------ ----- --- --- --------- --------- ------ ----- ----- ----- ----- ----- ----- ----- ---- ---------------------
ID=PSME_00016513     -            209 117882at3193         -            334   3.8e-65  221.9   0.8   1   2   6.4e-52   5.8e-48  165.4   0.2   167   289     2   140     1   145 0.90 -
ID=PSME_00016513     -            209 117882at3193         -            334   3.8e-65  221.9   0.8   2   2   2.4e-18   2.2e-14   55.0   0.0   291   333   163   205   157   206 0.96 -
ID=PSME_00045546     -            395 117882at3193         -            334    0.0029   18.4   0.1   1   2   6.4e-07    0.0058   17.4   0.1     5    74   109   174   105   218 0.87 -
ID=PSME_00045546     -            395 117882at3193         -            334    0.0029   18.4   0.1   2   2       0.8   7.3e+03   -2.6   0.0   119   183   249   311   205   319 0.52 -
ID=PSME_00008058     -            146 117882at3193         -            334     0.029   15.1   0.2   1   1   4.5e-06     0.041   14.6   0.2     2    43    77   116    76   119 0.86 -
ID=PSME_00019924     -            591 117882at3193         -            334     0.092   13.5   0.4   1   1   1.6e-05      0.15   12.8   0.4     4    43   120   157   117   164 0.78 -
ID=PSME_00007205     -            866 117882at3193         -            334      0.35   11.6   0.2   1   1   6.2e-05      0.57   10.9   0.2    96   159    25    88    16   116 0.84 -
ID=PSME_00050877     -            225 117882at3193         -            334      0.39   11.4   0.5   1   1     6e-05      0.54   11.0   0.5     2    41    41    79    40    87 0.79 -
#
# Program:         hmmsearch
# Version:         3.2.1 (June 2018)
# Pipeline mode:   SEARCH
# Query file:      /isg/shared/databases/BUSCO/odb10/embryophyta_odb10/hmms/117882at3193.hmm
# Target file:     /labs/Wegrzyn/ConiferGenomes/Psme/analysis/SURF_annotation/analyze_orig_maker/gfacs/filtered/maker_genes.fasta.faa
# Option settings: /usr/local/bin/hmmsearch --domtblout /labs/Wegrzyn/ConiferGenomes/Psme/analysis/SURF_annotation/analyze_orig_maker/busco/maker/run_embryophyta_odb10/hmmer_output/117882at3193.out --cpu 1 /isg/shared/databases/BUSCO/odb10/embryophyta_odb10/hmms/117882at3193.hmm /labs/Wegrzyn/ConiferGenomes/Psme/analysis/SURF_annotation/analyze_orig_maker/gfacs/filtered/maker_genes.fasta.faa 
# Current dir:     /labs/Wegrzyn/ConiferGenomes/Psme/analysis/SURF_annotation/analyze_orig_maker/busco
# Date:            Fri Jul 10 13:41:57 2020
# [ok]
