#                                                                            --- full sequence --- -------------- this domain -------------   hmm coord   ali coord   env coord
# target name        accession   tlen query name           accession   qlen   E-value  score  bias   #  of  c-Evalue  i-Evalue  score  bias  from    to  from    to  from    to  acc description of target
#------------------- ---------- ----- -------------------- ---------- ----- --------- ------ ----- --- --- --------- --------- ------ ----- ----- ----- ----- ----- ----- ----- ---- ---------------------
ID=PSME_00031486     -            230 118094at3193         -            276  5.1e-102  342.4   0.9   1   1  4.4e-106    6e-102  342.2   0.9   103   276    36   219    16   219 0.94 -
ID=PSME_00056865     -            450 118094at3193         -            276     3e-08   34.8   0.7   1   3     0.042   5.8e+02    1.1   0.0   106   124    53    71    50    77 0.88 -
ID=PSME_00056865     -            450 118094at3193         -            276     3e-08   34.8   0.7   2   3     0.086   1.2e+03    0.1   0.0   111   158    82   128    75   132 0.79 -
ID=PSME_00056865     -            450 118094at3193         -            276     3e-08   34.8   0.7   3   3   1.4e-10   1.9e-06   28.9   0.1   110   271   263   431   250   436 0.80 -
ID=PSME_00056900     -             89 118094at3193         -            276      0.24   12.2   0.0   1   1   2.1e-05      0.28   12.0   0.0   196   225    50    79    26    84 0.89 -
ID=PSME_00050868     -             82 118094at3193         -            276      0.55   11.0   0.0   1   1   4.6e-05      0.63   10.8   0.0   217   266     2    51     1    59 0.88 -
#
# Program:         hmmsearch
# Version:         3.2.1 (June 2018)
# Pipeline mode:   SEARCH
# Query file:      /isg/shared/databases/BUSCO/odb10/embryophyta_odb10/hmms/118094at3193.hmm
# Target file:     /labs/Wegrzyn/ConiferGenomes/Psme/analysis/SURF_annotation/analyze_orig_maker/gfacs/filtered/maker_genes.fasta.faa
# Option settings: /usr/local/bin/hmmsearch --domtblout /labs/Wegrzyn/ConiferGenomes/Psme/analysis/SURF_annotation/analyze_orig_maker/busco/maker/run_embryophyta_odb10/hmmer_output/118094at3193.out --cpu 1 /isg/shared/databases/BUSCO/odb10/embryophyta_odb10/hmms/118094at3193.hmm /labs/Wegrzyn/ConiferGenomes/Psme/analysis/SURF_annotation/analyze_orig_maker/gfacs/filtered/maker_genes.fasta.faa 
# Current dir:     /labs/Wegrzyn/ConiferGenomes/Psme/analysis/SURF_annotation/analyze_orig_maker/busco
# Date:            Fri Jul 10 13:41:57 2020
# [ok]
