#                                                                            --- full sequence --- -------------- this domain -------------   hmm coord   ali coord   env coord
# target name        accession   tlen query name           accession   qlen   E-value  score  bias   #  of  c-Evalue  i-Evalue  score  bias  from    to  from    to  from    to  acc description of target
#------------------- ---------- ----- -------------------- ---------- ----- --------- ------ ----- --- --- --------- --------- ------ ----- ----- ----- ----- ----- ----- ----- ---- ---------------------
ID=PSME_00048464     -            280 118398at3193         -            367   4.1e-54  185.8  11.4   1   3   3.6e-25   4.9e-21   77.0   0.1   193   235     1    43     1    50 0.96 -
ID=PSME_00048464     -            280 118398at3193         -            367   4.1e-54  185.8  11.4   2   3     1e-24   1.4e-20   75.5   1.2   239   311    81   165    56   176 0.77 -
ID=PSME_00048464     -            280 118398at3193         -            367   4.1e-54  185.8  11.4   3   3   1.3e-13   1.8e-09   38.9   0.8   315   367   200   259   193   259 0.87 -
ID=PSME_00001223     -            409 118398at3193         -            367     0.037   14.9   0.0   1   2   0.00039       5.3    7.8   0.0    26    63    75   112    61   122 0.86 -
ID=PSME_00001223     -            409 118398at3193         -            367     0.037   14.9   0.0   2   2    0.0035        48    4.6   0.0   160   234   171   255   161   269 0.68 -
ID=PSME_00038654     -            316 118398at3193         -            367       0.4   11.5   0.0   1   1   4.4e-05       0.6   10.9   0.0    31    59    32    60    27    78 0.92 -
ID=PSME_00016515     -            324 118398at3193         -            367      0.57   11.0   0.0   1   1   6.7e-05      0.92   10.3   0.0    31    59    32    60    23    70 0.91 -
#
# Program:         hmmsearch
# Version:         3.2.1 (June 2018)
# Pipeline mode:   SEARCH
# Query file:      /isg/shared/databases/BUSCO/odb10/embryophyta_odb10/hmms/118398at3193.hmm
# Target file:     /labs/Wegrzyn/ConiferGenomes/Psme/analysis/SURF_annotation/analyze_orig_maker/gfacs/filtered/maker_genes.fasta.faa
# Option settings: /usr/local/bin/hmmsearch --domtblout /labs/Wegrzyn/ConiferGenomes/Psme/analysis/SURF_annotation/analyze_orig_maker/busco/maker/run_embryophyta_odb10/hmmer_output/118398at3193.out --cpu 1 /isg/shared/databases/BUSCO/odb10/embryophyta_odb10/hmms/118398at3193.hmm /labs/Wegrzyn/ConiferGenomes/Psme/analysis/SURF_annotation/analyze_orig_maker/gfacs/filtered/maker_genes.fasta.faa 
# Current dir:     /labs/Wegrzyn/ConiferGenomes/Psme/analysis/SURF_annotation/analyze_orig_maker/busco
# Date:            Fri Jul 10 13:41:58 2020
# [ok]
