#                                                                            --- full sequence --- -------------- this domain -------------   hmm coord   ali coord   env coord
# target name        accession   tlen query name           accession   qlen   E-value  score  bias   #  of  c-Evalue  i-Evalue  score  bias  from    to  from    to  from    to  acc description of target
#------------------- ---------- ----- -------------------- ---------- ----- --------- ------ ----- --- --- --------- --------- ------ ----- ----- ----- ----- ----- ----- ----- ---- ---------------------
ID=PSME_00049110     -            534 11903at3193          -            817   6.5e-26   92.2   0.0   1   2   1.5e-07   0.00011   22.0   0.0    26   107    31   113    12   123 0.83 -
ID=PSME_00049110     -            534 11903at3193          -            817   6.5e-26   92.2   0.0   2   2   2.1e-20   1.6e-17   64.5   0.0   131   429   176   514   168   530 0.77 -
ID=PSME_00041223     -            157 11903at3193          -            817   1.7e-23   84.2   0.1   1   2   6.4e-10   4.7e-07   29.9   0.0   735   795     2    68     1    70 0.83 -
ID=PSME_00041223     -            157 11903at3193          -            817   1.7e-23   84.2   0.1   2   2   8.7e-17   6.3e-14   52.6   0.0   780   817   117   154   109   154 0.91 -
ID=PSME_00041385     -            558 11903at3193          -            817   4.5e-22   79.5   0.3   1   2   0.00047      0.34   10.5   0.1    13   104    43   132    37   147 0.83 -
ID=PSME_00041385     -            558 11903at3193          -            817   4.5e-22   79.5   0.3   2   2   3.9e-21   2.8e-18   67.0   0.0   117   394   182   492   160   509 0.81 -
ID=PSME_00024503     -            558 11903at3193          -            817   8.8e-22   78.6   0.0   1   2   4.1e-08     3e-05   23.9   0.0     8   107    34   130    28   143 0.86 -
ID=PSME_00024503     -            558 11903at3193          -            817   8.8e-22   78.6   0.0   2   2   9.6e-16     7e-13   49.1   0.0   125   427   188   530   164   548 0.77 -
ID=PSME_00003410     -            538 11903at3193          -            817   3.3e-21   76.7   0.0   1   2   2.3e-06    0.0017   18.1   0.0    28   107    34   114    16   124 0.89 -
ID=PSME_00003410     -            538 11903at3193          -            817   3.3e-21   76.7   0.0   2   2   2.3e-17   1.7e-14   54.5   0.0   131   429   180   518   172   534 0.75 -
ID=PSME_00022570     -            556 11903at3193          -            817   1.4e-19   71.3   0.5   1   2   8.1e-07   0.00059   19.6   0.0     9   110    37   136    31   146 0.89 -
ID=PSME_00022570     -            556 11903at3193          -            817   1.4e-19   71.3   0.5   2   2     1e-15   7.7e-13   49.0   0.1   123   426   180   530   164   551 0.69 -
ID=PSME_00013809     -            587 11903at3193          -            817   6.9e-19   69.0   0.0   1   2    0.0029       2.1    7.8   0.0    13   105    79   169    73   183 0.82 -
ID=PSME_00013809     -            587 11903at3193          -            817   6.9e-19   69.0   0.0   2   2   1.1e-18   7.7e-16   58.9   0.0   117   425   219   574   198   584 0.75 -
ID=PSME_00044249     -            538 11903at3193          -            817   9.2e-19   68.6   0.0   1   2   0.00072      0.53    9.8   0.0    28   108    34   115    18   131 0.87 -
ID=PSME_00044249     -            538 11903at3193          -            817   9.2e-19   68.6   0.0   2   2   2.6e-17   1.9e-14   54.3   0.0   131   444   180   531   172   535 0.76 -
ID=PSME_00038870     -            594 11903at3193          -            817   1.4e-18   68.0   1.2   1   2   0.00092      0.68    9.5   0.1    14   103    96   183    89   197 0.84 -
ID=PSME_00038870     -            594 11903at3193          -            817   1.4e-18   68.0   1.2   2   2   3.7e-18   2.7e-15   57.1   0.2   125   384   236   522   207   588 0.76 -
ID=PSME_00043405     -            552 11903at3193          -            817   1.1e-17   65.0   0.1   1   2     0.048        35    3.8   0.1    15   109    53   145    42   156 0.82 -
ID=PSME_00043405     -            552 11903at3193          -            817   1.1e-17   65.0   0.1   2   2   9.7e-19   7.1e-16   59.0   0.0   123   425   194   537   173   547 0.73 -
ID=PSME_00011573     -            572 11903at3193          -            817   2.7e-17   63.7   0.0   1   2    0.0059       4.3    6.8   0.0    13   113    59   157    49   163 0.81 -
ID=PSME_00011573     -            572 11903at3193          -            817   2.7e-17   63.7   0.0   2   2   3.9e-17   2.8e-14   53.7   0.0   109   425   190   547   176   560 0.72 -
ID=PSME_00006443     -            563 11903at3193          -            817   3.5e-17   63.3   0.5   1   2      0.31   2.2e+02    1.2   0.3    12   111    58   155    50   165 0.82 -
ID=PSME_00006443     -            563 11903at3193          -            817   3.5e-17   63.3   0.5   2   2     5e-19   3.7e-16   60.0   0.0   117   425   200   550   179   561 0.70 -
ID=PSME_00022472     -            581 11903at3193          -            817     2e-16   60.8   1.6   1   2       1.9   1.4e+03   -1.5   0.2    28   110    89   172    65   181 0.75 -
ID=PSME_00022472     -            581 11903at3193          -            817     2e-16   60.8   1.6   2   2   3.6e-19   2.6e-16   60.5   0.1   109   425   210   568   196   576 0.70 -
ID=PSME_00041965     -            563 11903at3193          -            817   3.3e-16   60.1   0.1   1   2      0.32   2.3e+02    1.1   0.1    15   108    62   153    53   164 0.85 -
ID=PSME_00041965     -            563 11903at3193          -            817   3.3e-16   60.1   0.1   2   2   5.9e-18   4.3e-15   56.4   0.0   117   426   198   548   181   560 0.73 -
ID=PSME_00010615     -            561 11903at3193          -            817   4.1e-16   59.8   0.0   1   2      0.26   1.9e+02    1.4   0.1    15   108    60   151    51   162 0.85 -
ID=PSME_00010615     -            561 11903at3193          -            817   4.1e-16   59.8   0.0   2   2   9.9e-18   7.2e-15   55.7   0.0   118   426   197   546   180   558 0.72 -
ID=PSME_00019639     -            591 11903at3193          -            817   7.9e-16   58.9   0.1   1   1   1.7e-18   1.2e-15   58.2   0.1   117   383   183   471   161   538 0.75 -
ID=PSME_00019640     -            612 11903at3193          -            817   1.1e-15   58.4   0.0   1   1   2.9e-18   2.1e-15   57.5   0.0   119   383   185   471   163   541 0.72 -
ID=PSME_00024856     -            555 11903at3193          -            817   4.7e-15   56.3   0.0   1   2       1.5   1.1e+03   -1.2   0.0    12   107    59   152    51   162 0.79 -
ID=PSME_00024856     -            555 11903at3193          -            817   4.7e-15   56.3   0.0   2   2   2.8e-17     2e-14   54.2   0.0   119   425   196   539   176   552 0.78 -
ID=PSME_00010613     -            561 11903at3193          -            817   6.2e-15   55.9   0.0   1   2      0.18   1.3e+02    1.9   0.1    15   108    60   151    51   162 0.85 -
ID=PSME_00010613     -            561 11903at3193          -            817   6.2e-15   55.9   0.0   2   2   2.1e-16   1.5e-13   51.3   0.0   117   426   196   546   173   558 0.73 -
ID=PSME_00008139     -            539 11903at3193          -            817   1.9e-14   54.3   0.0   1   2      0.18   1.3e+02    1.9   0.0    28   112    50   135    45   146 0.87 -
ID=PSME_00008139     -            539 11903at3193          -            817   1.9e-14   54.3   0.0   2   2   5.8e-16   4.3e-13   49.8   0.0   107   425   164   529   160   534 0.73 -
ID=PSME_00015569     -            568 11903at3193          -            817   4.2e-14   53.2   0.0   1   2       1.8   1.3e+03   -1.4   0.0    28   112    79   164    59   172 0.81 -
ID=PSME_00015569     -            568 11903at3193          -            817   4.2e-14   53.2   0.0   2   2   2.1e-16   1.6e-13   51.3   0.0   107   425   192   555   186   559 0.72 -
ID=PSME_00015568     -            539 11903at3193          -            817   5.7e-14   52.7   0.0   1   2       1.2   8.7e+02   -0.8   0.0    28   110    50   133    31   144 0.81 -
ID=PSME_00015568     -            539 11903at3193          -            817   5.7e-14   52.7   0.0   2   2   3.5e-16   2.6e-13   50.6   0.0   107   425   163   526   149   531 0.70 -
ID=PSME_00032156     -            502 11903at3193          -            817   2.2e-13   50.8   0.2   1   1   6.4e-16   4.7e-13   49.7   0.2   127   425   134   488   115   497 0.74 -
ID=PSME_00017306     -            366 11903at3193          -            817   4.8e-13   49.7   0.0   1   1   8.8e-16   6.4e-13   49.3   0.0   118   383    75   364    55   365 0.73 -
ID=PSME_00006384     -            680 11903at3193          -            817   5.4e-13   49.5   0.0   1   2      0.18   1.3e+02    1.9   0.0    31   112    60   142    40   153 0.78 -
ID=PSME_00006384     -            680 11903at3193          -            817   5.4e-13   49.5   0.0   2   2   1.5e-14   1.1e-11   45.2   0.0   107   385   177   485   162   552 0.69 -
ID=PSME_00022177     -            709 11903at3193          -            817   7.4e-13   49.0   0.0   1   1   1.5e-15   1.1e-12   48.4   0.0   128   384   210   496   164   558 0.70 -
ID=PSME_00019143     -            601 11903at3193          -            817   1.5e-11   44.8   0.8   1   3      0.44   3.2e+02    0.6   0.1    11   107    24   119    17   131 0.78 -
ID=PSME_00019143     -            601 11903at3193          -            817   1.5e-11   44.8   0.8   2   3      0.82     6e+02   -0.3   0.0   131   145   200   214   187   223 0.86 -
ID=PSME_00019143     -            601 11903at3193          -            817   1.5e-11   44.8   0.8   3   3   8.8e-13   6.5e-10   39.3   0.1   293   429   383   548   377   557 0.77 -
ID=PSME_00056128     -            432 11903at3193          -            817   3.4e-11   43.5   0.1   1   3      0.38   2.8e+02    0.8   0.0   131   146    57    72    45    99 0.88 -
ID=PSME_00056128     -            432 11903at3193          -            817   3.4e-11   43.5   0.1   2   3   1.2e-06   0.00085   19.1   0.0   310   384   257   341   237   344 0.86 -
ID=PSME_00056128     -            432 11903at3193          -            817   3.4e-11   43.5   0.1   3   3   7.9e-07   0.00058   19.6   0.0   388   427   374   413   360   424 0.87 -
ID=PSME_00033333     -            561 11903at3193          -            817   1.1e-10   41.9   0.0   1   2      0.44   3.2e+02    0.6   0.0   131   146   189   204   175   235 0.83 -
ID=PSME_00033333     -            561 11903at3193          -            817   1.1e-10   41.9   0.0   2   2   2.3e-12   1.7e-09   37.9   0.0   310   434   389   542   383   547 0.77 -
ID=PSME_00029032     -            640 11903at3193          -            817   3.4e-10   40.3   0.1   1   3      0.63   4.6e+02    0.1   0.0   131   145   201   215   189   236 0.88 -
ID=PSME_00029032     -            640 11903at3193          -            817   3.4e-10   40.3   0.1   2   3   5.1e-06    0.0037   17.0   0.0   310   384   401   485   381   488 0.86 -
ID=PSME_00029032     -            640 11903at3193          -            817   3.4e-10   40.3   0.1   3   3   1.3e-06   0.00093   19.0   0.0   388   427   518   557   504   569 0.87 -
ID=PSME_00016047     -            435 11903at3193          -            817   3.8e-10   40.1   0.0   1   2       1.1   8.1e+02   -0.7   0.0    29   115    66   153    49   158 0.82 -
ID=PSME_00016047     -            435 11903at3193          -            817   3.8e-10   40.1   0.0   2   2   2.1e-12   1.5e-09   38.1   0.0   122   278   191   354   166   367 0.85 -
ID=PSME_00028232     -            669 11903at3193          -            817     7e-10   39.2   0.2   1   3      0.45   3.3e+02    0.6   0.0   130   146   200   216   186   239 0.81 -
ID=PSME_00028232     -            669 11903at3193          -            817     7e-10   39.2   0.2   2   3     3e-06    0.0022   17.7   0.0   310   384   401   485   383   487 0.85 -
ID=PSME_00028232     -            669 11903at3193          -            817     7e-10   39.2   0.2   3   3   5.5e-06     0.004   16.9   0.0   389   427   516   554   513   573 0.85 -
ID=PSME_00057252     -            597 11903at3193          -            817   8.7e-10   38.9   0.2   1   3      0.47   3.4e+02    0.5   0.0     9   107    22   119    17   132 0.79 -
ID=PSME_00057252     -            597 11903at3193          -            817   8.7e-10   38.9   0.2   2   3      0.68     5e+02    0.0   0.0   131   145   200   214   189   237 0.89 -
ID=PSME_00057252     -            597 11903at3193          -            817   8.7e-10   38.9   0.2   3   3   8.7e-11   6.4e-08   32.7   0.0   310   429   400   548   380   561 0.77 -
ID=PSME_00028233     -            185 11903at3193          -            817   1.1e-08   35.2   0.2   1   2   2.8e-05      0.02   14.5   0.0   311   383    11    93     6    98 0.78 -
ID=PSME_00028233     -            185 11903at3193          -            817   1.1e-08   35.2   0.2   2   2   1.3e-06   0.00095   18.9   0.0   390   429   121   160   118   182 0.81 -
ID=PSME_00001699     -            557 11903at3193          -            817   1.3e-08   35.0   0.0   1   2     0.058        42    3.6   0.0    67   145   127   206    65   294 0.71 -
ID=PSME_00001699     -            557 11903at3193          -            817   1.3e-08   35.0   0.0   2   2   1.1e-09   8.1e-07   29.1   0.0   312   429   394   537   373   548 0.80 -
ID=PSME_00009947     -            342 11903at3193          -            817   1.6e-08   34.7   3.4   1   2   0.00011      0.08   12.6   0.1    13   106    43   134    37   148 0.85 -
ID=PSME_00009947     -            342 11903at3193          -            817   1.6e-08   34.7   3.4   2   2   6.9e-08   5.1e-05   23.1   0.6   109   264   176   339   157   341 0.80 -
ID=PSME_00006442     -            712 11903at3193          -            817   2.4e-08   34.2   0.7   1   3       2.9   2.1e+03   -2.1   0.1    13   111   227   323   220   332 0.79 -
ID=PSME_00006442     -            712 11903at3193          -            817   2.4e-08   34.2   0.7   2   3    0.0022       1.6    8.2   0.0    99   148   350   399   336   410 0.81 -
ID=PSME_00006442     -            712 11903at3193          -            817   2.4e-08   34.2   0.7   3   3     6e-08   4.4e-05   23.3   0.0   309   425   556   700   424   708 0.73 -
ID=PSME_00039784     -            606 11903at3193          -            817   6.7e-08   32.7   0.2   1   1   1.6e-09   1.1e-06   28.6   0.2   133   431   240   589   227   598 0.58 -
ID=PSME_00030532     -            470 11903at3193          -            817   7.2e-08   32.5   0.0   1   2     0.001      0.75    9.3   0.0   128   149    34    55    26    89 0.80 -
ID=PSME_00030532     -            470 11903at3193          -            817   7.2e-08   32.5   0.0   2   2   2.8e-07   0.00021   21.1   0.0   238   377   199   354   184   369 0.74 -
ID=PSME_00027793     -            225 11903at3193          -            817   1.6e-07   31.4   0.0   1   1   3.9e-10   2.8e-07   30.6   0.0   262   390     5   148     2   171 0.75 -
ID=PSME_00009526     -            653 11903at3193          -            817   1.6e-07   31.4   0.4   1   2       7.1   5.2e+03   -3.4   0.2    29   107   132   211   127   224 0.70 -
ID=PSME_00009526     -            653 11903at3193          -            817   1.6e-07   31.4   0.4   2   2   1.3e-09   9.3e-07   28.9   0.0   131   431   286   636   271   646 0.67 -
ID=PSME_00016275     -            328 11903at3193          -            817   2.9e-07   30.6   0.0   1   2   1.7e-06    0.0012   18.5   0.0    39   113   160   235   146   253 0.81 -
ID=PSME_00016275     -            328 11903at3193          -            817   2.9e-07   30.6   0.0   2   2    0.0007      0.51    9.9   0.0   129   147   301   319   284   324 0.87 -
ID=PSME_00006219     -            468 11903at3193          -            817   7.6e-07   29.2   0.1   1   2     0.013       9.6    5.7   0.0    16   112    42   136    29   143 0.81 -
ID=PSME_00006219     -            468 11903at3193          -            817   7.6e-07   29.2   0.1   2   2     2e-07   0.00015   21.6   0.0   109   276   169   346   159   408 0.78 -
ID=PSME_00019918     -            409 11903at3193          -            817   1.6e-06   28.1   0.2   1   1   3.2e-09   2.3e-06   27.6   0.2   119   349   111   356    91   387 0.70 -
ID=PSME_00009946     -            180 11903at3193          -            817   3.7e-06   26.9   0.0   1   1   7.2e-09   5.2e-06   26.4   0.0   310   425    23   166    19   177 0.72 -
ID=PSME_00047097     -            537 11903at3193          -            817   4.9e-06   26.5   0.1   1   2       1.2     9e+02   -0.8   0.0   131   145   183   197   174   201 0.87 -
ID=PSME_00047097     -            537 11903at3193          -            817   4.9e-06   26.5   0.1   2   2   2.2e-07   0.00016   21.5   0.0   311   428   370   519   367   526 0.77 -
ID=PSME_00026145     -            419 11903at3193          -            817   1.5e-05   24.9   0.1   1   2    0.0065       4.8    6.7   0.0    16   113    42   137    29   143 0.78 -
ID=PSME_00026145     -            419 11903at3193          -            817   1.5e-05   24.9   0.1   2   2   8.5e-06    0.0062   16.2   0.0   125   276   185   346   172   405 0.81 -
ID=PSME_00040387     -            538 11903at3193          -            817   1.8e-05   24.6   0.0   1   3       1.2   8.5e+02   -0.8   0.1   131   145   170   184   163   189 0.87 -
ID=PSME_00040387     -            538 11903at3193          -            817   1.8e-05   24.6   0.0   2   3   2.2e-06    0.0016   18.2   0.0   311   384   371   454   360   470 0.85 -
ID=PSME_00040387     -            538 11903at3193          -            817   1.8e-05   24.6   0.0   3   3      0.11        83    2.6   0.0   392   428   485   520   478   528 0.85 -
ID=PSME_00056331     -            344 11903at3193          -            817   2.5e-05   24.2   1.3   1   2      0.68     5e+02    0.0   0.0    12   110    42   138    35   150 0.82 -
ID=PSME_00056331     -            344 11903at3193          -            817   2.5e-05   24.2   1.3   2   2   1.2e-07   8.6e-05   22.4   0.7   117   225   181   289   160   314 0.75 -
ID=PSME_00013808     -            206 11903at3193          -            817     3e-05   23.9   0.0   1   1     6e-08   4.4e-05   23.3   0.0   311   425    55   192    52   204 0.76 -
ID=PSME_00052235     -             98 11903at3193          -            817   0.00038   20.2   0.0   1   1   5.4e-07   0.00039   20.2   0.0    39   101    10    73     3    88 0.83 -
ID=PSME_00010616     -            396 11903at3193          -            817   0.00046   20.0   2.7   1   3      0.43   3.1e+02    0.7   0.1    10   103    49   140    42   155 0.81 -
ID=PSME_00010616     -            396 11903at3193          -            817   0.00046   20.0   2.7   2   3   1.5e-05     0.011   15.4   0.1   120   225   195   302   179   313 0.71 -
ID=PSME_00010616     -            396 11903at3193          -            817   0.00046   20.0   2.7   3   3      0.08        58    3.1   0.0   363   425   304   383   301   391 0.71 -
ID=PSME_00026147     -            342 11903at3193          -            817   0.00083   19.1   0.1   1   2    0.0059       4.3    6.8   0.0    11   109    37   133    28   142 0.76 -
ID=PSME_00026147     -            342 11903at3193          -            817   0.00083   19.1   0.1   2   2   0.00052      0.38   10.3   0.1   103   229   163   292   157   338 0.64 -
ID=PSME_00044730     -            274 11903at3193          -            817    0.0026   17.5   0.0   1   1   4.5e-06    0.0033   17.1   0.0   309   383    48   133     1   199 0.69 -
ID=PSME_00054500     -            154 11903at3193          -            817    0.0038   16.9   0.1   1   1   6.1e-06    0.0045   16.7   0.1     9   104    51   149    45   153 0.87 -
ID=PSME_00026501     -            233 11903at3193          -            817    0.0047   16.6   0.0   1   1   9.5e-06     0.007   16.1   0.0   321   383    79   141    57   146 0.92 -
ID=PSME_00012413     -            277 11903at3193          -            817     0.005   16.5   0.0   1   2       6.2   4.5e+03   -3.2   0.0   244   277    21    54    14    56 0.81 -
ID=PSME_00012413     -            277 11903at3193          -            817     0.005   16.5   0.0   2   2   1.3e-05    0.0095   15.6   0.0   323   383   141   201   106   214 0.86 -
ID=PSME_00019777     -            490 11903at3193          -            817    0.0058   16.3   0.0   1   1   1.1e-05    0.0083   15.8   0.0   108   170    29    92    23   168 0.69 -
ID=PSME_00010391     -            429 11903at3193          -            817     0.007   16.1   0.0   1   1   1.3e-05    0.0091   15.7   0.0   311   377   224   302   175   331 0.78 -
ID=PSME_00001527     -            354 11903at3193          -            817     0.012   15.3   0.0   1   1   2.4e-05     0.017   14.8   0.0   311   385   130   215    79   280 0.69 -
ID=PSME_00019778     -            208 11903at3193          -            817     0.012   15.3   0.0   1   1   1.8e-05     0.013   15.2   0.0   119   170    12    64     2   144 0.69 -
ID=PSME_00028173     -            207 11903at3193          -            817     0.012   15.2   0.0   1   1     2e-05     0.015   15.0   0.0   320   383    60   123    37   138 0.91 -
ID=PSME_00051484     -            333 11903at3193          -            817     0.016   14.9   0.3   1   2   0.00053      0.39   10.3   0.1    15   106    21   110    13   123 0.83 -
ID=PSME_00051484     -            333 11903at3193          -            817     0.016   14.9   0.3   2   2      0.13        93    2.4   0.0   110   143   152   185   135   190 0.81 -
ID=PSME_00022572     -            276 11903at3193          -            817     0.017   14.8   0.0   1   1   3.6e-05     0.026   14.2   0.0   309   383    50   135     1   198 0.62 -
ID=PSME_00016273     -            294 11903at3193          -            817     0.018   14.7   0.0   1   1   3.1e-05     0.023   14.4   0.0   323   373   151   202   122   214 0.88 -
ID=PSME_00016046     -            281 11903at3193          -            817     0.018   14.7   0.0   1   1   2.9e-05     0.021   14.5   0.0   328   383    17    72     7   143 0.86 -
ID=PSME_00037332     -            273 11903at3193          -            817      0.02   14.6   0.0   1   1   3.2e-05     0.023   14.3   0.0   329   383    79   133     1   200 0.73 -
ID=PSME_00017678     -            302 11903at3193          -            817     0.024   14.3   0.0   1   1   4.7e-05     0.034   13.8   0.0   321   383    17    79    11    83 0.92 -
ID=PSME_00004917     -            531 11903at3193          -            817     0.038   13.6   0.0   1   2     0.026        19    4.7   0.0   125   227   157   260   139   268 0.87 -
ID=PSME_00004917     -            531 11903at3193          -            817     0.038   13.6   0.0   2   2    0.0064       4.7    6.7   0.0   319   383   384   446   365   449 0.80 -
ID=PSME_00019976     -            232 11903at3193          -            817     0.044   13.4   0.0   1   1   7.8e-05     0.057   13.0   0.0   321   383    98   160    65   168 0.88 -
ID=PSME_00021812     -            228 11903at3193          -            817     0.058   13.0   0.0   1   1   9.8e-05     0.072   12.7   0.0   321   383    65   127    39   143 0.88 -
ID=PSME_00031258     -            393 11903at3193          -            817      0.22   11.1   3.7   1   3      0.34   2.5e+02    1.0   0.2    12   111    49   146    41   156 0.81 -
ID=PSME_00031258     -            393 11903at3193          -            817      0.22   11.1   3.7   2   3    0.0019       1.4    8.4   0.1   117   148   191   222   170   243 0.80 -
ID=PSME_00031258     -            393 11903at3193          -            817      0.22   11.1   3.7   3   3      0.48   3.5e+02    0.5   0.0   391   425   346   380   328   387 0.84 -
ID=PSME_00036403     -            456 11903at3193          -            817      0.25   10.9   0.0   1   1   0.00054      0.39   10.3   0.0   312   381   317   402   313   415 0.72 -
ID=PSME_00016487     -            189 11903at3193          -            817      0.28   10.7   0.0   1   1   0.00046      0.33   10.5   0.0   331   383    18    70     7    93 0.92 -
ID=PSME_00035253     -            149 11903at3193          -            817      0.32   10.6   0.0   1   1   0.00054      0.39   10.3   0.0   340   383     9    52     2    68 0.89 -
#
# Program:         hmmsearch
# Version:         3.2.1 (June 2018)
# Pipeline mode:   SEARCH
# Query file:      /isg/shared/databases/BUSCO/odb10/embryophyta_odb10/hmms/11903at3193.hmm
# Target file:     /labs/Wegrzyn/ConiferGenomes/Psme/analysis/SURF_annotation/analyze_orig_maker/gfacs/filtered/maker_genes.fasta.faa
# Option settings: /usr/local/bin/hmmsearch --domtblout /labs/Wegrzyn/ConiferGenomes/Psme/analysis/SURF_annotation/analyze_orig_maker/busco/maker/run_embryophyta_odb10/hmmer_output/11903at3193.out --cpu 1 /isg/shared/databases/BUSCO/odb10/embryophyta_odb10/hmms/11903at3193.hmm /labs/Wegrzyn/ConiferGenomes/Psme/analysis/SURF_annotation/analyze_orig_maker/gfacs/filtered/maker_genes.fasta.faa 
# Current dir:     /labs/Wegrzyn/ConiferGenomes/Psme/analysis/SURF_annotation/analyze_orig_maker/busco
# Date:            Fri Jul 10 13:42:13 2020
# [ok]
