#                                                                            --- full sequence --- -------------- this domain -------------   hmm coord   ali coord   env coord
# target name        accession   tlen query name           accession   qlen   E-value  score  bias   #  of  c-Evalue  i-Evalue  score  bias  from    to  from    to  from    to  acc description of target
#------------------- ---------- ----- -------------------- ---------- ----- --------- ------ ----- --- --- --------- --------- ------ ----- ----- ----- ----- ----- ----- ----- ---- ---------------------
ID=PSME_00012344     -            387 119367at3193         -            287  4.2e-150  500.5   3.2   1   1  2.8e-152  3.3e-149  497.5   3.2     6   286    76   383    72   384 0.94 -
ID=PSME_00029276     -            367 119367at3193         -            287  1.3e-136  456.2   4.2   1   1  3.4e-139  4.1e-136  454.6   4.2     5   286    58   364    55   365 0.93 -
ID=PSME_00025793     -            440 119367at3193         -            287  5.4e-131  437.7   7.1   1   1  2.2e-133  2.6e-130  435.5   7.1     5   286    73   379    70   380 0.93 -
ID=PSME_00009971     -            754 119367at3193         -            287    7e-117  391.5  26.9   1   3   5.7e-06    0.0068   17.4   0.1    17    71    93   147    83   157 0.88 -
ID=PSME_00009971     -            754 119367at3193         -            287    7e-117  391.5  26.9   2   3   1.3e-56   1.6e-53  183.5   5.0    65   279   163   380   157   385 0.82 -
ID=PSME_00009971     -            754 119367at3193         -            287    7e-117  391.5  26.9   3   3   8.6e-59     1e-55  190.7   9.1    17   279   441   728   431   733 0.79 -
ID=PSME_00026300     -            216 119367at3193         -            287   9.2e-76  256.5   2.4   1   1   9.2e-79   1.1e-75  256.3   2.4   127   286    47   213    36   214 0.93 -
ID=PSME_00001916     -            377 119367at3193         -            287   9.8e-62  210.5   6.3   1   1   1.7e-64     2e-61  209.4   6.3     3   283    72   367    70   371 0.88 -
ID=PSME_00021084     -            458 119367at3193         -            287   1.1e-61  210.3   5.7   1   2   8.7e-09     1e-05   26.6   0.1     7    71    50   115    44   122 0.90 -
ID=PSME_00021084     -            458 119367at3193         -            287   1.1e-61  210.3   5.7   2   2   6.1e-57   7.2e-54  184.7   2.6    70   280   133   345   124   351 0.84 -
ID=PSME_00028941     -            603 119367at3193         -            287     2e-61  209.4   6.0   1   1     2e-62   2.3e-59  202.7   6.0     7   279    45   339    39   345 0.82 -
ID=PSME_00014217     -            368 119367at3193         -            287   1.4e-60  206.7  10.5   1   2     2e-10   2.4e-07   32.0   0.0     6    72    45   112    41   145 0.76 -
ID=PSME_00014217     -            368 119367at3193         -            287   1.4e-60  206.7  10.5   2   2   3.7e-54   4.4e-51  175.5   8.1    73   283   143   355   138   358 0.86 -
ID=PSME_00001915     -            380 119367at3193         -            287   2.5e-60  205.9   6.5   1   1   4.4e-63   5.2e-60  204.8   6.5     3   281    74   367    72   373 0.88 -
ID=PSME_00005684     -            376 119367at3193         -            287   5.7e-60  204.7   6.7   1   2   6.7e-06     0.008   17.1   0.1    13    70    58   115    49   121 0.87 -
ID=PSME_00005684     -            376 119367at3193         -            287   5.7e-60  204.7   6.7   2   2   1.9e-58   2.3e-55  189.6   2.5    65   280   132   350   119   356 0.84 -
ID=PSME_00037911     -            498 119367at3193         -            287   1.5e-58  200.1   8.0   1   1     1e-60   1.2e-57  197.1   8.0     8   283    52   351    45   354 0.82 -
ID=PSME_00003889     -            460 119367at3193         -            287   2.3e-55  189.5   6.2   1   1   3.6e-57   4.3e-54  185.4   6.2     9   274    50   329    42   342 0.79 -
ID=PSME_00051162     -            281 119367at3193         -            287   9.4e-46  158.0   0.9   1   2   7.3e-07   0.00087   20.3   0.1     7    71    45   110    39   116 0.88 -
ID=PSME_00051162     -            281 119367at3193         -            287   9.4e-46  158.0   0.9   2   2   2.8e-42   3.4e-39  136.5   0.1    67   209   125   271   118   279 0.85 -
ID=PSME_00039208     -            324 119367at3193         -            287   4.4e-45  155.8   3.6   1   2   5.1e-09     6e-06   27.4   0.1     7    71   131   196   125   203 0.90 -
ID=PSME_00039208     -            324 119367at3193         -            287   4.4e-45  155.8   3.6   2   2   5.8e-40   6.9e-37  128.9   1.1    70   168   214   309   205   320 0.91 -
ID=PSME_00039723     -            273 119367at3193         -            287   3.6e-44  152.8   2.8   1   2     2e-07   0.00024   22.2   0.1     7    71    45   110    39   117 0.88 -
ID=PSME_00039723     -            273 119367at3193         -            287   3.6e-44  152.8   2.8   2   2   1.1e-40   1.3e-37  131.3   0.3    65   205   123   267   113   269 0.82 -
ID=PSME_00019190     -            254 119367at3193         -            287   3.8e-44  152.8   3.0   1   1   5.2e-45   6.2e-42  145.5   3.0     7   205    18   240    12   248 0.80 -
ID=PSME_00022993     -            281 119367at3193         -            287   1.5e-43  150.8   3.0   1   2   3.1e-07   0.00037   21.5   0.3     7    71    45   110    40   117 0.89 -
ID=PSME_00022993     -            281 119367at3193         -            287   1.5e-43  150.8   3.0   2   2   2.9e-40   3.4e-37  129.9   0.2    64   205   122   267   115   275 0.86 -
ID=PSME_00038126     -            443 119367at3193         -            287   7.1e-42  145.3   3.3   1   2     6e-43   7.1e-40  138.7   0.9     4   184   107   303   105   332 0.86 -
ID=PSME_00038126     -            443 119367at3193         -            287   7.1e-42  145.3   3.3   2   2     0.014        17    6.2   0.1   186   237   348   402   339   409 0.77 -
ID=PSME_00013692     -            545 119367at3193         -            287   8.6e-42  145.0   4.3   1   2   2.7e-37   3.3e-34  120.2   1.8    93   274    17   194    13   207 0.79 -
ID=PSME_00013692     -            545 119367at3193         -            287   8.6e-42  145.0   4.3   2   2   2.7e-08   3.2e-05   25.0   0.0   176   279   299   399   279   404 0.67 -
ID=PSME_00006804     -            521 119367at3193         -            287   2.7e-39  136.8   7.4   1   2   1.5e-34   1.8e-31  111.2   1.5    10   167    28   203    21   217 0.79 -
ID=PSME_00006804     -            521 119367at3193         -            287   2.7e-39  136.8   7.4   2   2   1.2e-08   1.4e-05   26.2   0.5   247   282   279   318   268   321 0.82 -
ID=PSME_00050162     -            319 119367at3193         -            287   1.6e-38  134.3   4.5   1   1   2.2e-39   2.6e-36  127.0   4.5     7   188    45   243    39   259 0.81 -
ID=PSME_00013401     -            289 119367at3193         -            287   1.7e-37  130.9   3.9   1   1   1.9e-40   2.2e-37  130.5   3.9    96   283     2   190     1   194 0.83 -
ID=PSME_00052868     -            205 119367at3193         -            287   4.7e-35  122.9   0.3   1   1   4.9e-38   5.9e-35  122.6   0.3   104   280     1   180     1   186 0.82 -
ID=PSME_00051635     -            250 119367at3193         -            287   2.9e-31  110.5   2.9   1   1   9.1e-33   1.1e-29  105.3   2.9     7   188    45   212    39   238 0.80 -
ID=PSME_00003312     -            383 119367at3193         -            287     3e-31  110.4   6.4   1   2   1.5e-24   1.7e-21   78.4   0.2    92   171   127   203   110   207 0.90 -
ID=PSME_00003312     -            383 119367at3193         -            287     3e-31  110.4   6.4   2   2   4.3e-11   5.2e-08   34.2   1.6   225   278   210   259   205   264 0.80 -
ID=PSME_00031768     -            434 119367at3193         -            287   3.1e-30  107.1   1.5   1   2   1.4e-20   1.6e-17   65.4   0.1    93   168    17    89    12   140 0.89 -
ID=PSME_00031768     -            434 119367at3193         -            287   3.1e-30  107.1   1.5   2   2     4e-13   4.7e-10   40.9   0.2   159   278   156   276   144   281 0.71 -
ID=PSME_00049574     -             62 119367at3193         -            287   3.7e-29  103.6   0.2   1   1   3.3e-32   3.9e-29  103.5   0.2   201   258     2    59     1    61 0.98 -
ID=PSME_00042280     -            273 119367at3193         -            287   3.4e-27   97.1   1.4   1   1   3.7e-30   4.4e-27   96.8   1.4   100   264     3   169     1   183 0.81 -
ID=PSME_00032298     -            132 119367at3193         -            287   1.8e-26   94.7   0.1   1   1   1.7e-29     2e-26   94.6   0.1    95   205     4   118     1   127 0.81 -
ID=PSME_00016173     -            173 119367at3193         -            287   4.7e-26   93.4   0.5   1   1   5.2e-29   6.2e-26   93.0   0.5    95   258    11   170     4   172 0.81 -
ID=PSME_00042275     -            155 119367at3193         -            287   6.2e-25   89.7   0.1   1   1   6.7e-28     8e-25   89.3   0.1   126   200    48   129    31   134 0.88 -
ID=PSME_00046545     -            157 119367at3193         -            287   7.9e-25   89.4   0.3   1   1   8.7e-28     1e-24   89.0   0.3   103   258     3   154     1   156 0.79 -
ID=PSME_00027593     -            132 119367at3193         -            287   8.8e-25   89.2   0.1   1   1   8.3e-28   9.9e-25   89.0   0.1    95   205     4   118     1   126 0.81 -
ID=PSME_00018999     -             88 119367at3193         -            287   1.4e-22   82.0   1.5   1   1   1.2e-25   1.5e-22   81.9   1.5    94   168     2    73     1    85 0.90 -
ID=PSME_00004190     -            216 119367at3193         -            287   4.3e-20   73.8   0.4   1   2     8e-21   9.5e-18   66.1   0.2    64   123    91   150    45   163 0.85 -
ID=PSME_00004190     -            216 119367at3193         -            287   4.3e-20   73.8   0.4   2   2     0.043        52    4.6   0.0   156   205   146   202   145   210 0.65 -
ID=PSME_00001914     -            326 119367at3193         -            287   9.5e-20   72.7   2.2   1   2   5.9e-08     7e-05   23.9   0.0     3    68    64   129    62   138 0.92 -
ID=PSME_00001914     -            326 119367at3193         -            287   9.5e-20   72.7   2.2   2   2   2.2e-15   2.7e-12   48.2   0.6   224   283   149   202   143   206 0.90 -
ID=PSME_00018639     -            143 119367at3193         -            287   1.3e-19   72.2   0.1   1   2       1.6   1.9e+03   -0.5   0.0    54    70     3    19     1    27 0.83 -
ID=PSME_00018639     -            143 119367at3193         -            287   1.3e-19   72.2   0.1   2   2   4.2e-22     5e-19   70.3   0.1    65   127    33    95    22   106 0.90 -
ID=PSME_00032841     -            341 119367at3193         -            287   2.9e-19   71.1   7.7   1   2   2.1e-11   2.5e-08   35.2   2.4    90   165     9    81     6    89 0.86 -
ID=PSME_00032841     -            341 119367at3193         -            287   2.9e-19   71.1   7.7   2   2   1.7e-12     2e-09   38.8   0.3   184   280   125   215   115   221 0.85 -
ID=PSME_00010506     -            452 119367at3193         -            287   5.4e-19   70.2   7.2   1   2   1.7e-13   2.1e-10   42.1   1.8    71   165    98   186    84   194 0.85 -
ID=PSME_00010506     -            452 119367at3193         -            287   5.4e-19   70.2   7.2   2   2   3.8e-10   4.6e-07   31.1   0.3   227   284   274   324   221   327 0.72 -
ID=PSME_00010507     -            406 119367at3193         -            287   1.3e-18   69.0  10.3   1   2   4.3e-12   5.1e-09   37.5   5.0    89   165   113   186   106   194 0.86 -
ID=PSME_00010507     -            406 119367at3193         -            287   1.3e-18   69.0  10.3   2   2   3.7e-11   4.4e-08   34.4   0.2   189   284   236   324   220   327 0.74 -
ID=PSME_00005644     -            263 119367at3193         -            287   9.7e-15   56.2   0.2   1   1   1.2e-17   1.5e-14   55.6   0.2   143   275     1   132     1   144 0.77 -
ID=PSME_00016175     -            258 119367at3193         -            287   4.7e-09   37.6   0.2   1   1   6.2e-12   7.4e-09   36.9   0.2   185   278    46   134    28   139 0.72 -
ID=PSME_00034395     -            144 119367at3193         -            287   8.7e-06   26.9   0.1   1   1   9.6e-09   1.1e-05   26.5   0.1     7    71    47   112    41   118 0.90 -
ID=PSME_00010588     -            225 119367at3193         -            287   0.00056   20.9   0.1   1   2    0.0017         2    9.3   0.0     7    36    67    96    63   131 0.79 -
ID=PSME_00010588     -            225 119367at3193         -            287   0.00056   20.9   0.1   2   2    0.0011       1.3    9.9   0.0     3    33   136   166   134   193 0.85 -
ID=PSME_00024607     -             87 119367at3193         -            287      0.62   10.9   0.0   1   1   0.00055      0.66   10.9   0.0    66    95    37    66    12    69 0.92 -
#
# Program:         hmmsearch
# Version:         3.2.1 (June 2018)
# Pipeline mode:   SEARCH
# Query file:      /isg/shared/databases/BUSCO/odb10/embryophyta_odb10/hmms/119367at3193.hmm
# Target file:     /labs/Wegrzyn/ConiferGenomes/Psme/analysis/SURF_annotation/analyze_orig_maker/gfacs/filtered/maker_genes.fasta.faa
# Option settings: /usr/local/bin/hmmsearch --domtblout /labs/Wegrzyn/ConiferGenomes/Psme/analysis/SURF_annotation/analyze_orig_maker/busco/maker/run_embryophyta_odb10/hmmer_output/119367at3193.out --cpu 1 /isg/shared/databases/BUSCO/odb10/embryophyta_odb10/hmms/119367at3193.hmm /labs/Wegrzyn/ConiferGenomes/Psme/analysis/SURF_annotation/analyze_orig_maker/gfacs/filtered/maker_genes.fasta.faa 
# Current dir:     /labs/Wegrzyn/ConiferGenomes/Psme/analysis/SURF_annotation/analyze_orig_maker/busco
# Date:            Fri Jul 10 13:42:01 2020
# [ok]
