#                                                                            --- full sequence --- -------------- this domain -------------   hmm coord   ali coord   env coord
# target name        accession   tlen query name           accession   qlen   E-value  score  bias   #  of  c-Evalue  i-Evalue  score  bias  from    to  from    to  from    to  acc description of target
#------------------- ---------- ----- -------------------- ---------- ----- --------- ------ ----- --- --- --------- --------- ------ ----- ----- ----- ----- ----- ----- ----- ---- ---------------------
ID=PSME_00003603     -            919 122450at3193         -            572  1.8e-149  500.5  57.1   1   4   0.00039         2    8.4   0.0     3    52    78   127    76   130 0.90 -
ID=PSME_00003603     -            919 122450at3193         -            572  1.8e-149  500.5  57.1   2   4   1.9e-58   9.7e-55  187.7   0.1    35   221   131   354   128   358 0.86 -
ID=PSME_00003603     -            919 122450at3193         -            572  1.8e-149  500.5  57.1   3   4   2.9e-17   1.4e-13   51.8   0.0   220   274   390   444   384   460 0.86 -
ID=PSME_00003603     -            919 122450at3193         -            572  1.8e-149  500.5  57.1   4   4   7.5e-77   3.8e-73  248.5  50.5   282   566   525   858   506   910 0.73 -
ID=PSME_00054925     -            231 122450at3193         -            572      0.26   11.3   8.8   1   1   6.5e-05      0.33   11.0   8.8   398   519    91   212    90   227 0.47 -
ID=PSME_00017323     -            165 122450at3193         -            572       1.1    9.3   8.4   1   1   0.00024       1.2    9.1   8.4   443   520    81   154    53   163 0.49 -
ID=PSME_00004312     -            181 122450at3193         -            572       1.7    8.6  27.9   1   1    0.0004         2    8.4  27.9   452   551    77   170    46   180 0.33 -
ID=PSME_00034153     -            192 122450at3193         -            572       2.3    8.2  19.1   1   1   0.00053       2.6    8.0  19.1   461   564    43   144     3   151 0.54 -
ID=PSME_00010464     -            568 122450at3193         -            572       3.7    7.5  21.4   1   1    0.0011       5.3    7.0  21.4   449   544   179   276   129   292 0.37 -
ID=PSME_00002144     -            254 122450at3193         -            572       4.1    7.4  16.0   1   1   0.00097       4.8    7.1  16.0   445   529   116   195    72   229 0.39 -
ID=PSME_00041878     -            165 122450at3193         -            572       5.9    6.8  10.0   1   1    0.0013       6.7    6.7  10.0   415   530    50   118    17   140 0.31 -
ID=PSME_00039393     -            187 122450at3193         -            572       6.3    6.8  24.1   1   1    0.0015       7.7    6.5  24.1   430   549    61   174    42   184 0.44 -
ID=PSME_00003060     -            214 122450at3193         -            572       7.2    6.6  16.9   1   1    0.0017       8.3    6.4  16.9   454   531   101   179    63   210 0.47 -
ID=PSME_00017474     -            197 122450at3193         -            572       8.1    6.4  23.4   1   1    0.0021        10    6.1  23.4   431   539    14   110     4   129 0.34 -
#
# Program:         hmmsearch
# Version:         3.2.1 (June 2018)
# Pipeline mode:   SEARCH
# Query file:      /isg/shared/databases/BUSCO/odb10/embryophyta_odb10/hmms/122450at3193.hmm
# Target file:     /labs/Wegrzyn/ConiferGenomes/Psme/analysis/SURF_annotation/analyze_orig_maker/gfacs/filtered/maker_genes.fasta.faa
# Option settings: /usr/local/bin/hmmsearch --domtblout /labs/Wegrzyn/ConiferGenomes/Psme/analysis/SURF_annotation/analyze_orig_maker/busco/maker/run_embryophyta_odb10/hmmer_output/122450at3193.out --cpu 1 /isg/shared/databases/BUSCO/odb10/embryophyta_odb10/hmms/122450at3193.hmm /labs/Wegrzyn/ConiferGenomes/Psme/analysis/SURF_annotation/analyze_orig_maker/gfacs/filtered/maker_genes.fasta.faa 
# Current dir:     /labs/Wegrzyn/ConiferGenomes/Psme/analysis/SURF_annotation/analyze_orig_maker/busco
# Date:            Fri Jul 10 13:42:17 2020
# [ok]
