#                                                                            --- full sequence --- -------------- this domain -------------   hmm coord   ali coord   env coord
# target name        accession   tlen query name           accession   qlen   E-value  score  bias   #  of  c-Evalue  i-Evalue  score  bias  from    to  from    to  from    to  acc description of target
#------------------- ---------- ----- -------------------- ---------- ----- --------- ------ ----- --- --- --------- --------- ------ ----- ----- ----- ----- ----- ----- ----- ---- ---------------------
ID=PSME_00005352     -            589 123351at3193         -            329   1.2e-92  312.0  14.5   1   6   4.4e-53     6e-49  168.4   0.1     1   106    22   127    22   136 0.98 -
ID=PSME_00005352     -            589 123351at3193         -            329   1.2e-92  312.0  14.5   2   6    0.0085   1.2e+02    3.1   0.0   114   137   164   187   157   195 0.89 -
ID=PSME_00005352     -            589 123351at3193         -            329   1.2e-92  312.0  14.5   3   6    0.0002       2.7    8.5   0.1   115   137   207   229   203   240 0.88 -
ID=PSME_00005352     -            589 123351at3193         -            329   1.2e-92  312.0  14.5   4   6   7.3e-06       0.1   13.2   0.0   113   137   247   271   243   275 0.87 -
ID=PSME_00005352     -            589 123351at3193         -            329   1.2e-92  312.0  14.5   5   6   6.8e-38   9.4e-34  118.5   0.6   162   279   273   414   269   458 0.77 -
ID=PSME_00005352     -            589 123351at3193         -            329   1.2e-92  312.0  14.5   6   6     0.035   4.8e+02    1.1   0.1   289   304   463   478   450   489 0.76 -
ID=PSME_00000987     -            381 123351at3193         -            329   1.4e-87  295.4   8.9   1   3   2.4e-55   3.2e-51  175.8   0.0   115   229    54   173    49   176 0.95 -
ID=PSME_00000987     -            381 123351at3193         -            329   1.4e-87  295.4   8.9   2   3   7.2e-19   9.8e-15   55.9   0.4   228   281   225   278   215   320 0.80 -
ID=PSME_00000987     -            381 123351at3193         -            329   1.4e-87  295.4   8.9   3   3   9.9e-22   1.4e-17   65.3   2.6   285   329   325   369   311   369 0.91 -
ID=PSME_00026831     -            338 123351at3193         -            329      0.14   12.7   0.6   1   1   1.8e-05      0.25   11.9   0.6   297   328   128   158   124   159 0.88 -
ID=PSME_00001693     -            690 123351at3193         -            329      0.31   11.6   0.0   1   1   4.1e-05      0.56   10.7   0.0     5    39   219   253   215   272 0.86 -
#
# Program:         hmmsearch
# Version:         3.2.1 (June 2018)
# Pipeline mode:   SEARCH
# Query file:      /isg/shared/databases/BUSCO/odb10/embryophyta_odb10/hmms/123351at3193.hmm
# Target file:     /labs/Wegrzyn/ConiferGenomes/Psme/analysis/SURF_annotation/analyze_orig_maker/gfacs/filtered/maker_genes.fasta.faa
# Option settings: /usr/local/bin/hmmsearch --domtblout /labs/Wegrzyn/ConiferGenomes/Psme/analysis/SURF_annotation/analyze_orig_maker/busco/maker/run_embryophyta_odb10/hmmer_output/123351at3193.out --cpu 1 /isg/shared/databases/BUSCO/odb10/embryophyta_odb10/hmms/123351at3193.hmm /labs/Wegrzyn/ConiferGenomes/Psme/analysis/SURF_annotation/analyze_orig_maker/gfacs/filtered/maker_genes.fasta.faa 
# Current dir:     /labs/Wegrzyn/ConiferGenomes/Psme/analysis/SURF_annotation/analyze_orig_maker/busco
# Date:            Fri Jul 10 13:42:08 2020
# [ok]
