#                                                                            --- full sequence --- -------------- this domain -------------   hmm coord   ali coord   env coord
# target name        accession   tlen query name           accession   qlen   E-value  score  bias   #  of  c-Evalue  i-Evalue  score  bias  from    to  from    to  from    to  acc description of target
#------------------- ---------- ----- -------------------- ---------- ----- --------- ------ ----- --- --- --------- --------- ------ ----- ----- ----- ----- ----- ----- ----- ---- ---------------------
ID=PSME_00016192     -            420 125141at3193         -            425     1e-05   26.2   0.2   1   1   6.1e-09   2.4e-05   24.9   0.2   268   299   249   280   244   296 0.89 -
ID=PSME_00026293     -            866 125141at3193         -            425   1.2e-05   26.0   5.9   1   2     3e-09   1.2e-05   26.0   5.9   258   308   184   233   145   370 0.90 -
ID=PSME_00026293     -            866 125141at3193         -            425   1.2e-05   26.0   5.9   2   2      0.94   3.7e+03   -2.0   0.4   359   403   359   403   317   419 0.73 -
ID=PSME_00021616     -           1116 125141at3193         -            425   1.2e-05   25.9   0.1   1   3      0.15   5.7e+02    0.6   1.6   375   420   715   764   686   769 0.64 -
ID=PSME_00021616     -           1116 125141at3193         -            425   1.2e-05   25.9   0.1   2   3       2.8   1.1e+04   -3.6   0.0   186   206   796   816   784   855 0.68 -
ID=PSME_00021616     -           1116 125141at3193         -            425   1.2e-05   25.9   0.1   3   3   3.1e-09   1.2e-05   25.9   0.1   267   311  1041  1085  1037  1089 0.89 -
ID=PSME_00007967     -            154 125141at3193         -            425   0.00019   22.0   0.0   1   2   4.8e-08   0.00019   22.0   0.0   267   308    51    92    10    97 0.88 -
ID=PSME_00007967     -            154 125141at3193         -            425   0.00019   22.0   0.0   2   2      0.23   8.9e+02   -0.0   2.0   340   382    97   138    91   148 0.73 -
ID=PSME_00030658     -            787 125141at3193         -            425    0.0059   17.0   5.4   1   2    0.0017       6.7    7.0   1.7   118   146   479   507   473   512 0.87 -
ID=PSME_00030658     -            787 125141at3193         -            425    0.0059   17.0   5.4   2   2   6.4e-05      0.25   11.7   0.1   123   158   511   545   507   614 0.84 -
ID=PSME_00056914     -            281 125141at3193         -            425    0.0082   16.6   1.5   1   2     0.049   1.9e+02    2.2   0.1   129   147    83   101    75   113 0.78 -
ID=PSME_00056914     -            281 125141at3193         -            425    0.0082   16.6   1.5   2   2   2.1e-05     0.083   13.3   0.1   103   146   226   269   214   274 0.92 -
ID=PSME_00031639     -            337 125141at3193         -            425     0.014   15.8   2.4   1   3      0.04   1.6e+02    2.5   0.0   121   148    67    94    60   106 0.83 -
ID=PSME_00031639     -            337 125141at3193         -            425     0.014   15.8   2.4   2   3    0.0035        14    5.9   0.0   123   147   133   158   125   173 0.79 -
ID=PSME_00031639     -            337 125141at3193         -            425     0.014   15.8   2.4   3   3    0.0038        15    5.8   0.1   123   147   304   328   283   332 0.85 -
ID=PSME_00001768     -            394 125141at3193         -            425     0.015   15.8   2.6   1   2   3.7e-06     0.015   15.8   2.6     9    61    12    64     6   129 0.88 -
ID=PSME_00001768     -            394 125141at3193         -            425     0.015   15.8   2.6   2   2       4.3   1.7e+04   -4.2   0.3   396   415   160   179   145   193 0.50 -
ID=PSME_00034990     -            255 125141at3193         -            425     0.017   15.6   0.9   1   2     0.013        53    4.0   0.0   124   146    49    72    38    93 0.79 -
ID=PSME_00034990     -            255 125141at3193         -            425     0.017   15.6   0.9   2   2   0.00018       0.7   10.2   0.1   123   147   226   250   202   253 0.85 -
ID=PSME_00005551     -            278 125141at3193         -            425      0.14   12.5   0.2   1   1   4.8e-05      0.19   12.1   0.2   267   295   127   155   120   187 0.86 -
ID=PSME_00046964     -            242 125141at3193         -            425      0.16   12.3   0.0   1   1   5.6e-05      0.22   11.9   0.0   267   295    81   109    74   117 0.89 -
ID=PSME_00033910     -            778 125141at3193         -            425      0.28   11.5   0.0   1   1   0.00011      0.45   10.9   0.0   100   148   245   293   215   303 0.75 -
ID=PSME_00005878     -            455 125141at3193         -            425       2.1    8.6   6.1   1   3     0.021        82    3.4   0.2   126   148   169   191   161   206 0.81 -
ID=PSME_00005878     -            455 125141at3193         -            425       2.1    8.6   6.1   2   3      0.47   1.8e+03   -1.0   0.5   127   145   244   263   238   272 0.83 -
ID=PSME_00005878     -            455 125141at3193         -            425       2.1    8.6   6.1   3   3    0.0015       5.8    7.2   0.0   113   147   297   332   289   338 0.84 -
ID=PSME_00054338     -            256 125141at3193         -            425       4.4    7.6   4.8   1   2       0.1   4.1e+02    1.1   1.9   123   147    44    67    39    87 0.86 -
ID=PSME_00054338     -            256 125141at3193         -            425       4.4    7.6   4.8   2   2    0.0012       4.6    7.5   0.1   117   155   124   163    75   183 0.68 -
#
# Program:         hmmsearch
# Version:         3.2.1 (June 2018)
# Pipeline mode:   SEARCH
# Query file:      /isg/shared/databases/BUSCO/odb10/embryophyta_odb10/hmms/125141at3193.hmm
# Target file:     /labs/Wegrzyn/ConiferGenomes/Psme/analysis/SURF_annotation/analyze_orig_maker/gfacs/filtered/maker_genes.fasta.faa
# Option settings: /usr/local/bin/hmmsearch --domtblout /labs/Wegrzyn/ConiferGenomes/Psme/analysis/SURF_annotation/analyze_orig_maker/busco/maker/run_embryophyta_odb10/hmmer_output/125141at3193.out --cpu 1 /isg/shared/databases/BUSCO/odb10/embryophyta_odb10/hmms/125141at3193.hmm /labs/Wegrzyn/ConiferGenomes/Psme/analysis/SURF_annotation/analyze_orig_maker/gfacs/filtered/maker_genes.fasta.faa 
# Current dir:     /labs/Wegrzyn/ConiferGenomes/Psme/analysis/SURF_annotation/analyze_orig_maker/busco
# Date:            Fri Jul 10 13:42:13 2020
# [ok]
