#                                                                            --- full sequence --- -------------- this domain -------------   hmm coord   ali coord   env coord
# target name        accession   tlen query name           accession   qlen   E-value  score  bias   #  of  c-Evalue  i-Evalue  score  bias  from    to  from    to  from    to  acc description of target
#------------------- ---------- ----- -------------------- ---------- ----- --------- ------ ----- --- --- --------- --------- ------ ----- ----- ----- ----- ----- ----- ----- ---- ---------------------
ID=PSME_00026196     -            111 126380at3193         -            320   1.6e-21   78.1   0.0   1   1   2.9e-25     2e-21   77.8   0.0     1    73    27   108    27   109 0.89 -
ID=PSME_00013928     -            236 126380at3193         -            320   5.9e-14   53.2   0.0   1   1   1.3e-17   8.8e-14   52.7   0.0   241   280   104   143    99   153 0.93 -
ID=PSME_00040411     -            199 126380at3193         -            320   9.5e-14   52.5   0.1   1   1   1.9e-17   1.3e-13   52.1   0.1   240   281   105   146   101   168 0.92 -
ID=PSME_00045161     -            133 126380at3193         -            320   1.4e-07   32.3   0.0   1   1   2.7e-11   1.8e-07   31.9   0.0   197   281     8    86     3    98 0.87 -
ID=PSME_00009224     -            315 126380at3193         -            320   1.4e-07   32.3   0.1   1   1     9e-11   6.2e-07   30.2   0.1   234   319    79   182    17   183 0.70 -
ID=PSME_00029534     -            550 126380at3193         -            320   5.7e-06   27.0   0.0   1   1   1.6e-09   1.1e-05   26.0   0.0   240   267   118   145   104   167 0.89 -
ID=PSME_00019453     -            909 126380at3193         -            320   7.9e-05   23.2   0.1   1   1   2.2e-08   0.00015   22.3   0.1   240   267   137   164   122   187 0.86 -
ID=PSME_00023769     -            469 126380at3193         -            320       0.2   12.1   0.0   1   1   6.2e-05      0.43   11.0   0.0   203   258    40    95    33   119 0.92 -
#
# Program:         hmmsearch
# Version:         3.2.1 (June 2018)
# Pipeline mode:   SEARCH
# Query file:      /isg/shared/databases/BUSCO/odb10/embryophyta_odb10/hmms/126380at3193.hmm
# Target file:     /labs/Wegrzyn/ConiferGenomes/Psme/analysis/SURF_annotation/analyze_orig_maker/gfacs/filtered/maker_genes.fasta.faa
# Option settings: /usr/local/bin/hmmsearch --domtblout /labs/Wegrzyn/ConiferGenomes/Psme/analysis/SURF_annotation/analyze_orig_maker/busco/maker/run_embryophyta_odb10/hmmer_output/126380at3193.out --cpu 1 /isg/shared/databases/BUSCO/odb10/embryophyta_odb10/hmms/126380at3193.hmm /labs/Wegrzyn/ConiferGenomes/Psme/analysis/SURF_annotation/analyze_orig_maker/gfacs/filtered/maker_genes.fasta.faa 
# Current dir:     /labs/Wegrzyn/ConiferGenomes/Psme/analysis/SURF_annotation/analyze_orig_maker/busco
# Date:            Fri Jul 10 13:42:15 2020
# [ok]
