#                                                                            --- full sequence --- -------------- this domain -------------   hmm coord   ali coord   env coord
# target name        accession   tlen query name           accession   qlen   E-value  score  bias   #  of  c-Evalue  i-Evalue  score  bias  from    to  from    to  from    to  acc description of target
#------------------- ---------- ----- -------------------- ---------- ----- --------- ------ ----- --- --- --------- --------- ------ ----- ----- ----- ----- ----- ----- ----- ---- ---------------------
ID=PSME_00012358     -            200 126415at3193         -            267   1.1e-20   75.6   0.2   1   2   4.5e-07    0.0081   17.0   0.0    16    60    10    60     3    63 0.79 -
ID=PSME_00012358     -            200 126415at3193         -            267   1.1e-20   75.6   0.2   2   2   3.2e-19   5.8e-15   56.8   0.1    95   168    82   156    74   188 0.90 -
ID=PSME_00000260     -            673 126415at3193         -            267   1.1e-06   29.8   0.1   1   2   0.00013       2.3    9.0   0.0     5    63    87   160    83   164 0.61 -
ID=PSME_00000260     -            673 126415at3193         -            267   1.1e-06   29.8   0.1   2   2   2.7e-07    0.0049   17.7   0.0   198   265   518   585   498   587 0.85 -
ID=PSME_00012223     -            197 126415at3193         -            267      0.65   10.8   0.7   1   1   4.6e-05      0.85   10.4   0.7    47   112    99   166    92   170 0.89 -
#
# Program:         hmmsearch
# Version:         3.2.1 (June 2018)
# Pipeline mode:   SEARCH
# Query file:      /isg/shared/databases/BUSCO/odb10/embryophyta_odb10/hmms/126415at3193.hmm
# Target file:     /labs/Wegrzyn/ConiferGenomes/Psme/analysis/SURF_annotation/analyze_orig_maker/gfacs/filtered/maker_genes.fasta.faa
# Option settings: /usr/local/bin/hmmsearch --domtblout /labs/Wegrzyn/ConiferGenomes/Psme/analysis/SURF_annotation/analyze_orig_maker/busco/maker/run_embryophyta_odb10/hmmer_output/126415at3193.out --cpu 1 /isg/shared/databases/BUSCO/odb10/embryophyta_odb10/hmms/126415at3193.hmm /labs/Wegrzyn/ConiferGenomes/Psme/analysis/SURF_annotation/analyze_orig_maker/gfacs/filtered/maker_genes.fasta.faa 
# Current dir:     /labs/Wegrzyn/ConiferGenomes/Psme/analysis/SURF_annotation/analyze_orig_maker/busco
# Date:            Fri Jul 10 13:42:14 2020
# [ok]
