#                                                                            --- full sequence --- -------------- this domain -------------   hmm coord   ali coord   env coord
# target name        accession   tlen query name           accession   qlen   E-value  score  bias   #  of  c-Evalue  i-Evalue  score  bias  from    to  from    to  from    to  acc description of target
#------------------- ---------- ----- -------------------- ---------- ----- --------- ------ ----- --- --- --------- --------- ------ ----- ----- ----- ----- ----- ----- ----- ---- ---------------------
ID=PSME_00043565     -            528 126918at3193         -            247   0.00011   23.2   0.1   1   1   9.8e-09   0.00018   22.5   0.1    86   116     2    32     1    38 0.95 -
ID=PSME_00010697     -            267 126918at3193         -            247   0.00079   20.4   0.0   1   2    0.0087   1.6e+02    3.0   0.0    48    96   118   165    82   182 0.81 -
ID=PSME_00010697     -            267 126918at3193         -            247   0.00079   20.4   0.0   2   2   1.6e-06     0.029   15.3   0.0   174   197   235   258   216   264 0.88 -
ID=PSME_00011762     -           1381 126918at3193         -            247    0.0071   17.3   0.0   1   3    0.0036        65    4.3   0.0   131   162   500   531   476   540 0.86 -
ID=PSME_00011762     -           1381 126918at3193         -            247    0.0071   17.3   0.0   2   3    0.0035        64    4.3   0.0   132   162   855   885   846   903 0.85 -
ID=PSME_00011762     -           1381 126918at3193         -            247    0.0071   17.3   0.0   3   3    0.0031        57    4.5   0.0   132   162  1150  1180  1130  1198 0.86 -
#
# Program:         hmmsearch
# Version:         3.2.1 (June 2018)
# Pipeline mode:   SEARCH
# Query file:      /isg/shared/databases/BUSCO/odb10/embryophyta_odb10/hmms/126918at3193.hmm
# Target file:     /labs/Wegrzyn/ConiferGenomes/Psme/analysis/SURF_annotation/analyze_orig_maker/gfacs/filtered/maker_genes.fasta.faa
# Option settings: /usr/local/bin/hmmsearch --domtblout /labs/Wegrzyn/ConiferGenomes/Psme/analysis/SURF_annotation/analyze_orig_maker/busco/maker/run_embryophyta_odb10/hmmer_output/126918at3193.out --cpu 1 /isg/shared/databases/BUSCO/odb10/embryophyta_odb10/hmms/126918at3193.hmm /labs/Wegrzyn/ConiferGenomes/Psme/analysis/SURF_annotation/analyze_orig_maker/gfacs/filtered/maker_genes.fasta.faa 
# Current dir:     /labs/Wegrzyn/ConiferGenomes/Psme/analysis/SURF_annotation/analyze_orig_maker/busco
# Date:            Fri Jul 10 13:42:15 2020
# [ok]
