#                                                                            --- full sequence --- -------------- this domain -------------   hmm coord   ali coord   env coord
# target name        accession   tlen query name           accession   qlen   E-value  score  bias   #  of  c-Evalue  i-Evalue  score  bias  from    to  from    to  from    to  acc description of target
#------------------- ---------- ----- -------------------- ---------- ----- --------- ------ ----- --- --- --------- --------- ------ ----- ----- ----- ----- ----- ----- ----- ---- ---------------------
ID=PSME_00013947     -            690 127464at3193         -            295   8.7e-32  112.1  18.1   1   3   1.4e-12   7.5e-10   40.1   0.7    28   133     5   116     1   125 0.84 -
ID=PSME_00013947     -            690 127464at3193         -            295   8.7e-32  112.1  18.1   2   3   1.4e-09   7.6e-07   30.2   5.8    21   136   239   370   221   377 0.67 -
ID=PSME_00013947     -            690 127464at3193         -            295   8.7e-32  112.1  18.1   3   3   4.7e-15   2.6e-12   48.1   0.6    25   139   382   499   359   520 0.77 -
ID=PSME_00037319     -            354 127464at3193         -            295   8.1e-18   66.2   4.5   1   2   3.8e-12   2.1e-09   38.6   2.7    21   137    92   207    73   215 0.79 -
ID=PSME_00037319     -            354 127464at3193         -            295   8.1e-18   66.2   4.5   2   2   5.3e-09   2.9e-06   28.3   0.1    24   106   217   301   198   339 0.73 -
ID=PSME_00030934     -            792 127464at3193         -            295   4.5e-15   57.2  15.9   1   4   4.8e-08   2.7e-05   25.1   0.9     9   113   383   489   374   520 0.78 -
ID=PSME_00030934     -            792 127464at3193         -            295   4.5e-15   57.2  15.9   2   4      0.44   2.4e+02    2.3   0.3    58   118   510   570   503   574 0.84 -
ID=PSME_00030934     -            792 127464at3193         -            295   4.5e-15   57.2  15.9   3   4   0.00047      0.26   12.0   0.9    55   101   585   633   571   648 0.81 -
ID=PSME_00030934     -            792 127464at3193         -            295   4.5e-15   57.2  15.9   4   4   1.4e-08     8e-06   26.8   0.3    30   112   638   722   633   731 0.84 -
ID=PSME_00040824     -           1006 127464at3193         -            295   4.7e-15   57.1   8.6   1   3   1.4e-08   7.5e-06   26.9   0.3    31   113   541   625   512   657 0.74 -
ID=PSME_00040824     -           1006 127464at3193         -            295   4.7e-15   57.1   8.6   2   3   0.00093      0.51   11.0   0.7    55   101   722   770   712   777 0.84 -
ID=PSME_00040824     -           1006 127464at3193         -            295   4.7e-15   57.1   8.6   3   3   1.8e-07   9.9e-05   23.2   0.1    28   112   773   859   769   886 0.89 -
ID=PSME_00051046     -            791 127464at3193         -            295   2.2e-14   55.0   1.8   1   1   1.3e-15   7.1e-13   50.0   1.8    59   141   255   331   185   345 0.75 -
ID=PSME_00056513     -            309 127464at3193         -            295   7.5e-14   53.2   3.0   1   1     9e-16     5e-13   50.5   3.0    28   119    44   148    19   173 0.75 -
ID=PSME_00048001     -            237 127464at3193         -            295   9.3e-14   52.9   3.2   1   1   1.1e-15     6e-13   50.2   3.2    24   116    40   145    23   173 0.75 -
ID=PSME_00036602     -            719 127464at3193         -            295   2.1e-13   51.7   1.6   1   1   1.3e-14   7.3e-12   46.7   1.3    59   117   236   294   166   321 0.81 -
ID=PSME_00000239     -           1254 127464at3193         -            295   2.5e-13   51.4  11.5   1   3   5.3e-09     3e-06   28.2   0.3    57   143   855   943   827   952 0.78 -
ID=PSME_00000239     -           1254 127464at3193         -            295   2.5e-13   51.4  11.5   2   3     0.087        48    4.6   0.1    74   118   963  1010   946  1019 0.80 -
ID=PSME_00000239     -           1254 127464at3193         -            295   2.5e-13   51.4  11.5   3   3   2.3e-07   0.00013   22.9   2.7    23   148  1093  1226  1074  1236 0.76 -
ID=PSME_00054616     -            570 127464at3193         -            295   3.7e-13   50.9   2.8   1   1   3.8e-15   2.1e-12   48.4   2.8    29   113    45   142    25   167 0.76 -
ID=PSME_00056343     -            602 127464at3193         -            295     5e-13   50.5   2.3   1   1   4.2e-15   2.3e-12   48.3   2.3    29   120    49   153    26   177 0.73 -
ID=PSME_00037608     -           1207 127464at3193         -            295     8e-13   49.8   0.1   1   1     3e-15   1.7e-12   48.8   0.1    33   171   111   256    99   278 0.88 -
ID=PSME_00044679     -            558 127464at3193         -            295   8.4e-13   49.7   2.7   1   1   8.4e-15   4.7e-12   47.3   2.7    29   113    45   142    26   172 0.76 -
ID=PSME_00047682     -            591 127464at3193         -            295   9.5e-13   49.6   2.6   1   1   7.4e-15   4.1e-12   47.5   2.6    29   116    45   145    26   172 0.75 -
ID=PSME_00024578     -            324 127464at3193         -            295   1.8e-12   48.7   0.6   1   2      0.11        60    4.3   0.2    92   138    19    65     8    76 0.72 -
ID=PSME_00024578     -            324 127464at3193         -            295   1.8e-12   48.7   0.6   2   2   2.2e-13   1.2e-10   42.6   0.0    27   129    77   180    70   194 0.86 -
ID=PSME_00051899     -            182 127464at3193         -            295   2.8e-12   48.0   1.1   1   1   3.4e-14   1.9e-11   45.3   1.1    29   107    69   160    48   176 0.78 -
ID=PSME_00041788     -            178 127464at3193         -            295   2.9e-12   48.0   2.8   1   1   8.1e-15   4.5e-12   47.4   2.8    30   121    26   127     7   160 0.68 -
ID=PSME_00045642     -            745 127464at3193         -            295   3.9e-12   47.6   0.3   1   1   1.5e-14   8.5e-12   46.4   0.3    59   118   235   293   225   323 0.78 -
ID=PSME_00049230     -            393 127464at3193         -            295   3.9e-12   47.6   3.4   1   3       2.8   1.5e+03   -0.4   0.0    30    48    82   100    68   132 0.79 -
ID=PSME_00049230     -            393 127464at3193         -            295   3.9e-12   47.6   3.4   2   3     0.097        54    4.4   0.1    25    55   211   243   191   246 0.81 -
ID=PSME_00049230     -            393 127464at3193         -            295   3.9e-12   47.6   3.4   3   3   2.2e-13   1.2e-10   42.7   0.2    27   138   247   361   243   383 0.79 -
ID=PSME_00019882     -            745 127464at3193         -            295   5.4e-12   47.1   0.7   1   1     2e-14   1.1e-11   46.1   0.2    59   117   235   292   225   322 0.81 -
ID=PSME_00056118     -            733 127464at3193         -            295   6.1e-12   46.9   4.3   1   2     0.068        38    4.9   0.1    28    63   182   216   176   221 0.78 -
ID=PSME_00056118     -            733 127464at3193         -            295   6.1e-12   46.9   4.3   2   2     2e-13   1.1e-10   42.7   0.2    54   142   224   313   219   328 0.83 -
ID=PSME_00033400     -           1156 127464at3193         -            295   1.1e-11   46.1   0.8   1   1   4.7e-13   2.6e-10   41.6   0.8    54   121   179   247   122   272 0.80 -
ID=PSME_00027908     -            340 127464at3193         -            295   1.2e-11   46.0   1.6   1   1   3.1e-14   1.7e-11   45.4   1.6    37   129   150   251   135   264 0.81 -
ID=PSME_00040345     -            748 127464at3193         -            295   1.2e-11   46.0   2.3   1   1   4.5e-14   2.5e-11   44.9   2.3    29   126   188   299   172   317 0.73 -
ID=PSME_00044165     -            360 127464at3193         -            295   1.4e-11   45.7   6.1   1   1   2.9e-13   1.6e-10   42.2   6.1    54   140   229   318   171   331 0.76 -
ID=PSME_00038222     -            326 127464at3193         -            295     2e-11   45.3   5.1   1   1   4.7e-14   2.6e-11   44.8   5.1    11   138     4   134     1   166 0.74 -
ID=PSME_00014571     -            632 127464at3193         -            295   2.4e-11   45.0   1.4   1   1   6.9e-14   3.8e-11   44.3   1.4    41   116    29   108    11   159 0.80 -
ID=PSME_00056618     -            593 127464at3193         -            295   4.5e-11   44.1   2.4   1   1   1.1e-12   5.8e-10   40.4   2.4    30   138    35   158    15   165 0.77 -
ID=PSME_00003274     -            777 127464at3193         -            295   4.8e-11   44.0   0.1   1   1   4.2e-13   2.3e-10   41.7   0.1    52   119   245   312   203   339 0.83 -
ID=PSME_00019883     -            356 127464at3193         -            295   5.8e-11   43.7   1.8   1   1   1.6e-13   8.9e-11   43.1   1.8    59   140    18   100     5   113 0.73 -
ID=PSME_00012328     -            198 127464at3193         -            295     6e-11   43.7   1.2   1   2     0.055        30    5.2   0.2    25    54    29    60    13    65 0.83 -
ID=PSME_00012328     -            198 127464at3193         -            295     6e-11   43.7   1.2   2   2     1e-11   5.7e-09   37.2   0.1    25   112    93   182    68   195 0.84 -
ID=PSME_00055221     -            565 127464at3193         -            295   6.1e-11   43.6   1.3   1   1   1.7e-12   9.6e-10   39.7   1.3    59   117    65   122     9   148 0.84 -
ID=PSME_00056786     -            743 127464at3193         -            295   8.3e-11   43.2   1.4   1   1   1.4e-12     8e-10   40.0   1.4    59   118   243   301   181   327 0.86 -
ID=PSME_00019887     -            588 127464at3193         -            295   9.5e-11   43.0   4.1   1   2       1.2   6.7e+02    0.8   0.1    30    59    18    45    10    53 0.77 -
ID=PSME_00019887     -            588 127464at3193         -            295   9.5e-11   43.0   4.1   2   2   3.4e-13   1.9e-10   42.0   1.6    59   130    65   140    48   154 0.78 -
ID=PSME_00012326     -            198 127464at3193         -            295   1.1e-10   42.8   2.5   1   2     0.057        31    5.2   0.1    24    54    28    60     1    65 0.84 -
ID=PSME_00012326     -            198 127464at3193         -            295   1.1e-10   42.8   2.5   2   2   6.1e-12   3.4e-09   37.9   0.2    25   112    93   182    68   194 0.84 -
ID=PSME_00030098     -           1567 127464at3193         -            295   1.2e-10   42.6   5.0   1   2   2.9e-07   0.00016   22.6   0.5    53   111  1011  1070  1005  1109 0.82 -
ID=PSME_00030098     -           1567 127464at3193         -            295   1.2e-10   42.6   5.0   2   2   6.2e-07   0.00034   21.5   0.4    19   100  1246  1333  1229  1395 0.80 -
ID=PSME_00041786     -            179 127464at3193         -            295   1.2e-10   42.6   0.7   1   1   3.4e-13   1.9e-10   42.0   0.7    30   113    71   164    52   176 0.73 -
ID=PSME_00014424     -            267 127464at3193         -            295   1.7e-10   42.2   0.3   1   1   1.9e-12     1e-09   39.6   0.3    59   120   120   180    65   212 0.77 -
ID=PSME_00056357     -            593 127464at3193         -            295   2.4e-10   41.7   1.7   1   1   5.7e-12   3.2e-09   38.0   1.7    30   137    35   157    15   165 0.77 -
ID=PSME_00019886     -            164 127464at3193         -            295   3.2e-10   41.3   0.5   1   2     0.052        29    5.3   0.1    29    59    22    50     7    60 0.82 -
ID=PSME_00019886     -            164 127464at3193         -            295   3.2e-10   41.3   0.5   2   2   6.1e-11   3.4e-08   34.6   0.1    59   112    70   123    57   139 0.88 -
ID=PSME_00017679     -            388 127464at3193         -            295   7.8e-10   40.0   2.2   1   2   1.4e-12   7.9e-10   40.0   0.5    34   113    15    99     1   141 0.72 -
ID=PSME_00017679     -            388 127464at3193         -            295   7.8e-10   40.0   2.2   2   2       5.9   3.3e+03   -1.4   0.1    17    62   311   356   297   361 0.66 -
ID=PSME_00018093     -            453 127464at3193         -            295   2.1e-09   38.6   4.4   1   1   1.4e-10     8e-08   33.4   4.4    59   120   230   291   160   315 0.77 -
ID=PSME_00013494     -            313 127464at3193         -            295   2.5e-09   38.3   0.2   1   1   1.2e-11   6.5e-09   37.0   0.2    53   115   114   177    52   206 0.85 -
ID=PSME_00050973     -            312 127464at3193         -            295   4.9e-09   37.4   4.3   1   1   8.4e-11   4.6e-08   34.2   4.3    54   133    46   127     2   139 0.76 -
ID=PSME_00004762     -            451 127464at3193         -            295   5.5e-09   37.2   2.6   1   2       9.2   5.1e+03   -2.1   0.0    53    95    57    99    48   133 0.82 -
ID=PSME_00004762     -            451 127464at3193         -            295   5.5e-09   37.2   2.6   2   2   1.9e-11   1.1e-08   36.3   1.1     5   131   273   414   269   427 0.65 -
ID=PSME_00041899     -            225 127464at3193         -            295     7e-09   36.9   5.6   1   1   1.2e-10   6.6e-08   33.7   5.6    19   143    60   200    42   207 0.65 -
ID=PSME_00041900     -            102 127464at3193         -            295   9.5e-09   36.4   0.7   1   1     2e-11   1.1e-08   36.2   0.7    21    87    13    81     4    97 0.82 -
ID=PSME_00037283     -            599 127464at3193         -            295   2.4e-08   35.1   2.8   1   1   1.8e-10     1e-07   33.1   2.9    29   113    35   129    14   153 0.81 -
ID=PSME_00041686     -            569 127464at3193         -            295   2.5e-08   35.1   1.5   1   1   1.1e-09   6.1e-07   30.5   1.5    59   112    53   106     2   137 0.84 -
ID=PSME_00030068     -            569 127464at3193         -            295   2.6e-08   35.0   1.5   1   1   1.2e-09   6.6e-07   30.4   1.6    59   112    53   106     2   131 0.84 -
ID=PSME_00050974     -            569 127464at3193         -            295   2.8e-08   34.9   3.7   1   1   2.3e-10   1.3e-07   32.7   3.7    59   132    53   126     2   139 0.80 -
ID=PSME_00023340     -            217 127464at3193         -            295   2.9e-08   34.8   3.6   1   2   6.7e-10   3.7e-07   31.2   1.3    20    85    81   148    63   162 0.84 -
ID=PSME_00023340     -            217 127464at3193         -            295   2.9e-08   34.8   3.6   2   2      0.13        70    4.1   0.0    29    54   165   192   150   197 0.84 -
ID=PSME_00036538     -            627 127464at3193         -            295   3.3e-08   34.6   0.5   1   2       2.7   1.5e+03   -0.3   0.0    39    57    27    45    15    49 0.84 -
ID=PSME_00036538     -            627 127464at3193         -            295   3.3e-08   34.6   0.5   2   2     3e-10   1.6e-07   32.4   0.1    59   113    70   124    51   155 0.85 -
ID=PSME_00030067     -            716 127464at3193         -            295   3.4e-08   34.6   2.5   1   1   2.4e-10   1.3e-07   32.7   2.5    30   113     9   102     2   126 0.81 -
ID=PSME_00045412     -            168 127464at3193         -            295   3.9e-08   34.4   1.6   1   1     9e-11     5e-08   34.1   1.6    25   112    67   156    44   158 0.79 -
ID=PSME_00018096     -            882 127464at3193         -            295   1.6e-07   32.5   1.1   1   1   4.3e-08   2.4e-05   25.3   1.1    59   116   225   282   155   296 0.84 -
ID=PSME_00030424     -            569 127464at3193         -            295   2.8e-07   31.6   2.0   1   1   3.3e-08   1.8e-05   25.7   2.0    59   112    53   106     3   131 0.79 -
ID=PSME_00037320     -            188 127464at3193         -            295   2.9e-07   31.6   0.0   1   1   8.3e-10   4.6e-07   30.9   0.0    25   106    52   135    30   177 0.76 -
ID=PSME_00050613     -            720 127464at3193         -            295   3.6e-07   31.2   0.9   1   1   4.4e-09   2.5e-06   28.5   0.9    57   132    84   163     9   178 0.82 -
ID=PSME_00047246     -            544 127464at3193         -            295   5.1e-07   30.8   0.2   1   2         2   1.1e+03    0.1   0.0    31    59   236   262   229   270 0.75 -
ID=PSME_00047246     -            544 127464at3193         -            295   5.1e-07   30.8   0.2   2   2   6.2e-09   3.4e-06   28.0   0.0    71   123   304   355   299   381 0.76 -
ID=PSME_00011739     -            184 127464at3193         -            295   5.1e-07   30.7   0.7   1   1   1.2e-09   6.6e-07   30.4   0.7    11    89    92   173    83   177 0.78 -
ID=PSME_00004763     -             82 127464at3193         -            295   5.6e-07   30.6   0.0   1   1   1.1e-09   6.2e-07   30.5   0.0     4    73    11    81     8    81 0.86 -
ID=PSME_00057210     -            569 127464at3193         -            295   5.9e-07   30.5   4.6   1   1     5e-09   2.8e-06   28.3   4.6    59   121    53   114     2   133 0.77 -
ID=PSME_00023339     -            206 127464at3193         -            295   7.9e-07   30.1   4.5   1   1   8.8e-09   4.9e-06   27.5   4.4    20   108    70   167    52   201 0.67 -
ID=PSME_00055563     -            288 127464at3193         -            295     8e-07   30.1   0.1   1   1     2e-09   1.1e-06   29.7   0.1    24   143   139   263   124   270 0.78 -
ID=PSME_00056348     -            193 127464at3193         -            295   8.7e-07   30.0   4.7   1   2   2.4e-08   1.4e-05   26.1   1.6    21    85    58   124    40   139 0.83 -
ID=PSME_00056348     -            193 127464at3193         -            295   8.7e-07   30.0   4.7   2   2     0.062        35    5.1   0.1    25    54   137   168   128   174 0.82 -
ID=PSME_00044166     -            144 127464at3193         -            295     1e-06   29.8   0.1   1   1   2.6e-09   1.5e-06   29.3   0.1    68   119    70   120    59   142 0.77 -
ID=PSME_00010934     -            489 127464at3193         -            295   1.6e-06   29.1   0.3   1   1   5.1e-09   2.8e-06   28.3   0.3    56   121   269   337   265   363 0.80 -
ID=PSME_00015142     -            415 127464at3193         -            295   2.8e-06   28.3   0.0   1   1     7e-09   3.9e-06   27.9   0.0    55   155    52   157    42   218 0.74 -
ID=PSME_00016282     -            317 127464at3193         -            295   2.9e-06   28.3   3.4   1   1   6.5e-09   3.6e-06   28.0   3.4    17   118    78   172    56   233 0.73 -
ID=PSME_00042238     -            543 127464at3193         -            295     3e-06   28.2   0.1   1   1   9.8e-09   5.5e-06   27.4   0.1    42   112    30   101     6   131 0.78 -
ID=PSME_00044587     -            401 127464at3193         -            295   4.1e-06   27.8   3.7   1   1   1.1e-08   5.9e-06   27.3   3.7    28   117   147   248   122   280 0.69 -
ID=PSME_00056737     -            569 127464at3193         -            295   4.1e-06   27.8   1.8   1   1   7.8e-08   4.3e-05   24.4   1.8    30   119     9   112     2   134 0.69 -
ID=PSME_00028002     -            307 127464at3193         -            295   9.5e-06   26.6   0.1   1   1   2.3e-08   1.3e-05   26.2   0.1    18   115    74   182    61   230 0.77 -
ID=PSME_00029274     -            511 127464at3193         -            295   1.5e-05   25.9   3.7   1   1   4.6e-08   2.5e-05   25.2   3.7    42   138   392   491   359   509 0.72 -
ID=PSME_00001060     -            983 127464at3193         -            295   1.9e-05   25.6   5.5   1   3     0.013       7.5    7.2   0.0    49    95   216   266   196   276 0.81 -
ID=PSME_00001060     -            983 127464at3193         -            295   1.9e-05   25.6   5.5   2   3   3.7e-05     0.021   15.6   0.8    31   111   268   350   262   391 0.81 -
ID=PSME_00001060     -            983 127464at3193         -            295   1.9e-05   25.6   5.5   3   3      0.27   1.5e+02    3.0   0.0    36    90   407   465   391   494 0.72 -
ID=PSME_00002833     -           1041 127464at3193         -            295   2.1e-05   25.4   4.9   1   3     0.016       8.8    7.0   0.0    46    93   225   276   213   286 0.82 -
ID=PSME_00002833     -           1041 127464at3193         -            295   2.1e-05   25.4   4.9   2   3    0.0011      0.63   10.8   0.5    44   110   291   361   276   381 0.80 -
ID=PSME_00002833     -           1041 127464at3193         -            295   2.1e-05   25.4   4.9   3   3     0.019        11    6.7   0.1    36    93   419   480   400   504 0.79 -
ID=PSME_00002060     -            734 127464at3193         -            295   3.7e-05   24.6   0.2   1   2   1.8e-07    0.0001   23.2   0.1    19   114   410   516   397   546 0.73 -
ID=PSME_00002060     -            734 127464at3193         -            295   3.7e-05   24.6   0.2   2   2       5.3   2.9e+03   -1.3   0.0   208   248   517   558   509   562 0.76 -
ID=PSME_00045368     -            688 127464at3193         -            295   5.1e-05   24.2   0.1   1   1   1.8e-07    0.0001   23.2   0.1    41   109   493   573   458   581 0.71 -
ID=PSME_00001083     -            113 127464at3193         -            295   7.5e-05   23.6   0.2   1   1   1.6e-07   8.7e-05   23.4   0.2    36   114    13    96     5   111 0.81 -
ID=PSME_00000886     -            234 127464at3193         -            295   0.00011   23.0   2.3   1   2   5.5e-07    0.0003   21.7   1.7    37   110    10    90     2    95 0.83 -
ID=PSME_00000886     -            234 127464at3193         -            295   0.00011   23.0   2.3   2   2       0.1        56    4.4   0.0    63   116    77   132    73   144 0.72 -
ID=PSME_00030933     -            177 127464at3193         -            295   0.00029   21.7   0.0   1   1   6.5e-07   0.00036   21.4   0.0    28   112    71   158    47   174 0.75 -
ID=PSME_00018679     -            574 127464at3193         -            295    0.0003   21.7   9.4   1   1   5.2e-06    0.0029   18.4   9.4    10   136   397   543   390   564 0.66 -
ID=PSME_00034275     -            493 127464at3193         -            295   0.00037   21.4   7.6   1   3   2.5e-05     0.014   16.2   0.1    31   144    41   160    26   176 0.80 -
ID=PSME_00034275     -            493 127464at3193         -            295   0.00037   21.4   7.6   2   3      0.12        64    4.2   1.0    70   160   197   288   185   303 0.74 -
ID=PSME_00034275     -            493 127464at3193         -            295   0.00037   21.4   7.6   3   3     0.068        38    4.9   2.4    15   113   260   358   250   414 0.76 -
ID=PSME_00033433     -            172 127464at3193         -            295   0.00042   21.2  11.6   1   1   4.2e-06    0.0023   18.7  11.6    61   143    63   150     2   164 0.70 -
ID=PSME_00054114     -            637 127464at3193         -            295    0.0011   19.9   1.6   1   1   4.2e-06    0.0023   18.7   1.6     7   128    18   147    11   182 0.74 -
ID=PSME_00053983     -            637 127464at3193         -            295    0.0012   19.7   1.5   1   1   4.7e-06    0.0026   18.6   1.5     7   128    18   147    12   182 0.74 -
ID=PSME_00022468     -            259 127464at3193         -            295    0.0015   19.3   1.7   1   1   4.2e-06    0.0023   18.7   1.7    26   116   126   219   116   246 0.78 -
ID=PSME_00020951     -            353 127464at3193         -            295    0.0032   18.3   2.4   1   1     1e-05    0.0056   17.5   2.4    26   126   220   323   211   340 0.78 -
ID=PSME_00033435     -            194 127464at3193         -            295    0.0037   18.1  10.5   1   1   2.6e-05     0.014   16.2  10.5    61   139    63   145     3   183 0.71 -
ID=PSME_00008309     -            223 127464at3193         -            295    0.0043   17.9   1.8   1   1     2e-05     0.011   16.5   1.8    61   182    94   203    82   209 0.77 -
ID=PSME_00002115     -            612 127464at3193         -            295    0.0079   17.0   0.1   1   2   9.2e-05     0.051   14.3   0.0    45   107    42   109    39   130 0.81 -
ID=PSME_00002115     -            612 127464at3193         -            295    0.0079   17.0   0.1   2   2       7.4   4.1e+03   -1.8   0.0    70   122   478   503   471   527 0.58 -
ID=PSME_00001055     -            680 127464at3193         -            295     0.026   15.3  12.7   1   1   0.00024      0.14   13.0  12.7    12   173   382   565   375   572 0.59 -
ID=PSME_00029121     -            658 127464at3193         -            295     0.034   14.9   0.8   1   1   0.00013      0.07   13.9   0.8    12   117    85   204    74   224 0.71 -
ID=PSME_00041901     -            104 127464at3193         -            295     0.041   14.6   0.1   1   2       3.4   1.9e+03   -0.7   0.0    39    54     4    19     1    37 0.77 -
ID=PSME_00041901     -            104 127464at3193         -            295     0.041   14.6   0.1   2   2   0.00025      0.14   12.9   0.0    26    71    53   100    32   102 0.80 -
ID=PSME_00054282     -            317 127464at3193         -            295      0.05   14.4   0.5   1   2   0.00048      0.26   12.0   0.2    33    66   167   202   156   213 0.79 -
ID=PSME_00054282     -            317 127464at3193         -            295      0.05   14.4   0.5   2   2         2   1.1e+03    0.1   0.0   117   171   215   269   202   276 0.73 -
ID=PSME_00045865     -            820 127464at3193         -            295      0.09   13.5  27.3   1   3    0.0013       0.7   10.6  12.5    59   173   290   409   220   411 0.64 -
ID=PSME_00045865     -            820 127464at3193         -            295      0.09   13.5  27.3   2   3     0.006       3.3    8.4   0.0    14    55   440   479   429   487 0.82 -
ID=PSME_00045865     -            820 127464at3193         -            295      0.09   13.5  27.3   3   3      0.77   4.3e+02    1.5   1.4    90   136   718   768   704   807 0.54 -
ID=PSME_00001159     -             85 127464at3193         -            295      0.14   12.9   0.2   1   1   0.00026      0.15   12.8   0.2    72   118     9    58     3    78 0.74 -
ID=PSME_00015251     -           1127 127464at3193         -            295      0.41   11.4   0.1   1   1    0.0013      0.73   10.5   0.1    67   118     4    58     2    82 0.76 -
#
# Program:         hmmsearch
# Version:         3.2.1 (June 2018)
# Pipeline mode:   SEARCH
# Query file:      /isg/shared/databases/BUSCO/odb10/embryophyta_odb10/hmms/127464at3193.hmm
# Target file:     /labs/Wegrzyn/ConiferGenomes/Psme/analysis/SURF_annotation/analyze_orig_maker/gfacs/filtered/maker_genes.fasta.faa
# Option settings: /usr/local/bin/hmmsearch --domtblout /labs/Wegrzyn/ConiferGenomes/Psme/analysis/SURF_annotation/analyze_orig_maker/busco/maker/run_embryophyta_odb10/hmmer_output/127464at3193.out --cpu 1 /isg/shared/databases/BUSCO/odb10/embryophyta_odb10/hmms/127464at3193.hmm /labs/Wegrzyn/ConiferGenomes/Psme/analysis/SURF_annotation/analyze_orig_maker/gfacs/filtered/maker_genes.fasta.faa 
# Current dir:     /labs/Wegrzyn/ConiferGenomes/Psme/analysis/SURF_annotation/analyze_orig_maker/busco
# Date:            Fri Jul 10 13:42:21 2020
# [ok]
