#                                                                            --- full sequence --- -------------- this domain -------------   hmm coord   ali coord   env coord
# target name        accession   tlen query name           accession   qlen   E-value  score  bias   #  of  c-Evalue  i-Evalue  score  bias  from    to  from    to  from    to  acc description of target
#------------------- ---------- ----- -------------------- ---------- ----- --------- ------ ----- --- --- --------- --------- ------ ----- ----- ----- ----- ----- ----- ----- ---- ---------------------
ID=PSME_00002510     -            113 129063at3193         -            212   8.9e-31  108.7   0.2   1   2   9.2e-26   1.3e-21   78.8   0.1   107   159    20    75     5    77 0.92 -
ID=PSME_00002510     -            113 129063at3193         -            212   8.9e-31  108.7   0.2   2   2   1.2e-10   1.6e-06   29.4   0.0   181   211    76   113    75   113 0.92 -
ID=PSME_00015806     -            338 129063at3193         -            212   1.7e-14   55.5   0.0   1   1     2e-18   2.7e-14   54.8   0.0    11   210    86   303    79   305 0.82 -
ID=PSME_00014512     -            222 129063at3193         -            212   1.7e-08   35.9   0.0   1   1   1.7e-12   2.4e-08   35.4   0.0    22    94    74   156    59   159 0.78 -
ID=PSME_00043461     -            498 129063at3193         -            212      0.21   12.7   0.0   1   1   2.6e-05      0.36   12.0   0.0    23    88   416   481   409   496 0.81 -
#
# Program:         hmmsearch
# Version:         3.2.1 (June 2018)
# Pipeline mode:   SEARCH
# Query file:      /isg/shared/databases/BUSCO/odb10/embryophyta_odb10/hmms/129063at3193.hmm
# Target file:     /labs/Wegrzyn/ConiferGenomes/Psme/analysis/SURF_annotation/analyze_orig_maker/gfacs/filtered/maker_genes.fasta.faa
# Option settings: /usr/local/bin/hmmsearch --domtblout /labs/Wegrzyn/ConiferGenomes/Psme/analysis/SURF_annotation/analyze_orig_maker/busco/maker/run_embryophyta_odb10/hmmer_output/129063at3193.out --cpu 1 /isg/shared/databases/BUSCO/odb10/embryophyta_odb10/hmms/129063at3193.hmm /labs/Wegrzyn/ConiferGenomes/Psme/analysis/SURF_annotation/analyze_orig_maker/gfacs/filtered/maker_genes.fasta.faa 
# Current dir:     /labs/Wegrzyn/ConiferGenomes/Psme/analysis/SURF_annotation/analyze_orig_maker/busco
# Date:            Fri Jul 10 13:42:18 2020
# [ok]
