#                                                                            --- full sequence --- -------------- this domain -------------   hmm coord   ali coord   env coord
# target name        accession   tlen query name           accession   qlen   E-value  score  bias   #  of  c-Evalue  i-Evalue  score  bias  from    to  from    to  from    to  acc description of target
#------------------- ---------- ----- -------------------- ---------- ----- --------- ------ ----- --- --- --------- --------- ------ ----- ----- ----- ----- ----- ----- ----- ---- ---------------------
ID=PSME_00006592     -            643 12903at3193          -            834  1.2e-277  924.7   4.3   1   1  1.1e-280  1.5e-277  924.4   4.3   352   833    30   522     5   523 0.95 -
ID=PSME_00020794     -            300 12903at3193          -            834   7.5e-18   65.3   0.1   1   1   8.1e-21   1.1e-17   64.7   0.1   389   446   199   256   182   270 0.87 -
ID=PSME_00022617     -            610 12903at3193          -            834   2.4e-07   30.5   0.0   1   2   1.7e-05     0.023   14.0   0.0   764   831    11    79     2    82 0.86 -
ID=PSME_00022617     -            610 12903at3193          -            834   2.4e-07   30.5   0.0   2   2   1.3e-05     0.018   14.4   0.0   764   831   209   277   196   280 0.84 -
ID=PSME_00029754     -            283 12903at3193          -            834   6.1e-07   29.2   0.1   1   1   5.8e-10     8e-07   28.8   0.1   753   833   190   273   144   274 0.80 -
ID=PSME_00027196     -            247 12903at3193          -            834   1.1e-06   28.4   0.0   1   1   9.4e-10   1.3e-06   28.1   0.0   407   433   147   173    79   181 0.78 -
ID=PSME_00056516     -            433 12903at3193          -            834   6.3e-06   25.8   0.0   1   1   7.3e-09     1e-05   25.2   0.0   764   832    20    88    13    90 0.89 -
ID=PSME_00035030     -            312 12903at3193          -            834   6.9e-06   25.7   0.0   1   1   6.3e-09   8.6e-06   25.4   0.0   762   833   231   302   182   303 0.83 -
ID=PSME_00037843     -            486 12903at3193          -            834   1.4e-05   24.7   0.0   1   1   1.6e-08   2.2e-05   24.1   0.0   764   833    93   162    57   163 0.86 -
ID=PSME_00010747     -            579 12903at3193          -            834   1.7e-05   24.4   0.0   1   1   1.8e-08   2.5e-05   23.9   0.0   763   833   499   569   461   570 0.87 -
ID=PSME_00043036     -            417 12903at3193          -            834   3.9e-05   23.2   0.0   1   1   3.9e-08   5.4e-05   22.8   0.0   764   831     8    81     2    84 0.72 -
ID=PSME_00019929     -            661 12903at3193          -            834   4.3e-05   23.1   0.0   1   1   4.8e-08   6.5e-05   22.5   0.0   765   832   278   345   270   347 0.89 -
ID=PSME_00003765     -            834 12903at3193          -            834   5.6e-05   22.7   0.0   1   1   6.4e-08   8.8e-05   22.1   0.0   735   832   213   311   196   313 0.82 -
ID=PSME_00055429     -            501 12903at3193          -            834     9e-05   22.0   0.0   1   1     1e-07   0.00014   21.4   0.0   765   832   124   191   111   193 0.85 -
ID=PSME_00028986     -            164 12903at3193          -            834   0.00011   21.7   0.0   1   1   1.1e-07   0.00015   21.3   0.0   764   831     8    81     2    84 0.77 -
ID=PSME_00045658     -            790 12903at3193          -            834   0.00012   21.7   0.0   1   1   1.1e-07   0.00015   21.3   0.0   649   829   158   337    74   342 0.77 -
ID=PSME_00043034     -             68 12903at3193          -            834   0.00013   21.5   0.0   1   1   9.8e-08   0.00013   21.5   0.0   764   807     8    50     2    66 0.77 -
ID=PSME_00042770     -            363 12903at3193          -            834   0.00013   21.5   0.0   1   1   1.4e-07   0.00019   21.0   0.0   764   831     8    81     2    84 0.72 -
ID=PSME_00054982     -            488 12903at3193          -            834   0.00019   21.0   0.0   1   1   1.9e-07   0.00026   20.5   0.0   764   832    94   162    72   164 0.88 -
ID=PSME_00046770     -            729 12903at3193          -            834    0.0002   20.9   0.0   1   2   0.00016      0.22   10.9   0.0   762   831    29    98    22   101 0.87 -
ID=PSME_00046770     -            729 12903at3193          -            834    0.0002   20.9   0.0   2   2    0.0013       1.7    7.9   0.0   761   806   405   448   356   462 0.72 -
ID=PSME_00016710     -            699 12903at3193          -            834   0.00025   20.5   0.1   1   2       2.8   3.9e+03   -3.2   0.0   218   255   127   163   102   166 0.69 -
ID=PSME_00016710     -            699 12903at3193          -            834   0.00025   20.5   0.1   2   2   4.1e-07   0.00056   19.4   0.0   764   832   271   339   248   341 0.83 -
ID=PSME_00034867     -            425 12903at3193          -            834   0.00028   20.4   0.0   1   1   2.6e-07   0.00036   20.0   0.0   759   831     3    81     1    84 0.71 -
ID=PSME_00048711     -            761 12903at3193          -            834   0.00028   20.4   0.0   1   1   2.7e-07   0.00037   20.0   0.0   764   833   171   240   132   241 0.85 -
ID=PSME_00044258     -            511 12903at3193          -            834   0.00041   19.8   0.0   1   1   4.4e-07   0.00061   19.3   0.0   764   832   125   193   114   195 0.88 -
ID=PSME_00043035     -            339 12903at3193          -            834   0.00074   19.0   0.0   1   1   7.1e-07   0.00097   18.6   0.0   764   831     8    81     2    84 0.71 -
ID=PSME_00048709     -            314 12903at3193          -            834    0.0017   17.8   0.0   1   1   1.6e-06    0.0022   17.4   0.0   751   831    39   122    21   125 0.78 -
ID=PSME_00038876     -            357 12903at3193          -            834     0.002   17.6   0.0   1   1   2.1e-06    0.0028   17.1   0.0   763   831    10    84     1    87 0.70 -
ID=PSME_00049379     -            402 12903at3193          -            834    0.0021   17.5   0.0   1   1   2.8e-06    0.0039   16.6   0.0   764   831    17    84     4    87 0.86 -
ID=PSME_00020919     -            638 12903at3193          -            834    0.0025   17.3   0.0   1   1   3.4e-06    0.0046   16.4   0.0   765   831   318   384   305   387 0.90 -
ID=PSME_00056761     -            416 12903at3193          -            834    0.0042   16.5   0.0   1   1   4.8e-06    0.0066   15.9   0.0   761   831    14    84     7    87 0.89 -
ID=PSME_00026185     -            687 12903at3193          -            834     0.005   16.3   0.0   1   1   4.4e-06    0.0061   16.0   0.0   761   831   164   237    53   240 0.81 -
ID=PSME_00052188     -            141 12903at3193          -            834    0.0065   15.9   0.0   1   1   5.8e-06     0.008   15.6   0.0   769   831    22    84     7    87 0.89 -
ID=PSME_00036283     -            253 12903at3193          -            834    0.0067   15.8   0.0   1   1   7.6e-06      0.01   15.2   0.0   764   831    25    92     8    95 0.84 -
ID=PSME_00049378     -            364 12903at3193          -            834    0.0094   15.3   0.0   1   1   1.1e-05     0.015   14.7   0.0   764   831    17    84     5    87 0.88 -
ID=PSME_00043995     -            404 12903at3193          -            834     0.013   14.8   0.0   1   1   1.5e-05     0.021   14.2   0.0   765   831    18    84     6    87 0.88 -
ID=PSME_00052561     -           1011 12903at3193          -            834     0.015   14.6   0.1   1   2       2.3   3.2e+03   -2.9   0.3   356   391   201   236   174   241 0.78 -
ID=PSME_00052561     -           1011 12903at3193          -            834     0.015   14.6   0.1   2   2   2.7e-05     0.037   13.4   0.0   766   831   255   320   249   323 0.90 -
ID=PSME_00016214     -            799 12903at3193          -            834      0.02   14.3   0.0   1   1   2.5e-05     0.035   13.5   0.0   756   806   270   318   250   347 0.74 -
ID=PSME_00046041     -            419 12903at3193          -            834     0.088   12.1   0.0   1   1   8.9e-05      0.12   11.7   0.0   764   831     9    76     2    79 0.87 -
ID=PSME_00012832     -            953 12903at3193          -            834      0.12   11.7   0.0   1   1   0.00014      0.19   11.0   0.0   766   831   868   932   840   936 0.86 -
ID=PSME_00056652     -            292 12903at3193          -            834      0.15   11.4   0.0   1   1   0.00016      0.21   10.9   0.0   764   831    11    79     1    82 0.81 -
ID=PSME_00016342     -            847 12903at3193          -            834      0.34   10.2   0.0   1   1   0.00044      0.61    9.4   0.0   756   831   282   358   271   361 0.82 -
#
# Program:         hmmsearch
# Version:         3.2.1 (June 2018)
# Pipeline mode:   SEARCH
# Query file:      /isg/shared/databases/BUSCO/odb10/embryophyta_odb10/hmms/12903at3193.hmm
# Target file:     /labs/Wegrzyn/ConiferGenomes/Psme/analysis/SURF_annotation/analyze_orig_maker/gfacs/filtered/maker_genes.fasta.faa
# Option settings: /usr/local/bin/hmmsearch --domtblout /labs/Wegrzyn/ConiferGenomes/Psme/analysis/SURF_annotation/analyze_orig_maker/busco/maker/run_embryophyta_odb10/hmmer_output/12903at3193.out --cpu 1 /isg/shared/databases/BUSCO/odb10/embryophyta_odb10/hmms/12903at3193.hmm /labs/Wegrzyn/ConiferGenomes/Psme/analysis/SURF_annotation/analyze_orig_maker/gfacs/filtered/maker_genes.fasta.faa 
# Current dir:     /labs/Wegrzyn/ConiferGenomes/Psme/analysis/SURF_annotation/analyze_orig_maker/busco
# Date:            Fri Jul 10 13:42:20 2020
# [ok]
