#                                                                            --- full sequence --- -------------- this domain -------------   hmm coord   ali coord   env coord
# target name        accession   tlen query name           accession   qlen   E-value  score  bias   #  of  c-Evalue  i-Evalue  score  bias  from    to  from    to  from    to  acc description of target
#------------------- ---------- ----- -------------------- ---------- ----- --------- ------ ----- --- --- --------- --------- ------ ----- ----- ----- ----- ----- ----- ----- ---- ---------------------
ID=PSME_00011273     -            337 129879at3193         -            280   3.2e-33  116.8   0.0   1   1   4.7e-36   4.3e-33  116.4   0.0    45   273    95   334    66   336 0.89 -
ID=PSME_00037048     -            151 129879at3193         -            280   6.9e-30  105.9   6.7   1   2   1.1e-10     1e-07   33.2   0.1    36    72    29    69    25    70 0.89 -
ID=PSME_00037048     -            151 129879at3193         -            280   6.9e-30  105.9   6.7   2   2   1.3e-21   1.2e-18   69.0   3.3   104   163    69   147    68   149 0.78 -
ID=PSME_00002822     -            797 129879at3193         -            280   4.3e-26   93.4   2.1   1   3   2.6e-17   2.4e-14   54.9   0.0    44   124    16    99    12   103 0.95 -
ID=PSME_00002822     -            797 129879at3193         -            280   4.3e-26   93.4   2.1   2   3   3.4e-10   3.1e-07   31.5   1.5   131   240   512   649   504   676 0.72 -
ID=PSME_00002822     -            797 129879at3193         -            280   4.3e-26   93.4   2.1   3   3       3.2   2.9e+03   -1.1   0.0   239   275   683   720   659   723 0.84 -
ID=PSME_00006674     -            336 129879at3193         -            280   2.2e-24   87.8   0.0   1   1   4.6e-27   4.2e-24   86.9   0.0    44   273   103   334    76   336 0.88 -
ID=PSME_00006237     -            403 129879at3193         -            280     1e-23   85.6   0.0   1   2   4.7e-19   4.3e-16   60.6   0.0    44   147   180   285   157   299 0.87 -
ID=PSME_00006237     -            403 129879at3193         -            280     1e-23   85.6   0.0   2   2   1.3e-07   0.00012   23.1   0.0   180   273   300   400   291   402 0.84 -
ID=PSME_00007820     -            755 129879at3193         -            280   2.6e-21   77.7   0.0   1   1     3e-21   2.7e-18   67.8   0.0    47   266    90   300    64   307 0.85 -
ID=PSME_00034444     -            305 129879at3193         -            280   3.6e-21   77.3   0.0   1   2   3.3e-21     3e-18   67.7   0.0    48   183    98   234    71   249 0.90 -
ID=PSME_00034444     -            305 129879at3193         -            280   3.6e-21   77.3   0.0   2   2    0.0021       1.9    9.3   0.0   203   273   233   302   230   304 0.80 -
ID=PSME_00011790     -            229 129879at3193         -            280   3.5e-20   74.0   0.0   1   2   1.1e-16   9.8e-14   52.9   0.0    52   149    22   121    14   133 0.87 -
ID=PSME_00011790     -            229 129879at3193         -            280   3.5e-20   74.0   0.0   2   2   1.5e-06    0.0014   19.6   0.0   180   266   134   227   126   229 0.82 -
ID=PSME_00029790     -            197 129879at3193         -            280   2.3e-18   68.1   0.0   1   1     3e-21   2.8e-18   67.8   0.0    95   273     8   194     5   196 0.87 -
ID=PSME_00038614     -            195 129879at3193         -            280   3.1e-18   67.7   0.1   1   1     4e-21   3.7e-18   67.4   0.1    15   148    38   169    26   187 0.82 -
ID=PSME_00023076     -            399 129879at3193         -            280     4e-18   67.3   0.0   1   2     9e-20   8.2e-17   63.0   0.0    44   161    93   212    64   224 0.85 -
ID=PSME_00023076     -            399 129879at3193         -            280     4e-18   67.3   0.0   2   2      0.55     5e+02    1.4   0.0   242   267   254   279   229   284 0.86 -
ID=PSME_00023731     -            237 129879at3193         -            280     8e-18   66.3   0.1   1   1   1.1e-20     1e-17   66.0   0.1    42   149   103   212    57   230 0.84 -
ID=PSME_00041451     -            274 129879at3193         -            280   1.3e-17   65.6   0.1   1   1   3.3e-20     3e-17   64.4   0.1    44   149   142   249   113   267 0.84 -
ID=PSME_00018994     -            207 129879at3193         -            280     5e-17   63.7   0.1   1   1   8.6e-20   7.8e-17   63.0   0.1    44   148    56   162    18   182 0.84 -
ID=PSME_00023495     -            191 129879at3193         -            280   5.5e-17   63.5   0.1   1   1   6.9e-20   6.3e-17   63.4   0.1    44   146    59   163    25   181 0.89 -
ID=PSME_00013670     -            239 129879at3193         -            280   7.2e-17   63.2   0.1   1   1   1.1e-19   9.8e-17   62.7   0.1    33   148    92   213    54   231 0.80 -
ID=PSME_00028280     -            241 129879at3193         -            280   1.3e-16   62.4   0.0   1   1   1.9e-19   1.7e-16   61.9   0.0    95   272    52   237    44   239 0.88 -
ID=PSME_00020681     -            210 129879at3193         -            280   1.7e-16   62.0   0.0   1   1   2.2e-19     2e-16   61.7   0.0    47   145    81   181    49   196 0.89 -
ID=PSME_00016420     -            296 129879at3193         -            280   2.2e-16   61.6   0.0   1   2   2.3e-18   2.1e-15   58.3   0.1    44   145   105   207    57   222 0.83 -
ID=PSME_00016420     -            296 129879at3193         -            280   2.2e-16   61.6   0.0   2   2      0.69   6.3e+02    1.0   0.0   243   273   263   293   258   295 0.87 -
ID=PSME_00018050     -            207 129879at3193         -            280     3e-15   57.9   0.0   1   1   4.5e-18   4.1e-15   57.4   0.0    95   273     8   204     5   206 0.83 -
ID=PSME_00015614     -            267 129879at3193         -            280   1.1e-13   52.7   0.1   1   2   1.8e-09   1.6e-06   29.2   0.1    42    95   119   172    93   176 0.85 -
ID=PSME_00015614     -            267 129879at3193         -            280   1.1e-13   52.7   0.1   2   2   4.1e-07   0.00037   21.5   0.0    95   145   198   253   188   266 0.78 -
ID=PSME_00010619     -            113 129879at3193         -            280   5.8e-13   50.4   0.0   1   1   6.9e-16   6.3e-13   50.2   0.0    63   150     1    90     1   107 0.88 -
ID=PSME_00003501     -            113 129879at3193         -            280   1.3e-12   49.2   0.0   1   1   1.5e-15   1.4e-12   49.1   0.0    63   146     1    86     1   104 0.89 -
ID=PSME_00052091     -            113 129879at3193         -            280   1.3e-12   49.2   0.0   1   1   1.5e-15   1.4e-12   49.1   0.0    63   158     1    98     1   109 0.87 -
ID=PSME_00050984     -            113 129879at3193         -            280   1.8e-12   48.7   0.0   1   1   2.1e-15   1.9e-12   48.7   0.0    63   148     1    88     1   107 0.88 -
ID=PSME_00044403     -            180 129879at3193         -            280   2.8e-12   48.1   0.1   1   2   1.3e-14   1.2e-11   46.1   0.1    95   216     8   132     4   155 0.85 -
ID=PSME_00044403     -            180 129879at3193         -            280   2.8e-12   48.1   0.1   2   2       1.3   1.2e+03    0.1   0.0   247   272   151   176   145   178 0.87 -
ID=PSME_00006698     -            113 129879at3193         -            280   3.2e-12   47.9   0.0   1   1   3.8e-15   3.4e-12   47.8   0.0    63   158     1    98     1   108 0.89 -
ID=PSME_00018322     -            113 129879at3193         -            280   6.8e-12   46.8   0.0   1   1   7.8e-15   7.2e-12   46.8   0.0    63   147     1    87     1   107 0.86 -
ID=PSME_00049113     -            116 129879at3193         -            280   6.9e-12   46.8   0.0   1   1   8.4e-15   7.7e-12   46.7   0.0    62   146     2    88     1   103 0.89 -
ID=PSME_00005170     -            113 129879at3193         -            280   9.1e-12   46.4   0.0   1   1   1.1e-14   9.8e-12   46.3   0.0    65   149     2    88     1   106 0.87 -
ID=PSME_00001382     -            112 129879at3193         -            280   1.6e-11   45.6   0.0   1   1     2e-14   1.8e-11   45.5   0.0    68   146     4    84     1   104 0.86 -
ID=PSME_00039605     -            114 129879at3193         -            280   4.7e-11   44.1   0.0   1   1   5.4e-14     5e-11   44.0   0.0    65   149     3    89     1   107 0.87 -
ID=PSME_00039955     -            112 129879at3193         -            280   5.8e-11   43.8   0.0   1   1   7.2e-14   6.6e-11   43.6   0.0    68   145     4    83     1    91 0.90 -
ID=PSME_00008827     -            181 129879at3193         -            280   6.2e-11   43.7   0.0   1   1   8.2e-14   7.5e-11   43.4   0.0    61   158    67   166    52   176 0.86 -
ID=PSME_00045492     -            255 129879at3193         -            280   7.8e-11   43.4   0.1   1   1   1.8e-10   1.7e-07   32.5   0.1    95   236    79   251    72   252 0.70 -
ID=PSME_00021188     -            273 129879at3193         -            280     1e-10   43.0   0.2   1   2   3.3e-06     0.003   18.5   0.0    95   121    97   123    89   132 0.91 -
ID=PSME_00021188     -            273 129879at3193         -            280     1e-10   43.0   0.2   2   2   2.1e-07   0.00019   22.4   0.1   128   236   153   269   138   270 0.83 -
ID=PSME_00047102     -            255 129879at3193         -            280   1.1e-10   42.9   0.4   1   2     8e-06    0.0073   17.2   0.0    95   121    79   105    73   116 0.90 -
ID=PSME_00047102     -            255 129879at3193         -            280   1.1e-10   42.9   0.4   2   2   7.1e-08   6.5e-05   23.9   0.1   116   236   122   251   110   252 0.81 -
ID=PSME_00021609     -            446 129879at3193         -            280   2.1e-10   42.0   0.2   1   2   1.7e-05     0.015   16.2   0.0    95   120   270   295   262   303 0.91 -
ID=PSME_00021609     -            446 129879at3193         -            280   2.1e-10   42.0   0.2   2   2   8.3e-08   7.5e-05   23.7   0.1   117   236   314   442   303   443 0.79 -
ID=PSME_00036212     -            113 129879at3193         -            280   2.4e-10   41.8   0.0   1   1   2.8e-13   2.6e-10   41.7   0.0    63   149     1    89     1   107 0.88 -
ID=PSME_00027920     -            222 129879at3193         -            280   4.9e-10   40.8   0.8   1   3       5.9   5.4e+03   -2.0   0.0   193   219    73    99    54   105 0.60 -
ID=PSME_00027920     -            222 129879at3193         -            280   4.9e-10   40.8   0.8   2   3   1.9e-12   1.7e-09   38.9   0.0   208   271   110   173   109   182 0.96 -
ID=PSME_00027920     -            222 129879at3193         -            280   4.9e-10   40.8   0.8   3   3       5.1   4.7e+03   -1.8   0.0    47    71   178   202   174   205 0.80 -
ID=PSME_00038148     -            112 129879at3193         -            280   2.1e-09   38.7   0.0   1   1   2.6e-12   2.3e-09   38.5   0.0    68   160     4    98     1   108 0.86 -
ID=PSME_00027921     -            246 129879at3193         -            280   1.2e-08   36.2   0.0   1   1   2.2e-11     2e-08   35.5   0.0   210   271   154   215   151   224 0.94 -
ID=PSME_00029789     -            349 129879at3193         -            280   1.3e-08   36.1   0.2   1   1   1.3e-08   1.2e-05   26.3   0.2    95   236   173   345   165   346 0.62 -
ID=PSME_00045883     -            252 129879at3193         -            280   2.3e-08   35.3   0.1   1   1   4.2e-08   3.8e-05   24.7   0.1    95   236    76   248    65   249 0.66 -
ID=PSME_00051324     -             86 129879at3193         -            280   1.6e-06   29.2   0.0   1   1     2e-09   1.8e-06   29.0   0.0    95   150     8    62     5    80 0.84 -
ID=PSME_00049421     -            116 129879at3193         -            280   2.2e-06   28.8   0.0   1   1   2.8e-09   2.6e-06   28.6   0.0    95   149    38    91    31   109 0.84 -
ID=PSME_00040550     -             86 129879at3193         -            280   2.3e-06   28.7   0.0   1   1   2.9e-09   2.7e-06   28.5   0.0    95   149     8    61     5    78 0.84 -
ID=PSME_00040551     -            112 129879at3193         -            280   7.6e-06   27.0   0.0   1   1   9.2e-09   8.4e-06   26.9   0.0   180   273     9   109     3   111 0.84 -
ID=PSME_00047033     -            115 129879at3193         -            280   9.1e-06   26.7   0.0   1   1     2e-08   1.8e-05   25.8   0.0    95   156     8    68     5    74 0.83 -
ID=PSME_00018690     -            273 129879at3193         -            280   9.9e-06   26.6   0.0   1   2   6.6e-05     0.061   14.2   0.2    44    75   103   134    57   142 0.73 -
ID=PSME_00018690     -            273 129879at3193         -            280   9.9e-06   26.6   0.0   2   2    0.0012       1.1   10.0   0.0   180   271   173   271   166   272 0.80 -
ID=PSME_00005110     -            206 129879at3193         -            280     3e-05   25.0   0.0   1   1   4.8e-08   4.3e-05   24.5   0.0    95   147   128   179   119   193 0.84 -
ID=PSME_00053531     -             60 129879at3193         -            280   5.5e-05   24.2   0.0   1   1   6.4e-08   5.8e-05   24.1   0.0    95   138     8    50     4    58 0.83 -
ID=PSME_00042962     -            186 129879at3193         -            280    0.0001   23.3   0.0   1   1   1.7e-07   0.00016   22.7   0.0    94   121    83   110    66   127 0.91 -
ID=PSME_00052720     -            125 129879at3193         -            280    0.0001   23.3   0.0   1   1   1.4e-07   0.00013   23.0   0.0   128   236     6   122     4   123 0.80 -
ID=PSME_00052814     -            111 129879at3193         -            280   0.00015   22.7   0.0   1   1   1.8e-07   0.00016   22.6   0.0    63   144     1    82     1    97 0.79 -
ID=PSME_00036806     -             87 129879at3193         -            280    0.0002   22.3   0.0   1   1   2.4e-07   0.00021   22.2   0.0    95   141     9    54     2    78 0.81 -
ID=PSME_00010430     -            169 129879at3193         -            280    0.0085   17.0   0.0   1   1   1.2e-05     0.011   16.7   0.0    43    92   120   169    73   169 0.77 -
ID=PSME_00027879     -            405 129879at3193         -            280      0.17   12.7   0.3   1   1   0.00032       0.3   11.9   0.3    41   105    48   106    22   125 0.80 -
ID=PSME_00020848     -           1421 129879at3193         -            280      0.42   11.4   0.3   1   2     0.064        59    4.4   0.0    69   110   215   256   203   281 0.79 -
ID=PSME_00020848     -           1421 129879at3193         -            280      0.42   11.4   0.3   2   2     0.053        49    4.7   0.1    69   105   882   918   870   936 0.85 -
ID=PSME_00011939     -            825 129879at3193         -            280      0.47   11.3   0.1   1   1    0.0011      0.97   10.3   0.1    69   107   194   232   177   249 0.84 -
#
# Program:         hmmsearch
# Version:         3.2.1 (June 2018)
# Pipeline mode:   SEARCH
# Query file:      /isg/shared/databases/BUSCO/odb10/embryophyta_odb10/hmms/129879at3193.hmm
# Target file:     /labs/Wegrzyn/ConiferGenomes/Psme/analysis/SURF_annotation/analyze_orig_maker/gfacs/filtered/maker_genes.fasta.faa
# Option settings: /usr/local/bin/hmmsearch --domtblout /labs/Wegrzyn/ConiferGenomes/Psme/analysis/SURF_annotation/analyze_orig_maker/busco/maker/run_embryophyta_odb10/hmmer_output/129879at3193.out --cpu 1 /isg/shared/databases/BUSCO/odb10/embryophyta_odb10/hmms/129879at3193.hmm /labs/Wegrzyn/ConiferGenomes/Psme/analysis/SURF_annotation/analyze_orig_maker/gfacs/filtered/maker_genes.fasta.faa 
# Current dir:     /labs/Wegrzyn/ConiferGenomes/Psme/analysis/SURF_annotation/analyze_orig_maker/busco
# Date:            Fri Jul 10 13:42:22 2020
# [ok]
