#                                                                            --- full sequence --- -------------- this domain -------------   hmm coord   ali coord   env coord
# target name        accession   tlen query name           accession   qlen   E-value  score  bias   #  of  c-Evalue  i-Evalue  score  bias  from    to  from    to  from    to  acc description of target
#------------------- ---------- ----- -------------------- ---------- ----- --------- ------ ----- --- --- --------- --------- ------ ----- ----- ----- ----- ----- ----- ----- ---- ---------------------
ID=PSME_00035013     -            547 131839at3193         -            198  3.2e-134  446.1   8.3   1   3     6e-63   9.6e-61  206.3   0.3     1   138     1   138     1   151 0.94 -
ID=PSME_00035013     -            547 131839at3193         -            198  3.2e-134  446.1   8.3   2   3   4.3e-21   6.9e-19   69.6   0.2    43   102   219   279   199   306 0.84 -
ID=PSME_00035013     -            547 131839at3193         -            198  3.2e-134  446.1   8.3   3   3   3.7e-53   5.9e-51  174.3   0.2     1   121   401   521   401   536 0.95 -
ID=PSME_00017376     -            407 131839at3193         -            198     7e-87  291.6   2.1   1   2   5.9e-86   9.4e-84  281.4   0.3    44   194    35   182    28   185 0.90 -
ID=PSME_00017376     -            407 131839at3193         -            198     7e-87  291.6   2.1   2   2    0.0093       1.5    9.8   0.1   183   198   387   402   380   402 0.89 -
ID=PSME_00010774     -            380 131839at3193         -            198   2.2e-82  276.9   9.0   1   2   7.4e-30   1.2e-27   98.2   0.6     3    87     2    86     1    94 0.97 -
ID=PSME_00010774     -            380 131839at3193         -            198   2.2e-82  276.9   9.0   2   2   9.9e-56   1.6e-53  182.7   2.2     1   117   102   219   102   229 0.96 -
ID=PSME_00049990     -            446 131839at3193         -            198     4e-78  263.0   0.2   1   1   3.9e-80   6.2e-78  262.4   0.2     1   160    46   207    46   214 0.95 -
ID=PSME_00004494     -            359 131839at3193         -            198   1.9e-73  247.7   4.3   1   2   3.3e-38   5.3e-36  125.5   0.2     1    98     2   103     2   104 0.91 -
ID=PSME_00004494     -            359 131839at3193         -            198   1.9e-73  247.7   4.3   2   2   2.1e-38   3.4e-36  126.1   0.4    45   117   103   175   102   193 0.94 -
ID=PSME_00049306     -            516 131839at3193         -            198   4.1e-72  243.4   0.1   1   1   3.8e-74   6.1e-72  242.8   0.1     1   174    16   196    16   220 0.86 -
ID=PSME_00028766     -            414 131839at3193         -            198   3.7e-70  237.0   0.7   1   1   3.9e-72   6.3e-70  236.2   0.7     1   128    23   150    23   156 0.99 -
ID=PSME_00045716     -            366 131839at3193         -            198     7e-70  236.1   0.5   1   1   6.3e-72     1e-69  235.6   0.5     1   139    41   179    41   205 0.92 -
ID=PSME_00041772     -            450 131839at3193         -            198   2.5e-69  234.2   0.2   1   1   8.4e-71   1.3e-68  231.9   0.1     1   149     1   153     1   163 0.91 -
ID=PSME_00028312     -            332 131839at3193         -            198   3.8e-69  233.7   0.8   1   1   4.5e-71   7.2e-69  232.8   0.8     1   135     1   135     1   155 0.96 -
ID=PSME_00021697     -            630 131839at3193         -            198   2.2e-68  231.2   0.3   1   1   2.2e-70   3.5e-68  230.5   0.3     1   131   140   270   140   304 0.93 -
ID=PSME_00018496     -            481 131839at3193         -            198     4e-68  230.3   0.5   1   1   4.4e-70     7e-68  229.6   0.5     1   130    12   141    12   160 0.96 -
ID=PSME_00030815     -            411 131839at3193         -            198     2e-65  221.6   0.4   1   1   1.9e-67   3.1e-65  220.9   0.4     1   135     1   135     1   170 0.95 -
ID=PSME_00020880     -            331 131839at3193         -            198   2.7e-65  221.1   0.1   1   1   2.4e-67   3.8e-65  220.6   0.1     1   133    42   174    42   196 0.97 -
ID=PSME_00035153     -            494 131839at3193         -            198   1.9e-64  218.4   0.5   1   1   1.7e-66   2.7e-64  217.8   0.5     1   133    10   142    10   191 0.89 -
ID=PSME_00010958     -            388 131839at3193         -            198     3e-64  217.7   0.2   1   1   3.3e-66   5.3e-64  216.9   0.2     1   131     1   131     1   137 0.99 -
ID=PSME_00041780     -            235 131839at3193         -            198   5.2e-64  216.9   0.3   1   1   3.2e-66   5.2e-64  216.9   0.3     1   129     1   129     1   142 0.99 -
ID=PSME_00051633     -            394 131839at3193         -            198     2e-63  215.0   0.3   1   1   2.1e-65   3.3e-63  214.3   0.3     1   131     1   131     1   136 0.99 -
ID=PSME_00031995     -            200 131839at3193         -            198   3.9e-63  214.1   0.8   1   1   3.1e-65     5e-63  213.7   0.8     1   129     1   129     1   135 0.99 -
ID=PSME_00045928     -            197 131839at3193         -            198   6.4e-63  213.4   0.4   1   1     5e-65   8.1e-63  213.0   0.4     1   129     7   135     7   138 0.99 -
ID=PSME_00001482     -            372 131839at3193         -            198   7.2e-63  213.2   0.3   1   1   5.8e-65   9.4e-63  212.8   0.3     1   133    24   156    24   214 0.94 -
ID=PSME_00052652     -            257 131839at3193         -            198   1.4e-62  212.3   0.2   1   1     1e-64   1.6e-62  212.0   0.2     1   170     1   170     1   192 0.91 -
ID=PSME_00052982     -            206 131839at3193         -            198   1.5e-62  212.2   0.2   1   1   1.1e-64   1.8e-62  211.9   0.2     1   149     1   150     1   159 0.94 -
ID=PSME_00042065     -            200 131839at3193         -            198   1.5e-62  212.1   0.8   1   1   1.2e-64   1.9e-62  211.8   0.8     1   129     1   129     1   132 0.99 -
ID=PSME_00041883     -            390 131839at3193         -            198   1.8e-62  211.9   0.2   1   1   1.7e-64   2.7e-62  211.3   0.2     1   130     1   130     1   151 0.98 -
ID=PSME_00044287     -            577 131839at3193         -            198     2e-62  211.7   0.1   1   1   2.2e-64   3.6e-62  210.9   0.1     1   129   186   315   186   343 0.93 -
ID=PSME_00043807     -            558 131839at3193         -            198   4.2e-62  210.7   1.3   1   1   4.6e-64   7.3e-62  209.9   1.3     1   138   101   238   101   254 0.96 -
ID=PSME_00042627     -            357 131839at3193         -            198   4.2e-62  210.7   0.1   1   1   4.3e-64     7e-62  210.0   0.1     1   129     2   130     2   159 0.96 -
ID=PSME_00002485     -            257 131839at3193         -            198     5e-62  210.4   0.1   1   1   4.1e-64   6.6e-62  210.1   0.1     1   131     1   131     1   158 0.96 -
ID=PSME_00029787     -            200 131839at3193         -            198   5.3e-62  210.4   0.6   1   1   4.3e-64   6.9e-62  210.0   0.6     1   129     1   129     1   135 0.99 -
ID=PSME_00026452     -            417 131839at3193         -            198   5.3e-62  210.3   0.1   1   1   5.2e-64   8.4e-62  209.7   0.1     1   130    72   201    72   207 0.99 -
ID=PSME_00052883     -            199 131839at3193         -            198   5.8e-62  210.2   0.2   1   1   4.7e-64   7.5e-62  209.9   0.2     1   128     1   128     1   133 0.98 -
ID=PSME_00050636     -            253 131839at3193         -            198   6.5e-62  210.1   0.1   1   1   4.5e-64   7.3e-62  209.9   0.1     1   142     1   144     1   191 0.92 -
ID=PSME_00053331     -            357 131839at3193         -            198     1e-61  209.5   0.1   1   1   1.1e-63   1.8e-61  208.6   0.1     1   129     2   130     2   152 0.97 -
ID=PSME_00051562     -            389 131839at3193         -            198     1e-61  209.4   0.3   1   1   8.7e-64   1.4e-61  209.0   0.3     1   157     1   163     1   189 0.88 -
ID=PSME_00042064     -            250 131839at3193         -            198     1e-61  209.4   0.2   1   1   8.5e-64   1.4e-61  209.0   0.2     1   131     1   131     1   146 0.98 -
ID=PSME_00052842     -            455 131839at3193         -            198   1.1e-61  209.3   0.1   1   1     1e-63   1.6e-61  208.8   0.1     1   131     1   131     1   149 0.97 -
ID=PSME_00027930     -            236 131839at3193         -            198   1.1e-61  209.3   0.3   1   1   8.6e-64   1.4e-61  209.0   0.3     1   131     1   131     1   147 0.98 -
ID=PSME_00051767     -            213 131839at3193         -            198   3.1e-61  207.8   0.2   1   1   2.4e-63   3.8e-61  207.6   0.2     1   131     1   131     1   160 0.96 -
ID=PSME_00022392     -            439 131839at3193         -            198   3.4e-61  207.7   0.2   1   1   3.3e-63   5.2e-61  207.1   0.2     1   131     1   131     1   148 0.98 -
ID=PSME_00052114     -            357 131839at3193         -            198   3.7e-61  207.6   0.2   1   1   3.2e-63   5.1e-61  207.2   0.2     1   134     1   138     1   177 0.89 -
ID=PSME_00052005     -            404 131839at3193         -            198     4e-61  207.5   0.0   1   1   3.5e-63   5.6e-61  207.0   0.0     1   166     1   166     1   188 0.86 -
ID=PSME_00053285     -            240 131839at3193         -            198     6e-61  206.9   0.1   1   1   4.4e-63   7.1e-61  206.7   0.1     1   142     1   142     1   168 0.94 -
ID=PSME_00052407     -            356 131839at3193         -            198     8e-61  206.5   0.6   1   1   1.1e-62   1.8e-60  205.4   0.6     1   129    21   149    21   155 0.99 -
ID=PSME_00018833     -            225 131839at3193         -            198     9e-61  206.4   0.2   1   1   6.1e-63   9.7e-61  206.2   0.2     1   139     1   138     1   189 0.92 -
ID=PSME_00023605     -            254 131839at3193         -            198   1.4e-60  205.7   0.1   1   1     1e-62   1.7e-60  205.5   0.1     1   129     1   129     1   174 0.96 -
ID=PSME_00051224     -            349 131839at3193         -            198   1.5e-60  205.6   0.1   1   1   1.4e-62   2.2e-60  205.1   0.1     1   126     1   129     1   170 0.91 -
ID=PSME_00026136     -            367 131839at3193         -            198   1.5e-60  205.6   0.9   1   1   2.2e-62   3.5e-60  204.4   0.9     1   175     1   175     1   195 0.85 -
ID=PSME_00010957     -            356 131839at3193         -            198   1.8e-60  205.4   0.3   1   1   1.7e-62   2.7e-60  204.8   0.3     1   131     1   131     1   146 0.98 -
ID=PSME_00052193     -            428 131839at3193         -            198   2.4e-60  204.9   0.1   1   1   2.2e-62   3.5e-60  204.4   0.1     1   118     1   119     1   190 0.95 -
ID=PSME_00052620     -            384 131839at3193         -            198   2.6e-60  204.8   0.7   1   1   2.4e-62   3.9e-60  204.3   0.7     1   130     1   130     1   156 0.97 -
ID=PSME_00014838     -            380 131839at3193         -            198     4e-60  204.2   1.5   1   1   3.6e-62   5.8e-60  203.7   1.5     5   132     4   131     1   139 0.98 -
ID=PSME_00044155     -            265 131839at3193         -            198   4.5e-60  204.1   0.8   1   1   3.6e-62   5.7e-60  203.7   0.8     1   131     1   131     1   154 0.94 -
ID=PSME_00037500     -            243 131839at3193         -            198   6.3e-60  203.6   0.5   1   1     5e-62     8e-60  203.3   0.5     3   130    13   140    11   159 0.96 -
ID=PSME_00035306     -            361 131839at3193         -            198   1.4e-59  202.4   0.6   1   1   1.3e-61   2.1e-59  201.9   0.6     1   126     1   127     1   151 0.94 -
ID=PSME_00051726     -            413 131839at3193         -            198   1.5e-59  202.4   0.4   1   1   1.3e-61   2.1e-59  201.9   0.4     1   135     1   136     1   156 0.93 -
ID=PSME_00052494     -            382 131839at3193         -            198   1.7e-59  202.2   0.3   1   1   1.4e-61   2.3e-59  201.7   0.3     1   125     1   125     1   149 0.96 -
ID=PSME_00031553     -            240 131839at3193         -            198   2.4e-59  201.7   0.6   1   1   1.9e-61   3.1e-59  201.3   0.6     1   139     1   139     1   152 0.94 -
ID=PSME_00041022     -            273 131839at3193         -            198   3.1e-59  201.3   0.5   1   2   1.9e-61   3.1e-59  201.3   0.5     1   127    21   149    21   153 0.95 -
ID=PSME_00041022     -            273 131839at3193         -            198   3.1e-59  201.3   0.5   2   2       9.8   1.6e+03   -0.1   0.3    35    53   250   268   228   270 0.82 -
ID=PSME_00045448     -            277 131839at3193         -            198   3.3e-59  201.2   0.5   1   1   2.7e-61   4.3e-59  200.9   0.5     1   131    10   140    10   169 0.96 -
ID=PSME_00018495     -            334 131839at3193         -            198   4.4e-59  200.8   0.3   1   1   3.8e-61   6.1e-59  200.4   0.3     1   137     1   141     1   162 0.89 -
ID=PSME_00008680     -            477 131839at3193         -            198   7.7e-59  200.0   1.1   1   1   8.1e-61   1.3e-58  199.3   1.1     1   130    56   185    56   197 0.98 -
ID=PSME_00036271     -            341 131839at3193         -            198   1.4e-58  199.1   0.4   1   1   1.3e-60     2e-58  198.7   0.4     1   119     1   120     1   140 0.95 -
ID=PSME_00051920     -            432 131839at3193         -            198   2.3e-58  198.5   1.2   1   1     3e-60   4.8e-58  197.4   1.2     1   123     1   124     1   135 0.96 -
ID=PSME_00039195     -            389 131839at3193         -            198   3.3e-58  198.0   1.0   1   1   3.3e-60   5.3e-58  197.3   1.0     1   118     1   119     1   127 0.97 -
ID=PSME_00036696     -            333 131839at3193         -            198     4e-58  197.7   0.3   1   1   3.5e-60   5.6e-58  197.2   0.3     1   128     1   131     1   159 0.91 -
ID=PSME_00036522     -            736 131839at3193         -            198   5.1e-58  197.4   2.3   1   2     2e-47   3.2e-45  155.6   0.3     9   117    47   157    40   171 0.92 -
ID=PSME_00036522     -            736 131839at3193         -            198   5.1e-58  197.4   2.3   2   2   2.1e-12   3.4e-10   41.3   0.1    82   116   493   527   482   564 0.87 -
ID=PSME_00035672     -            279 131839at3193         -            198   5.2e-58  197.3   0.6   1   1   3.3e-60   5.2e-58  197.3   0.6     1   124    25   149    25   157 0.95 -
ID=PSME_00050330     -            262 131839at3193         -            198     8e-58  196.7   1.0   1   1   6.4e-60     1e-57  196.4   1.0     1   129     9   137     9   165 0.96 -
ID=PSME_00045944     -            370 131839at3193         -            198   1.5e-57  195.8   0.5   1   1   6.5e-59     1e-56  193.1   0.8     1   118     1   119     1   129 0.97 -
ID=PSME_00017439     -            387 131839at3193         -            198   1.8e-57  195.6   0.6   1   1   1.1e-59   1.8e-57  195.6   0.6     1   137     1   137     1   154 0.95 -
ID=PSME_00031811     -            399 131839at3193         -            198   1.9e-57  195.5   0.3   1   1   1.7e-59   2.7e-57  195.0   0.3     1   118     1   118     1   150 0.96 -
ID=PSME_00040054     -            401 131839at3193         -            198   2.1e-57  195.3   1.1   1   1   2.2e-59   3.5e-57  194.6   1.1     1   131     1   131     1   152 0.96 -
ID=PSME_00036270     -            302 131839at3193         -            198   2.6e-57  195.0   1.1   1   1   2.3e-59   3.7e-57  194.5   1.1     1   118     1   119     1   129 0.97 -
ID=PSME_00020028     -            222 131839at3193         -            198   5.5e-57  194.0   1.6   1   1   4.5e-59   7.2e-57  193.6   1.6    13   130     4   121     2   141 0.95 -
ID=PSME_00029148     -            270 131839at3193         -            198   5.8e-57  193.9   0.2   1   1   5.2e-59   8.4e-57  193.4   0.2     1   131     6   136     6   146 0.98 -
ID=PSME_00039314     -            354 131839at3193         -            198   1.1e-56  193.0   0.6   1   1   1.2e-58     2e-56  192.2   0.6     1   119     1   120     1   131 0.96 -
ID=PSME_00006897     -            487 131839at3193         -            198     2e-56  192.2   3.7   1   2   1.8e-31   2.9e-29  103.5   0.3     1   117     3   115     3   147 0.90 -
ID=PSME_00006897     -            487 131839at3193         -            198     2e-56  192.2   3.7   2   2   3.7e-27     6e-25   89.4   0.3    10    85   295   369   288   398 0.84 -
ID=PSME_00052622     -            453 131839at3193         -            198   2.2e-56  192.0   1.4   1   1   2.4e-58   3.8e-56  191.2   1.4    12   131     3   122     2   148 0.95 -
ID=PSME_00039352     -            482 131839at3193         -            198   3.3e-56  191.4   0.0   1   1   3.2e-58   5.1e-56  190.8   0.0     1   130    14   143    14   156 0.98 -
ID=PSME_00052777     -            273 131839at3193         -            198   1.2e-55  189.6   2.5   1   1   8.1e-57   1.3e-54  186.2   2.5     1   131     1   146     1   162 0.94 -
ID=PSME_00037152     -            355 131839at3193         -            198   3.4e-55  188.2   0.8   1   1     3e-57   4.9e-55  187.6   0.8     2   117     4   119     1   134 0.96 -
ID=PSME_00043973     -            348 131839at3193         -            198   4.8e-55  187.7   1.3   1   1   4.3e-57     7e-55  187.1   1.3     1   118     1   118     1   124 0.98 -
ID=PSME_00051861     -            288 131839at3193         -            198   5.5e-55  187.5   0.5   1   1   4.9e-57   7.9e-55  187.0   0.5     1   118     1   126     1   138 0.93 -
ID=PSME_00024743     -            448 131839at3193         -            198   8.5e-55  186.8   0.8   1   1   7.9e-57   1.3e-54  186.3   0.8     1   121     1   121     1   153 0.92 -
ID=PSME_00017280     -            359 131839at3193         -            198   1.5e-54  186.1   1.3   1   1   9.1e-57   1.5e-54  186.1   1.3     1   118     1   118     1   135 0.95 -
ID=PSME_00050915     -            326 131839at3193         -            198   3.8e-54  184.7   0.1   1   1   4.3e-56   6.9e-54  183.9   0.1     1   119     1   119     1   124 0.99 -
ID=PSME_00015257     -            373 131839at3193         -            198   4.7e-54  184.4   1.0   1   1   2.9e-56   4.7e-54  184.4   1.0     8   130    16   138     2   143 0.94 -
ID=PSME_00022470     -            458 131839at3193         -            198   7.1e-54  183.8   1.6   1   1   6.6e-56   1.1e-53  183.3   1.6     1   116     1   116     1   133 0.98 -
ID=PSME_00039353     -            421 131839at3193         -            198   1.2e-53  183.1   0.2   1   1   1.6e-55   2.6e-53  182.0   0.2    12   131     8   127     2   132 0.98 -
ID=PSME_00052711     -            391 131839at3193         -            198   4.1e-53  181.3   0.5   1   1   3.7e-55     6e-53  180.8   0.5     4   118     6   120     1   129 0.95 -
ID=PSME_00024333     -            246 131839at3193         -            198   5.3e-53  181.0   1.5   1   1   4.3e-55   6.9e-53  180.6   1.5     1   116     1   116     1   135 0.97 -
ID=PSME_00021355     -            299 131839at3193         -            198   1.1e-52  180.0   1.0   1   1   9.7e-55   1.6e-52  179.5   1.0     1   130     1   132     1   156 0.90 -
ID=PSME_00010773     -            387 131839at3193         -            198   1.5e-52  179.5   1.5   1   1   1.4e-54   2.3e-52  178.9   1.5     1   118    32   149    32   154 0.98 -
ID=PSME_00041970     -            244 131839at3193         -            198   1.9e-52  179.2   1.4   1   1   1.7e-54   2.8e-52  178.6   1.4     1   116     1   116     1   135 0.97 -
ID=PSME_00029922     -            453 131839at3193         -            198   2.5e-52  178.8   0.2   1   1   3.4e-54   5.5e-52  177.7   0.2    12   131     8   127     1   134 0.97 -
ID=PSME_00023733     -            337 131839at3193         -            198     4e-52  178.1   0.8   1   1   3.5e-54   5.6e-52  177.6   0.8     1   118     5   122     5   145 0.97 -
ID=PSME_00004490     -            138 131839at3193         -            198     1e-51  176.8   3.0   1   2     4e-51   6.4e-49  167.7   1.4     1   116     2   121     2   124 0.92 -
ID=PSME_00004490     -            138 131839at3193         -            198     1e-51  176.8   3.0   2   2     0.011       1.8    9.5   0.0    94   107   124   137   121   137 0.90 -
ID=PSME_00014669     -            344 131839at3193         -            198   1.8e-51  176.0   0.7   1   1   1.6e-53   2.6e-51  175.5   0.7     1   118    18   136    18   147 0.97 -
ID=PSME_00005364     -            342 131839at3193         -            198   2.1e-51  175.8   0.2   1   1   2.1e-53   3.3e-51  175.1   0.2     1   132     1   131     1   160 0.93 -
ID=PSME_00009359     -            486 131839at3193         -            198   4.3e-51  174.8   0.5   1   1   4.1e-53   6.5e-51  174.2   0.5     1   118     1   118     1   145 0.97 -
ID=PSME_00010776     -            381 131839at3193         -            198   5.7e-51  174.3   1.1   1   1   7.2e-53   1.2e-50  173.4   1.1     1   119    31   149    31   156 0.98 -
ID=PSME_00052727     -            122 131839at3193         -            198   6.2e-51  174.2   1.6   1   1   4.4e-53   7.1e-51  174.0   1.6     1   114     1   114     1   120 0.98 -
ID=PSME_00052274     -            309 131839at3193         -            198   6.8e-51  174.1   0.3   1   1   7.6e-53   1.2e-50  173.3   0.3     1   130     1   134     1   146 0.91 -
ID=PSME_00004493     -            327 131839at3193         -            198   7.4e-51  174.0   1.4   1   2   2.9e-13   4.7e-11   44.1   0.0    88   117     3    32     1    66 0.88 -
ID=PSME_00004493     -            327 131839at3193         -            198   7.4e-51  174.0   1.4   2   2   2.9e-39   4.7e-37  128.9   0.3     1   105    93   203    93   250 0.78 -
ID=PSME_00041974     -            865 131839at3193         -            198   8.4e-51  173.8   0.2   1   1   1.6e-52   2.5e-50  172.2   0.2    12   131   408   527   401   530 0.97 -
ID=PSME_00009360     -            319 131839at3193         -            198   1.4e-50  173.1   0.2   1   1   1.2e-52   1.9e-50  172.6   0.2     1   118     1   118     1   135 0.97 -
ID=PSME_00052638     -            368 131839at3193         -            198   1.5e-50  173.0   1.4   1   1   1.4e-52   2.2e-50  172.4   1.4     1   115    21   135    21   147 0.97 -
ID=PSME_00050855     -            322 131839at3193         -            198   3.3e-50  171.9   0.5   1   1   2.8e-52   4.5e-50  171.4   0.5     1   117    15   132    15   165 0.97 -
ID=PSME_00021444     -            249 131839at3193         -            198   3.5e-50  171.8   0.2   1   1   2.8e-52   4.5e-50  171.4   0.2     1   120     1   121     1   146 0.95 -
ID=PSME_00049277     -            161 131839at3193         -            198   3.9e-50  171.6   2.2   1   1   2.9e-52   4.7e-50  171.4   2.2     1   114     8   121     8   130 0.97 -
ID=PSME_00051892     -            356 131839at3193         -            198   4.8e-50  171.3   1.6   1   1   4.7e-52   7.5e-50  170.7   1.6     6   117     9   120     6   125 0.98 -
ID=PSME_00047976     -            305 131839at3193         -            198   7.5e-50  170.7   0.3   1   1     6e-52   9.7e-50  170.3   0.3     4   148     3   149     1   167 0.90 -
ID=PSME_00051403     -            141 131839at3193         -            198   8.8e-50  170.5   0.3   1   1   6.2e-52     1e-49  170.3   0.3     1   119     1   122     1   134 0.91 -
ID=PSME_00017368     -            459 131839at3193         -            198   1.1e-49  170.2   0.9   1   1     1e-51   1.7e-49  169.6   0.9     1   117     1   117     1   123 0.99 -
ID=PSME_00041506     -            309 131839at3193         -            198   1.5e-49  169.8   0.3   1   1   1.6e-51   2.6e-49  168.9   0.3     1   127     1   126     1   139 0.93 -
ID=PSME_00050872     -            343 131839at3193         -            198   1.7e-49  169.5   3.1   1   1   1.6e-51   2.5e-49  169.0   3.1     1   117    21   138    21   149 0.97 -
ID=PSME_00005961     -            267 131839at3193         -            198   2.5e-49  169.0   0.4   1   1     2e-51   3.3e-49  168.6   0.4     1   147     1   149     1   165 0.90 -
ID=PSME_00049282     -            332 131839at3193         -            198   2.9e-49  168.8   0.5   1   1   2.5e-51     4e-49  168.3   0.5     1   116    72   188    72   228 0.90 -
ID=PSME_00019917     -            392 131839at3193         -            198   3.6e-49  168.5   1.1   1   1   3.6e-51   5.8e-49  167.8   1.1     1   116     1   116     1   131 0.98 -
ID=PSME_00030703     -            374 131839at3193         -            198   3.9e-49  168.4   2.1   1   1   3.4e-51   5.4e-49  167.9   2.1     1   115     1   115     1   126 0.98 -
ID=PSME_00012903     -            318 131839at3193         -            198   4.1e-49  168.3   0.1   1   1   3.2e-51   5.2e-49  168.0   0.1     1   124    20   145    20   174 0.90 -
ID=PSME_00013409     -            422 131839at3193         -            198   6.7e-49  167.6   0.6   1   1   5.8e-51   9.3e-49  167.1   0.6     1   117   116   233   116   271 0.95 -
ID=PSME_00032477     -            406 131839at3193         -            198   1.1e-48  166.9   0.2   1   1     1e-50   1.6e-48  166.4   0.2    34   151    73   184    60   234 0.86 -
ID=PSME_00021445     -            282 131839at3193         -            198   1.1e-48  166.9   0.2   1   1   9.2e-51   1.5e-48  166.5   0.2     1   120     1   121     1   139 0.95 -
ID=PSME_00045606     -            261 131839at3193         -            198   1.3e-48  166.6   2.3   1   1   1.2e-50   1.9e-48  166.1   2.3     1   114     8   121     8   131 0.97 -
ID=PSME_00035534     -            320 131839at3193         -            198   1.4e-48  166.5   0.3   1   1   1.3e-50     2e-48  166.0   0.3     1   118    43   162    43   183 0.95 -
ID=PSME_00031866     -            302 131839at3193         -            198     2e-48  166.1   1.0   1   1   1.8e-50   2.9e-48  165.5   1.0     6   118     9   121     5   154 0.93 -
ID=PSME_00051244     -            313 131839at3193         -            198     2e-48  166.0   2.7   1   1     2e-50   3.2e-48  165.4   2.7     2   116     3   118     2   128 0.96 -
ID=PSME_00041507     -            309 131839at3193         -            198   3.9e-48  165.1   1.6   1   1   2.4e-50   3.9e-48  165.1   1.6     1   117     1   117     1   131 0.97 -
ID=PSME_00017438     -            307 131839at3193         -            198   4.6e-48  164.9   1.6   1   1   4.2e-50   6.7e-48  164.3   1.6     1   131    11   138    11   170 0.89 -
ID=PSME_00006895     -            308 131839at3193         -            198   6.4e-48  164.4   0.8   1   2   1.8e-49   2.9e-47  162.3   0.4     7   129    12   134     1   139 0.92 -
ID=PSME_00006895     -            308 131839at3193         -            198   6.4e-48  164.4   0.8   2   2       8.3   1.3e+03    0.1   0.0    90   107   165   182   141   186 0.86 -
ID=PSME_00051617     -            298 131839at3193         -            198     9e-48  163.9   0.2   1   1   7.5e-50   1.2e-47  163.5   0.2     1   117     2   119     2   157 0.91 -
ID=PSME_00024334     -            228 131839at3193         -            198   1.4e-47  163.3   1.9   1   1   1.2e-49     2e-47  162.8   1.9     1   117     1   117     1   130 0.98 -
ID=PSME_00014053     -            623 131839at3193         -            198   1.7e-47  163.0   0.0   1   1     2e-49   3.2e-47  162.1   0.0     8   118   114   226   109   235 0.94 -
ID=PSME_00010618     -            291 131839at3193         -            198   2.2e-47  162.6   0.5   1   1   1.8e-49   2.9e-47  162.2   0.5     1   116     1   117     1   138 0.96 -
ID=PSME_00034285     -            370 131839at3193         -            198   2.6e-47  162.4   0.6   1   1   2.5e-49     4e-47  161.8   0.6     1   120     1   121     1   132 0.95 -
ID=PSME_00041099     -            226 131839at3193         -            198   7.7e-47  160.9   1.5   1   1   6.4e-49     1e-46  160.5   1.5     1   117     9   127     9   139 0.94 -
ID=PSME_00019383     -            300 131839at3193         -            198   8.5e-47  160.7   1.9   1   1     8e-49   1.3e-46  160.1   1.9    11   128    19   144     8   161 0.89 -
ID=PSME_00015260     -            299 131839at3193         -            198   9.4e-47  160.6   0.2   1   1   8.8e-49   1.4e-46  160.0   0.2     7   117     6   116     2   129 0.94 -
ID=PSME_00052795     -            326 131839at3193         -            198   1.4e-46  160.0   0.4   1   1   1.3e-48     2e-46  159.5   0.4     1   119     1   120     1   126 0.96 -
ID=PSME_00041100     -            219 131839at3193         -            198   1.9e-46  159.6   1.2   1   1   1.5e-48   2.4e-46  159.2   1.2     1   117     1   119     1   131 0.94 -
ID=PSME_00051126     -            524 131839at3193         -            198   2.3e-46  159.3   0.1   1   1   2.6e-48   4.1e-46  158.5   0.1     8   118    15   127    10   136 0.94 -
ID=PSME_00013410     -            363 131839at3193         -            198   2.5e-46  159.2   2.2   1   1   2.5e-48     4e-46  158.5   2.2     7   117    65   175    60   199 0.96 -
ID=PSME_00053584     -            323 131839at3193         -            198   3.3e-46  158.8   0.0   1   1     3e-48   4.8e-46  158.3   0.0    45   131     2    88     1   102 0.97 -
ID=PSME_00044188     -            359 131839at3193         -            198   4.2e-46  158.5   1.7   1   1   4.4e-48   7.1e-46  157.7   1.7    11   116     4   110     2   119 0.96 -
ID=PSME_00051901     -            443 131839at3193         -            198   4.4e-46  158.4   0.3   1   1   4.4e-48   7.1e-46  157.7   0.3    12   116    19   124    13   140 0.95 -
ID=PSME_00052807     -            403 131839at3193         -            198   7.1e-46  157.7   1.2   1   1   7.5e-48   1.2e-45  157.0   1.2     6   117    14   127     9   133 0.94 -
ID=PSME_00053162     -            526 131839at3193         -            198   1.3e-45  156.8   0.9   1   1   1.6e-47   2.6e-45  155.9   0.9    10   117    18   126    11   132 0.94 -
ID=PSME_00034307     -            296 131839at3193         -            198   1.4e-45  156.8   0.0   1   1   1.3e-47     2e-45  156.2   0.0    45   130     2    87     1    94 0.97 -
ID=PSME_00009987     -            258 131839at3193         -            198   1.7e-45  156.4   0.1   1   1   1.6e-47   2.5e-45  155.9   0.1    12   121    14   123     9   150 0.88 -
ID=PSME_00019391     -            263 131839at3193         -            198   2.1e-45  156.1   0.2   1   1   1.9e-47   3.1e-45  155.6   0.2    12   145    18   152    13   167 0.89 -
ID=PSME_00052797     -            290 131839at3193         -            198   2.2e-45  156.1   2.7   1   1     2e-47   3.2e-45  155.6   2.7     5   116     8   119     5   124 0.98 -
ID=PSME_00050866     -            367 131839at3193         -            198   4.2e-45  155.2   1.7   1   1   4.1e-47   6.6e-45  154.5   1.7     2   119    25   144    24   155 0.94 -
ID=PSME_00026686     -            473 131839at3193         -            198   4.4e-45  155.1   0.9   1   1   4.7e-47   7.5e-45  154.4   0.9     9   117    21   130    15   151 0.92 -
ID=PSME_00036199     -            325 131839at3193         -            198   7.1e-45  154.5   1.6   1   1   4.4e-47   7.1e-45  154.5   1.6    10   116    17   123    10   130 0.95 -
ID=PSME_00052231     -            462 131839at3193         -            198   7.6e-45  154.3   0.5   1   1   8.5e-47   1.4e-44  153.5   0.5    11   116    26   132    20   138 0.96 -
ID=PSME_00043156     -            930 131839at3193         -            198   8.5e-45  154.2   1.4   1   1   8.9e-47   1.4e-44  153.5   1.4     7   116    15   126    10   131 0.94 -
ID=PSME_00020936     -            251 131839at3193         -            198   1.3e-44  153.6   0.7   1   1   9.4e-47   1.5e-44  153.4   0.7     1   117     1   119     1   189 0.87 -
ID=PSME_00049241     -            124 131839at3193         -            198   2.2e-44  152.8   0.2   1   1   1.6e-46   2.5e-44  152.7   0.2    10   118     2   111     1   121 0.93 -
ID=PSME_00040036     -            484 131839at3193         -            198   2.7e-44  152.6   0.3   1   1   3.6e-46   5.7e-44  151.5   0.3    11   116    26   131    21   142 0.96 -
ID=PSME_00043741     -            386 131839at3193         -            198   2.7e-44  152.6   1.1   1   1   2.6e-46   4.2e-44  151.9   1.1     8   119    27   140    21   146 0.94 -
ID=PSME_00053156     -            290 131839at3193         -            198   5.5e-44  151.6   1.6   1   1   5.3e-46   8.4e-44  150.9   1.6     7   117    15   125    10   135 0.96 -
ID=PSME_00051072     -            207 131839at3193         -            198   8.3e-44  151.0   0.5   1   2   5.2e-46   8.3e-44  151.0   0.5    46   129     4    87     2    91 0.98 -
ID=PSME_00051072     -            207 131839at3193         -            198   8.3e-44  151.0   0.5   2   2       9.1   1.5e+03    0.0   0.5    35    53   184   202   166   204 0.84 -
ID=PSME_00014640     -            321 131839at3193         -            198   9.2e-44  150.8   1.7   1   1   8.5e-46   1.4e-43  150.3   1.7     7   117    17   127    12   144 0.95 -
ID=PSME_00051189     -            299 131839at3193         -            198   1.3e-43  150.4   1.3   1   1   1.3e-45     2e-43  149.7   1.3     9   117    17   125    10   133 0.95 -
ID=PSME_00031964     -            320 131839at3193         -            198   2.4e-43  149.4   2.9   1   1   2.4e-45   3.8e-43  148.8   2.9     9   116    15   122     6   127 0.96 -
ID=PSME_00046767     -            111 131839at3193         -            198   4.1e-43  148.7   0.2   1   1   2.7e-45   4.3e-43  148.6   0.2     5   107     8   110     1   110 0.95 -
ID=PSME_00019912     -            389 131839at3193         -            198   1.5e-42  146.8   3.6   1   1   1.5e-44   2.5e-42  146.2   3.6     8   120    45   157    40   176 0.96 -
ID=PSME_00051405     -            315 131839at3193         -            198   1.8e-42  146.6   0.7   1   1   1.6e-44   2.6e-42  146.1   0.7    10   116    20   126     9   153 0.94 -
ID=PSME_00050445     -            321 131839at3193         -            198   2.5e-42  146.1   0.2   1   1   2.4e-44   3.9e-42  145.5   0.2     8   117    30   139    24   178 0.93 -
ID=PSME_00031962     -            309 131839at3193         -            198   2.7e-42  146.0   2.9   1   1   2.7e-44   4.3e-42  145.4   2.9     8   116    16   124    11   137 0.96 -
ID=PSME_00005773     -            299 131839at3193         -            198   5.1e-42  145.1   0.1   1   1   4.8e-44   7.7e-42  144.5   0.1    25   116     3    94     1   105 0.97 -
ID=PSME_00047944     -            339 131839at3193         -            198     1e-41  144.1   0.6   1   1     1e-43   1.7e-41  143.5   0.6     9   116    38   145    31   150 0.96 -
ID=PSME_00048716     -            238 131839at3193         -            198   1.8e-41  143.4   0.1   1   1   1.3e-43   2.2e-41  143.1   0.1    31   152     3   125     1   157 0.89 -
ID=PSME_00006896     -            305 131839at3193         -            198   2.3e-41  143.0   0.5   1   1   2.1e-43   3.4e-41  142.5   0.5     6   117    11   122     3   141 0.91 -
ID=PSME_00010253     -            302 131839at3193         -            198   2.6e-41  142.8   1.7   1   1   2.8e-43   4.5e-41  142.0   1.7     7   117    15   125     9   132 0.95 -
ID=PSME_00051333     -            332 131839at3193         -            198   6.8e-41  141.5   0.2   1   1   6.3e-43     1e-40  140.9   0.2     9   117    17   125    10   163 0.94 -
ID=PSME_00033098     -            332 131839at3193         -            198   1.3e-40  140.6   0.8   1   1   1.2e-42     2e-40  140.0   0.8     8   117    16   125    10   139 0.95 -
ID=PSME_00026574     -            212 131839at3193         -            198   4.2e-40  138.9   0.9   1   1   3.8e-42   6.1e-40  138.4   0.9    43   123     2    82     1    93 0.96 -
ID=PSME_00011325     -            244 131839at3193         -            198   5.7e-40  138.4   0.6   1   1   4.6e-42   7.4e-40  138.1   0.6    25   126     3   104     1   124 0.94 -
ID=PSME_00008475     -            256 131839at3193         -            198     1e-39  137.6   3.0   1   1     1e-41   1.7e-39  136.9   2.8     6   119    10   135     5   176 0.89 -
ID=PSME_00015342     -            330 131839at3193         -            198   1.8e-38  133.5   0.1   1   1   2.3e-40   3.7e-38  132.5   0.1    38   118   101   182    97   191 0.92 -
ID=PSME_00035860     -            170 131839at3193         -            198   2.1e-38  133.3   0.1   1   1   1.7e-40   2.8e-38  132.9   0.1    10   103     2    95     1   101 0.97 -
ID=PSME_00007825     -            272 131839at3193         -            198   4.1e-38  132.4   0.2   1   1     1e-39   1.6e-37  130.4   0.2    12   146    39   162    34   174 0.86 -
ID=PSME_00016951     -            160 131839at3193         -            198   4.3e-37  129.1   0.0   1   1   3.4e-39   5.5e-37  128.7   0.0    33   132    40   141    32   146 0.92 -
ID=PSME_00052531     -            465 131839at3193         -            198   5.1e-37  128.8   1.8   1   1   1.2e-38     2e-36  126.9   1.8     8   116    24   121    18   126 0.94 -
ID=PSME_00050513     -            199 131839at3193         -            198   6.5e-37  128.5   2.4   1   2   2.9e-18   4.7e-16   60.4   0.8     1    54    10    63    10    63 0.99 -
ID=PSME_00050513     -            199 131839at3193         -            198   6.5e-37  128.5   2.4   2   2   4.1e-21   6.5e-19   69.7   0.0    88   131    63   106    63   116 0.96 -
ID=PSME_00049587     -            430 131839at3193         -            198   1.2e-36  127.6   1.4   1   2   0.00039     0.063   14.3   0.0     8    44    29    65    23    69 0.87 -
ID=PSME_00049587     -            430 131839at3193         -            198   1.2e-36  127.6   1.4   2   2   5.6e-34     9e-32  111.7   0.5    40   117   152   229   145   248 0.93 -
ID=PSME_00055350     -            452 131839at3193         -            198   1.4e-36  127.3   0.3   1   2   2.2e-15   3.5e-13   51.0   0.0     1    45     1    45     1    49 0.98 -
ID=PSME_00055350     -            452 131839at3193         -            198   1.4e-36  127.3   0.3   2   2   1.7e-22   2.8e-20   74.2   0.1    85   135    53   103    48   132 0.88 -
ID=PSME_00039151     -            266 131839at3193         -            198   1.7e-36  127.1   1.1   1   1   1.6e-38   2.6e-36  126.5   1.1    40   119    66   145    33   166 0.89 -
ID=PSME_00012350     -           1069 131839at3193         -            198   1.1e-35  124.5   5.0   1   2   1.3e-14     2e-12   48.5   0.2    13    99    63   149    55   150 0.94 -
ID=PSME_00012350     -           1069 131839at3193         -            198   1.1e-35  124.5   5.0   2   2   5.4e-24   8.6e-22   79.1   1.1    48   117   149   218   149   227 0.96 -
ID=PSME_00033699     -            266 131839at3193         -            198     2e-35  123.6   0.2   1   1   1.9e-37     3e-35  123.0   0.2     1   121     6   124     6   135 0.89 -
ID=PSME_00021358     -            266 131839at3193         -            198     6e-35  122.1   0.6   1   1   5.2e-37   8.3e-35  121.6   0.6    47   118     2    73     1   106 0.90 -
ID=PSME_00055255     -            279 131839at3193         -            198   6.1e-35  122.0   0.3   1   1   4.6e-37   7.4e-35  121.8   0.3    46   116     1    71     1   162 0.94 -
ID=PSME_00008474     -            127 131839at3193         -            198   8.4e-35  121.6   0.5   1   1   6.6e-37   1.1e-34  121.3   0.5    45   119     2    76     1   117 0.93 -
ID=PSME_00036858     -            499 131839at3193         -            198     3e-34  119.8   0.2   1   2   1.4e-34   2.3e-32  113.6   0.0     3    87    11    95     9    98 0.98 -
ID=PSME_00036858     -            499 131839at3193         -            198     3e-34  119.8   0.2   2   2      0.38        60    4.5   0.0   119   139    97   117    95   131 0.79 -
ID=PSME_00037322     -            247 131839at3193         -            198   1.7e-33  117.3   0.3   1   1   1.3e-35   2.1e-33  117.0   0.3    52   122     3    73     1   149 0.94 -
ID=PSME_00051808     -            214 131839at3193         -            198   2.9e-33  116.6   4.9   1   2   4.1e-19   6.6e-17   63.2   1.4    44   147    14   100     9   113 0.88 -
ID=PSME_00051808     -            214 131839at3193         -            198   2.9e-33  116.6   4.9   2   2   3.3e-14   5.3e-12   47.1   0.1    87   147   118   177   113   190 0.85 -
ID=PSME_00038667     -            375 131839at3193         -            198   3.6e-33  116.3   0.1   1   1   3.7e-35   5.9e-33  115.6   0.1    13   120    17   123     7   133 0.92 -
ID=PSME_00029149     -            235 131839at3193         -            198   1.3e-32  114.4   0.1   1   1   1.3e-34   2.1e-32  113.8   0.1    54   131    42   119    39   132 0.96 -
ID=PSME_00025751     -            410 131839at3193         -            198   2.7e-32  113.4   0.3   1   1   2.7e-34   4.3e-32  112.7   0.3    14   116    19   120     9   124 0.93 -
ID=PSME_00056098     -            374 131839at3193         -            198   3.4e-32  113.1   0.3   1   1   3.6e-34   5.7e-32  112.3   0.3    13   119    15   120     5   140 0.88 -
ID=PSME_00052950     -            389 131839at3193         -            198     5e-32  112.5   1.6   1   1   6.8e-31   1.1e-28  101.6   0.6    12   142    21   131    12   181 0.85 -
ID=PSME_00051889     -            146 131839at3193         -            198   6.7e-32  112.1   0.3   1   2   1.3e-08     2e-06   28.9   0.1    12    48    21    57    11    58 0.90 -
ID=PSME_00051889     -            146 131839at3193         -            198   6.7e-32  112.1   0.3   2   2   4.5e-26   7.3e-24   85.9   0.0    63   139    53   128    52   143 0.91 -
ID=PSME_00021520     -            608 131839at3193         -            198   2.6e-31  110.2   3.9   1   1   2.7e-33   4.3e-31  109.5   3.9     7   114   162   268   158   349 0.94 -
ID=PSME_00005361     -            307 131839at3193         -            198   4.4e-31  109.4   1.5   1   2   3.5e-21   5.7e-19   69.9   0.2    45    90     2    47     1    64 0.94 -
ID=PSME_00005361     -            307 131839at3193         -            198   4.4e-31  109.4   1.5   2   2   1.4e-11   2.2e-09   38.6   0.1    84   132    68   115    59   134 0.88 -
ID=PSME_00039150     -            240 131839at3193         -            198   6.5e-31  108.9   0.9   1   1   5.3e-33   8.5e-31  108.5   0.9    45   120     2    72     1   149 0.77 -
ID=PSME_00036198     -            286 131839at3193         -            198   1.5e-30  107.7   1.2   1   2   6.5e-21     1e-18   69.0   0.3    44    93     4    53     1    60 0.92 -
ID=PSME_00036198     -            286 131839at3193         -            198   1.5e-30  107.7   1.2   2   2   3.6e-11   5.7e-09   37.2   0.0    87   116    78   107    64   113 0.89 -
ID=PSME_00044429     -            690 131839at3193         -            198   8.3e-30  105.3   0.6   1   1     9e-32   1.4e-29  104.5   0.6    44   116   271   343   262   367 0.95 -
ID=PSME_00010370     -            293 131839at3193         -            198   8.7e-30  105.2   0.2   1   2   2.6e-10   4.2e-08   34.4   0.0     3    46     2    45     1    46 0.93 -
ID=PSME_00010370     -            293 131839at3193         -            198   8.7e-30  105.2   0.2   2   2   1.2e-21   1.9e-19   71.4   0.1    62   115    42    95    41   103 0.94 -
ID=PSME_00051587     -            695 131839at3193         -            198   1.7e-29  104.2   0.4   1   1   1.8e-31   2.9e-29  103.5   0.4    34   131   500   592   491   627 0.85 -
ID=PSME_00051204     -            470 131839at3193         -            198   2.6e-29  103.6   0.8   1   1   2.7e-31   4.4e-29  102.9   0.8    13   118   174   278   166   290 0.94 -
ID=PSME_00050643     -            483 131839at3193         -            198   4.2e-29  103.0   0.6   1   1   4.4e-31     7e-29  102.2   0.6    12   158    65   210    55   218 0.84 -
ID=PSME_00051866     -            249 131839at3193         -            198   2.3e-28  100.6   1.2   1   1     2e-30   3.3e-28  100.1   1.2    46   117     1    72     1    85 0.97 -
ID=PSME_00010642     -            550 131839at3193         -            198   1.2e-27   98.2   0.4   1   1   1.3e-29   2.1e-27   97.4   0.4    13   114   171   271   161   279 0.93 -
ID=PSME_00032991     -            347 131839at3193         -            198   2.6e-27   97.1   0.1   1   1   2.6e-29   4.2e-27   96.5   0.1    65   138     1    74     1    91 0.93 -
ID=PSME_00016689     -            887 131839at3193         -            198   4.3e-27   96.4   5.3   1   2       1.5   2.5e+02    2.5   0.1    86   112    12    38     5    43 0.82 -
ID=PSME_00016689     -            887 131839at3193         -            198   4.3e-27   96.4   5.3   2   2   1.2e-28   1.9e-26   94.3   1.8    12   117    42   146    38   154 0.95 -
ID=PSME_00052774     -            253 131839at3193         -            198   7.9e-27   95.5   0.1   1   1   7.6e-29   1.2e-26   94.9   0.1     6    91    14   101     9   167 0.89 -
ID=PSME_00052640     -            182 131839at3193         -            198     1e-24   88.6   0.8   1   2   1.1e-12   1.8e-10   42.2   0.3    82   132     4    53     1    70 0.84 -
ID=PSME_00052640     -            182 131839at3193         -            198     1e-24   88.6   0.8   2   2   1.3e-13   2.1e-11   45.2   0.0    88   145    87   143    81   157 0.85 -
ID=PSME_00034151     -            534 131839at3193         -            198   5.1e-24   86.4   3.0   1   1   5.9e-26   9.4e-24   85.5   3.0    14   116     4   108     1   113 0.94 -
ID=PSME_00048330     -            371 131839at3193         -            198   7.8e-24   85.8   0.0   1   1   1.4e-25   2.2e-23   84.3   0.0    58   116     1    59     1    73 0.95 -
ID=PSME_00044807     -            452 131839at3193         -            198   2.3e-23   84.2   2.7   1   1   2.4e-25   3.8e-23   83.5   2.7    14   112     4   104     1   147 0.93 -
ID=PSME_00056405     -            466 131839at3193         -            198   4.9e-22   79.9   1.0   1   2   3.4e-12   5.5e-10   40.6   0.0    55    93     1    39     1    47 0.92 -
ID=PSME_00056405     -            466 131839at3193         -            198   4.9e-22   79.9   1.0   2   2   3.9e-11   6.3e-09   37.1   0.7    87   116    73   102    68   106 0.94 -
ID=PSME_00017553     -           1295 131839at3193         -            198   7.5e-21   76.0  15.3   1   2   1.5e-11   2.4e-09   38.5   1.9    11   109   310   409   300   414 0.93 -
ID=PSME_00017553     -           1295 131839at3193         -            198   7.5e-21   76.0  15.3   2   2   5.1e-14   8.2e-12   46.5   1.1    10   116   415   520   409   525 0.91 -
ID=PSME_00039100     -            256 131839at3193         -            198   1.2e-19   72.1   1.3   1   2   1.4e-12   2.3e-10   41.8   0.0     1    45     1    45     1    47 0.98 -
ID=PSME_00039100     -            256 131839at3193         -            198   1.2e-19   72.1   1.3   2   2     2e-09   3.2e-07   31.5   0.3    93   120    44    71    44    93 0.89 -
ID=PSME_00037117     -            245 131839at3193         -            198   1.6e-19   71.7   0.7   1   2   1.2e-07   1.9e-05   25.7   0.0    89   148    21    80    16   131 0.81 -
ID=PSME_00037117     -            245 131839at3193         -            198   1.6e-19   71.7   0.7   2   2   1.7e-13   2.7e-11   44.8   0.1    86   147   165   225   120   234 0.87 -
ID=PSME_00033943     -            133 131839at3193         -            198   1.8e-19   71.5   0.0   1   1   1.4e-21   2.3e-19   71.2   0.0    89   131     1    43     1    75 0.87 -
ID=PSME_00041975     -            413 131839at3193         -            198   2.4e-19   71.1   0.3   1   2    0.0021      0.33   11.9   0.0    11    37     7    33     1    33 0.86 -
ID=PSME_00041975     -            413 131839at3193         -            198   2.4e-19   71.1   0.3   2   2   2.9e-17   4.7e-15   57.1   0.1    88   131    32    75    29    79 0.96 -
ID=PSME_00035927     -            358 131839at3193         -            198   5.7e-18   66.6   5.0   1   1   6.3e-16     1e-13   52.8   5.0     9   117    26   132    19   138 0.77 -
ID=PSME_00021690     -            167 131839at3193         -            198   9.7e-18   65.9   0.2   1   2   5.5e-11   8.9e-09   36.6   0.0     4    44     6    46     1    49 0.91 -
ID=PSME_00021690     -            167 131839at3193         -            198   9.7e-18   65.9   0.2   2   2   2.1e-08   3.3e-06   28.2   0.2    93   117    47    71    46    82 0.88 -
ID=PSME_00056242     -            289 131839at3193         -            198   1.2e-17   65.6   0.1   1   1     1e-19   1.7e-17   65.1   0.1    84   128     6    50     1   114 0.78 -
ID=PSME_00055468     -            293 131839at3193         -            198   1.4e-17   65.3   0.2   1   2   1.8e-06   0.00029   21.9   0.0     2    38     2    39     1    46 0.84 -
ID=PSME_00055468     -            293 131839at3193         -            198   1.4e-17   65.3   0.2   2   2   1.5e-12   2.4e-10   41.7   0.1    75   121    53    98    38   109 0.80 -
ID=PSME_00018789     -            314 131839at3193         -            198   1.6e-17   65.2   0.0   1   1   2.1e-19   3.3e-17   64.1   0.0    79   128    13    68     8    76 0.86 -
ID=PSME_00052786     -            200 131839at3193         -            198   1.9e-17   64.9   0.5   1   2   3.8e-10   6.2e-08   33.9   0.0     2    45    15    58    14    59 0.96 -
ID=PSME_00052786     -            200 131839at3193         -            198   1.9e-17   64.9   0.5   2   2   2.6e-09   4.2e-07   31.2   0.2    93   117    57    81    57    85 0.94 -
ID=PSME_00056282     -            318 131839at3193         -            198     2e-17   64.9   4.5   1   2   1.3e-19     2e-17   64.8   0.1    88   129     4    45     1    53 0.94 -
ID=PSME_00056282     -            318 131839at3193         -            198     2e-17   64.9   4.5   2   2       7.2   1.2e+03    0.4   0.1    30    58   183   210   150   215 0.78 -
ID=PSME_00017906     -            224 131839at3193         -            198   2.8e-17   64.4   1.4   1   1   1.9e-19   3.1e-17   64.2   0.1    71   129    53   109    44   164 0.85 -
ID=PSME_00027978     -            339 131839at3193         -            198   1.1e-16   62.4   0.0   1   1   9.6e-19   1.5e-16   62.0   0.0    86   127    52    93    21   164 0.75 -
ID=PSME_00024332     -            321 131839at3193         -            198   1.9e-16   61.6   0.6   1   1   1.5e-17   2.4e-15   58.1   0.6     1   117    31   152    31   160 0.81 -
ID=PSME_00056523     -             71 131839at3193         -            198   2.9e-16   61.1   0.4   1   1     2e-18   3.2e-16   60.9   0.4    88   123     8    43     5    58 0.90 -
ID=PSME_00010777     -             65 131839at3193         -            198   5.7e-16   60.1   0.1   1   1   3.7e-18   5.9e-16   60.0   0.1    42    87    20    65     8    65 0.94 -
ID=PSME_00031699     -            284 131839at3193         -            198   6.2e-16   60.0   0.0   1   1   6.7e-18   1.1e-15   59.2   0.0    65   113     1    49     1    60 0.95 -
ID=PSME_00020648     -            341 131839at3193         -            198   7.7e-16   59.7   0.1   1   1     8e-18   1.3e-15   59.0   0.1    84   137   135   188   118   205 0.88 -
ID=PSME_00024655     -            270 131839at3193         -            198   9.1e-16   59.4   0.3   1   1   9.2e-18   1.5e-15   58.8   0.3    87   125    60    98    48   116 0.90 -
ID=PSME_00055464     -             81 131839at3193         -            198   9.6e-16   59.4   1.3   1   1   7.4e-18   1.2e-15   59.1   1.3    46   112     1    60     1    66 0.93 -
ID=PSME_00032709     -            419 131839at3193         -            198   1.4e-15   58.8   0.0   1   1   1.4e-17   2.3e-15   58.1   0.0    87   133    31    77    11   125 0.88 -
ID=PSME_00054601     -            105 131839at3193         -            198   3.6e-15   57.5   0.0   1   1   2.3e-17   3.7e-15   57.4   0.0    83   147     5    68     1    91 0.88 -
ID=PSME_00048289     -            121 131839at3193         -            198   1.4e-14   55.5   0.1   1   1   1.1e-16   1.8e-14   55.2   0.1    83   136     5    57     1    76 0.86 -
ID=PSME_00031996     -            105 131839at3193         -            198   2.1e-14   55.0   0.1   1   1   1.7e-16   2.8e-14   54.6   0.1    89   129     3    43     1    48 0.96 -
ID=PSME_00055491     -            389 131839at3193         -            198   2.2e-14   54.9   2.0   1   2   0.00025     0.041   14.9   0.1     8    50    19    62    13    70 0.84 -
ID=PSME_00055491     -            389 131839at3193         -            198   2.2e-14   54.9   2.0   2   2   6.5e-12     1e-09   39.7   0.3    83   117    69   102    62   106 0.89 -
ID=PSME_00012906     -            242 131839at3193         -            198   3.5e-14   54.3   0.4   1   2   2.6e-08   4.1e-06   27.9   0.0     1    45     1    46     1    47 0.94 -
ID=PSME_00012906     -            242 131839at3193         -            198   3.5e-14   54.3   0.4   2   2   6.5e-08     1e-05   26.6   0.1    93   160    45   118    44   134 0.66 -
ID=PSME_00056946     -            283 131839at3193         -            198   4.6e-14   53.9   0.0   1   1   5.5e-16   8.7e-14   53.0   0.0    86   128    15    57     6    90 0.90 -
ID=PSME_00052439     -            206 131839at3193         -            198   2.2e-13   51.7   0.0   1   1     2e-15   3.2e-13   51.1   0.0    88   131    15    58     9    78 0.93 -
ID=PSME_00056386     -            118 131839at3193         -            198   6.1e-13   50.2   1.8   1   2   4.2e-07   6.7e-05   24.0   0.2    98   129     4    34     1    37 0.86 -
ID=PSME_00056386     -            118 131839at3193         -            198   6.1e-13   50.2   1.8   2   2   7.3e-08   1.2e-05   26.4   0.1   101   143    40    82    35   115 0.79 -
ID=PSME_00056358     -            126 131839at3193         -            198   9.7e-13   49.6   0.0   1   1   6.2e-15   9.9e-13   49.5   0.0    87   127    13    53     4    97 0.90 -
ID=PSME_00024659     -            227 131839at3193         -            198   1.1e-12   49.3   0.5   1   1   1.2e-14   1.9e-12   48.6   0.5    88   116     3    31     1    38 0.94 -
ID=PSME_00056833     -            100 131839at3193         -            198   1.3e-12   49.1   0.0   1   1     1e-14   1.7e-12   48.8   0.0    88   147     5    63     3    74 0.90 -
ID=PSME_00057002     -            388 131839at3193         -            198   1.5e-12   49.0   0.2   1   1   1.5e-14   2.5e-12   48.2   0.2    85   116    13    44     7    50 0.90 -
ID=PSME_00056398     -            387 131839at3193         -            198   1.5e-12   49.0   0.3   1   1   1.6e-14   2.5e-12   48.2   0.3    85   116    13    44     7    49 0.90 -
ID=PSME_00046768     -            136 131839at3193         -            198   4.3e-12   47.4   0.1   1   1   5.2e-14   8.3e-12   46.5   0.1    88   123     3    38     1    61 0.86 -
ID=PSME_00052781     -            220 131839at3193         -            198   6.1e-12   47.0   0.0   1   1   5.5e-14   8.9e-12   46.4   0.0    87   138   157   207   153   217 0.85 -
ID=PSME_00020303     -            598 131839at3193         -            198   8.4e-12   46.5   0.0   1   1   9.3e-14   1.5e-11   45.7   0.0    86   131   450   495   444   532 0.83 -
ID=PSME_00055211     -            105 131839at3193         -            198   1.1e-11   46.1   0.0   1   1   7.2e-14   1.2e-11   46.0   0.0    83   146     5    67     1    89 0.84 -
ID=PSME_00048331     -            343 131839at3193         -            198   1.5e-11   45.7   0.1   1   1   1.6e-13   2.5e-11   44.9   0.1    87   116     3    32     1    47 0.94 -
ID=PSME_00010956     -            115 131839at3193         -            198   1.7e-11   45.5   0.0   1   1   1.6e-13   2.5e-11   44.9   0.0    94   131    58    94    53   107 0.90 -
ID=PSME_00006894     -            227 131839at3193         -            198   1.8e-11   45.4   0.1   1   2   3.1e-12     5e-10   40.7   0.0    88   129     3    44     1    49 0.91 -
ID=PSME_00006894     -            227 131839at3193         -            198   1.8e-11   45.4   0.1   2   2       1.4   2.3e+02    2.7   0.0    90   107    75    92    53    98 0.89 -
ID=PSME_00024656     -             60 131839at3193         -            198     2e-11   45.3   0.0   1   1   1.4e-13   2.2e-11   45.1   0.0     1    46     1    47     1    50 0.94 -
ID=PSME_00056520     -             95 131839at3193         -            198   3.8e-11   44.4   0.1   1   1   2.7e-13   4.3e-11   44.2   0.1    89   132     1    43     1    63 0.88 -
ID=PSME_00053086     -            350 131839at3193         -            198   5.6e-11   43.8   0.9   1   1   8.8e-13   1.4e-10   42.5   0.2    87   117     3    33     1    49 0.93 -
ID=PSME_00024660     -             83 131839at3193         -            198   5.9e-11   43.7   0.0   1   1   3.9e-13   6.3e-11   43.6   0.0     1    45     1    46     1    64 0.91 -
ID=PSME_00036523     -            370 131839at3193         -            198   8.4e-11   43.2   0.2   1   1     1e-12   1.6e-10   42.3   0.2    82   117    25    59    15    64 0.90 -
ID=PSME_00052293     -            414 131839at3193         -            198   1.1e-10   42.8   0.2   1   1   1.2e-12   1.9e-10   42.1   0.2    87   117     3    33     1    38 0.94 -
ID=PSME_00055304     -            291 131839at3193         -            198   1.9e-10   42.0   0.1   1   1     2e-12   3.1e-10   41.4   0.1    89   117     3    31     1    75 0.88 -
ID=PSME_00031990     -            447 131839at3193         -            198   2.2e-10   41.9   0.2   1   1   2.5e-12     4e-10   41.0   0.2    87   117    18    48    10   122 0.77 -
ID=PSME_00031625     -            293 131839at3193         -            198   1.2e-09   39.5   0.0   1   1   9.6e-12   1.5e-09   39.1   0.0    89   130     1    44     1   107 0.79 -
ID=PSME_00046720     -             86 131839at3193         -            198   1.6e-09   39.0   0.1   1   1   1.1e-11   1.8e-09   38.9   0.1    88   115     5    32     1    45 0.89 -
ID=PSME_00054557     -            101 131839at3193         -            198   1.7e-09   38.9   0.0   1   1   1.3e-11   2.1e-09   38.7   0.0    87   146     5    63     3    77 0.86 -
ID=PSME_00051427     -            397 131839at3193         -            198   2.6e-09   38.4   0.5   1   1   2.9e-11   4.6e-09   37.6   0.5    87   116     3    32     1    35 0.95 -
ID=PSME_00026687     -            344 131839at3193         -            198   3.2e-09   38.1   0.1   1   1   3.1e-11     5e-09   37.5   0.1    87   116     3    32     1    43 0.93 -
ID=PSME_00037716     -            159 131839at3193         -            198     4e-09   37.8   0.1   1   1   3.7e-11     6e-09   37.2   0.1    69   111   107   149   103   154 0.92 -
ID=PSME_00046719     -             68 131839at3193         -            198     4e-09   37.7   0.0   1   1   2.8e-11   4.5e-09   37.6   0.0     1    45    21    65    21    67 0.98 -
ID=PSME_00046864     -           1100 131839at3193         -            198   4.4e-09   37.6   0.6   1   1   6.5e-11     1e-08   36.4   0.6    12   101    13   100     6   112 0.90 -
ID=PSME_00045613     -            186 131839at3193         -            198   5.2e-09   37.4   0.1   1   1   9.6e-11   1.5e-08   35.8   0.1    45   108     2    58     1    63 0.83 -
ID=PSME_00054298     -             94 131839at3193         -            198   5.5e-09   37.3   0.2   1   1   3.9e-11   6.3e-09   37.1   0.2    89   118     3    32     1    47 0.91 -
ID=PSME_00046721     -            265 131839at3193         -            198   5.5e-09   37.3   0.1   1   1   5.2e-11   8.4e-09   36.7   0.1    88   115     5    32     1    44 0.90 -
ID=PSME_00019623     -            161 131839at3193         -            198   6.4e-09   37.1   0.0   1   1   5.3e-11   8.5e-09   36.7   0.0    68   113    79   124    75   146 0.91 -
ID=PSME_00056667     -            229 131839at3193         -            198   1.1e-08   36.4   0.1   1   2   3.8e-10   6.2e-08   33.9   0.0    87   117     5    35     2    81 0.85 -
ID=PSME_00056667     -            229 131839at3193         -            198   1.1e-08   36.4   0.1   2   2         8   1.3e+03    0.2   0.0    11    33   114   136   106   157 0.70 -
ID=PSME_00051209     -            178 131839at3193         -            198   1.9e-08   35.6   0.0   1   1   1.9e-10     3e-08   34.9   0.0    96   141    39    83    36    99 0.83 -
ID=PSME_00006893     -             69 131839at3193         -            198   2.7e-08   35.1   0.0   1   1   1.8e-10   2.9e-08   35.0   0.0     6    45    11    50     1    56 0.84 -
ID=PSME_00014049     -            429 131839at3193         -            198   4.5e-08   34.3   0.1   1   1   4.8e-10   7.7e-08   33.6   0.1    89   118     3    32     1    41 0.93 -
ID=PSME_00032710     -             89 131839at3193         -            198   4.6e-08   34.3   0.0   1   1   2.9e-10   4.6e-08   34.3   0.0    12    48     3    39     1    73 0.89 -
ID=PSME_00038587     -            395 131839at3193         -            198   5.5e-08   34.0   0.1   1   1   5.2e-10   8.3e-08   33.5   0.1    88   117     2    31     1    37 0.94 -
ID=PSME_00051327     -            282 131839at3193         -            198     1e-07   33.2   0.0   1   1   9.1e-10   1.5e-07   32.7   0.0    96   146   195   244   191   264 0.85 -
ID=PSME_00049776     -            152 131839at3193         -            198   1.2e-07   32.9   0.0   1   1   9.6e-10   1.5e-07   32.6   0.0    88   117     2    31     1    62 0.86 -
ID=PSME_00019624     -            162 131839at3193         -            198   1.5e-07   32.6   0.0   1   1   1.3e-09   2.1e-07   32.2   0.0    68   113    79   124    75   146 0.90 -
ID=PSME_00017564     -            376 131839at3193         -            198   1.7e-07   32.5   0.3   1   1   1.7e-09   2.7e-07   31.8   0.3    92   116     1    25     1    29 0.94 -
ID=PSME_00053243     -            100 131839at3193         -            198   2.5e-07   31.9   0.0   1   1   1.9e-09     3e-07   31.6   0.0    69   111    47    89    35    96 0.90 -
ID=PSME_00050340     -            126 131839at3193         -            198   2.9e-07   31.7   0.0   1   1   2.5e-09   4.1e-07   31.2   0.0    68   108    77   117    71   122 0.91 -
ID=PSME_00048290     -             67 131839at3193         -            198   1.4e-06   29.5   0.1   1   1   8.6e-09   1.4e-06   29.5   0.1   103   146     3    46     1    59 0.84 -
ID=PSME_00036570     -            237 131839at3193         -            198   1.5e-06   29.4   0.4   1   2     0.002      0.32   12.0   0.0    12    34    20    42    13    56 0.87 -
ID=PSME_00036570     -            237 131839at3193         -            198   1.5e-06   29.4   0.4   2   2   0.00014     0.023   15.7   0.3    85   116    43    78    40    81 0.70 -
ID=PSME_00014504     -             77 131839at3193         -            198   2.1e-06   28.9   0.0   1   1   1.6e-08   2.5e-06   28.6   0.0    69   112    20    63    15    68 0.91 -
ID=PSME_00054355     -            103 131839at3193         -            198   2.2e-06   28.8   0.0   1   1   1.5e-08   2.4e-06   28.7   0.0    96   142    33    78    19    93 0.77 -
ID=PSME_00017566     -            376 131839at3193         -            198   2.2e-06   28.8   0.2   1   1   2.3e-08   3.6e-06   28.1   0.2    92   116     1    25     1    29 0.94 -
ID=PSME_00004475     -            129 131839at3193         -            198   2.6e-06   28.6   0.0   1   1   1.8e-08   2.9e-06   28.4   0.0    89   124     3    41     1    73 0.81 -
ID=PSME_00053449     -            143 131839at3193         -            198   6.1e-06   27.4   0.0   1   1   4.4e-08     7e-06   27.2   0.0    89   143    66   119    36   133 0.75 -
ID=PSME_00056989     -             68 131839at3193         -            198   6.9e-06   27.2   0.1   1   1   4.3e-08   6.9e-06   27.2   0.1     3    46     6    50     1    65 0.78 -
ID=PSME_00036197     -            166 131839at3193         -            198   1.2e-05   26.4   0.0   1   1   1.7e-07   2.7e-05   25.3   0.1    89   117     4    32     2    47 0.89 -
ID=PSME_00014050     -             72 131839at3193         -            198   1.3e-05   26.3   0.0   1   1     9e-08   1.4e-05   26.2   0.0     7    45    14    54     9    61 0.89 -
ID=PSME_00033253     -            292 131839at3193         -            198   2.3e-05   25.5   0.4   1   2    0.0026      0.42   11.6   0.0    12    34    20    42    10    53 0.87 -
ID=PSME_00033253     -            292 131839at3193         -            198   2.3e-05   25.5   0.4   2   2    0.0018      0.29   12.1   0.3    85   116    43    78    40    81 0.67 -
ID=PSME_00026688     -             75 131839at3193         -            198   4.3e-05   24.6   0.0   1   1   3.2e-07   5.1e-05   24.4   0.0    11    48    33    71    23    73 0.89 -
ID=PSME_00011592     -            417 131839at3193         -            198   4.3e-05   24.6   0.3   1   2    0.0042      0.67   10.9   0.0    12    34    20    42    10    53 0.87 -
ID=PSME_00011592     -            417 131839at3193         -            198   4.3e-05   24.6   0.3   2   2    0.0021      0.34   11.9   0.2    85   116    43    78    40    81 0.69 -
ID=PSME_00017565     -            137 131839at3193         -            198   6.8e-05   24.0   0.0   1   1   6.2e-07   9.9e-05   23.4   0.0    10    46    99   136    92   136 0.88 -
ID=PSME_00053258     -            243 131839at3193         -            198   9.2e-05   23.5   0.0   1   1   8.8e-07   0.00014   22.9   0.0     1    39   200   238   200   242 0.90 -
ID=PSME_00014782     -            172 131839at3193         -            198    0.0001   23.4   0.0   1   1   9.4e-07   0.00015   22.8   0.0    70   109   125   164   115   170 0.88 -
ID=PSME_00033698     -            389 131839at3193         -            198   0.00011   23.2   0.1   1   1   1.3e-06   0.00021   22.4   0.1    96   116     1    21     1    52 0.87 -
ID=PSME_00053085     -             67 131839at3193         -            198   0.00012   23.1   0.0   1   1   8.6e-07   0.00014   23.0   0.0    10    46    24    61    17    65 0.87 -
ID=PSME_00011048     -            295 131839at3193         -            198   0.00014   22.9   0.0   1   1   1.2e-06    0.0002   22.4   0.0     1    40     1    40     1    53 0.84 -
ID=PSME_00055450     -             92 131839at3193         -            198   0.00018   22.5   0.0   1   1   1.5e-06   0.00023   22.2   0.0     1    35     1    35     1    48 0.89 -
ID=PSME_00055152     -             92 131839at3193         -            198   0.00024   22.2   0.0   1   1     2e-06   0.00032   21.7   0.0     1    35     1    35     1    49 0.89 -
ID=PSME_00055144     -             92 131839at3193         -            198   0.00027   22.0   0.0   1   1   2.2e-06   0.00036   21.6   0.0     1    35     1    35     1    49 0.89 -
ID=PSME_00054923     -             96 131839at3193         -            198   0.00038   21.5   0.0   1   1   3.1e-06    0.0005   21.1   0.0     1    35    14    48    14    61 0.89 -
ID=PSME_00012905     -            137 131839at3193         -            198    0.0005   21.1   1.6   1   1     9e-06    0.0014   19.6   1.6    33   120    25    97    15   133 0.77 -
ID=PSME_00051428     -             66 131839at3193         -            198    0.0006   20.9   0.0   1   1   4.6e-06   0.00074   20.6   0.0    11    45    23    59    16    62 0.88 -
ID=PSME_00030687     -            764 131839at3193         -            198   0.00064   20.8   0.0   1   1   6.9e-06    0.0011   20.0   0.0    97   118   157   178   154   226 0.84 -
ID=PSME_00052540     -            221 131839at3193         -            198   0.00081   20.4   0.0   1   1   7.1e-06    0.0011   20.0   0.0     1    35    11    45    11    66 0.86 -
ID=PSME_00014514     -            764 131839at3193         -            198   0.00088   20.3   0.0   1   1   9.8e-06    0.0016   19.5   0.0    97   117   121   141   118   154 0.87 -
ID=PSME_00057143     -             64 131839at3193         -            198    0.0012   19.9   0.1   1   1   8.2e-06    0.0013   19.7   0.1     3    34    30    61    28    63 0.91 -
ID=PSME_00052292     -             77 131839at3193         -            198    0.0014   19.7   0.0   1   1   1.1e-05    0.0018   19.3   0.0    10    46    20    57    13    62 0.88 -
ID=PSME_00052062     -             97 131839at3193         -            198    0.0018   19.3   0.0   1   1   1.2e-05    0.0019   19.2   0.0     2    41     2    41     1    68 0.89 -
ID=PSME_00036211     -            153 131839at3193         -            198    0.0019   19.2   0.0   1   2     0.016       2.5    9.0   0.0    86   109    37    60    15    72 0.84 -
ID=PSME_00036211     -            153 131839at3193         -            198    0.0019   19.2   0.0   2   2     0.035       5.6    7.9   0.0    85   112   104   131    84   140 0.82 -
ID=PSME_00038049     -            319 131839at3193         -            198    0.0028   18.7   0.0   1   1     3e-05    0.0048   17.9   0.0   109   138    25    54    15    79 0.86 -
ID=PSME_00018986     -            247 131839at3193         -            198    0.0031   18.5   0.3   1   2     0.024       3.9    8.4   0.0    86   109    98   121    81   129 0.88 -
ID=PSME_00018986     -            247 131839at3193         -            198    0.0031   18.5   0.3   2   2     0.047       7.6    7.5   0.0     8    48   178   218   173   232 0.84 -
ID=PSME_00024721     -            674 131839at3193         -            198    0.0055   17.7   0.0   1   1   6.9e-05     0.011   16.7   0.0    97   117   118   138   111   155 0.90 -
ID=PSME_00037220     -            323 131839at3193         -            198    0.0081   17.2   0.0   1   1   9.1e-05     0.015   16.3   0.0   112   139    36    63    28    97 0.87 -
ID=PSME_00055945     -             98 131839at3193         -            198     0.011   16.8   0.0   1   1   8.4e-05     0.013   16.5   0.0     8    50    13    55     7    61 0.90 -
ID=PSME_00042339     -            344 131839at3193         -            198     0.011   16.7   0.1   1   2     0.039       6.3    7.7   0.0    87   109    57    79    40    87 0.89 -
ID=PSME_00042339     -            344 131839at3193         -            198     0.011   16.7   0.1   2   2     0.076        12    6.8   0.1     8    48   135   175   130   201 0.85 -
ID=PSME_00054865     -            281 131839at3193         -            198     0.014   16.4   0.1   1   2      0.37        60    4.5   0.0    86   110    29    53    14    61 0.85 -
ID=PSME_00054865     -            281 131839at3193         -            198     0.014   16.4   0.1   2   2    0.0083       1.3    9.9   0.1     7    49   105   147    98   189 0.83 -
ID=PSME_00054303     -            226 131839at3193         -            198     0.017   16.1   0.0   1   1   0.00015     0.024   15.6   0.0     1    36     1    36     1    47 0.90 -
ID=PSME_00040717     -             72 131839at3193         -            198     0.032   15.2   0.0   1   1   0.00021     0.033   15.2   0.0   131   176    21    66     3    71 0.84 -
ID=PSME_00015332     -            539 131839at3193         -            198     0.053   14.5   0.1   1   1   0.00067      0.11   13.5   0.1    98   116    70    88    53    91 0.86 -
ID=PSME_00053886     -            344 131839at3193         -            198      0.18   12.7   0.2   1   2      0.17        27    5.7   0.0    87   109    57    79    40    87 0.89 -
ID=PSME_00053886     -            344 131839at3193         -            198      0.18   12.7   0.2   2   2      0.29        47    4.9   0.1     9    48   136   175   130   201 0.84 -
ID=PSME_00029263     -            637 131839at3193         -            198      0.34   11.9   0.0   1   1    0.0041      0.66   10.9   0.0   127   197    44   116    26   117 0.87 -
#
# Program:         hmmsearch
# Version:         3.2.1 (June 2018)
# Pipeline mode:   SEARCH
# Query file:      /isg/shared/databases/BUSCO/odb10/embryophyta_odb10/hmms/131839at3193.hmm
# Target file:     /labs/Wegrzyn/ConiferGenomes/Psme/analysis/SURF_annotation/analyze_orig_maker/gfacs/filtered/maker_genes.fasta.faa
# Option settings: /usr/local/bin/hmmsearch --domtblout /labs/Wegrzyn/ConiferGenomes/Psme/analysis/SURF_annotation/analyze_orig_maker/busco/maker/run_embryophyta_odb10/hmmer_output/131839at3193.out --cpu 1 /isg/shared/databases/BUSCO/odb10/embryophyta_odb10/hmms/131839at3193.hmm /labs/Wegrzyn/ConiferGenomes/Psme/analysis/SURF_annotation/analyze_orig_maker/gfacs/filtered/maker_genes.fasta.faa 
# Current dir:     /labs/Wegrzyn/ConiferGenomes/Psme/analysis/SURF_annotation/analyze_orig_maker/busco
# Date:            Fri Jul 10 13:42:30 2020
# [ok]
