#                                                                            --- full sequence --- -------------- this domain -------------   hmm coord   ali coord   env coord
# target name        accession   tlen query name           accession   qlen   E-value  score  bias   #  of  c-Evalue  i-Evalue  score  bias  from    to  from    to  from    to  acc description of target
#------------------- ---------- ----- -------------------- ---------- ----- --------- ------ ----- --- --- --------- --------- ------ ----- ----- ----- ----- ----- ----- ----- ---- ---------------------
ID=PSME_00035173     -            583 132714at3193         -            330  1.5e-101  341.4  19.1   1   2  9.2e-101   7.9e-98  329.2  18.0    11   272   186   470   181   517 0.85 -
ID=PSME_00035173     -            583 132714at3193         -            330  1.5e-101  341.4  19.1   2   2   0.00074      0.63   10.7   0.0   283   330   532   583   517   583 0.78 -
ID=PSME_00016430     -            506 132714at3193         -            330   5.7e-16   60.1   0.2   1   1   1.3e-18   1.1e-15   59.2   0.2    12   103   108   209    98   218 0.85 -
ID=PSME_00011996     -            740 132714at3193         -            330   1.8e-06   28.9   0.0   1   2   2.1e-05     0.018   15.7   0.0    15    49    20    54     7    65 0.84 -
ID=PSME_00011996     -            740 132714at3193         -            330   1.8e-06   28.9   0.0   2   2    0.0011      0.96   10.1   0.0    15    49   373   407   362   417 0.88 -
ID=PSME_00036596     -            230 132714at3193         -            330   1.4e-05   26.0   0.1   1   2   2.4e-07   0.00021   22.1   0.0    16    59    10    53     3    80 0.91 -
ID=PSME_00036596     -            230 132714at3193         -            330   1.4e-05   26.0   0.1   2   2      0.42   3.6e+02    1.6   0.0   108   128   112   132   107   139 0.81 -
ID=PSME_00031733     -            374 132714at3193         -            330   3.5e-05   24.7   0.4   1   1   1.6e-07   0.00014   22.7   0.4    15    91   153   224   142   280 0.73 -
ID=PSME_00004028     -            499 132714at3193         -            330   3.6e-05   24.6   0.1   1   1   5.9e-08   5.1e-05   24.1   0.1    12    56    88   132    77   139 0.86 -
ID=PSME_00044223     -            328 132714at3193         -            330   6.4e-05   23.8   0.0   1   2     3e-07   0.00025   21.8   0.0    17    97     7    82     2   134 0.80 -
ID=PSME_00044223     -            328 132714at3193         -            330   6.4e-05   23.8   0.0   2   2       4.4   3.8e+03   -1.8   0.0   160   188   157   188   147   193 0.75 -
ID=PSME_00026547     -            369 132714at3193         -            330   0.00025   21.9   0.0   1   1   4.4e-07   0.00037   21.3   0.0    14    49     8    43     3   117 0.75 -
ID=PSME_00031183     -            361 132714at3193         -            330   0.00026   21.8   0.0   1   1   6.2e-07   0.00053   20.8   0.0    10    49    13    52     7    69 0.86 -
ID=PSME_00026546     -            369 132714at3193         -            330   0.00042   21.1   0.0   1   1   7.1e-07   0.00061   20.6   0.0    14    48     8    42     3   110 0.81 -
ID=PSME_00032169     -            124 132714at3193         -            330   0.00051   20.8   0.0   1   1   7.7e-07   0.00066   20.5   0.0    11    48     5    42     2    57 0.90 -
ID=PSME_00042551     -            146 132714at3193         -            330   0.00052   20.8   0.1   1   1   8.3e-07   0.00071   20.4   0.1    16    50   102   136    93   142 0.91 -
ID=PSME_00033245     -            419 132714at3193         -            330   0.00076   20.3   0.2   1   1   1.7e-06    0.0014   19.3   0.1    13    50    64   101    53   110 0.89 -
ID=PSME_00042772     -            381 132714at3193         -            330    0.0012   19.6   0.4   1   2   3.1e-06    0.0026   18.5   0.3    17    51    23    57    15   108 0.83 -
ID=PSME_00042772     -            381 132714at3193         -            330    0.0012   19.6   0.4   2   2       3.7   3.2e+03   -1.5   0.0   107   185    80   163    60   166 0.63 -
ID=PSME_00012476     -            381 132714at3193         -            330    0.0019   18.9   0.4   1   1   5.1e-06    0.0043   17.8   0.1    17    50    23    56    17    61 0.93 -
ID=PSME_00042205     -            401 132714at3193         -            330    0.0026   18.5   0.0   1   1   4.2e-06    0.0036   18.0   0.0    11    91    13    90     4   127 0.80 -
ID=PSME_00048484     -            225 132714at3193         -            330     0.003   18.3   0.1   1   1   5.8e-06     0.005   17.6   0.1    14    53     7    46     2    55 0.90 -
ID=PSME_00045202     -            345 132714at3193         -            330    0.0036   18.1   0.0   1   1   8.2e-06     0.007   17.1   0.0    13    49    10    46     2    56 0.85 -
ID=PSME_00046381     -            345 132714at3193         -            330     0.004   17.9   0.1   1   1     9e-06    0.0077   17.0   0.1    13    49    10    46     2    56 0.85 -
ID=PSME_00012477     -            380 132714at3193         -            330    0.0053   17.5   0.0   1   1   9.5e-06    0.0081   16.9   0.0    12    50    48    86    38    96 0.86 -
ID=PSME_00022933     -            299 132714at3193         -            330    0.0055   17.4   0.0   1   1     1e-05    0.0087   16.8   0.0    15    49    21    55    10    71 0.87 -
ID=PSME_00030151     -            360 132714at3193         -            330    0.0083   16.9   0.0   1   1   1.5e-05     0.013   16.2   0.0    12    48    87   123    76   128 0.90 -
ID=PSME_00010649     -            331 132714at3193         -            330    0.0096   16.6   0.0   1   1   2.9e-05     0.025   15.3   0.0    13    49    10    46     2    55 0.89 -
ID=PSME_00002513     -            284 132714at3193         -            330     0.011   16.4   0.0   1   1   1.9e-05     0.017   15.9   0.0    12    59     8    55     3    84 0.88 -
ID=PSME_00043472     -            322 132714at3193         -            330     0.015   16.0   0.0   1   1   2.5e-05     0.021   15.5   0.0    15    48     5    38     1   100 0.85 -
ID=PSME_00032170     -            354 132714at3193         -            330     0.017   15.8   0.0   1   1   2.8e-05     0.024   15.4   0.0    12    56     9    53     2   119 0.67 -
ID=PSME_00046978     -            342 132714at3193         -            330     0.018   15.8   0.0   1   2   6.3e-05     0.054   14.2   0.0    15    49    12    46     2    52 0.89 -
ID=PSME_00046978     -            342 132714at3193         -            330     0.018   15.8   0.0   2   2       6.6   5.6e+03   -2.3   0.0    33    51   310   328   309   331 0.89 -
ID=PSME_00025561     -            377 132714at3193         -            330     0.018   15.8   0.0   1   1   3.1e-05     0.026   15.2   0.0    10    48    33    71    25   114 0.90 -
ID=PSME_00010647     -            353 132714at3193         -            330     0.026   15.2   0.5   1   1   5.1e-05     0.044   14.5   0.1    14    49    28    63    17    71 0.88 -
ID=PSME_00006528     -            330 132714at3193         -            330     0.026   15.2   0.6   1   1   6.4e-05     0.055   14.2   0.6    15   139    12   132     2   185 0.66 -
ID=PSME_00028440     -            331 132714at3193         -            330     0.028   15.1   0.0   1   1   5.2e-05     0.045   14.5   0.0    12    48     9    45     3    86 0.91 -
ID=PSME_00006524     -            312 132714at3193         -            330     0.029   15.1   0.1   1   1   6.7e-05     0.057   14.1   0.1    12    49     9    46     2    53 0.89 -
ID=PSME_00006530     -            325 132714at3193         -            330     0.029   15.1   0.0   1   1   6.5e-05     0.056   14.1   0.0    12    49     9    46     2    54 0.89 -
ID=PSME_00010646     -            282 132714at3193         -            330     0.029   15.1   0.4   1   2    0.0001     0.087   13.5   0.1    15    49    12    46     2    51 0.89 -
ID=PSME_00010646     -            282 132714at3193         -            330     0.029   15.1   0.4   2   2       4.2   3.6e+03   -1.7   0.0   251   276    70    95    47   119 0.55 -
ID=PSME_00044280     -            336 132714at3193         -            330     0.033   14.9   0.0   1   1   6.5e-05     0.056   14.1   0.0    18    57    11    50     6    57 0.89 -
ID=PSME_00046428     -            273 132714at3193         -            330     0.036   14.7   0.1   1   1   6.3e-05     0.054   14.2   0.1    15    49     9    43     2    56 0.87 -
ID=PSME_00025560     -            351 132714at3193         -            330     0.041   14.6   0.0   1   1   8.1e-05      0.07   13.8   0.0    10    48    44    82    36    86 0.89 -
ID=PSME_00034854     -            342 132714at3193         -            330     0.042   14.5   0.0   1   2   0.00031      0.26   11.9   0.1    18    49    12    43     5    51 0.88 -
ID=PSME_00034854     -            342 132714at3193         -            330     0.042   14.5   0.0   2   2       1.4   1.2e+03   -0.1   0.0    33    51   309   327   302   340 0.84 -
ID=PSME_00046128     -            348 132714at3193         -            330     0.052   14.2   0.0   1   1   0.00013      0.11   13.2   0.0    14    49    16    51    13    61 0.91 -
ID=PSME_00007383     -            332 132714at3193         -            330     0.055   14.2   0.0   1   2   0.00042      0.36   11.5   0.0    19    49     3    33     1    42 0.89 -
ID=PSME_00007383     -            332 132714at3193         -            330     0.055   14.2   0.0   2   2       1.2     1e+03    0.1   0.0    33    51   299   317   292   330 0.81 -
ID=PSME_00023774     -            318 132714at3193         -            330     0.066   13.9   0.1   1   2   0.00031      0.27   11.9   0.1     5    47    35    77    31   113 0.86 -
ID=PSME_00023774     -            318 132714at3193         -            330     0.066   13.9   0.1   2   2       3.2   2.7e+03   -1.3   0.0    33    51   285   303   283   305 0.88 -
ID=PSME_00013977     -            358 132714at3193         -            330      0.07   13.8   0.0   1   1   0.00013      0.11   13.2   0.0    18    50    29    61    22    69 0.91 -
ID=PSME_00004964     -            365 132714at3193         -            330     0.075   13.7   0.0   1   1   0.00016      0.14   12.9   0.0    13    53    11    51     3    59 0.86 -
ID=PSME_00007385     -            341 132714at3193         -            330      0.08   13.6   0.0   1   2   0.00041      0.35   11.5   0.0    18    49    11    42     8    51 0.89 -
ID=PSME_00007385     -            341 132714at3193         -            330      0.08   13.6   0.0   2   2       2.5   2.2e+03   -1.0   0.0    33    50   308   325   305   329 0.90 -
ID=PSME_00041951     -            418 132714at3193         -            330       0.1   13.3   0.0   1   1   0.00028      0.24   12.1   0.0    14    49    87   122    75   128 0.88 -
ID=PSME_00030725     -            377 132714at3193         -            330      0.11   13.2   0.0   1   1    0.0002      0.17   12.5   0.0    14    48    37    71    26    74 0.90 -
ID=PSME_00049023     -            120 132714at3193         -            330      0.11   13.2   0.0   1   1   0.00015      0.13   12.9   0.0   146   209     4    67     1    70 0.82 -
ID=PSME_00041615     -            319 132714at3193         -            330      0.12   13.1   0.1   1   1   0.00021      0.18   12.5   0.1    16    47     3    34     1    42 0.93 -
ID=PSME_00007384     -            356 132714at3193         -            330      0.13   12.9   0.0   1   1   0.00039      0.34   11.6   0.0    18    48    27    57    15    65 0.90 -
ID=PSME_00046376     -            246 132714at3193         -            330      0.13   12.9   0.0   1   1   0.00024       0.2   12.3   0.0    16    46    15    45     2    51 0.88 -
ID=PSME_00037597     -            443 132714at3193         -            330      0.16   12.6   0.0   1   1   0.00036      0.31   11.7   0.0    15    67    32    83    22   110 0.80 -
ID=PSME_00041206     -            377 132714at3193         -            330      0.19   12.4   0.0   1   1   0.00034      0.29   11.8   0.0     9    48    32    71    25    76 0.90 -
ID=PSME_00027838     -            222 132714at3193         -            330       0.2   12.3   0.0   1   1   0.00038      0.33   11.6   0.0    19    49    16    46    10    51 0.92 -
ID=PSME_00007382     -            343 132714at3193         -            330      0.22   12.2   0.0   1   1   0.00055      0.47   11.1   0.0    18    49    13    44     4    50 0.90 -
ID=PSME_00038842     -            196 132714at3193         -            330      0.22   12.2   0.3   1   2    0.0018       1.6    9.4   0.1    16    59    33    76    24   107 0.82 -
ID=PSME_00038842     -            196 132714at3193         -            330      0.22   12.2   0.3   2   2       7.7   6.6e+03   -2.5   0.0   213   245   132   163   129   174 0.72 -
ID=PSME_00028713     -            295 132714at3193         -            330      0.23   12.1   0.0   1   1   0.00042      0.36   11.5   0.0    18    49    11    42     4    48 0.90 -
ID=PSME_00027366     -            358 132714at3193         -            330      0.28   11.8   0.0   1   1   0.00053      0.45   11.1   0.0    18    47    12    41     4    48 0.89 -
ID=PSME_00046693     -            335 132714at3193         -            330      0.31   11.7   0.0   1   1   0.00065      0.56   10.8   0.0    19    49    16    46     8    51 0.92 -
ID=PSME_00010223     -            330 132714at3193         -            330      0.34   11.5   0.0   1   1   0.00068      0.58   10.8   0.0    18    49     7    38     3    49 0.91 -
ID=PSME_00038721     -            661 132714at3193         -            330       0.4   11.3   0.1   1   1   0.00086      0.73   10.5   0.1    19    49     3    33     1    41 0.89 -
ID=PSME_00042768     -            341 132714at3193         -            330      0.47   11.1   0.0   1   1   0.00092      0.79   10.4   0.0    12    48     8    44     2    50 0.90 -
ID=PSME_00035370     -            462 132714at3193         -            330      0.49   11.0   0.5   1   1     0.001      0.88   10.2   0.5    17   117   160   253   153   261 0.85 -
ID=PSME_00045325     -            368 132714at3193         -            330      0.53   10.9   0.0   1   1   0.00098      0.84   10.3   0.0    15    77    54   113    44   125 0.79 -
ID=PSME_00013605     -            268 132714at3193         -            330      0.61   10.7   0.3   1   1    0.0013       1.1    9.9   0.0    17    48    17    48    11    55 0.86 -
#
# Program:         hmmsearch
# Version:         3.2.1 (June 2018)
# Pipeline mode:   SEARCH
# Query file:      /isg/shared/databases/BUSCO/odb10/embryophyta_odb10/hmms/132714at3193.hmm
# Target file:     /labs/Wegrzyn/ConiferGenomes/Psme/analysis/SURF_annotation/analyze_orig_maker/gfacs/filtered/maker_genes.fasta.faa
# Option settings: /usr/local/bin/hmmsearch --domtblout /labs/Wegrzyn/ConiferGenomes/Psme/analysis/SURF_annotation/analyze_orig_maker/busco/maker/run_embryophyta_odb10/hmmer_output/132714at3193.out --cpu 1 /isg/shared/databases/BUSCO/odb10/embryophyta_odb10/hmms/132714at3193.hmm /labs/Wegrzyn/ConiferGenomes/Psme/analysis/SURF_annotation/analyze_orig_maker/gfacs/filtered/maker_genes.fasta.faa 
# Current dir:     /labs/Wegrzyn/ConiferGenomes/Psme/analysis/SURF_annotation/analyze_orig_maker/busco
# Date:            Fri Jul 10 13:42:23 2020
# [ok]
