#                                                                            --- full sequence --- -------------- this domain -------------   hmm coord   ali coord   env coord
# target name        accession   tlen query name           accession   qlen   E-value  score  bias   #  of  c-Evalue  i-Evalue  score  bias  from    to  from    to  from    to  acc description of target
#------------------- ---------- ----- -------------------- ---------- ----- --------- ------ ----- --- --- --------- --------- ------ ----- ----- ----- ----- ----- ----- ----- ---- ---------------------
ID=PSME_00049084     -            187 134572at3193         -            235   4.7e-30  106.4   7.2   1   4     0.067   1.8e+03   -0.3   0.0   176   214    23    61    19    63 0.83 -
ID=PSME_00049084     -            187 134572at3193         -            235   4.7e-30  106.4   7.2   2   4   9.5e-09   0.00026   22.1   0.7    71    99    62    94    53   103 0.85 -
ID=PSME_00049084     -            187 134572at3193         -            235   4.7e-30  106.4   7.2   3   4   5.6e-07     0.015   16.3   0.2   142   162   109   129    96   130 0.89 -
ID=PSME_00049084     -            187 134572at3193         -            235   4.7e-30  106.4   7.2   4   4   3.4e-24   9.2e-20   72.7   0.0   177   233   127   183   126   185 0.96 -
ID=PSME_00046507     -            207 134572at3193         -            235      0.33   12.0   0.0   1   1   1.8e-05      0.49   11.4   0.0     8    37    54    83    48    97 0.77 -
#
# Program:         hmmsearch
# Version:         3.2.1 (June 2018)
# Pipeline mode:   SEARCH
# Query file:      /isg/shared/databases/BUSCO/odb10/embryophyta_odb10/hmms/134572at3193.hmm
# Target file:     /labs/Wegrzyn/ConiferGenomes/Psme/analysis/SURF_annotation/analyze_orig_maker/gfacs/filtered/maker_genes.fasta.faa
# Option settings: /usr/local/bin/hmmsearch --domtblout /labs/Wegrzyn/ConiferGenomes/Psme/analysis/SURF_annotation/analyze_orig_maker/busco/maker/run_embryophyta_odb10/hmmer_output/134572at3193.out --cpu 1 /isg/shared/databases/BUSCO/odb10/embryophyta_odb10/hmms/134572at3193.hmm /labs/Wegrzyn/ConiferGenomes/Psme/analysis/SURF_annotation/analyze_orig_maker/gfacs/filtered/maker_genes.fasta.faa 
# Current dir:     /labs/Wegrzyn/ConiferGenomes/Psme/analysis/SURF_annotation/analyze_orig_maker/busco
# Date:            Fri Jul 10 13:42:25 2020
# [ok]
