#                                                                            --- full sequence --- -------------- this domain -------------   hmm coord   ali coord   env coord
# target name        accession   tlen query name           accession   qlen   E-value  score  bias   #  of  c-Evalue  i-Evalue  score  bias  from    to  from    to  from    to  acc description of target
#------------------- ---------- ----- -------------------- ---------- ----- --------- ------ ----- --- --- --------- --------- ------ ----- ----- ----- ----- ----- ----- ----- ---- ---------------------
ID=PSME_00013585     -            696 13495at3193          -            730  5.6e-247  823.1  28.7   1   4  1.8e-125    5e-121  406.7   4.8     1   233     1   242     1   247 0.96 -
ID=PSME_00013585     -            696 13495at3193          -            730  5.6e-247  823.1  28.7   2   4   6.4e-13   1.8e-08   34.6   0.5   233   260   273   300   268   307 0.90 -
ID=PSME_00013585     -            696 13495at3193          -            730  5.6e-247  823.1  28.7   3   4   4.5e-92   1.2e-87  296.3   0.1   255   462   322   540   310   546 0.94 -
ID=PSME_00013585     -            696 13495at3193          -            730  5.6e-247  823.1  28.7   4   4   1.3e-30   3.5e-26   93.1   5.6   458   546   567   674   556   689 0.78 -
ID=PSME_00013584     -            212 13495at3193          -            730   3.9e-99  334.3   0.1   1   1  1.8e-103   4.9e-99  334.0   0.1   541   730     4   211     1   211 0.94 -
#
# Program:         hmmsearch
# Version:         3.2.1 (June 2018)
# Pipeline mode:   SEARCH
# Query file:      /isg/shared/databases/BUSCO/odb10/embryophyta_odb10/hmms/13495at3193.hmm
# Target file:     /labs/Wegrzyn/ConiferGenomes/Psme/analysis/SURF_annotation/analyze_orig_maker/gfacs/filtered/maker_genes.fasta.faa
# Option settings: /usr/local/bin/hmmsearch --domtblout /labs/Wegrzyn/ConiferGenomes/Psme/analysis/SURF_annotation/analyze_orig_maker/busco/maker/run_embryophyta_odb10/hmmer_output/13495at3193.out --cpu 1 /isg/shared/databases/BUSCO/odb10/embryophyta_odb10/hmms/13495at3193.hmm /labs/Wegrzyn/ConiferGenomes/Psme/analysis/SURF_annotation/analyze_orig_maker/gfacs/filtered/maker_genes.fasta.faa 
# Current dir:     /labs/Wegrzyn/ConiferGenomes/Psme/analysis/SURF_annotation/analyze_orig_maker/busco
# Date:            Fri Jul 10 13:42:27 2020
# [ok]
