#                                                                            --- full sequence --- -------------- this domain -------------   hmm coord   ali coord   env coord
# target name        accession   tlen query name           accession   qlen   E-value  score  bias   #  of  c-Evalue  i-Evalue  score  bias  from    to  from    to  from    to  acc description of target
#------------------- ---------- ----- -------------------- ---------- ----- --------- ------ ----- --- --- --------- --------- ------ ----- ----- ----- ----- ----- ----- ----- ---- ---------------------
ID=PSME_00023752     -            496 135305at3193         -            306  5.3e-121  404.9  14.8   1   4   8.9e-07     0.016   15.8   0.5     1    20    26    45    26    72 0.76 -
ID=PSME_00023752     -            496 135305at3193         -            306  5.3e-121  404.9  14.8   2   4   7.5e-05       1.4    9.5   0.1    15    47   113   159   110   163 0.77 -
ID=PSME_00023752     -            496 135305at3193         -            306  5.3e-121  404.9  14.8   3   4   6.4e-29   1.2e-24   88.5   0.0    49   136   189   282   177   289 0.83 -
ID=PSME_00023752     -            496 135305at3193         -            306  5.3e-121  404.9  14.8   4   4   1.3e-92   2.4e-88  297.7   2.3   129   306   299   480   283   480 0.95 -
ID=PSME_00051308     -            263 135305at3193         -            306      0.03   14.9   0.0   1   1   2.2e-06     0.041   14.5   0.0    73   143   103   174    80   189 0.92 -
ID=PSME_00018787     -           1282 135305at3193         -            306      0.36   11.4   0.1   1   1   4.2e-05      0.77   10.3   0.1   120   204   619   703   608   711 0.89 -
#
# Program:         hmmsearch
# Version:         3.2.1 (June 2018)
# Pipeline mode:   SEARCH
# Query file:      /isg/shared/databases/BUSCO/odb10/embryophyta_odb10/hmms/135305at3193.hmm
# Target file:     /labs/Wegrzyn/ConiferGenomes/Psme/analysis/SURF_annotation/analyze_orig_maker/gfacs/filtered/maker_genes.fasta.faa
# Option settings: /usr/local/bin/hmmsearch --domtblout /labs/Wegrzyn/ConiferGenomes/Psme/analysis/SURF_annotation/analyze_orig_maker/busco/maker/run_embryophyta_odb10/hmmer_output/135305at3193.out --cpu 1 /isg/shared/databases/BUSCO/odb10/embryophyta_odb10/hmms/135305at3193.hmm /labs/Wegrzyn/ConiferGenomes/Psme/analysis/SURF_annotation/analyze_orig_maker/gfacs/filtered/maker_genes.fasta.faa 
# Current dir:     /labs/Wegrzyn/ConiferGenomes/Psme/analysis/SURF_annotation/analyze_orig_maker/busco
# Date:            Fri Jul 10 13:42:26 2020
# [ok]
