#                                                                            --- full sequence --- -------------- this domain -------------   hmm coord   ali coord   env coord
# target name        accession   tlen query name           accession   qlen   E-value  score  bias   #  of  c-Evalue  i-Evalue  score  bias  from    to  from    to  from    to  acc description of target
#------------------- ---------- ----- -------------------- ---------- ----- --------- ------ ----- --- --- --------- --------- ------ ----- ----- ----- ----- ----- ----- ----- ---- ---------------------
ID=PSME_00038242     -            184 136193at3193         -            227   4.6e-06   27.7   0.0   1   1   1.3e-09     9e-06   26.8   0.0   186   224   125   163   113   166 0.90 -
ID=PSME_00056590     -            269 136193at3193         -            227   8.9e-06   26.8   0.0   1   1   2.5e-09   1.7e-05   25.9   0.0   186   224   210   248   200   251 0.90 -
ID=PSME_00038241     -            193 136193at3193         -            227   0.00081   20.4   0.0   1   1   2.2e-07    0.0015   19.5   0.0   186   215   136   165   125   173 0.86 -
ID=PSME_00026814     -            285 136193at3193         -            227     0.014   16.3   0.0   1   1   3.5e-06     0.024   15.6   0.0   187   223   140   176   128   178 0.92 -
ID=PSME_00038243     -            154 136193at3193         -            227     0.024   15.6   0.0   1   1   7.1e-06     0.049   14.6   0.0   186   211   112   137    98   142 0.88 -
ID=PSME_00010739     -            212 136193at3193         -            227      0.16   12.9   0.7   1   1   3.4e-05      0.23   12.3   0.7   108   156    80   128    73   145 0.83 -
ID=PSME_00003058     -            947 136193at3193         -            227       1.6    9.6   4.7   1   2    0.0047        33    5.3   0.1   134   212   563   639   555   655 0.80 -
ID=PSME_00003058     -            947 136193at3193         -            227       1.6    9.6   4.7   2   2    0.0054        37    5.1   1.4    34    64   682   712   671   732 0.78 -
ID=PSME_00036951     -            565 136193at3193         -            227       8.7    7.2  12.1   1   1    0.0019        13    6.6  12.1    13    77    17    84     6    91 0.77 -
#
# Program:         hmmsearch
# Version:         3.2.1 (June 2018)
# Pipeline mode:   SEARCH
# Query file:      /isg/shared/databases/BUSCO/odb10/embryophyta_odb10/hmms/136193at3193.hmm
# Target file:     /labs/Wegrzyn/ConiferGenomes/Psme/analysis/SURF_annotation/analyze_orig_maker/gfacs/filtered/maker_genes.fasta.faa
# Option settings: /usr/local/bin/hmmsearch --domtblout /labs/Wegrzyn/ConiferGenomes/Psme/analysis/SURF_annotation/analyze_orig_maker/busco/maker/run_embryophyta_odb10/hmmer_output/136193at3193.out --cpu 1 /isg/shared/databases/BUSCO/odb10/embryophyta_odb10/hmms/136193at3193.hmm /labs/Wegrzyn/ConiferGenomes/Psme/analysis/SURF_annotation/analyze_orig_maker/gfacs/filtered/maker_genes.fasta.faa 
# Current dir:     /labs/Wegrzyn/ConiferGenomes/Psme/analysis/SURF_annotation/analyze_orig_maker/busco
# Date:            Fri Jul 10 13:42:42 2020
# [ok]
