#                                                                            --- full sequence --- -------------- this domain -------------   hmm coord   ali coord   env coord
# target name        accession   tlen query name           accession   qlen   E-value  score  bias   #  of  c-Evalue  i-Evalue  score  bias  from    to  from    to  from    to  acc description of target
#------------------- ---------- ----- -------------------- ---------- ----- --------- ------ ----- --- --- --------- --------- ------ ----- ----- ----- ----- ----- ----- ----- ---- ---------------------
ID=PSME_00053489     -            380 137745at3193         -            194   1.5e-68  232.1   3.8   1   3   1.5e-49   2.8e-45  156.2   0.1     1    99     4   115     4   120 0.89 -
ID=PSME_00053489     -            380 137745at3193         -            194   1.5e-68  232.1   3.8   2   3   1.9e-19   3.5e-15   58.0   0.2    99   155   141   212   134   235 0.80 -
ID=PSME_00053489     -            380 137745at3193         -            194   1.5e-68  232.1   3.8   3   3   8.3e-07     0.015   16.7   0.0   146   194   244   304   230   304 0.77 -
ID=PSME_00015003     -             87 137745at3193         -            194     0.033   15.6   0.0   1   1   1.9e-06     0.036   15.5   0.0   154   178    24    48    10    71 0.82 -
ID=PSME_00042132     -            410 137745at3193         -            194      0.61   11.5   0.0   1   1   6.2e-05       1.1   10.6   0.0    93   135    24    75    12    81 0.79 -
#
# Program:         hmmsearch
# Version:         3.2.1 (June 2018)
# Pipeline mode:   SEARCH
# Query file:      /isg/shared/databases/BUSCO/odb10/embryophyta_odb10/hmms/137745at3193.hmm
# Target file:     /labs/Wegrzyn/ConiferGenomes/Psme/analysis/SURF_annotation/analyze_orig_maker/gfacs/filtered/maker_genes.fasta.faa
# Option settings: /usr/local/bin/hmmsearch --domtblout /labs/Wegrzyn/ConiferGenomes/Psme/analysis/SURF_annotation/analyze_orig_maker/busco/maker/run_embryophyta_odb10/hmmer_output/137745at3193.out --cpu 1 /isg/shared/databases/BUSCO/odb10/embryophyta_odb10/hmms/137745at3193.hmm /labs/Wegrzyn/ConiferGenomes/Psme/analysis/SURF_annotation/analyze_orig_maker/gfacs/filtered/maker_genes.fasta.faa 
# Current dir:     /labs/Wegrzyn/ConiferGenomes/Psme/analysis/SURF_annotation/analyze_orig_maker/busco
# Date:            Fri Jul 10 13:42:28 2020
# [ok]
