#                                                                            --- full sequence --- -------------- this domain -------------   hmm coord   ali coord   env coord
# target name        accession   tlen query name           accession   qlen   E-value  score  bias   #  of  c-Evalue  i-Evalue  score  bias  from    to  from    to  from    to  acc description of target
#------------------- ---------- ----- -------------------- ---------- ----- --------- ------ ----- --- --- --------- --------- ------ ----- ----- ----- ----- ----- ----- ----- ---- ---------------------
ID=PSME_00035403     -            265 137804at3193         -            234   9.7e-34  118.1   0.6   1   2   5.3e-38   9.7e-34  118.1   0.6   137   225     1    97     1   104 0.90 -
ID=PSME_00035403     -            265 137804at3193         -            234   9.7e-34  118.1   0.6   2   2    0.0072   1.3e+02    3.1   0.7   225   233   140   148   128   149 0.86 -
ID=PSME_00055874     -            353 137804at3193         -            234     0.066   13.9   0.7   1   2    0.0029        53    4.4   0.0    27    73   189   235   182   278 0.75 -
ID=PSME_00055874     -            353 137804at3193         -            234     0.066   13.9   0.7   2   2   0.00024       4.5    7.9   0.1   155   182   299   326   272   348 0.81 -
ID=PSME_00014905     -            535 137804at3193         -            234      0.23   12.1   0.0   1   1   2.1e-05      0.38   11.4   0.0   103   153   213   261   208   282 0.85 -
#
# Program:         hmmsearch
# Version:         3.2.1 (June 2018)
# Pipeline mode:   SEARCH
# Query file:      /isg/shared/databases/BUSCO/odb10/embryophyta_odb10/hmms/137804at3193.hmm
# Target file:     /labs/Wegrzyn/ConiferGenomes/Psme/analysis/SURF_annotation/analyze_orig_maker/gfacs/filtered/maker_genes.fasta.faa
# Option settings: /usr/local/bin/hmmsearch --domtblout /labs/Wegrzyn/ConiferGenomes/Psme/analysis/SURF_annotation/analyze_orig_maker/busco/maker/run_embryophyta_odb10/hmmer_output/137804at3193.out --cpu 1 /isg/shared/databases/BUSCO/odb10/embryophyta_odb10/hmms/137804at3193.hmm /labs/Wegrzyn/ConiferGenomes/Psme/analysis/SURF_annotation/analyze_orig_maker/gfacs/filtered/maker_genes.fasta.faa 
# Current dir:     /labs/Wegrzyn/ConiferGenomes/Psme/analysis/SURF_annotation/analyze_orig_maker/busco
# Date:            Fri Jul 10 13:42:28 2020
# [ok]
