#                                                                            --- full sequence --- -------------- this domain -------------   hmm coord   ali coord   env coord
# target name        accession   tlen query name           accession   qlen   E-value  score  bias   #  of  c-Evalue  i-Evalue  score  bias  from    to  from    to  from    to  acc description of target
#------------------- ---------- ----- -------------------- ---------- ----- --------- ------ ----- --- --- --------- --------- ------ ----- ----- ----- ----- ----- ----- ----- ---- ---------------------
ID=PSME_00012358     -            200 138708at3193         -            255   3.7e-67  227.9   0.2   1   1   1.7e-71   4.7e-67  227.6   0.2    14   168     9   176     6   180 0.93 -
ID=PSME_00000260     -            673 138708at3193         -            255   1.2e-13   52.6   0.0   1   3   2.6e-10   7.2e-06   27.1   0.0     3   127    86   232    84   241 0.63 -
ID=PSME_00000260     -            673 138708at3193         -            255   1.2e-13   52.6   0.0   2   3   8.3e-09   0.00023   22.2   0.0   166   236   518   584   512   596 0.81 -
ID=PSME_00000260     -            673 138708at3193         -            255   1.2e-13   52.6   0.0   3   3      0.46   1.3e+04   -3.2   0.0    58    95   621   659   619   664 0.79 -
#
# Program:         hmmsearch
# Version:         3.2.1 (June 2018)
# Pipeline mode:   SEARCH
# Query file:      /isg/shared/databases/BUSCO/odb10/embryophyta_odb10/hmms/138708at3193.hmm
# Target file:     /labs/Wegrzyn/ConiferGenomes/Psme/analysis/SURF_annotation/analyze_orig_maker/gfacs/filtered/maker_genes.fasta.faa
# Option settings: /usr/local/bin/hmmsearch --domtblout /labs/Wegrzyn/ConiferGenomes/Psme/analysis/SURF_annotation/analyze_orig_maker/busco/maker/run_embryophyta_odb10/hmmer_output/138708at3193.out --cpu 1 /isg/shared/databases/BUSCO/odb10/embryophyta_odb10/hmms/138708at3193.hmm /labs/Wegrzyn/ConiferGenomes/Psme/analysis/SURF_annotation/analyze_orig_maker/gfacs/filtered/maker_genes.fasta.faa 
# Current dir:     /labs/Wegrzyn/ConiferGenomes/Psme/analysis/SURF_annotation/analyze_orig_maker/busco
# Date:            Fri Jul 10 13:42:29 2020
# [ok]
