#                                                                            --- full sequence --- -------------- this domain -------------   hmm coord   ali coord   env coord
# target name        accession   tlen query name           accession   qlen   E-value  score  bias   #  of  c-Evalue  i-Evalue  score  bias  from    to  from    to  from    to  acc description of target
#------------------- ---------- ----- -------------------- ---------- ----- --------- ------ ----- --- --- --------- --------- ------ ----- ----- ----- ----- ----- ----- ----- ---- ---------------------
ID=PSME_00038423     -            479 139843at3193         -            226   6.4e-37  129.2  11.7   1   2   1.4e-13   1.7e-10   42.8   6.4     2    50    25    71    24   102 0.76 -
ID=PSME_00038423     -            479 139843at3193         -            226   6.4e-37  129.2  11.7   2   2   1.2e-27   1.5e-24   88.8   0.0   112   173   128   189   121   213 0.87 -
ID=PSME_00040473     -           1563 139843at3193         -            226   2.9e-12   48.6   7.9   1   3   1.5e-06    0.0019   19.7   0.1     5    35   279   309   276   329 0.79 -
ID=PSME_00040473     -           1563 139843at3193         -            226   2.9e-12   48.6   7.9   2   3   7.4e-05     0.091   14.2   0.4     4    44   377   416   374   458 0.80 -
ID=PSME_00040473     -           1563 139843at3193         -            226   2.9e-12   48.6   7.9   3   3   8.5e-06      0.01   17.3   0.2     5    28   476   499   472   520 0.89 -
ID=PSME_00007752     -            481 139843at3193         -            226   2.4e-11   45.6  21.4   1   5    0.0037       4.5    8.7   0.3     6    31    59    85    55    94 0.80 -
ID=PSME_00007752     -            481 139843at3193         -            226   2.4e-11   45.6  21.4   2   5   0.00014      0.18   13.3   0.2     5    29   103   128   100   144 0.80 -
ID=PSME_00007752     -            481 139843at3193         -            226   2.4e-11   45.6  21.4   3   5     8e-05     0.097   14.1   0.6     4    27   148   172   145   175 0.79 -
ID=PSME_00007752     -            481 139843at3193         -            226   2.4e-11   45.6  21.4   4   5   0.00094       1.1   10.6   0.4     4    27   319   343   316   348 0.84 -
ID=PSME_00007752     -            481 139843at3193         -            226   2.4e-11   45.6  21.4   5   5   0.00054      0.66   11.4   0.1     4    32   365   394   363   410 0.83 -
ID=PSME_00027335     -            497 139843at3193         -            226   8.2e-10   40.6  31.5   1   6     0.003       3.6    9.0   0.5     4    32    86   115    84   121 0.80 -
ID=PSME_00027335     -            497 139843at3193         -            226   8.2e-10   40.6  31.5   2   6   7.6e-06    0.0092   17.5   1.0     5    44   129   169   125   176 0.83 -
ID=PSME_00027335     -            497 139843at3193         -            226   8.2e-10   40.6  31.5   3   6   0.00018      0.21   13.0   2.0     8    28   177   197   170   206 0.79 -
ID=PSME_00027335     -            497 139843at3193         -            226   8.2e-10   40.6  31.5   4   6   0.00018      0.22   13.0   1.0     4    27   345   369   342   374 0.82 -
ID=PSME_00027335     -            497 139843at3193         -            226   8.2e-10   40.6  31.5   5   6      0.02        25    6.3   0.0    10    28   398   416   389   428 0.77 -
ID=PSME_00027335     -            497 139843at3193         -            226   8.2e-10   40.6  31.5   6   6       2.2   2.7e+03   -0.4   0.3   171   199   459   487   446   495 0.76 -
ID=PSME_00031639     -            337 139843at3193         -            226   1.3e-08   36.6   9.9   1   3    0.0013       1.6   10.2   0.0     4    27    70    94    67   123 0.80 -
ID=PSME_00031639     -            337 139843at3193         -            226   1.3e-08   36.6   9.9   2   3   0.00061      0.75   11.2   0.5     3    29   134   161   132   170 0.78 -
ID=PSME_00031639     -            337 139843at3193         -            226   1.3e-08   36.6   9.9   3   3   1.3e-06    0.0016   20.0   1.0     2    29   304   331   303   336 0.85 -
ID=PSME_00056914     -            281 139843at3193         -            226     5e-07   31.4  10.9   1   3     0.032        39    5.6   0.1    12    27    12    27     6    54 0.75 -
ID=PSME_00056914     -            281 139843at3193         -            226     5e-07   31.4  10.9   2   3    0.0033         4    8.9   1.0     5    28    79   103    75   110 0.74 -
ID=PSME_00056914     -            281 139843at3193         -            226     5e-07   31.4  10.9   3   3   2.7e-07   0.00033   22.2   0.6     2    27   246   271   245   278 0.87 -
ID=PSME_00030063     -            254 139843at3193         -            226   6.5e-06   27.8   5.5   1   2   4.5e-05     0.054   15.0   0.2    10    44     6    40     2    46 0.83 -
ID=PSME_00030063     -            254 139843at3193         -            226   6.5e-06   27.8   5.5   2   2   7.1e-05     0.086   14.3   1.9     8    28    48    68    41    77 0.79 -
ID=PSME_00034990     -            255 139843at3193         -            226   7.8e-06   27.6   8.2   1   2   0.00033       0.4   12.1   0.5     4    32    50    79    47    90 0.77 -
ID=PSME_00034990     -            255 139843at3193         -            226   7.8e-06   27.6   8.2   2   2   2.7e-06    0.0032   19.0   1.9     2    27   226   251   225   254 0.89 -
ID=PSME_00041800     -            486 139843at3193         -            226   8.6e-06   27.4  11.5   1   3    0.0027       3.3    9.1   0.3     6    28    65    88    61    99 0.80 -
ID=PSME_00041800     -            486 139843at3193         -            226   8.6e-06   27.4  11.5   2   3   0.00056      0.68   11.4   0.3     3    27   114   138   111   148 0.81 -
ID=PSME_00041800     -            486 139843at3193         -            226   8.6e-06   27.4  11.5   3   3   0.00018      0.22   13.0   1.0     5    27   281   304   277   310 0.86 -
ID=PSME_00010923     -            548 139843at3193         -            226   1.7e-05   26.4   2.4   1   1   3.3e-08     4e-05   25.2   2.4     2    28   500   526   499   537 0.90 -
ID=PSME_00006534     -            443 139843at3193         -            226   2.7e-05   25.8   3.0   1   2     0.009        11    7.4   0.4     3    45    23    64    21    76 0.82 -
ID=PSME_00006534     -            443 139843at3193         -            226   2.7e-05   25.8   3.0   2   2   3.5e-06    0.0042   18.6   0.1     4    25   109   130   106   138 0.90 -
ID=PSME_00032743     -            384 139843at3193         -            226     3e-05   25.6  23.5   1   4   0.00015      0.18   13.3   0.5     4    31    27    54    24    56 0.88 -
ID=PSME_00032743     -            384 139843at3193         -            226     3e-05   25.6  23.5   2   4   7.4e-07    0.0009   20.8   2.1     3    29    54    80    52    89 0.86 -
ID=PSME_00032743     -            384 139843at3193         -            226     3e-05   25.6  23.5   3   4       3.6   4.4e+03   -1.1   1.9     5    26   167   188   165   229 0.80 -
ID=PSME_00032743     -            384 139843at3193         -            226     3e-05   25.6  23.5   4   4     0.013        16    6.9   0.3     8    28   328   348   320   363 0.79 -
ID=PSME_00016930     -            244 139843at3193         -            226   5.8e-05   24.7  18.4   1   3   0.00092       1.1   10.7   0.2     6    32    61    88    57   100 0.79 -
ID=PSME_00016930     -            244 139843at3193         -            226   5.8e-05   24.7  18.4   2   3     8e-05     0.098   14.1   1.6     5    30   102   128    98   148 0.71 -
ID=PSME_00016930     -            244 139843at3193         -            226   5.8e-05   24.7  18.4   3   3    0.0045       5.5    8.4   4.9     4    28   147   172   143   179 0.83 -
ID=PSME_00023293     -            241 139843at3193         -            226   6.4e-05   24.5   6.3   1   2   9.7e-05      0.12   13.9   0.8     6    34    84   113    80   119 0.80 -
ID=PSME_00023293     -            241 139843at3193         -            226   6.4e-05   24.5   6.3   2   2   0.00012      0.15   13.6   0.5     5    27   132   155   128   159 0.80 -
ID=PSME_00005878     -            455 139843at3193         -            226   8.1e-05   24.2  16.1   1   3    0.0016         2    9.9   2.3     2    31   166   195   165   237 0.73 -
ID=PSME_00005878     -            455 139843at3193         -            226   8.1e-05   24.2  16.1   2   3   7.6e-05     0.093   14.2   1.5     3    30   241   269   238   276 0.81 -
ID=PSME_00005878     -            455 139843at3193         -            226   8.1e-05   24.2  16.1   3   3    0.0043       5.2    8.5   0.2     4    27   309   333   306   350 0.81 -
ID=PSME_00033910     -            778 139843at3193         -            226   0.00022   22.8   0.1   1   1   3.9e-07   0.00048   21.7   0.1     4    31   270   297   267   317 0.88 -
ID=PSME_00016931     -            292 139843at3193         -            226    0.0005   21.6   6.2   1   2   4.2e-05     0.051   15.1   0.5     6    31   136   162   132   172 0.82 -
ID=PSME_00016931     -            292 139843at3193         -            226    0.0005   21.6   6.2   2   2    0.0037       4.5    8.7   0.7     6    25   182   202   178   269 0.86 -
ID=PSME_00030658     -            787 139843at3193         -            226   0.00073   21.1   8.7   1   2   0.00083         1   10.8   3.1     5    30   487   512   483   513 0.89 -
ID=PSME_00030658     -            787 139843at3193         -            226   0.00073   21.1   8.7   2   2   4.4e-05     0.053   15.0   0.4     2    30   511   540   510   553 0.83 -
ID=PSME_00023176     -            459 139843at3193         -            226   0.00078   21.0   3.2   1   2   9.7e-05      0.12   13.9   0.4     9    44     5    40     1    45 0.83 -
ID=PSME_00023176     -            459 139843at3193         -            226   0.00078   21.0   3.2   2   2    0.0076       9.3    7.7   0.6     8    28    48    68    38    77 0.80 -
ID=PSME_00023294     -            241 139843at3193         -            226    0.0011   20.5   3.5   1   2   0.00032       0.4   12.2   0.7     5    32    84   112    81   122 0.80 -
ID=PSME_00023294     -            241 139843at3193         -            226    0.0011   20.5   3.5   2   2    0.0034       4.1    8.8   0.1     5    26   130   152   126   161 0.81 -
ID=PSME_00033810     -            248 139843at3193         -            226    0.0023   19.4   3.5   1   2     0.058        70    4.8   0.2     2    28    62    88    61   116 0.87 -
ID=PSME_00033810     -            248 139843at3193         -            226    0.0023   19.4   3.5   2   2   2.5e-05     0.031   15.8   0.3     4    33   122   152   119   190 0.79 -
ID=PSME_00026848     -           1064 139843at3193         -            226    0.0031   19.0   0.2   1   1   7.9e-06    0.0097   17.4   0.2     4    28   257   281   254   290 0.89 -
ID=PSME_00015171     -            650 139843at3193         -            226    0.0035   18.9   1.9   1   2       6.7   8.2e+03   -2.0   0.1    34    85   106   158   100   183 0.62 -
ID=PSME_00015171     -            650 139843at3193         -            226    0.0035   18.9   1.9   2   2   3.7e-06    0.0045   18.5   0.2     4    35   229   260   226   270 0.86 -
ID=PSME_00039964     -            474 139843at3193         -            226    0.0035   18.9   0.1   1   1   5.1e-06    0.0062   18.0   0.1     4    28   389   413   386   432 0.85 -
ID=PSME_00029071     -            749 139843at3193         -            226     0.005   18.4   0.5   1   1   8.1e-06    0.0098   17.4   0.1     4    29   279   304   276   323 0.84 -
ID=PSME_00011607     -            291 139843at3193         -            226    0.0064   18.0  16.0   1   3    0.0019       2.4    9.6   2.5     5    38    76   110    73   113 0.77 -
ID=PSME_00011607     -            291 139843at3193         -            226    0.0064   18.0  16.0   2   3    0.0034       4.1    8.8   1.1     3    28   106   132   104   144 0.81 -
ID=PSME_00011607     -            291 139843at3193         -            226    0.0064   18.0  16.0   3   3    0.0031       3.7    9.0   0.7     5    31   144   171   141   180 0.79 -
ID=PSME_00002210     -            184 139843at3193         -            226    0.0075   17.8   0.0   1   1   8.3e-06      0.01   17.4   0.0     5    35    39    69    36    91 0.78 -
ID=PSME_00054338     -            256 139843at3193         -            226    0.0091   17.5   4.4   1   2    0.0023       2.8    9.4   0.9     2    36    44    76    43   117 0.70 -
ID=PSME_00054338     -            256 139843at3193         -            226    0.0091   17.5   4.4   2   2    0.0019       2.3    9.7   0.1    10    28   139   157   129   208 0.79 -
ID=PSME_00027172     -            353 139843at3193         -            226     0.012   17.1   6.3   1   2    0.0029       3.6    9.0   0.2     8    27    21    40    14    45 0.85 -
ID=PSME_00027172     -            353 139843at3193         -            226     0.012   17.1   6.3   2   2    0.0015       1.9    9.9   1.8     2    31   150   179   149   185 0.87 -
ID=PSME_00047840     -            349 139843at3193         -            226     0.024   16.1   0.4   1   1   2.8e-05     0.035   15.6   0.4     8    29    27    48    23    57 0.85 -
ID=PSME_00025233     -            384 139843at3193         -            226     0.032   15.7   0.4   1   1   4.7e-05     0.057   14.9   0.4     4    31   198   226   195   242 0.83 -
ID=PSME_00056753     -            118 139843at3193         -            226     0.049   15.1   0.7   1   1   5.6e-05     0.068   14.7   0.7     7    33    51    77    45    85 0.80 -
ID=PSME_00017586     -            119 139843at3193         -            226     0.055   14.9   0.7   1   1   5.7e-05     0.069   14.6   0.2     3    28    55    80    53    92 0.88 -
ID=PSME_00025100     -            356 139843at3193         -            226     0.075   14.5   1.0   1   4   6.1e-05     0.075   14.5   1.0     2    27    61    86    60    91 0.91 -
ID=PSME_00025100     -            356 139843at3193         -            226     0.075   14.5   1.0   2   4       2.3   2.9e+03   -0.5   0.5     3    27    90   114    88   118 0.78 -
ID=PSME_00025100     -            356 139843at3193         -            226     0.075   14.5   1.0   3   4       2.1   2.5e+03   -0.3   8.8     5    67   118   193   114   229 0.58 -
ID=PSME_00025100     -            356 139843at3193         -            226     0.075   14.5   1.0   4   4       2.2   2.7e+03   -0.4   0.0   159   213   228   281   221   288 0.68 -
ID=PSME_00045175     -            386 139843at3193         -            226      0.11   14.0   0.5   1   3   8.7e-05      0.11   14.0   0.5     2    28    67    93    66    97 0.90 -
ID=PSME_00045175     -            386 139843at3193         -            226      0.11   14.0   0.5   2   3       2.5     3e+03   -0.6   2.5     3    29    96   122    94   126 0.81 -
ID=PSME_00045175     -            386 139843at3193         -            226      0.11   14.0   0.5   3   3     0.028        35    5.8   2.2     5    27   124   146   121   202 0.64 -
ID=PSME_00003774     -            775 139843at3193         -            226      0.17   13.4   0.3   1   2      0.68   8.3e+02    1.3   0.7     6    29    16    41    11    47 0.73 -
ID=PSME_00003774     -            775 139843at3193         -            226      0.17   13.4   0.3   2   2   0.00014      0.17   13.4   0.3     3    69    89   163    87   176 0.65 -
ID=PSME_00023765     -            334 139843at3193         -            226      0.18   13.3   0.6   1   2   0.00014      0.18   13.3   0.6     5    24   129   148   126   152 0.92 -
ID=PSME_00023765     -            334 139843at3193         -            226      0.18   13.3   0.6   2   2       8.3     1e+04   -2.3   0.2    80    92   163   175   157   180 0.79 -
ID=PSME_00039843     -            340 139843at3193         -            226      0.31   12.5   0.9   1   1    0.0004      0.48   11.9   0.9     3    25    35    58    33    63 0.90 -
ID=PSME_00025026     -            203 139843at3193         -            226      0.32   12.5   0.1   1   1    0.0004      0.49   11.9   0.1     4    28    72    97    70   109 0.86 -
ID=PSME_00051914     -             85 139843at3193         -            226      0.33   12.4   0.1   1   1   0.00031      0.38   12.2   0.1     4    25    28    50    25    63 0.85 -
ID=PSME_00018591     -            840 139843at3193         -            226      0.56   11.7   0.7   1   1    0.0011       1.3   10.4   0.7     4    33   513   542   510   582 0.83 -
ID=PSME_00005225     -            795 139843at3193         -            226      0.67   11.4   0.6   1   1    0.0012       1.4   10.3   0.6     4    29   485   510   482   519 0.89 -
ID=PSME_00048460     -            364 139843at3193         -            226      0.93   10.9  18.8   1   2       0.3   3.7e+02    2.4   1.9    39    80     8    48     2   108 0.63 -
ID=PSME_00048460     -            364 139843at3193         -            226      0.93   10.9  18.8   2   2   0.00011      0.13   13.7   9.3     3   127   190   314   188   321 0.73 -
ID=PSME_00016861     -            582 139843at3193         -            226       2.3    9.7   5.3   1   1   0.00028      0.35   12.3   0.8     5    24   201   220   197   224 0.91 -
ID=PSME_00048511     -            217 139843at3193         -            226       3.6    9.0   6.8   1   1    0.0054       6.5    8.2   6.8     4    75    72   146    70   168 0.66 -
#
# Program:         hmmsearch
# Version:         3.2.1 (June 2018)
# Pipeline mode:   SEARCH
# Query file:      /isg/shared/databases/BUSCO/odb10/embryophyta_odb10/hmms/139843at3193.hmm
# Target file:     /labs/Wegrzyn/ConiferGenomes/Psme/analysis/SURF_annotation/analyze_orig_maker/gfacs/filtered/maker_genes.fasta.faa
# Option settings: /usr/local/bin/hmmsearch --domtblout /labs/Wegrzyn/ConiferGenomes/Psme/analysis/SURF_annotation/analyze_orig_maker/busco/maker/run_embryophyta_odb10/hmmer_output/139843at3193.out --cpu 1 /isg/shared/databases/BUSCO/odb10/embryophyta_odb10/hmms/139843at3193.hmm /labs/Wegrzyn/ConiferGenomes/Psme/analysis/SURF_annotation/analyze_orig_maker/gfacs/filtered/maker_genes.fasta.faa 
# Current dir:     /labs/Wegrzyn/ConiferGenomes/Psme/analysis/SURF_annotation/analyze_orig_maker/busco
# Date:            Fri Jul 10 13:44:24 2020
# [ok]
