#                                                                            --- full sequence --- -------------- this domain -------------   hmm coord   ali coord   env coord
# target name        accession   tlen query name           accession   qlen   E-value  score  bias   #  of  c-Evalue  i-Evalue  score  bias  from    to  from    to  from    to  acc description of target
#------------------- ---------- ----- -------------------- ---------- ----- --------- ------ ----- --- --- --------- --------- ------ ----- ----- ----- ----- ----- ----- ----- ---- ---------------------
ID=PSME_00009246     -            937 13985at3193          -            748         0 1302.0  18.8   1   3   8.4e-08   5.4e-05   23.2   0.3     1    25    26    50    26    61 0.91 -
ID=PSME_00009246     -            937 13985at3193          -            748         0 1302.0  18.8   2   3      0.03        19    4.9   0.1    23    53    82   122    75   134 0.77 -
ID=PSME_00009246     -            937 13985at3193          -            748         0 1302.0  18.8   3   3         0         0 1271.4   9.8    51   748   150   935   132   935 0.91 -
ID=PSME_00012566     -            622 13985at3193          -            748  8.7e-237  789.6  23.2   1   4     6e-41   3.8e-38  132.8   0.7   349   435     3    89     1    91 0.98 -
ID=PSME_00012566     -            622 13985at3193          -            748  8.7e-237  789.6  23.2   2   4   3.8e-27   2.5e-24   87.2   0.2   465   524    90   149    88   154 0.91 -
ID=PSME_00012566     -            622 13985at3193          -            748  8.7e-237  789.6  23.2   3   4   5.4e-80   3.5e-77  261.9   1.2    39   268   151   391   147   395 0.86 -
ID=PSME_00012566     -            622 13985at3193          -            748  8.7e-237  789.6  23.2   4   4     7e-99   4.5e-96  324.4   2.3   298   518   392   599   391   612 0.97 -
ID=PSME_00036082     -            458 13985at3193          -            748  1.7e-195  653.1  18.5   1   3      0.38   2.4e+02    1.2   0.0    51    72    38    65     5    66 0.64 -
ID=PSME_00036082     -            458 13985at3193          -            748  1.7e-195  653.1  18.5   2   3   4.9e-32   3.1e-29  103.4   0.7   130   218    63   165    53   165 0.83 -
ID=PSME_00036082     -            458 13985at3193          -            748  1.7e-195  653.1  18.5   3   3  8.7e-169  5.6e-166  555.5   9.8   242   533   165   456   164   457 1.00 -
ID=PSME_00004884     -            328 13985at3193          -            748  4.6e-153  512.8   6.1   1   2   2.3e-42   1.5e-39  137.5   0.3    96   193     4   103     2   108 0.96 -
ID=PSME_00004884     -            328 13985at3193          -            748  4.6e-153  512.8   6.1   2   2  3.7e-115  2.4e-112  378.2   1.2   276   488   113   325   109   327 0.99 -
ID=PSME_00029370     -            281 13985at3193          -            748  1.9e-133  447.9   4.3   1   2   8.3e-27   5.4e-24   86.1   0.1   112   172     3    62     1    66 0.95 -
ID=PSME_00029370     -            281 13985at3193          -            748  1.9e-133  447.9   4.3   2   2  9.6e-111  6.2e-108  363.6   1.1   276   487    66   277    62   279 0.99 -
ID=PSME_00043400     -            282 13985at3193          -            748  6.9e-126  423.0  10.9   1   2   7.9e-39   5.1e-36  125.8   0.9   183   268     1    98     1   101 0.87 -
ID=PSME_00043400     -            282 13985at3193          -            748  6.9e-126  423.0  10.9   2   2   2.1e-92   1.3e-89  303.0   3.7   298   476    99   277    98   281 0.97 -
ID=PSME_00016153     -            302 13985at3193          -            748  2.1e-123  414.7  13.9   1   2   8.3e-37   5.4e-34  119.1   0.5   112   206     3   113     1   115 0.85 -
ID=PSME_00016153     -            302 13985at3193          -            748  2.1e-123  414.7  13.9   2   2   1.6e-91   1.1e-88  300.0   6.9   249   438   116   298   113   300 0.98 -
ID=PSME_00028645     -            217 13985at3193          -            748  7.6e-110  369.9   2.1   1   1  1.3e-112  8.3e-110  369.8   2.1   277   488     3   214     1   216 0.99 -
ID=PSME_00046804     -            272 13985at3193          -            748  2.5e-108  364.9   8.4   1   1    1e-109  6.6e-107  360.2   8.4    68   331     4   266     2   270 0.94 -
ID=PSME_00047734     -            956 13985at3193          -            748  5.8e-104  350.5   3.8   1   2   9.3e-49     6e-46  158.6   1.3   102   402   208   506   196   510 0.87 -
ID=PSME_00047734     -            956 13985at3193          -            748  5.8e-104  350.5   3.8   2   2   7.3e-59   4.7e-56  192.0   0.0   399   707   553   882   546   894 0.82 -
ID=PSME_00047847     -            956 13985at3193          -            748  1.2e-102  346.1   3.9   1   2   3.5e-48   2.3e-45  156.7   1.4   102   402   208   506   196   510 0.87 -
ID=PSME_00047847     -            956 13985at3193          -            748  1.2e-102  346.1   3.9   2   2   3.9e-58   2.5e-55  189.7   0.0   399   689   553   862   544   894 0.81 -
ID=PSME_00037693     -            229 13985at3193          -            748  2.4e-102  345.1   7.5   1   2     7e-89   4.5e-86  291.3   3.7   248   435     3   182     1   183 0.99 -
ID=PSME_00037693     -            229 13985at3193          -            748  2.4e-102  345.1   7.5   2   2   5.8e-18   3.7e-15   56.8   0.1   489   533   183   227   182   228 0.97 -
ID=PSME_00050132     -            307 13985at3193          -            748  3.5e-102  344.6   2.6   1   3       1.3   8.4e+02   -0.5   0.3    33    52     8    33     5    44 0.69 -
ID=PSME_00050132     -            307 13985at3193          -            748  3.5e-102  344.6   2.6   2   3       9.1   5.8e+03   -3.3   0.0    51    64    62    75    40    83 0.79 -
ID=PSME_00050132     -            307 13985at3193          -            748  3.5e-102  344.6   2.6   3   3  5.4e-105  3.5e-102  344.6   2.6   290   487   106   303    96   305 0.98 -
ID=PSME_00028493     -            852 13985at3193          -            748  8.6e-102  343.3   3.2   1   3   3.4e-44   2.2e-41  143.6   0.4   133   402   122   388    95   391 0.86 -
ID=PSME_00028493     -            852 13985at3193          -            748  8.6e-102  343.3   3.2   2   3   6.4e-61   4.1e-58  198.9   0.1   398   695   432   741   420   771 0.85 -
ID=PSME_00028493     -            852 13985at3193          -            748  8.6e-102  343.3   3.2   3   3       1.9   1.2e+03   -1.1   0.0   159   189   773   805   767   823 0.75 -
ID=PSME_00048212     -            947 13985at3193          -            748  1.6e-100  339.1   4.3   1   2   1.5e-44   9.7e-42  144.7   1.3   116   402   205   490   188   496 0.86 -
ID=PSME_00048212     -            947 13985at3193          -            748  1.6e-100  339.1   4.3   2   2   8.1e-60   5.3e-57  195.2   0.1   399   689   535   837   530   859 0.86 -
ID=PSME_00028492     -            865 13985at3193          -            748  2.1e-100  338.7   2.1   1   2     1e-42   6.4e-40  138.7   0.4   131   402   134   402   111   406 0.86 -
ID=PSME_00028492     -            865 13985at3193          -            748  2.1e-100  338.7   2.1   2   2   3.9e-61   2.5e-58  199.6   0.1   398   687   446   743   434   780 0.86 -
ID=PSME_00028491     -            874 13985at3193          -            748   3.9e-98  331.2   2.0   1   2     2e-39   1.3e-36  127.8   0.6   117   403   171   456   156   461 0.86 -
ID=PSME_00028491     -            874 13985at3193          -            748   3.9e-98  331.2   2.0   2   2   4.9e-62   3.1e-59  202.6   0.0   399   696   500   807   495   844 0.88 -
ID=PSME_00032404     -            183 13985at3193          -            748   1.9e-88  299.2   8.8   1   2   3.4e-86   2.2e-83  282.4   7.0   248   396     2   150     1   156 0.98 -
ID=PSME_00032404     -            183 13985at3193          -            748   1.9e-88  299.2   8.8   2   2   6.5e-06    0.0042   17.0   0.0   488   508   162   182   155   182 0.92 -
ID=PSME_00040595     -            238 13985at3193          -            748   6.7e-81  274.2   2.8   1   2   3.5e-18   2.3e-15   57.5   0.5   294   338    62   106    55   107 0.94 -
ID=PSME_00040595     -            238 13985at3193          -            748   6.7e-81  274.2   2.8   2   2   1.5e-66   9.6e-64  217.5   0.1   360   488   107   235   105   237 0.99 -
ID=PSME_00049817     -            265 13985at3193          -            748     1e-80  273.6   2.0   1   2       0.5   3.2e+02    0.8   0.1    51    76    46    77     5    81 0.78 -
ID=PSME_00049817     -            265 13985at3193          -            748     1e-80  273.6   2.0   2   2   1.6e-83     1e-80  273.6   2.0   290   452   102   264    91   264 0.97 -
ID=PSME_00049303     -            191 13985at3193          -            748   7.5e-78  264.1   6.2   1   3   8.7e-07   0.00056   19.9   0.0   112   136     3    27     1    28 0.91 -
ID=PSME_00049303     -            191 13985at3193          -            748   7.5e-78  264.1   6.2   2   3   5.8e-32   3.7e-29  103.1   1.8   276   346    26    96    25    98 0.98 -
ID=PSME_00049303     -            191 13985at3193          -            748   7.5e-78  264.1   6.2   3   3   1.6e-44   1.1e-41  144.6   0.1   398   488    98   188    96   190 0.98 -
ID=PSME_00006166     -            167 13985at3193          -            748   2.9e-77  262.2   1.1   1   1   5.8e-80   3.7e-77  261.8   1.1   183   331     1   161     1   165 0.91 -
ID=PSME_00045702     -            197 13985at3193          -            748   9.7e-77  260.4   1.2   1   1   2.9e-79   1.8e-76  259.5   1.2    96   272     4   196     2   196 0.93 -
ID=PSME_00041487     -            202 13985at3193          -            748     3e-75  255.5   3.2   1   2   6.3e-44     4e-41  142.7   0.3    97   194     5   104     3   122 0.93 -
ID=PSME_00041487     -            202 13985at3193          -            748     3e-75  255.5   3.2   2   2   3.1e-35     2e-32  113.9   0.3   357   433   125   201   110   201 0.95 -
ID=PSME_00032385     -            496 13985at3193          -            748     1e-69  237.3   6.3   1   2   2.1e-38   1.3e-35  124.4   2.9   225   402   174   348   169   351 0.94 -
ID=PSME_00032385     -            496 13985at3193          -            748     1e-69  237.3   6.3   2   2   5.6e-36   3.6e-33  116.4   0.1   418   541   341   463   340   473 0.93 -
ID=PSME_00004624     -            134 13985at3193          -            748   6.5e-69  234.6   3.2   1   1   1.1e-71   7.1e-69  234.5   3.2   248   379     2   133     1   133 0.99 -
ID=PSME_00050009     -            133 13985at3193          -            748   1.3e-66  227.0   3.0   1   1   2.2e-69   1.4e-66  226.8   3.0   296   433     1   132     1   132 0.99 -
ID=PSME_00054955     -            131 13985at3193          -            748   1.9e-64  219.8   4.7   1   1   3.2e-67     2e-64  219.7   4.7   248   375     2   129     1   130 0.99 -
ID=PSME_00054910     -            234 13985at3193          -            748   3.1e-63  215.8   2.0   1   2      0.57   3.7e+02    0.7   0.3    30    52     5    33     1    46 0.77 -
ID=PSME_00054910     -            234 13985at3193          -            748   3.1e-63  215.8   2.0   2   2   4.8e-66   3.1e-63  215.8   2.0   122   272    67   233    46   233 0.89 -
ID=PSME_00041590     -            184 13985at3193          -            748   9.9e-58  197.6   6.7   1   2   3.1e-37     2e-34  120.5   1.6   247   332    23   108    17   118 0.94 -
ID=PSME_00041590     -            184 13985at3193          -            748   9.9e-58  197.6   6.7   2   2   5.7e-25   3.7e-22   80.0   0.2   373   433   123   183   115   183 0.91 -
ID=PSME_00050069     -            467 13985at3193          -            748   8.2e-57  194.6   2.3   1   3   9.8e-14   6.3e-11   42.8   0.4   239   313    45   121    35   126 0.92 -
ID=PSME_00050069     -            467 13985at3193          -            748   8.2e-57  194.6   2.3   2   3   1.1e-41   7.4e-39  135.2   0.0   398   601   142   343   132   351 0.92 -
ID=PSME_00050069     -            467 13985at3193          -            748   8.2e-57  194.6   2.3   3   3     3e-05      0.02   14.8   0.0   650   687   369   406   348   444 0.73 -
ID=PSME_00005770     -            136 13985at3193          -            748   1.6e-54  187.0   1.5   1   1   2.9e-57   1.9e-54  186.8   1.5   296   420     1   124     1   130 0.97 -
ID=PSME_00016478     -            165 13985at3193          -            748   7.4e-54  184.8   1.5   1   1     2e-56   1.3e-53  184.0   1.5   149   270    26   164    18   164 0.90 -
ID=PSME_00040599     -            357 13985at3193          -            748   2.4e-52  179.8   0.1   1   1   4.3e-55   2.7e-52  179.6   0.1   400   693     1   306     1   351 0.83 -
ID=PSME_00048174     -            330 13985at3193          -            748   5.6e-52  178.6   2.7   1   2     9e-08   5.8e-05   23.1   0.2   332   402     4    73     1    78 0.88 -
ID=PSME_00048174     -            330 13985at3193          -            748   5.6e-52  178.6   2.7   2   2   6.1e-48     4e-45  155.9   0.2   399   602   120   321   112   328 0.94 -
ID=PSME_00038616     -             98 13985at3193          -            748   1.9e-51  176.8   0.2   1   1   3.3e-54   2.1e-51  176.7   0.2   200   296     1    97     1    97 0.99 -
ID=PSME_00009366     -            483 13985at3193          -            748     6e-50  171.9   0.2   1   1   1.1e-52   7.3e-50  171.6   0.2   401   687     2   296     1   327 0.86 -
ID=PSME_00012787     -            125 13985at3193          -            748   6.2e-50  171.8   1.6   1   1   1.1e-52   7.2e-50  171.6   1.6   192   293    22   123    15   124 0.97 -
ID=PSME_00006641     -            347 13985at3193          -            748   1.5e-48  167.2   6.0   1   3   4.7e-15     3e-12   47.2   0.5   237   316    13    94     6    97 0.91 -
ID=PSME_00006641     -            347 13985at3193          -            748   1.5e-48  167.2   6.0   2   3   1.9e-32   1.3e-29  104.7   0.4   456   591    95   230    93   238 0.93 -
ID=PSME_00006641     -            347 13985at3193          -            748   1.5e-48  167.2   6.0   3   3   1.5e-06   0.00094   19.1   0.0   629   706   229   309   224   338 0.75 -
ID=PSME_00050010     -            112 13985at3193          -            748   3.3e-48  166.1   0.5   1   1   5.6e-51   3.6e-48  166.0   0.5   191   281    21   111     1   111 0.92 -
ID=PSME_00031475     -            134 13985at3193          -            748   3.8e-48  165.9   3.0   1   2   3.3e-18   2.1e-15   57.7   0.0   112   167     3    55     1    61 0.91 -
ID=PSME_00031475     -            134 13985at3193          -            748   3.8e-48  165.9   3.0   2   2   1.1e-33   7.1e-31  108.8   0.9   273   342    63   132    57   133 0.96 -
ID=PSME_00009894     -            141 13985at3193          -            748   2.1e-47  163.5   2.1   1   1   7.6e-50   4.9e-47  162.2   2.1    96   213     4   137     2   140 0.87 -
ID=PSME_00040485     -            157 13985at3193          -            748   5.3e-46  158.8   3.7   1   2   7.4e-41   4.8e-38  132.5   1.0   112   218     3   125     1   128 0.87 -
ID=PSME_00040485     -            157 13985at3193          -            748   5.3e-46  158.8   3.7   2   2   8.7e-09   5.6e-06   26.5   0.1   276   303   128   155   125   156 0.94 -
ID=PSME_00053541     -            297 13985at3193          -            748     2e-44  153.6   0.5   1   1   3.8e-47   2.4e-44  153.3   0.5   400   676     1   285     1   292 0.87 -
ID=PSME_00056785     -            289 13985at3193          -            748     2e-44  153.6   0.1   1   1   3.5e-47   2.3e-44  153.4   0.1   400   679     1   288     1   288 0.87 -
ID=PSME_00014173     -            356 13985at3193          -            748   6.1e-43  148.7   0.8   1   1     1e-45   6.7e-43  148.6   0.8   214   393   179   355   105   356 0.94 -
ID=PSME_00032500     -            226 13985at3193          -            748     4e-42  146.0   0.1   1   1   6.6e-45   4.2e-42  145.9   0.1   441   619     2   183     1   219 0.90 -
ID=PSME_00057038     -            216 13985at3193          -            748   9.6e-42  144.7   0.0   1   1   1.7e-44   1.1e-41  144.6   0.0   400   603     1   202     1   214 0.93 -
ID=PSME_00001019     -            100 13985at3193          -            748   9.9e-41  141.4   0.0   1   1   1.7e-43   1.1e-40  141.3   0.0   399   489     5    95     2    99 0.97 -
ID=PSME_00016477     -             92 13985at3193          -            748   1.5e-40  140.8   0.1   1   1   2.5e-43   1.6e-40  140.7   0.1   400   489     1    90     1    91 0.99 -
ID=PSME_00031476     -             92 13985at3193          -            748   2.1e-39  137.0   0.1   1   1   3.5e-42   2.2e-39  136.9   0.1   400   488     1    89     1    91 0.98 -
ID=PSME_00029373     -             92 13985at3193          -            748   2.4e-39  136.8   0.1   1   1   4.4e-42   2.8e-39  136.6   0.1   400   487     1    88     1    90 0.99 -
ID=PSME_00012886     -            195 13985at3193          -            748   4.9e-39  135.8   0.2   1   1   8.4e-42   5.4e-39  135.6   0.2   400   593     1   192     1   194 0.95 -
ID=PSME_00038617     -             82 13985at3193          -            748   9.8e-37  128.2   0.6   1   1   1.8e-39   1.1e-36  128.0   0.6   253   330     2    79     1    81 0.97 -
ID=PSME_00004625     -             95 13985at3193          -            748     7e-36  125.4   0.2   1   1   1.3e-38   8.2e-36  125.1   0.2   400   488     1    89     1    93 0.98 -
ID=PSME_00038245     -            224 13985at3193          -            748   2.7e-35  123.4   0.1   1   1   5.8e-38   3.7e-35  123.0   0.1   398   477     8    87     3    93 0.97 -
ID=PSME_00014172     -            575 13985at3193          -            748   8.7e-33  115.1   0.0   1   1   1.9e-35   1.2e-32  114.6   0.0   480   704    26   249    21   266 0.85 -
ID=PSME_00007378     -            142 13985at3193          -            748   2.5e-31  110.3   0.2   1   1   4.7e-34   3.1e-31  110.0   0.2   399   469     9    79     3    87 0.96 -
ID=PSME_00029372     -             67 13985at3193          -            748   4.7e-31  109.4   0.1   1   1   7.8e-34     5e-31  109.3   0.1   209   272     3    66     1    66 0.99 -
ID=PSME_00006165     -            128 13985at3193          -            748   3.1e-30  106.7   0.0   1   1   5.7e-33   3.7e-30  106.4   0.0    79   167    27   112    17   122 0.91 -
ID=PSME_00041231     -            232 13985at3193          -            748   1.5e-28  101.2   0.7   1   2   2.7e-19   1.8e-16   61.2   0.1   237   362    30   156    25   160 0.93 -
ID=PSME_00041231     -            232 13985at3193          -            748   1.5e-28  101.2   0.7   2   2   1.6e-12   1.1e-09   38.8   0.1   398   470   161   231   157   231 0.91 -
ID=PSME_00034287     -             67 13985at3193          -            748     7e-28   98.9   0.0   1   1   1.2e-30   7.9e-28   98.7   0.0   210   272     4    66     2    66 0.98 -
ID=PSME_00046805     -             97 13985at3193          -            748   5.4e-27   96.0   0.1   1   1   9.7e-30   6.2e-27   95.8   0.1   398   491     4    94     2    96 0.87 -
ID=PSME_00013042     -            421 13985at3193          -            748   1.8e-26   94.3   0.4   1   1   3.7e-29   2.4e-26   93.8   0.4   296   352     1    57     1    67 0.96 -
ID=PSME_00009830     -            149 13985at3193          -            748   1.1e-25   91.6   0.5   1   1   2.2e-28   1.4e-25   91.3   0.5   296   353     1    58     1    66 0.96 -
ID=PSME_00005769     -             91 13985at3193          -            748   3.4e-24   86.7   0.0   1   1   5.8e-27   3.8e-24   86.6   0.0   112   171    23    81    11    88 0.93 -
ID=PSME_00006167     -            115 13985at3193          -            748   8.1e-24   85.5   0.1   1   1   1.5e-26   9.9e-24   85.2   0.1   400   454     1    55     1    61 0.98 -
ID=PSME_00056270     -             77 13985at3193          -            748   8.4e-24   85.4   0.2   1   1   1.9e-26   1.2e-23   84.9   0.2   183   246     1    76     1    76 0.83 -
ID=PSME_00043399     -             64 13985at3193          -            748   4.4e-22   79.7   0.0   1   1   7.6e-25   4.9e-22   79.6   0.0    81   141     4    63     2    63 0.95 -
ID=PSME_00041232     -            112 13985at3193          -            748   2.1e-21   77.5   0.1   1   1   3.8e-24   2.5e-21   77.3   0.1   479   581     3   104     1   108 0.94 -
ID=PSME_00048163     -            105 13985at3193          -            748   2.4e-21   77.3   0.4   1   2    0.0094         6    6.5   0.1    32    51    13    32     2    39 0.65 -
ID=PSME_00048163     -            105 13985at3193          -            748   2.4e-21   77.3   0.4   2   2   9.9e-22   6.4e-19   69.3   0.0   192   243    52   103    47   104 0.95 -
ID=PSME_00012284     -            556 13985at3193          -            748   2.7e-21   77.1   3.4   1   1   5.7e-23   3.7e-20   73.4   3.4   210   620    56   500    10   515 0.74 -
ID=PSME_00003632     -            132 13985at3193          -            748   1.8e-17   64.5   0.2   1   2      0.17   1.1e+02    2.4   0.0    38    70    30    65     2    73 0.60 -
ID=PSME_00003632     -            132 13985at3193          -            748   1.8e-17   64.5   0.2   2   2   4.6e-19     3e-16   60.5   0.0   191   241    81   131    73   131 0.96 -
ID=PSME_00003633     -            448 13985at3193          -            748   7.2e-15   55.9   0.0   1   1   1.7e-17   1.1e-14   55.3   0.0   399   445    33    79    23    89 0.91 -
ID=PSME_00048173     -             89 13985at3193          -            748   1.6e-14   54.7   0.1   1   1   2.8e-17   1.8e-14   54.6   0.1   238   313     6    83     1    86 0.90 -
ID=PSME_00036863     -            109 13985at3193          -            748   4.5e-14   53.2   0.0   1   1   8.1e-17   5.2e-14   53.0   0.0   400   495     1    94     1   102 0.92 -
ID=PSME_00031925     -             69 13985at3193          -            748   5.6e-13   49.6   3.1   1   2       3.2     2e+03   -1.8   0.0   191   200    23    32     1    34 0.48 -
ID=PSME_00031925     -             69 13985at3193          -            748   5.6e-13   49.6   3.1   2   2   9.5e-16   6.1e-13   49.5   2.8   249   281    36    68    15    68 0.92 -
ID=PSME_00009365     -            280 13985at3193          -            748   8.4e-11   42.4   0.2   1   1   1.7e-13   1.1e-10   42.0   0.2   238   316    30   110    17   130 0.86 -
ID=PSME_00034288     -            116 13985at3193          -            748   1.3e-07   31.9   2.7   1   2     0.049        32    4.2   0.3    30    62     4    42     1    46 0.78 -
ID=PSME_00034288     -            116 13985at3193          -            748   1.3e-07   31.9   2.7   2   2   1.7e-09   1.1e-06   28.8   0.1    51    93    61   112    40   115 0.80 -
ID=PSME_00045703     -            127 13985at3193          -            748   3.3e-05   24.0   3.7   1   2      0.12        79    2.9   0.6    32    52     3    29     1    43 0.77 -
ID=PSME_00045703     -            127 13985at3193          -            748   3.3e-05   24.0   3.7   2   2   1.3e-07   8.4e-05   22.6   0.2    52    94    59   110    39   123 0.85 -
ID=PSME_00050860     -            184 13985at3193          -            748   0.00014   21.8   0.1   1   2      0.16   1.1e+02    2.4   0.1   398   421    28    51    18    60 0.74 -
ID=PSME_00050860     -            184 13985at3193          -            748   0.00014   21.8   0.1   2   2   4.7e-06    0.0031   17.4   0.0   633   688    95   149    54   167 0.69 -
ID=PSME_00022575     -            255 13985at3193          -            748   0.00021   21.3   0.2   1   2      0.21   1.3e+02    2.1   0.0   398   421    28    51     9    60 0.70 -
ID=PSME_00022575     -            255 13985at3193          -            748   0.00021   21.3   0.2   2   2   4.2e-06    0.0027   17.6   0.0   636   699    98   162    54   201 0.69 -
ID=PSME_00053542     -             63 13985at3193          -            748   0.00066   19.6   0.1   1   1   1.2e-06   0.00076   19.4   0.1   271   313     3    47     1    50 0.87 -
ID=PSME_00032501     -             63 13985at3193          -            748   0.00088   19.2   0.2   1   1   1.5e-06     0.001   19.0   0.2   271   313     3    47     1    50 0.87 -
ID=PSME_00044329     -            252 13985at3193          -            748      0.36   10.6   0.0   1   1   0.00073      0.47   10.2   0.0   673   708     2    41     1    51 0.75 -
#
# Program:         hmmsearch
# Version:         3.2.1 (June 2018)
# Pipeline mode:   SEARCH
# Query file:      /isg/shared/databases/BUSCO/odb10/embryophyta_odb10/hmms/13985at3193.hmm
# Target file:     /labs/Wegrzyn/ConiferGenomes/Psme/analysis/SURF_annotation/analyze_orig_maker/gfacs/filtered/maker_genes.fasta.faa
# Option settings: /usr/local/bin/hmmsearch --domtblout /labs/Wegrzyn/ConiferGenomes/Psme/analysis/SURF_annotation/analyze_orig_maker/busco/maker/run_embryophyta_odb10/hmmer_output/13985at3193.out --cpu 1 /isg/shared/databases/BUSCO/odb10/embryophyta_odb10/hmms/13985at3193.hmm /labs/Wegrzyn/ConiferGenomes/Psme/analysis/SURF_annotation/analyze_orig_maker/gfacs/filtered/maker_genes.fasta.faa 
# Current dir:     /labs/Wegrzyn/ConiferGenomes/Psme/analysis/SURF_annotation/analyze_orig_maker/busco
# Date:            Fri Jul 10 13:44:37 2020
# [ok]
