#                                                                            --- full sequence --- -------------- this domain -------------   hmm coord   ali coord   env coord
# target name        accession   tlen query name           accession   qlen   E-value  score  bias   #  of  c-Evalue  i-Evalue  score  bias  from    to  from    to  from    to  acc description of target
#------------------- ---------- ----- -------------------- ---------- ----- --------- ------ ----- --- --- --------- --------- ------ ----- ----- ----- ----- ----- ----- ----- ---- ---------------------
ID=PSME_00029539     -            448 141575at3193         -            260  3.2e-111  372.3   4.7   1   1  8.9e-114  4.1e-111  372.0   4.7     2   259   142   426   141   427 0.92 -
ID=PSME_00055882     -            504 141575at3193         -            260     1e-32  115.0   7.9   1   5   3.6e-05     0.016   16.0   0.3    55   138   142   231   137   231 0.81 -
ID=PSME_00055882     -            504 141575at3193         -            260     1e-32  115.0   7.9   2   5   9.7e-11   4.5e-08   34.2   0.0    76   144   200   270   194   272 0.88 -
ID=PSME_00055882     -            504 141575at3193         -            260     1e-32  115.0   7.9   3   5   2.6e-13   1.2e-10   42.6   0.2    73   145   263   337   262   350 0.91 -
ID=PSME_00055882     -            504 141575at3193         -            260     1e-32  115.0   7.9   4   5   1.5e-07   6.8e-05   23.8   0.0    85   145   362   424   352   426 0.85 -
ID=PSME_00055882     -            504 141575at3193         -            260     1e-32  115.0   7.9   5   5   3.4e-07   0.00016   22.6   0.0    73   133   416   478   415   488 0.87 -
ID=PSME_00007816     -            809 141575at3193         -            260   1.8e-20   74.9  11.3   1   5     0.005       2.3    9.0   0.2    73   131   130   189   119   211 0.76 -
ID=PSME_00007816     -            809 141575at3193         -            260   1.8e-20   74.9  11.3   2   5       1.4   6.7e+02    0.9   0.0    79   134   224   280   205   292 0.73 -
ID=PSME_00007816     -            809 141575at3193         -            260   1.8e-20   74.9  11.3   3   5   2.3e-06    0.0011   19.9   0.0    61   147   323   417   297   455 0.77 -
ID=PSME_00007816     -            809 141575at3193         -            260   1.8e-20   74.9  11.3   4   5   9.8e-07   0.00045   21.1   0.1    78   147   482   554   475   575 0.86 -
ID=PSME_00007816     -            809 141575at3193         -            260   1.8e-20   74.9  11.3   5   5   1.1e-08   5.2e-06   27.5   0.2    76   147   580   653   563   676 0.90 -
ID=PSME_00021154     -           1673 141575at3193         -            260   1.1e-17   65.7   8.2   1   5     0.011       5.1    7.8   0.1    97   144   509   559   500   563 0.82 -
ID=PSME_00021154     -           1673 141575at3193         -            260   1.1e-17   65.7   8.2   2   5   1.2e-08   5.4e-06   27.4   0.0    78   144   557   627   552   636 0.87 -
ID=PSME_00021154     -           1673 141575at3193         -            260   1.1e-17   65.7   8.2   3   5       4.1   1.9e+03   -0.6   0.0   106   136   688   718   684   731 0.91 -
ID=PSME_00021154     -           1673 141575at3193         -            260   1.1e-17   65.7   8.2   4   5   1.3e-06   0.00062   20.7   0.4    86   145   743   805   727   808 0.88 -
ID=PSME_00021154     -           1673 141575at3193         -            260   1.1e-17   65.7   8.2   5   5   0.00037      0.17   12.7   0.1    81   145   805   877   802   963 0.66 -
ID=PSME_00020294     -            613 141575at3193         -            260   1.8e-16   61.8   3.6   1   4       2.8   1.3e+03   -0.0   0.0    82   107    84   111    63   127 0.67 -
ID=PSME_00020294     -            613 141575at3193         -            260   1.8e-16   61.8   3.6   2   4     3e-05     0.014   16.2   0.0    55   147   144   244   115   254 0.79 -
ID=PSME_00020294     -            613 141575at3193         -            260   1.8e-16   61.8   3.6   3   4   6.8e-06    0.0031   18.4   0.0    77   147   308   381   290   406 0.81 -
ID=PSME_00020294     -            613 141575at3193         -            260   1.8e-16   61.8   3.6   4   4   6.8e-08   3.2e-05   24.9   0.3    69   147   400   480   382   488 0.86 -
ID=PSME_00007442     -            921 141575at3193         -            260   3.4e-16   60.8   0.0   1   3   3.7e-07   0.00017   22.5   0.0    99   142   595   638   572   652 0.84 -
ID=PSME_00007442     -            921 141575at3193         -            260   3.4e-16   60.8   0.0   2   3   1.2e-07   5.6e-05   24.1   0.0    68   132   594   661   589   681 0.72 -
ID=PSME_00007442     -            921 141575at3193         -            260   3.4e-16   60.8   0.0   3   3   6.8e-09   3.1e-06   28.2   0.0    92   170   683   765   669   775 0.75 -
ID=PSME_00030638     -            460 141575at3193         -            260   1.7e-15   58.6   0.5   1   3   9.5e-09   4.4e-06   27.7   0.0   100   145    42    87    22    89 0.92 -
ID=PSME_00030638     -            460 141575at3193         -            260   1.7e-15   58.6   0.5   2   3   1.8e-05    0.0083   17.0   0.1    57   129    92   183    87   191 0.45 -
ID=PSME_00030638     -            460 141575at3193         -            260   1.7e-15   58.6   0.5   3   3    0.0067       3.1    8.5   0.0   103   146   197   240   188   252 0.89 -
ID=PSME_00005487     -            622 141575at3193         -            260   1.8e-15   58.5   3.0   1   4       3.2   1.5e+03   -0.2   0.0   100   134    82   116    62   125 0.77 -
ID=PSME_00005487     -            622 141575at3193         -            260   1.8e-15   58.5   3.0   2   4   2.8e-05     0.013   16.4   0.0    55   147   153   253   133   287 0.74 -
ID=PSME_00005487     -            622 141575at3193         -            260   1.8e-15   58.5   3.0   3   4   2.2e-05      0.01   16.7   0.0    77   146   317   389   305   408 0.85 -
ID=PSME_00005487     -            622 141575at3193         -            260   1.8e-15   58.5   3.0   4   4   4.6e-07   0.00021   22.2   0.2    70   147   410   489   391   497 0.86 -
ID=PSME_00038015     -            483 141575at3193         -            260   1.9e-15   58.4   1.6   1   1   6.9e-18   3.2e-15   57.7   1.6    52   146   258   358   249   371 0.84 -
ID=PSME_00036047     -            626 141575at3193         -            260   2.3e-15   58.1   7.8   1   5       3.4   1.6e+03   -0.3   0.0   105   134    91   120    77   133 0.77 -
ID=PSME_00036047     -            626 141575at3193         -            260   2.3e-15   58.1   7.8   2   5   0.00014     0.064   14.1   0.0    56   147   158   257   137   268 0.77 -
ID=PSME_00036047     -            626 141575at3193         -            260   2.3e-15   58.1   7.8   3   5    0.0011      0.49   11.2   0.0    77   147   218   290   207   298 0.80 -
ID=PSME_00036047     -            626 141575at3193         -            260   2.3e-15   58.1   7.8   4   5   5.5e-06    0.0025   18.7   0.0    77   146   321   393   309   409 0.86 -
ID=PSME_00036047     -            626 141575at3193         -            260   2.3e-15   58.1   7.8   5   5   3.6e-08   1.6e-05   25.8   0.2    69   147   413   493   397   501 0.87 -
ID=PSME_00018097     -            412 141575at3193         -            260   3.1e-15   57.7   0.1   1   1     1e-17   4.6e-15   57.1   0.1    49   146   242   345   224   359 0.83 -
ID=PSME_00025265     -            386 141575at3193         -            260   3.3e-15   57.6   0.4   1   1     1e-17   4.7e-15   57.1   0.4    51   146   173   274   161   287 0.85 -
ID=PSME_00043290     -            848 141575at3193         -            260     1e-14   56.0   2.3   1   3   0.00047      0.22   12.3   0.0    56   147   362   461   342   499 0.77 -
ID=PSME_00043290     -            848 141575at3193         -            260     1e-14   56.0   2.3   2   3   1.4e-05    0.0064   17.3   0.0    77   145   519   590   507   594 0.89 -
ID=PSME_00043290     -            848 141575at3193         -            260     1e-14   56.0   2.3   3   3   1.5e-07     7e-05   23.8   0.3    70   147   636   715   617   725 0.86 -
ID=PSME_00004335     -            137 141575at3193         -            260   1.2e-14   55.8   0.1   1   2   3.8e-14   1.8e-11   45.4   0.0    70   145     8    85     2    88 0.92 -
ID=PSME_00004335     -            137 141575at3193         -            260   1.2e-14   55.8   0.1   2   2    0.0047       2.2    9.0   0.0   118   156    91   129    83   135 0.83 -
ID=PSME_00027752     -            577 141575at3193         -            260   1.2e-14   55.8   3.6   1   4       3.1   1.4e+03   -0.2   0.0    94   134    95   135    35   145 0.66 -
ID=PSME_00027752     -            577 141575at3193         -            260   1.2e-14   55.8   3.6   2   4   6.2e-05     0.029   15.2   0.0    46   146   162   271   147   279 0.77 -
ID=PSME_00027752     -            577 141575at3193         -            260   1.2e-14   55.8   3.6   3   4   0.00086       0.4   11.5   0.0   101   146   299   344   273   363 0.78 -
ID=PSME_00027752     -            577 141575at3193         -            260   1.2e-14   55.8   3.6   4   4   2.7e-08   1.2e-05   26.3   0.3    70   147   365   444   346   452 0.86 -
ID=PSME_00018860     -            917 141575at3193         -            260   1.2e-14   55.7   0.2   1   2   2.6e-07   0.00012   23.0   0.0    76   142   550   618   534   623 0.90 -
ID=PSME_00018860     -            917 141575at3193         -            260   1.2e-14   55.7   0.2   2   2   6.1e-10   2.8e-07   31.6   0.2    48   147   617   720   615   732 0.79 -
ID=PSME_00046828     -            462 141575at3193         -            260   1.3e-14   55.6   6.2   1   4       3.7   1.7e+03   -0.5   0.0   105   134    14    43     7    51 0.76 -
ID=PSME_00046828     -            462 141575at3193         -            260   1.3e-14   55.6   6.2   2   4    0.0002     0.092   13.5   0.1    78   147    55   126    45   135 0.92 -
ID=PSME_00046828     -            462 141575at3193         -            260   1.3e-14   55.6   6.2   3   4   3.7e-06    0.0017   19.2   0.1    77   146   157   229   143   256 0.82 -
ID=PSME_00046828     -            462 141575at3193         -            260   1.3e-14   55.6   6.2   4   4   1.7e-07   7.7e-05   23.6   0.4    70   147   250   329   231   336 0.85 -
ID=PSME_00049730     -            623 141575at3193         -            260   1.4e-14   55.6   1.3   1   4   0.00039      0.18   12.6   0.0    94   147   201   254   139   267 0.74 -
ID=PSME_00049730     -            623 141575at3193         -            260   1.4e-14   55.6   1.3   2   4    0.0009      0.41   11.4   0.0    77   147   215   287   203   307 0.67 -
ID=PSME_00049730     -            623 141575at3193         -            260   1.4e-14   55.6   1.3   3   4     2e-05     0.009   16.9   0.0    77   145   318   389   301   408 0.86 -
ID=PSME_00049730     -            623 141575at3193         -            260   1.4e-14   55.6   1.3   4   4   4.1e-07   0.00019   22.3   0.2    67   147   408   490   393   497 0.86 -
ID=PSME_00037256     -            595 141575at3193         -            260   1.6e-14   55.4   2.7   1   3   1.5e-05    0.0071   17.2   0.0    56   147   155   254   132   298 0.80 -
ID=PSME_00037256     -            595 141575at3193         -            260   1.6e-14   55.4   2.7   2   3   0.00053      0.25   12.1   0.0    97   146   326   374   310   393 0.84 -
ID=PSME_00037256     -            595 141575at3193         -            260   1.6e-14   55.4   2.7   3   3   8.6e-08     4e-05   24.6   0.3    61   147   386   474   375   486 0.86 -
ID=PSME_00030805     -            602 141575at3193         -            260   1.8e-14   55.2   6.0   1   4   0.00041      0.19   12.5   0.0    69   147   149   233   134   245 0.78 -
ID=PSME_00030805     -            602 141575at3193         -            260   1.8e-14   55.2   6.0   2   4   0.00059      0.27   12.0   0.0    78   147   195   266   187   268 0.90 -
ID=PSME_00030805     -            602 141575at3193         -            260   1.8e-14   55.2   6.0   3   4   6.4e-06    0.0029   18.5   0.0    77   146   297   369   285   392 0.83 -
ID=PSME_00030805     -            602 141575at3193         -            260   1.8e-14   55.2   6.0   4   4   9.1e-08   4.2e-05   24.5   0.4    69   147   389   469   371   478 0.86 -
ID=PSME_00009949     -            971 141575at3193         -            260   2.1e-14   55.0   0.2   1   2   6.4e-09     3e-06   28.3   0.0    79   142   605   670   579   696 0.56 -
ID=PSME_00009949     -            971 141575at3193         -            260   2.1e-14   55.0   0.2   2   2   9.5e-08   4.4e-05   24.4   0.1    90   147   713   772   701   783 0.88 -
ID=PSME_00005850     -            529 141575at3193         -            260   2.6e-14   54.7   2.3   1   4       1.8   8.2e+02    0.6   0.0    98   134   109   145    89   155 0.79 -
ID=PSME_00005850     -            529 141575at3193         -            260   2.6e-14   54.7   2.3   2   4   0.00013     0.059   14.2   0.0    56   148   183   283   162   320 0.72 -
ID=PSME_00005850     -            529 141575at3193         -            260   2.6e-14   54.7   2.3   3   4   6.1e-06    0.0028   18.5   0.0    77   146   340   412   324   438 0.83 -
ID=PSME_00005850     -            529 141575at3193         -            260   2.6e-14   54.7   2.3   4   4   6.8e-06    0.0031   18.4   0.1    69   147   432   512   414   519 0.83 -
ID=PSME_00027948     -            584 141575at3193         -            260   3.7e-14   54.2   5.7   1   5       9.6   4.4e+03   -1.8   0.1   109   132    18    41     2    67 0.47 -
ID=PSME_00027948     -            584 141575at3193         -            260   3.7e-14   54.2   5.7   2   5       2.9   1.4e+03   -0.1   0.0   100   134   108   142    88   151 0.77 -
ID=PSME_00027948     -            584 141575at3193         -            260   3.7e-14   54.2   5.7   3   5   1.1e-05    0.0049   17.7   0.0    54   147   178   279   161   296 0.82 -
ID=PSME_00027948     -            584 141575at3193         -            260   3.7e-14   54.2   5.7   4   5    0.0021      0.95   10.2   0.1   102   146   340   384   323   404 0.84 -
ID=PSME_00027948     -            584 141575at3193         -            260   3.7e-14   54.2   5.7   5   5   7.9e-08   3.6e-05   24.7   0.4    71   147   406   484   393   504 0.86 -
ID=PSME_00008448     -            317 141575at3193         -            260   4.6e-14   53.9   1.0   1   4   6.6e-06     0.003   18.4   0.0    74   132    73   133    42   144 0.80 -
ID=PSME_00008448     -            317 141575at3193         -            260   4.6e-14   53.9   1.0   2   4    0.0057       2.6    8.8   0.0    73    95   145   167   128   173 0.80 -
ID=PSME_00008448     -            317 141575at3193         -            260   4.6e-14   53.9   1.0   3   4   2.3e-06    0.0011   19.9   0.0   102   144   233   275   174   278 0.85 -
ID=PSME_00008448     -            317 141575at3193         -            260   4.6e-14   53.9   1.0   4   4      0.11        50    4.6   0.0   104   134   278   308   262   314 0.60 -
ID=PSME_00044629     -            579 141575at3193         -            260   4.7e-14   53.8   1.9   1   5       3.4   1.6e+03   -0.3   0.0   100   134    39    73    16    83 0.71 -
ID=PSME_00044629     -            579 141575at3193         -            260   4.7e-14   53.8   1.9   2   5   4.8e-05     0.022   15.6   0.0    55   147   110   210    88   221 0.75 -
ID=PSME_00044629     -            579 141575at3193         -            260   4.7e-14   53.8   1.9   3   5   0.00052      0.24   12.2   0.0    78   147   172   243   162   251 0.84 -
ID=PSME_00044629     -            579 141575at3193         -            260   4.7e-14   53.8   1.9   4   5   0.00044       0.2   12.4   0.0    79   145   276   345   264   362 0.81 -
ID=PSME_00044629     -            579 141575at3193         -            260   4.7e-14   53.8   1.9   5   5     1e-06   0.00046   21.1   0.2    63   147   360   446   348   457 0.83 -
ID=PSME_00009950     -            995 141575at3193         -            260   6.1e-14   53.5   0.0   1   2     1e-06   0.00048   21.0   0.0    77   143   630   698   617   728 0.67 -
ID=PSME_00009950     -            995 141575at3193         -            260   6.1e-14   53.5   0.0   2   2   1.7e-09   7.9e-07   30.2   0.1    77   147   727   799   704   814 0.84 -
ID=PSME_00034308     -            611 141575at3193         -            260   8.5e-14   53.0   2.1   1   3   0.00039      0.18   12.6   0.0   106   147   234   275   159   317 0.59 -
ID=PSME_00034308     -            611 141575at3193         -            260   8.5e-14   53.0   2.1   2   3   5.5e-05     0.025   15.4   0.0    77   145   339   410   327   428 0.86 -
ID=PSME_00034308     -            611 141575at3193         -            260   8.5e-14   53.0   2.1   3   3   5.7e-07   0.00026   21.9   0.3    69   147   431   511   413   519 0.87 -
ID=PSME_00043866     -            540 141575at3193         -            260   1.6e-13   52.1   1.5   1   4       9.4   4.3e+03   -1.8   0.0   105   134    17    46     4    60 0.77 -
ID=PSME_00043866     -            540 141575at3193         -            260   1.6e-13   52.1   1.5   2   4   0.00014     0.063   14.1   0.0    45   147    72   183    55   196 0.77 -
ID=PSME_00043866     -            540 141575at3193         -            260   1.6e-13   52.1   1.5   3   4   5.5e-05     0.025   15.4   0.0    77   145   247   318   235   338 0.83 -
ID=PSME_00043866     -            540 141575at3193         -            260   1.6e-13   52.1   1.5   4   4   4.6e-06    0.0021   18.9   0.3    69   147   339   419   321   426 0.83 -
ID=PSME_00045748     -            639 141575at3193         -            260   2.2e-13   51.6   6.0   1   5      0.91   4.2e+02    1.6   0.0    95   134   103   142    49   151 0.82 -
ID=PSME_00045748     -            639 141575at3193         -            260   2.2e-13   51.6   6.0   2   5   7.7e-05     0.035   14.9   0.0    45   147   168   279   162   289 0.73 -
ID=PSME_00045748     -            639 141575at3193         -            260   2.2e-13   51.6   6.0   3   5   0.00024      0.11   13.3   0.0    77   147   240   312   229   332 0.86 -
ID=PSME_00045748     -            639 141575at3193         -            260   2.2e-13   51.6   6.0   4   5    0.0053       2.5    8.9   0.0   102   146   362   406   317   425 0.88 -
ID=PSME_00045748     -            639 141575at3193         -            260   2.2e-13   51.6   6.0   5   5   6.3e-08   2.9e-05   25.0   0.2    69   147   426   506   408   515 0.86 -
ID=PSME_00003808     -            657 141575at3193         -            260   2.6e-13   51.4   1.5   1   3    0.0026       1.2    9.9   0.0    95   150   253   308   215   336 0.85 -
ID=PSME_00003808     -            657 141575at3193         -            260   2.6e-13   51.4   1.5   2   3   0.00045      0.21   12.4   0.0    77   146   369   441   357   467 0.79 -
ID=PSME_00003808     -            657 141575at3193         -            260   2.6e-13   51.4   1.5   3   3   2.1e-08   9.5e-06   26.6   0.4    69   147   461   541   444   569 0.84 -
ID=PSME_00023514     -            517 141575at3193         -            260   4.8e-13   50.5   2.3   1   4       1.5   7.1e+02    0.8   0.0    94   134    91   131    55   141 0.75 -
ID=PSME_00023514     -            517 141575at3193         -            260   4.8e-13   50.5   2.3   2   4   2.1e-05    0.0096   16.8   0.0    56   147   169   268   148   302 0.80 -
ID=PSME_00023514     -            517 141575at3193         -            260   4.8e-13   50.5   2.3   3   4    0.0044         2    9.1   0.0    78   146   333   400   316   424 0.80 -
ID=PSME_00023514     -            517 141575at3193         -            260   4.8e-13   50.5   2.3   4   4   1.7e-06   0.00078   20.3   0.1    69   147   420   500   401   507 0.84 -
ID=PSME_00043521     -            515 141575at3193         -            260   8.1e-13   49.8   2.1   1   3     9e-05     0.042   14.7   0.0    45   146    99   209    78   220 0.79 -
ID=PSME_00043521     -            515 141575at3193         -            260   8.1e-13   49.8   2.1   2   3    0.0007      0.32   11.8   0.1    97   146   234   282   211   308 0.77 -
ID=PSME_00043521     -            515 141575at3193         -            260   8.1e-13   49.8   2.1   3   3   6.8e-07   0.00031   21.6   0.3    67   147   300   382   283   393 0.85 -
ID=PSME_00048745     -            667 141575at3193         -            260   8.2e-13   49.8   2.2   1   5       3.7   1.7e+03   -0.4   0.0    46   133    71   160    68   168 0.66 -
ID=PSME_00048745     -            667 141575at3193         -            260   8.2e-13   49.8   2.2   2   5   0.00028      0.13   13.1   0.0    55   147   198   298   179   308 0.78 -
ID=PSME_00048745     -            667 141575at3193         -            260   8.2e-13   49.8   2.2   3   5    0.0047       2.2    9.1   0.0    78   147   260   331   256   339 0.86 -
ID=PSME_00048745     -            667 141575at3193         -            260   8.2e-13   49.8   2.2   4   5   0.00033      0.15   12.8   0.0    76   146   361   434   337   465 0.82 -
ID=PSME_00048745     -            667 141575at3193         -            260   8.2e-13   49.8   2.2   5   5   2.3e-06    0.0011   19.9   0.2    77   147   462   534   443   552 0.81 -
ID=PSME_00049426     -            648 141575at3193         -            260   1.3e-12   49.1   5.0   1   3   0.00025      0.12   13.2   0.0    55   147   179   279   160   304 0.77 -
ID=PSME_00049426     -            648 141575at3193         -            260   1.3e-12   49.1   5.0   2   3     8e-06    0.0037   18.1   0.0    77   146   343   415   332   431 0.86 -
ID=PSME_00049426     -            648 141575at3193         -            260   1.3e-12   49.1   5.0   3   3   1.3e-05    0.0059   17.5   0.1    69   147   435   515   416   522 0.86 -
ID=PSME_00039156     -            729 141575at3193         -            260     3e-12   47.9   4.3   1   3   0.00023      0.11   13.4   0.0    68   147   236   321   202   359 0.75 -
ID=PSME_00039156     -            729 141575at3193         -            260     3e-12   47.9   4.3   2   3    0.0037       1.7    9.4   0.1   100   146   395   441   369   461 0.84 -
ID=PSME_00039156     -            729 141575at3193         -            260     3e-12   47.9   4.3   3   3   8.1e-08   3.7e-05   24.7   0.4    70   147   462   541   447   554 0.86 -
ID=PSME_00010419     -            611 141575at3193         -            260   4.9e-12   47.2   4.3   1   5       7.5   3.4e+03   -1.4   0.0   107   133    90   116    75   122 0.70 -
ID=PSME_00010419     -            611 141575at3193         -            260   4.9e-12   47.2   4.3   2   5   0.00013      0.06   14.1   0.0    45   146   143   253   132   261 0.77 -
ID=PSME_00010419     -            611 141575at3193         -            260   4.9e-12   47.2   4.3   3   5    0.0014      0.66   10.7   0.0    78   147   216   287   212   317 0.88 -
ID=PSME_00010419     -            611 141575at3193         -            260   4.9e-12   47.2   4.3   4   5   4.7e-05     0.022   15.6   0.1    77   165   318   406   306   416 0.82 -
ID=PSME_00010419     -            611 141575at3193         -            260   4.9e-12   47.2   4.3   5   5     4e-05     0.018   15.8   0.2    71   147   412   490   400   498 0.88 -
ID=PSME_00031102     -            460 141575at3193         -            260   6.6e-12   46.8   3.1   1   3   0.00039      0.18   12.6   0.0    43   147   140   256   129   265 0.78 -
ID=PSME_00031102     -            460 141575at3193         -            260   6.6e-12   46.8   3.1   2   3    0.0016      0.76   10.5   0.0   100   146   271   317   268   336 0.86 -
ID=PSME_00031102     -            460 141575at3193         -            260   6.6e-12   46.8   3.1   3   3   4.2e-07   0.00019   22.3   0.4    69   147   337   417   319   427 0.86 -
ID=PSME_00024966     -            476 141575at3193         -            260   7.3e-12   46.6   0.6   1   3   2.4e-08   1.1e-05   26.4   0.3    37   167    73   210    69   212 0.83 -
ID=PSME_00024966     -            476 141575at3193         -            260   7.3e-12   46.6   0.6   2   3    0.0066         3    8.6   0.1   100   129   186   217   182   224 0.83 -
ID=PSME_00024966     -            476 141575at3193         -            260   7.3e-12   46.6   0.6   3   3   0.00035      0.16   12.8   0.0    97   145   222   270   217   281 0.87 -
ID=PSME_00003450     -            576 141575at3193         -            260   7.6e-12   46.6   4.7   1   3    0.0051       2.3    8.9   0.0    56   147   145   244   124   279 0.67 -
ID=PSME_00003450     -            576 141575at3193         -            260   7.6e-12   46.6   4.7   2   3   0.00019     0.088   13.6   0.1    78   145   309   375   299   395 0.80 -
ID=PSME_00003450     -            576 141575at3193         -            260   7.6e-12   46.6   4.7   3   3   1.6e-07   7.5e-05   23.7   0.9    62   147   386   476   375   483 0.81 -
ID=PSME_00033781     -            475 141575at3193         -            260   2.9e-11   44.7   3.9   1   5      0.97   4.5e+02    1.5   0.0    72   124   130   179   104   186 0.62 -
ID=PSME_00033781     -            475 141575at3193         -            260   2.9e-11   44.7   3.9   2   5   0.00022       0.1   13.4   0.1   104   142   249   287   239   291 0.82 -
ID=PSME_00033781     -            475 141575at3193         -            260   2.9e-11   44.7   3.9   3   5   0.00098      0.45   11.3   0.0    67   126   288   348   285   357 0.87 -
ID=PSME_00033781     -            475 141575at3193         -            260   2.9e-11   44.7   3.9   4   5   0.00012     0.054   14.3   0.1   101   160   390   447   377   454 0.85 -
ID=PSME_00033781     -            475 141575at3193         -            260   2.9e-11   44.7   3.9   5   5      0.17        77    4.0   0.0    75   101   438   464   433   472 0.69 -
ID=PSME_00000659     -            589 141575at3193         -            260   3.1e-11   44.6   0.3   1   4   3.1e-06    0.0014   19.5   0.0    77   128    96   149    80   155 0.88 -
ID=PSME_00000659     -            589 141575at3193         -            260   3.1e-11   44.6   0.3   2   4      0.15        67    4.2   0.0    73    94   164   185   157   189 0.86 -
ID=PSME_00000659     -            589 141575at3193         -            260   3.1e-11   44.6   0.3   3   4   0.00046      0.21   12.4   0.1   103   144   229   270   217   273 0.83 -
ID=PSME_00000659     -            589 141575at3193         -            260   3.1e-11   44.6   0.3   4   4      0.17        80    3.9   0.0   104   146   273   315   261   320 0.71 -
ID=PSME_00016105     -            916 141575at3193         -            260   3.5e-11   44.4   0.1   1   2   3.3e-05     0.015   16.1   0.0    76   142   557   625   541   638 0.88 -
ID=PSME_00016105     -            916 141575at3193         -            260   3.5e-11   44.4   0.1   2   2   3.2e-08   1.5e-05   26.0   0.1    90   146   668   726   656   737 0.89 -
ID=PSME_00055903     -            260 141575at3193         -            260   5.8e-11   43.7   0.1   1   2     0.017       7.9    7.2   0.0    99   132    44    77    18    82 0.81 -
ID=PSME_00055903     -            260 141575at3193         -            260   5.8e-11   43.7   0.1   2   2   5.3e-11   2.5e-08   35.1   0.2    71   147    80   158    75   170 0.91 -
ID=PSME_00049021     -            492 141575at3193         -            260   8.8e-11   43.1   2.1   1   3    0.0034       1.6    9.5   0.0    88   146   127   191    95   200 0.81 -
ID=PSME_00049021     -            492 141575at3193         -            260   8.8e-11   43.1   2.1   2   3   4.7e-06    0.0022   18.9   0.1    67   165   175   275   152   285 0.78 -
ID=PSME_00049021     -            492 141575at3193         -            260   8.8e-11   43.1   2.1   3   3   1.4e-06   0.00063   20.6   0.2    71   147   281   359   264   365 0.87 -
ID=PSME_00040705     -            600 141575at3193         -            260   1.1e-10   42.8   1.5   1   3       2.7   1.3e+03   -0.0   0.0    88   133   175   220   152   264 0.71 -
ID=PSME_00040705     -            600 141575at3193         -            260   1.1e-10   42.8   1.5   2   3   2.9e-05     0.013   16.3   0.0    77   146   299   371   276   387 0.87 -
ID=PSME_00040705     -            600 141575at3193         -            260   1.1e-10   42.8   1.5   3   3   2.8e-07   0.00013   22.9   0.4    64   147   382   467   372   475 0.85 -
ID=PSME_00003921     -            677 141575at3193         -            260   2.6e-10   41.6   6.9   1   5       2.9   1.3e+03   -0.1   0.0    96   134    76   114    56   123 0.76 -
ID=PSME_00003921     -            677 141575at3193         -            260   2.6e-10   41.6   6.9   2   5   6.3e-05     0.029   15.2   0.1    55   147   151   251   132   267 0.76 -
ID=PSME_00003921     -            677 141575at3193         -            260   2.6e-10   41.6   6.9   3   5   8.1e-05     0.037   14.8   0.1    77   148   212   285   202   326 0.84 -
ID=PSME_00003921     -            677 141575at3193         -            260   2.6e-10   41.6   6.9   4   5     0.074        34    5.1   0.0    91   138   320   369   314   384 0.83 -
ID=PSME_00003921     -            677 141575at3193         -            260   2.6e-10   41.6   6.9   5   5   2.4e-06    0.0011   19.8   0.4    69   147   394   474   375   482 0.86 -
ID=PSME_00013699     -            142 141575at3193         -            260   5.4e-10   40.5   1.3   1   2   1.6e-06   0.00075   20.4   0.1    72   128     6    64     2    77 0.68 -
ID=PSME_00013699     -            142 141575at3193         -            260   5.4e-10   40.5   1.3   2   2     3e-06    0.0014   19.5   0.1   102   146    78   122    69   131 0.91 -
ID=PSME_00018990     -            377 141575at3193         -            260   9.3e-10   39.8   0.1   1   3       9.1   4.2e+03   -1.7   0.0   100   134    39    73    21    82 0.76 -
ID=PSME_00018990     -            377 141575at3193         -            260   9.3e-10   39.8   0.1   2   3   3.3e-05     0.015   16.1   0.0    45   147    99   210    90   222 0.78 -
ID=PSME_00018990     -            377 141575at3193         -            260   9.3e-10   39.8   0.1   3   3     2e-06   0.00091   20.1   0.0    76   146   273   346   247   373 0.79 -
ID=PSME_00053729     -            377 141575at3193         -            260   9.8e-10   39.7   0.8   1   4       1.8   8.4e+02    0.6   0.0   106   134    45    73    29    83 0.66 -
ID=PSME_00053729     -            377 141575at3193         -            260   9.8e-10   39.7   0.8   2   4   7.9e-05     0.036   14.9   0.0    45   147    99   210    91   220 0.77 -
ID=PSME_00053729     -            377 141575at3193         -            260   9.8e-10   39.7   0.8   3   4   0.00044       0.2   12.4   0.0    78   147   172   243   165   272 0.89 -
ID=PSME_00053729     -            377 141575at3193         -            260   9.8e-10   39.7   0.8   4   4     3e-06    0.0014   19.5   0.0    77   146   274   346   262   373 0.84 -
ID=PSME_00021701     -            365 141575at3193         -            260     1e-09   39.6   1.0   1   2   2.5e-05     0.011   16.5   0.0    76   146    68   140    43   159 0.81 -
ID=PSME_00021701     -            365 141575at3193         -            260     1e-09   39.6   1.0   2   2   7.5e-07   0.00034   21.5   0.2    69   147   160   240   141   250 0.84 -
ID=PSME_00049206     -            412 141575at3193         -            260   1.5e-09   39.1   0.2   1   4       5.7   2.6e+03   -1.1   0.0    96   134    70   108    51   117 0.73 -
ID=PSME_00049206     -            412 141575at3193         -            260   1.5e-09   39.1   0.2   2   4   4.2e-05     0.019   15.8   0.0    55   147   145   245   125   258 0.76 -
ID=PSME_00049206     -            412 141575at3193         -            260   1.5e-09   39.1   0.2   3   4   0.00012     0.057   14.2   0.0    78   147   207   278   196   288 0.87 -
ID=PSME_00049206     -            412 141575at3193         -            260   1.5e-09   39.1   0.2   4   4   5.1e-06    0.0024   18.8   0.0    77   146   309   381   297   408 0.82 -
ID=PSME_00043239     -            630 141575at3193         -            260   2.1e-09   38.6   4.8   1   4       2.5   1.2e+03    0.1   0.0   101   134   109   142    99   153 0.77 -
ID=PSME_00043239     -            630 141575at3193         -            260   2.1e-09   38.6   4.8   2   4     0.001      0.46   11.3   0.0    68   147   188   273   168   305 0.82 -
ID=PSME_00043239     -            630 141575at3193         -            260   2.1e-09   38.6   4.8   3   4      0.23   1.1e+02    3.5   0.0   117   147   368   398   339   415 0.84 -
ID=PSME_00043239     -            630 141575at3193         -            260   2.1e-09   38.6   4.8   4   4   1.9e-06   0.00085   20.2   0.3    69   147   417   497   400   506 0.86 -
ID=PSME_00026887     -            566 141575at3193         -            260   2.7e-09   38.2   0.0   1   2   1.6e-07   7.4e-05   23.7   0.0    76   142   367   435   359   443 0.89 -
ID=PSME_00026887     -            566 141575at3193         -            260   2.7e-09   38.2   0.0   2   2   0.00052      0.24   12.2   0.0    89   133   477   523   434   537 0.66 -
ID=PSME_00024974     -            445 141575at3193         -            260   3.2e-09   38.0   1.8   1   3       3.1   1.4e+03   -0.2   0.0   100   134    39    73    17    83 0.74 -
ID=PSME_00024974     -            445 141575at3193         -            260   3.2e-09   38.0   1.8   2   3   7.1e-05     0.033   15.0   0.1    56   146   111   212    78   230 0.69 -
ID=PSME_00024974     -            445 141575at3193         -            260   3.2e-09   38.0   1.8   3   3   1.2e-06   0.00054   20.9   0.2    65   147   228   312   215   321 0.84 -
ID=PSME_00004750     -            173 141575at3193         -            260   4.4e-09   37.5   0.0   1   2     1e-07   4.8e-05   24.3   0.0    69   147    24   110    14   119 0.80 -
ID=PSME_00004750     -            173 141575at3193         -            260   4.4e-09   37.5   0.0   2   2     1e-05    0.0046   17.8   0.0    74   139    66   137    63   163 0.75 -
ID=PSME_00005488     -            535 141575at3193         -            260   4.5e-09   37.5   5.9   1   2   2.2e-07    0.0001   23.3   0.4    78   145   130   201   118   207 0.81 -
ID=PSME_00005488     -            535 141575at3193         -            260   4.5e-09   37.5   5.9   2   2   6.8e-05     0.031   15.1   0.2    88   147   208   271   202   290 0.79 -
ID=PSME_00023718     -            588 141575at3193         -            260   5.3e-09   37.3   5.9   1   4      0.11        51    4.6   0.1    41   139    65   156    55   167 0.64 -
ID=PSME_00023718     -            588 141575at3193         -            260   5.3e-09   37.3   5.9   2   4      0.43     2e+02    2.6   0.0   101   130   154   183   107   200 0.62 -
ID=PSME_00023718     -            588 141575at3193         -            260   5.3e-09   37.3   5.9   3   4   2.7e-06    0.0012   19.7   0.9    52   146   165   268   159   275 0.72 -
ID=PSME_00023718     -            588 141575at3193         -            260   5.3e-09   37.3   5.9   4   4   0.00049      0.22   12.3   0.0    99   150   289   341   270   353 0.84 -
ID=PSME_00008029     -            420 141575at3193         -            260     6e-09   37.1   0.6   1   2     1e-05    0.0048   17.8   0.1    77   146   127   199   118   219 0.83 -
ID=PSME_00008029     -            420 141575at3193         -            260     6e-09   37.1   0.6   2   2     1e-05    0.0048   17.7   0.1    70   147   220   299   203   307 0.85 -
ID=PSME_00002516     -            216 141575at3193         -            260   6.1e-09   37.1   0.0   1   2   1.8e-06   0.00081   20.3   0.0    98   142    61   105    37   144 0.84 -
ID=PSME_00002516     -            216 141575at3193         -            260   6.1e-09   37.1   0.0   2   2     7e-05     0.032   15.0   0.0    66   103   173   211   153   214 0.76 -
ID=PSME_00054385     -            433 141575at3193         -            260   1.2e-08   36.1   2.3   1   2   5.7e-08   2.6e-05   25.2   0.2    44   127    19   111     7   117 0.77 -
ID=PSME_00054385     -            433 141575at3193         -            260   1.2e-08   36.1   2.3   2   2   0.00094      0.43   11.3   0.2    99   148   117   167   103   188 0.83 -
ID=PSME_00036928     -            466 141575at3193         -            260   1.3e-08   36.0   0.2   1   2   6.1e-06    0.0028   18.5   0.0    75   133   274   334   267   341 0.89 -
ID=PSME_00036928     -            466 141575at3193         -            260   1.3e-08   36.0   0.2   2   2   5.3e-05     0.024   15.4   0.1    47   132   359   448   351   455 0.73 -
ID=PSME_00043219     -            499 141575at3193         -            260   1.5e-08   35.8   0.7   1   4       1.6   7.3e+02    0.8   0.0    95   134    70   109    34   120 0.80 -
ID=PSME_00043219     -            499 141575at3193         -            260   1.5e-08   35.8   0.7   2   4     5e-05     0.023   15.5   0.0    44   147   134   246   116   257 0.76 -
ID=PSME_00043219     -            499 141575at3193         -            260   1.5e-08   35.8   0.7   3   4   7.2e-05     0.033   15.0   0.1    77   166   302   391   269   417 0.79 -
ID=PSME_00043219     -            499 141575at3193         -            260   1.5e-08   35.8   0.7   4   4       2.8   1.3e+03   -0.1   0.0    91   138   384   432   370   437 0.70 -
ID=PSME_00020013     -            253 141575at3193         -            260   2.8e-08   34.9   0.9   1   2      0.01       4.6    8.0   0.0   101   146    65   110    57   128 0.88 -
ID=PSME_00020013     -            253 141575at3193         -            260   2.8e-08   34.9   0.9   2   2   3.7e-08   1.7e-05   25.8   0.3    69   147   130   210   112   229 0.86 -
ID=PSME_00029872     -            377 141575at3193         -            260   2.9e-08   34.9   1.9   1   3       2.9   1.3e+03   -0.1   0.0    88   133   114   159   110   168 0.80 -
ID=PSME_00029872     -            377 141575at3193         -            260   2.9e-08   34.9   1.9   2   3   0.00077      0.35   11.6   0.1    78   147   172   243   162   254 0.90 -
ID=PSME_00029872     -            377 141575at3193         -            260   2.9e-08   34.9   1.9   3   3   2.4e-06    0.0011   19.8   0.0    77   147   274   347   262   373 0.82 -
ID=PSME_00048853     -            830 141575at3193         -            260   3.1e-08   34.8   0.1   1   2   1.9e-05    0.0088   16.9   0.0    55   135   562   648   547   658 0.68 -
ID=PSME_00048853     -            830 141575at3193         -            260   3.1e-08   34.8   0.1   2   2     3e-05     0.014   16.2   0.0    73   146   648   723   624   733 0.77 -
ID=PSME_00047867     -            844 141575at3193         -            260   3.3e-08   34.7   0.1   1   3   9.7e-06    0.0045   17.8   0.0    81   143   553   617   522   622 0.77 -
ID=PSME_00047867     -            844 141575at3193         -            260   3.3e-08   34.7   0.1   2   3    0.0011      0.52   11.1   0.0    76   145   614   683   612   685 0.92 -
ID=PSME_00047867     -            844 141575at3193         -            260   3.3e-08   34.7   0.1   3   3   0.00038      0.18   12.6   0.0    85   146   654   717   642   729 0.83 -
ID=PSME_00040181     -            487 141575at3193         -            260   5.1e-08   34.0   0.0   1   1   1.9e-10   8.5e-08   33.3   0.0    73   148   265   343   241   363 0.84 -
ID=PSME_00033858     -            130 141575at3193         -            260   5.2e-08   34.0   0.0   1   2    0.0012      0.56   11.0   0.0   110   145     3    39     1    43 0.87 -
ID=PSME_00033858     -            130 141575at3193         -            260   5.2e-08   34.0   0.0   2   2   7.6e-07   0.00035   21.5   0.0    88   161    46   123    40   129 0.83 -
ID=PSME_00049068     -            629 141575at3193         -            260   6.3e-08   33.8   0.0   1   1   2.4e-10   1.1e-07   33.0   0.0    72   145   380   461   372   490 0.83 -
ID=PSME_00045816     -            289 141575at3193         -            260   6.8e-08   33.6   0.2   1   2   6.7e-06    0.0031   18.4   0.0    76   133    90   149    82   157 0.87 -
ID=PSME_00045816     -            289 141575at3193         -            260   6.8e-08   33.6   0.2   2   2   0.00023      0.11   13.3   0.1    47   132   174   263   161   271 0.74 -
ID=PSME_00022789     -            567 141575at3193         -            260   6.9e-08   33.6   2.7   1   3       2.6   1.2e+03    0.1   0.0    95   134    34    73    15    82 0.74 -
ID=PSME_00022789     -            567 141575at3193         -            260   6.9e-08   33.6   2.7   2   3    0.0061       2.8    8.7   0.2    74   146   154   235   137   255 0.73 -
ID=PSME_00022789     -            567 141575at3193         -            260   6.9e-08   33.6   2.7   3   3   2.5e-07   0.00012   23.1   0.2    69   147   255   335   236   343 0.86 -
ID=PSME_00042361     -            179 141575at3193         -            260   8.1e-08   33.4   0.0   1   2    0.0013      0.61   10.9   0.0   109   145     2    39     1    41 0.88 -
ID=PSME_00042361     -            179 141575at3193         -            260   8.1e-08   33.4   0.0   2   2   1.4e-08   6.4e-06   27.2   0.0    69   161    26   123    24   148 0.79 -
ID=PSME_00031792     -            491 141575at3193         -            260   1.1e-07   33.0   0.2   1   2   7.4e-05     0.034   15.0   0.0    75   133   277   338   253   342 0.79 -
ID=PSME_00031792     -            491 141575at3193         -            260   1.1e-07   33.0   0.2   2   2   5.7e-06    0.0026   18.6   0.0    95   151   333   389   331   418 0.86 -
ID=PSME_00018328     -            270 141575at3193         -            260     2e-07   32.1   1.0   1   2     0.015         7    7.4   0.0   111   146     2    37     1    63 0.76 -
ID=PSME_00018328     -            270 141575at3193         -            260     2e-07   32.1   1.0   2   2     1e-07   4.6e-05   24.4   0.3    67   147    55   137    39   156 0.85 -
ID=PSME_00046681     -            304 141575at3193         -            260     3e-07   31.5   0.3   1   2   2.8e-05     0.013   16.3   0.0    78   133    92   149    84   163 0.86 -
ID=PSME_00046681     -            304 141575at3193         -            260     3e-07   31.5   0.3   2   2   0.00025      0.12   13.2   0.1    47   133   174   264   159   271 0.74 -
ID=PSME_00042173     -            564 141575at3193         -            260   4.3e-07   31.0   1.0   1   5      0.97   4.5e+02    1.5   0.0   100   134    99   133    70   142 0.84 -
ID=PSME_00042173     -            564 141575at3193         -            260   4.3e-07   31.0   1.0   2   5    0.0042         2    9.2   0.0    68   147   185   270   153   281 0.75 -
ID=PSME_00042173     -            564 141575at3193         -            260   4.3e-07   31.0   1.0   3   5    0.0041       1.9    9.2   0.0    78   147   232   303   221   311 0.87 -
ID=PSME_00042173     -            564 141575at3193         -            260   4.3e-07   31.0   1.0   4   5    0.0022         1   10.1   0.0   102   145   353   396   333   411 0.88 -
ID=PSME_00042173     -            564 141575at3193         -            260   4.3e-07   31.0   1.0   5   5      0.23     1e+02    3.5   0.0   117   147   413   443   410   453 0.91 -
ID=PSME_00022104     -            515 141575at3193         -            260   6.1e-07   30.5   0.4   1   2   1.7e-05    0.0076   17.1   0.0    76   133   316   375   309   383 0.87 -
ID=PSME_00022104     -            515 141575at3193         -            260   6.1e-07   30.5   0.4   2   2    0.0009      0.42   11.4   0.1    47   132   400   489   392   497 0.71 -
ID=PSME_00022930     -            210 141575at3193         -            260   6.5e-07   30.4   0.0   1   1   1.9e-09   8.6e-07   30.0   0.0    26   147    30   157     6   174 0.83 -
ID=PSME_00041233     -            270 141575at3193         -            260   8.1e-07   30.1   0.7   1   2     0.013         6    7.6   0.0   111   146     2    37     1    61 0.79 -
ID=PSME_00041233     -            270 141575at3193         -            260   8.1e-07   30.1   0.7   2   2   7.8e-07   0.00036   21.4   0.2    70   147    58   137    45   155 0.86 -
ID=PSME_00037153     -            270 141575at3193         -            260   1.1e-06   29.7   0.5   1   2     0.067        31    5.3   0.0   111   146     2    37     1    63 0.79 -
ID=PSME_00037153     -            270 141575at3193         -            260   1.1e-06   29.7   0.5   2   2     2e-07   9.4e-05   23.4   0.2    70   147    58   137    41   147 0.87 -
ID=PSME_00024892     -            387 141575at3193         -            260   1.3e-06   29.5   0.3   1   3       6.4   2.9e+03   -1.2   0.0   105   134   111   140    86   153 0.68 -
ID=PSME_00024892     -            387 141575at3193         -            260   1.3e-06   29.5   0.3   2   3    0.0018      0.84   10.4   0.0    42   139   163   269   151   278 0.74 -
ID=PSME_00024892     -            387 141575at3193         -            260   1.3e-06   29.5   0.3   3   3   4.7e-05     0.022   15.6   0.0    77   146   281   353   270   380 0.85 -
ID=PSME_00036083     -            538 141575at3193         -            260   3.3e-06   28.1   0.0   1   1   1.3e-08   5.9e-06   27.3   0.0    72   133   190   253   185   273 0.87 -
ID=PSME_00013340     -            418 141575at3193         -            260   3.7e-06   28.0   0.1   1   1   1.4e-08   6.3e-06   27.2   0.1    74   144    84   156    73   178 0.81 -
ID=PSME_00033596     -            236 141575at3193         -            260   3.7e-06   28.0   0.0   1   2       0.5   2.3e+02    2.4   0.0    94   134    33    73    13    83 0.75 -
ID=PSME_00033596     -            236 141575at3193         -            260   3.7e-06   28.0   0.0   2   2   1.6e-07   7.4e-05   23.7   0.0    68   147   125   206    90   232 0.78 -
ID=PSME_00032584     -            555 141575at3193         -            260   6.6e-06   27.1   2.7   1   4       2.1   9.9e+02    0.3   0.0    90   133   135   178   130   197 0.63 -
ID=PSME_00032584     -            555 141575at3193         -            260   6.6e-06   27.1   2.7   2   4      0.18        82    3.9   0.1   100   147   203   250   191   260 0.88 -
ID=PSME_00032584     -            555 141575at3193         -            260   6.6e-06   27.1   2.7   3   4       0.2        91    3.7   0.0   103   150   293   340   284   349 0.85 -
ID=PSME_00032584     -            555 141575at3193         -            260   6.6e-06   27.1   2.7   4   4   5.3e-05     0.024   15.4   0.1    77   147   350   422   343   440 0.87 -
ID=PSME_00044844     -            164 141575at3193         -            260   7.4e-06   27.0   0.2   1   1     2e-08   9.4e-06   26.6   0.2    77   146     2    73     1    98 0.87 -
ID=PSME_00030051     -            555 141575at3193         -            260   1.3e-05   26.2   0.1   1   3       5.8   2.7e+03   -1.1   0.0   102   134    93   125    77   134 0.69 -
ID=PSME_00030051     -            555 141575at3193         -            260   1.3e-05   26.2   0.1   2   3   0.00064       0.3   11.9   0.0    68   147   177   262   145   273 0.79 -
ID=PSME_00030051     -            555 141575at3193         -            260   1.3e-05   26.2   0.1   3   3    0.0025       1.1   10.0   0.0   102   146   333   377   318   428 0.85 -
ID=PSME_00005691     -            709 141575at3193         -            260   1.4e-05   26.1   3.2   1   3   0.00045      0.21   12.4   0.1    76   145   176   249   164   252 0.83 -
ID=PSME_00005691     -            709 141575at3193         -            260   1.4e-05   26.1   3.2   2   3      0.18        84    3.8   0.1    70   123   238   294   236   298 0.73 -
ID=PSME_00005691     -            709 141575at3193         -            260   1.4e-05   26.1   3.2   3   3   0.00072      0.33   11.7   0.2    99   161   318   385   296   399 0.75 -
ID=PSME_00027689     -            738 141575at3193         -            260     2e-05   25.6   0.3   1   2   0.00081      0.37   11.5   0.1    73   126   271   327   255   357 0.71 -
ID=PSME_00027689     -            738 141575at3193         -            260     2e-05   25.6   0.3   2   2    0.0015      0.67   10.7   0.0    98   147   381   434   360   450 0.77 -
ID=PSME_00035623     -            337 141575at3193         -            260   2.7e-05   25.1   0.0   1   1   8.8e-08   4.1e-05   24.5   0.0    89   151   258   322   248   332 0.88 -
ID=PSME_00041234     -            330 141575at3193         -            260   3.6e-05   24.7   0.1   1   4       5.9   2.7e+03   -1.1   0.0    86   126    29    67     9   103 0.70 -
ID=PSME_00041234     -            330 141575at3193         -            260   3.6e-05   24.7   0.1   2   4       3.1   1.4e+03   -0.2   0.0    99   134   110   145    88   154 0.76 -
ID=PSME_00041234     -            330 141575at3193         -            260   3.6e-05   24.7   0.1   3   4   2.7e-05     0.012   16.4   0.0    55   147   182   282   162   294 0.78 -
ID=PSME_00041234     -            330 141575at3193         -            260   3.6e-05   24.7   0.1   4   4   0.00016     0.074   13.9   0.0    77   147   243   315   233   320 0.86 -
ID=PSME_00008696     -            287 141575at3193         -            260   4.5e-05   24.4   0.0   1   2       2.2     1e+03    0.3   0.0   121   152   117   150   110   168 0.76 -
ID=PSME_00008696     -            287 141575at3193         -            260   4.5e-05   24.4   0.0   2   2   7.4e-07   0.00034   21.5   0.0    79   144   198   265   181   273 0.84 -
ID=PSME_00001603     -            126 141575at3193         -            260   0.00042   21.2   0.0   1   2     0.014       6.6    7.5   0.0   106   127    53    74    11    83 0.77 -
ID=PSME_00001603     -            126 141575at3193         -            260   0.00042   21.2   0.0   2   2   0.00052      0.24   12.2   0.0   104   134    88   118    78   123 0.86 -
ID=PSME_00044912     -            659 141575at3193         -            260   0.00089   20.2   1.7   1   2    0.0053       2.4    8.9   0.1    73   126   239   295   225   315 0.76 -
ID=PSME_00044912     -            659 141575at3193         -            260   0.00089   20.2   1.7   2   2     0.011       5.2    7.8   0.1    98   146   349   401   328   420 0.76 -
ID=PSME_00022393     -            557 141575at3193         -            260    0.0023   18.8   0.8   1   3      0.12        53    4.5   0.1    79   147   183   255   165   263 0.86 -
ID=PSME_00022393     -            557 141575at3193         -            260    0.0023   18.8   0.8   2   3      0.09        42    4.8   0.0   103   143   298   338   290   343 0.89 -
ID=PSME_00022393     -            557 141575at3193         -            260    0.0023   18.8   0.8   3   3    0.0018      0.82   10.4   0.1    72   148   331   409   325   451 0.81 -
ID=PSME_00009675     -            328 141575at3193         -            260    0.0031   18.4   0.0   1   1   1.4e-05    0.0065   17.3   0.0   103   145    16    58     8    71 0.90 -
ID=PSME_00032231     -            474 141575at3193         -            260    0.0034   18.2   0.0   1   1   1.1e-05    0.0052   17.6   0.0    76   136   390   452   373   464 0.85 -
ID=PSME_00015212     -            482 141575at3193         -            260    0.0051   17.7   0.0   1   1   1.6e-05    0.0072   17.2   0.0    75   132   421   480   382   482 0.88 -
ID=PSME_00029577     -            777 141575at3193         -            260    0.0052   17.6   0.1   1   1   1.7e-05    0.0077   17.1   0.1    72   146    81   165    75   183 0.74 -
ID=PSME_00037178     -            474 141575at3193         -            260    0.0072   17.2   0.0   1   1   2.2e-05      0.01   16.7   0.0    76   132   414   472   396   474 0.88 -
ID=PSME_00039540     -            443 141575at3193         -            260    0.0092   16.8   0.0   1   1   3.1e-05     0.014   16.2   0.0    76   132   373   431   355   436 0.87 -
ID=PSME_00027835     -            754 141575at3193         -            260    0.0095   16.8   0.0   1   1   3.6e-05     0.017   16.0   0.0    71   124   664   720   657   735 0.82 -
ID=PSME_00019245     -            425 141575at3193         -            260     0.011   16.6   0.0   1   1   3.1e-05     0.015   16.2   0.0    75   132   364   423   340   425 0.86 -
ID=PSME_00025630     -            187 141575at3193         -            260     0.012   16.5   0.0   1   1   3.2e-05     0.015   16.2   0.0    75   133   121   181   102   186 0.87 -
ID=PSME_00034898     -            448 141575at3193         -            260     0.014   16.2   0.0   1   1   4.5e-05     0.021   15.7   0.0    76   132   384   442   367   446 0.88 -
ID=PSME_00051111     -            187 141575at3193         -            260     0.014   16.2   0.0   1   1     4e-05     0.018   15.8   0.0   104   145    55    96    33   115 0.87 -
ID=PSME_00011519     -           1062 141575at3193         -            260     0.018   15.8   0.0   1   1    0.0001     0.047   14.5   0.0    78   138   723   785   711   808 0.79 -
ID=PSME_00034853     -           1023 141575at3193         -            260      0.02   15.7   0.2   1   1   7.9e-05     0.036   14.9   0.2   104   172   201   269   193   306 0.83 -
ID=PSME_00002218     -            155 141575at3193         -            260      0.02   15.7   0.0   1   1   5.3e-05     0.024   15.4   0.0   105   156    14    65     7    97 0.84 -
ID=PSME_00052684     -            808 141575at3193         -            260     0.023   15.5   0.0   1   1   8.3e-05     0.038   14.8   0.0    73   144   136   217   130   260 0.78 -
ID=PSME_00001604     -            463 141575at3193         -            260     0.025   15.4   0.0   1   1   9.4e-05     0.043   14.6   0.0   103   147   100   148    89   205 0.76 -
ID=PSME_00029712     -            405 141575at3193         -            260     0.029   15.2   0.0   1   1   9.5e-05     0.044   14.6   0.0    76   133   295   354   277   362 0.86 -
ID=PSME_00010015     -            511 141575at3193         -            260      0.04   14.7   0.0   1   1   0.00013      0.06   14.1   0.0    75   133   430   490   414   495 0.86 -
ID=PSME_00037089     -            428 141575at3193         -            260      0.05   14.4   0.0   1   1   0.00015     0.069   13.9   0.0    76   132   368   426   350   428 0.88 -
ID=PSME_00056126     -            783 141575at3193         -            260     0.069   14.0   0.1   1   1   0.00027      0.12   13.1   0.1    71   144    89   169    82   177 0.82 -
ID=PSME_00025803     -            708 141575at3193         -            260     0.071   13.9   0.2   1   1   0.00024      0.11   13.3   0.2    39   144     3   109     1   122 0.70 -
ID=PSME_00029128     -            454 141575at3193         -            260       0.1   13.4   0.0   1   1   0.00032      0.15   12.9   0.0    76   132   394   452   377   454 0.87 -
ID=PSME_00029748     -            187 141575at3193         -            260      0.17   12.7   0.0   1   1   0.00079      0.36   11.6   0.0    94   132   145   185   120   187 0.71 -
ID=PSME_00024978     -            298 141575at3193         -            260      0.33   11.8   0.0   1   1     0.001      0.48   11.2   0.0    76   110   231   265   208   279 0.77 -
#
# Program:         hmmsearch
# Version:         3.2.1 (June 2018)
# Pipeline mode:   SEARCH
# Query file:      /isg/shared/databases/BUSCO/odb10/embryophyta_odb10/hmms/141575at3193.hmm
# Target file:     /labs/Wegrzyn/ConiferGenomes/Psme/analysis/SURF_annotation/analyze_orig_maker/gfacs/filtered/maker_genes.fasta.faa
# Option settings: /usr/local/bin/hmmsearch --domtblout /labs/Wegrzyn/ConiferGenomes/Psme/analysis/SURF_annotation/analyze_orig_maker/busco/maker/run_embryophyta_odb10/hmmer_output/141575at3193.out --cpu 1 /isg/shared/databases/BUSCO/odb10/embryophyta_odb10/hmms/141575at3193.hmm /labs/Wegrzyn/ConiferGenomes/Psme/analysis/SURF_annotation/analyze_orig_maker/gfacs/filtered/maker_genes.fasta.faa 
# Current dir:     /labs/Wegrzyn/ConiferGenomes/Psme/analysis/SURF_annotation/analyze_orig_maker/busco
# Date:            Fri Jul 10 13:44:42 2020
# [ok]
