#                                                                            --- full sequence --- -------------- this domain -------------   hmm coord   ali coord   env coord
# target name        accession   tlen query name           accession   qlen   E-value  score  bias   #  of  c-Evalue  i-Evalue  score  bias  from    to  from    to  from    to  acc description of target
#------------------- ---------- ----- -------------------- ---------- ----- --------- ------ ----- --- --- --------- --------- ------ ----- ----- ----- ----- ----- ----- ----- ---- ---------------------
ID=PSME_00018778     -           1306 14163at3193          -            901         0 1103.0  24.1   1   7   5.7e-16   1.6e-11   44.6   0.0    11    65    59   113    54   118 0.92 -
ID=PSME_00018778     -           1306 14163at3193          -            901         0 1103.0  24.1   2   7   1.7e-09   4.6e-05   23.2   0.0    54    92   134   172   116   179 0.79 -
ID=PSME_00018778     -           1306 14163at3193          -            901         0 1103.0  24.1   3   7  1.5e-112    4e-108  364.3   1.8    83   421   187   583   177   597 0.78 -
ID=PSME_00018778     -           1306 14163at3193          -            901         0 1103.0  24.1   4   7    1e-112  2.8e-108  364.8   1.1   421   640   613   852   603   898 0.89 -
ID=PSME_00018778     -           1306 14163at3193          -            901         0 1103.0  24.1   5   7   7.2e-12     2e-07   31.1   0.2   626   677   905   957   901   981 0.80 -
ID=PSME_00018778     -           1306 14163at3193          -            901         0 1103.0  24.1   6   7   3.2e-18   8.7e-14   52.1   0.0   679   752  1002  1084   981  1102 0.73 -
ID=PSME_00018778     -           1306 14163at3193          -            901         0 1103.0  24.1   7   7   6.8e-72   1.9e-67  229.7   0.1   752   901  1147  1297  1117  1297 0.92 -
ID=PSME_00047209     -            238 14163at3193          -            901      0.52    9.8   0.2   1   1   2.2e-05      0.59    9.6   0.2   367   399   187   219   115   228 0.83 -
#
# Program:         hmmsearch
# Version:         3.2.1 (June 2018)
# Pipeline mode:   SEARCH
# Query file:      /isg/shared/databases/BUSCO/odb10/embryophyta_odb10/hmms/14163at3193.hmm
# Target file:     /labs/Wegrzyn/ConiferGenomes/Psme/analysis/SURF_annotation/analyze_orig_maker/gfacs/filtered/maker_genes.fasta.faa
# Option settings: /usr/local/bin/hmmsearch --domtblout /labs/Wegrzyn/ConiferGenomes/Psme/analysis/SURF_annotation/analyze_orig_maker/busco/maker/run_embryophyta_odb10/hmmer_output/14163at3193.out --cpu 1 /isg/shared/databases/BUSCO/odb10/embryophyta_odb10/hmms/14163at3193.hmm /labs/Wegrzyn/ConiferGenomes/Psme/analysis/SURF_annotation/analyze_orig_maker/gfacs/filtered/maker_genes.fasta.faa 
# Current dir:     /labs/Wegrzyn/ConiferGenomes/Psme/analysis/SURF_annotation/analyze_orig_maker/busco
# Date:            Fri Jul 10 13:44:25 2020
# [ok]
