#                                                                            --- full sequence --- -------------- this domain -------------   hmm coord   ali coord   env coord
# target name        accession   tlen query name           accession   qlen   E-value  score  bias   #  of  c-Evalue  i-Evalue  score  bias  from    to  from    to  from    to  acc description of target
#------------------- ---------- ----- -------------------- ---------- ----- --------- ------ ----- --- --- --------- --------- ------ ----- ----- ----- ----- ----- ----- ----- ---- ---------------------
ID=PSME_00030246     -           1337 1440at3193           -           1335         0 2380.1  13.0   1   1         0         0 2369.4  13.0   156  1332     6  1257     3  1260 0.94 -
ID=PSME_00011284     -           1816 1440at3193           -           1335   3.3e-36  125.6   0.3   1   2   2.8e-10   6.6e-07   28.5   0.0   775   852   717   793   707   847 0.86 -
ID=PSME_00011284     -           1816 1440at3193           -           1335   3.3e-36  125.6   0.3   2   2   2.2e-30   5.2e-27   95.1   0.1   976  1290   857  1170   841  1205 0.79 -
ID=PSME_00011281     -           1626 1440at3193           -           1335   1.2e-35  123.7   0.6   1   3     6e-10   1.4e-06   27.4   0.0   779   852   449   521   432   559 0.87 -
ID=PSME_00011281     -           1626 1440at3193           -           1335   1.2e-35  123.7   0.6   2   3    0.0017       4.1    6.0   0.1  1007  1083   713   779   699   785 0.80 -
ID=PSME_00011281     -           1626 1440at3193           -           1335   1.2e-35  123.7   0.6   3   3   7.2e-28   1.7e-24   86.8   0.0  1069  1304   801  1048   797  1080 0.79 -
ID=PSME_00007711     -           1205 1440at3193           -           1335   6.5e-33  114.7   0.2   1   2   1.2e-08   2.9e-05   23.1   0.1   786   850   428   491   423   501 0.89 -
ID=PSME_00007711     -           1205 1440at3193           -           1335   6.5e-33  114.7   0.2   2   2   1.1e-28   2.7e-25   89.4   0.0   997  1284   557   833   532   847 0.82 -
ID=PSME_00011283     -           1540 1440at3193           -           1335   1.9e-32  113.1   1.0   1   2   7.6e-10   1.8e-06   27.0   0.0   775   851   261   336   250   359 0.90 -
ID=PSME_00011283     -           1540 1440at3193           -           1335   1.9e-32  113.1   1.0   2   2   4.2e-27     1e-23   84.2   0.4   970  1297   575   901   565   939 0.77 -
ID=PSME_00005155     -           1422 1440at3193           -           1335   5.2e-26   91.8   0.2   1   3   0.00076       1.8    7.2   0.0   801   824   753   776   723   782 0.89 -
ID=PSME_00005155     -           1422 1440at3193           -           1335   5.2e-26   91.8   0.2   2   3    0.0099        24    3.5   0.0   806   853   807   859   802   879 0.85 -
ID=PSME_00005155     -           1422 1440at3193           -           1335   5.2e-26   91.8   0.2   3   3   5.3e-25   1.3e-21   77.3   0.0  1011  1291  1010  1284   999  1298 0.81 -
ID=PSME_00017500     -           1878 1440at3193           -           1335   3.3e-21   75.9   0.1   1   2    0.0094        22    3.6   0.0   786   827   843   884   828   893 0.87 -
ID=PSME_00017500     -           1878 1440at3193           -           1335   3.3e-21   75.9   0.1   2   2   1.7e-22   4.1e-19   69.0   0.1   994  1291  1173  1453  1147  1480 0.77 -
ID=PSME_00001709     -           1715 1440at3193           -           1335   7.9e-21   74.6   0.0   1   2   0.00016      0.38    9.4   0.0   795   824   730   759   701   769 0.75 -
ID=PSME_00001709     -           1715 1440at3193           -           1335   7.9e-21   74.6   0.0   2   2   1.1e-20   2.6e-17   63.0   0.0  1034  1291  1032  1299  1011  1319 0.77 -
ID=PSME_00011282     -           1950 1440at3193           -           1335   1.3e-14   54.1   0.0   1   2   7.7e-10   1.8e-06   27.0   0.0   779   852   458   530   441   567 0.87 -
ID=PSME_00011282     -           1950 1440at3193           -           1335   1.3e-14   54.1   0.0   2   2   3.6e-09   8.6e-06   24.8   0.0  1230  1306   675   761   649   791 0.73 -
ID=PSME_00038629     -            706 1440at3193           -           1335   6.9e-14   51.6   0.0   1   1   5.2e-17   1.2e-13   50.8   0.0  1178  1290     9   120     3   148 0.87 -
ID=PSME_00011586     -            791 1440at3193           -           1335   1.3e-12   47.4   0.1   1   3   6.4e-05      0.15   10.7   0.0   743   866   318   443   295   461 0.70 -
ID=PSME_00011586     -            791 1440at3193           -           1335   1.3e-12   47.4   0.1   2   3    0.0011       2.7    6.6   0.0  1070  1104   518   551   511   581 0.75 -
ID=PSME_00011586     -            791 1440at3193           -           1335   1.3e-12   47.4   0.1   3   3   1.3e-09     3e-06   26.3   0.0  1196  1283   656   744   629   769 0.80 -
ID=PSME_00027423     -           1406 1440at3193           -           1335     3e-12   46.2   0.1   1   2     2e-08   4.8e-05   22.3   0.0  1026  1165   429   563   413   593 0.73 -
ID=PSME_00027423     -           1406 1440at3193           -           1335     3e-12   46.2   0.1   2   2   3.8e-08   9.2e-05   21.4   0.0  1233  1284   816   868   782   915 0.84 -
ID=PSME_00048307     -            161 1440at3193           -           1335   2.1e-11   43.4   0.0   1   1   9.9e-15   2.4e-11   43.2   0.0  1178  1284     9   114     3   145 0.86 -
ID=PSME_00034445     -            506 1440at3193           -           1335   1.2e-09   37.6   0.2   1   2   1.6e-05     0.038   12.8   0.0   784   851    52   120    41   170 0.86 -
ID=PSME_00034445     -            506 1440at3193           -           1335   1.2e-09   37.6   0.2   2   2   1.2e-08   2.9e-05   23.1   0.1  1009  1153   294   416   241   505 0.73 -
ID=PSME_00025302     -            211 1440at3193           -           1335   4.5e-09   35.7   0.0   1   1   2.1e-12   4.9e-09   35.6   0.0  1073  1278     1   209     1   211 0.73 -
ID=PSME_00033251     -            280 1440at3193           -           1335   8.1e-06   24.9   0.0   1   1   4.1e-09   9.7e-06   24.6   0.0  1232  1285    37    91     1   144 0.72 -
ID=PSME_00040913     -            280 1440at3193           -           1335     1e-05   24.5   0.0   1   1   5.4e-09   1.3e-05   24.2   0.0  1232  1285    37    91     1   143 0.74 -
ID=PSME_00023240     -            148 1440at3193           -           1335   0.00026   19.9   0.0   1   1   1.2e-07    0.0003   19.7   0.0  1200  1276    71   147    59   147 0.81 -
ID=PSME_00040362     -            235 1440at3193           -           1335   0.00047   19.1   1.6   1   2   6.7e-07    0.0016   17.3   0.3   782   842   132   190   124   194 0.83 -
ID=PSME_00040362     -            235 1440at3193           -           1335   0.00047   19.1   1.6   2   2    0.0026       6.1    5.4   0.1  1037  1084   180   219   177   234 0.80 -
ID=PSME_00008110     -            725 1440at3193           -           1335      0.11   11.2   1.2   1   2   0.00026      0.62    8.7   0.9   787   837   577   627   552   630 0.83 -
ID=PSME_00008110     -            725 1440at3193           -           1335      0.11   11.2   1.2   2   2     0.016        38    2.8   0.0  1070  1104   621   654   614   664 0.78 -
ID=PSME_00034446     -            203 1440at3193           -           1335      0.14   10.9   0.0   1   1   6.9e-05      0.17   10.6   0.0  1257  1312    12    64     4    84 0.77 -
ID=PSME_00034134     -            210 1440at3193           -           1335      0.24   10.1   0.0   1   1   0.00012      0.28    9.9   0.0   798   838    42    81    10   100 0.69 -
ID=PSME_00044504     -            242 1440at3193           -           1335      0.56    8.9   0.1   1   1   0.00034       0.8    8.3   0.1   788   822   200   234   173   239 0.79 -
#
# Program:         hmmsearch
# Version:         3.2.1 (June 2018)
# Pipeline mode:   SEARCH
# Query file:      /isg/shared/databases/BUSCO/odb10/embryophyta_odb10/hmms/1440at3193.hmm
# Target file:     /labs/Wegrzyn/ConiferGenomes/Psme/analysis/SURF_annotation/analyze_orig_maker/gfacs/filtered/maker_genes.fasta.faa
# Option settings: /usr/local/bin/hmmsearch --domtblout /labs/Wegrzyn/ConiferGenomes/Psme/analysis/SURF_annotation/analyze_orig_maker/busco/maker/run_embryophyta_odb10/hmmer_output/1440at3193.out --cpu 1 /isg/shared/databases/BUSCO/odb10/embryophyta_odb10/hmms/1440at3193.hmm /labs/Wegrzyn/ConiferGenomes/Psme/analysis/SURF_annotation/analyze_orig_maker/gfacs/filtered/maker_genes.fasta.faa 
# Current dir:     /labs/Wegrzyn/ConiferGenomes/Psme/analysis/SURF_annotation/analyze_orig_maker/busco
# Date:            Fri Jul 10 13:44:28 2020
# [ok]
