#                                                                            --- full sequence --- -------------- this domain -------------   hmm coord   ali coord   env coord
# target name        accession   tlen query name           accession   qlen   E-value  score  bias   #  of  c-Evalue  i-Evalue  score  bias  from    to  from    to  from    to  acc description of target
#------------------- ---------- ----- -------------------- ---------- ----- --------- ------ ----- --- --- --------- --------- ------ ----- ----- ----- ----- ----- ----- ----- ---- ---------------------
ID=PSME_00054837     -            389 145760at3193         -            277  5.2e-123  411.3   1.4   1   2  3.2e-111  1.3e-107  360.8   0.1     1   231    71   303    71   328 0.95 -
ID=PSME_00054837     -            389 145760at3193         -            277  5.2e-123  411.3   1.4   2   2   1.7e-16     7e-13   50.1   0.1   225   276   336   387   328   388 0.92 -
ID=PSME_00037334     -            328 145760at3193         -            277   2.8e-89  300.6   5.6   1   3     3e-26   1.3e-22   82.0   0.2     1    62    23    84    23    85 0.98 -
ID=PSME_00037334     -            328 145760at3193         -            277   2.8e-89  300.6   5.6   2   3   1.7e-54   7.1e-51  174.7   0.2    80   225    84   229    83   248 0.92 -
ID=PSME_00037334     -            328 145760at3193         -            277   2.8e-89  300.6   5.6   3   3   6.1e-16   2.6e-12   48.2   0.1   227   276   277   326   270   327 0.92 -
ID=PSME_00032724     -            264 145760at3193         -            277   4.2e-65  221.4   0.7   1   2   5.5e-58   2.3e-54  186.1   0.1    79   226     2   150     1   180 0.92 -
ID=PSME_00032724     -            264 145760at3193         -            277   4.2e-65  221.4   0.7   2   2   1.2e-11   5.2e-08   34.1   0.1   227   268   197   238   187   246 0.88 -
ID=PSME_00002289     -            194 145760at3193         -            277     7e-42  145.2   0.6   1   2   2.4e-30     1e-26   95.5   0.1   131   225     2    95     1   115 0.90 -
ID=PSME_00002289     -            194 145760at3193         -            277     7e-42  145.2   0.6   2   2   4.9e-16   2.1e-12   48.5   0.1   227   276   143   192   136   193 0.91 -
ID=PSME_00002290     -             70 145760at3193         -            277     1e-17   65.9   0.5   1   1   2.6e-21   1.1e-17   65.8   0.5    16    73     3    60     1    66 0.94 -
ID=PSME_00000033     -            496 145760at3193         -            277   3.2e-05   24.9   0.0   1   1   1.2e-08   5.2e-05   24.2   0.0    17   115   128   221   114   249 0.77 -
ID=PSME_00055724     -            176 145760at3193         -            277   8.2e-05   23.6   0.0   1   1   2.6e-08   0.00011   23.2   0.0    14    95    29   111    22   121 0.89 -
ID=PSME_00010128     -            549 145760at3193         -            277    0.0024   18.8   0.0   1   2   0.00053       2.2    9.0   0.0    30    97   106   174   101   199 0.75 -
ID=PSME_00010128     -            549 145760at3193         -            277    0.0024   18.8   0.0   2   2     0.002       8.5    7.1   0.0    19    96   324   402   319   422 0.86 -
ID=PSME_00019268     -            149 145760at3193         -            277    0.0075   17.2   0.1   1   2      0.17   7.1e+02    0.8   0.0   144   164    39    61    29    66 0.72 -
ID=PSME_00019268     -            149 145760at3193         -            277    0.0075   17.2   0.1   2   2   1.3e-05     0.056   14.3   0.0    23    74    96   148    86   149 0.89 -
ID=PSME_00041964     -            275 145760at3193         -            277     0.066   14.0   0.0   1   1   2.6e-05      0.11   13.3   0.0    30    98    64   135    48   138 0.87 -
ID=PSME_00051006     -            370 145760at3193         -            277      0.17   12.7   0.0   1   1     6e-05      0.25   12.1   0.0    23    91   122   191   107   201 0.83 -
ID=PSME_00006311     -            157 145760at3193         -            277      0.34   11.7   0.0   1   1   0.00019       0.8   10.5   0.0    14    83    58   139    51   148 0.68 -
ID=PSME_00032253     -            189 145760at3193         -            277      0.74   10.6   0.0   1   1   0.00025         1   10.1   0.0     9    70    28    90    23    97 0.83 -
#
# Program:         hmmsearch
# Version:         3.2.1 (June 2018)
# Pipeline mode:   SEARCH
# Query file:      /isg/shared/databases/BUSCO/odb10/embryophyta_odb10/hmms/145760at3193.hmm
# Target file:     /labs/Wegrzyn/ConiferGenomes/Psme/analysis/SURF_annotation/analyze_orig_maker/gfacs/filtered/maker_genes.fasta.faa
# Option settings: /usr/local/bin/hmmsearch --domtblout /labs/Wegrzyn/ConiferGenomes/Psme/analysis/SURF_annotation/analyze_orig_maker/busco/maker/run_embryophyta_odb10/hmmer_output/145760at3193.out --cpu 1 /isg/shared/databases/BUSCO/odb10/embryophyta_odb10/hmms/145760at3193.hmm /labs/Wegrzyn/ConiferGenomes/Psme/analysis/SURF_annotation/analyze_orig_maker/gfacs/filtered/maker_genes.fasta.faa 
# Current dir:     /labs/Wegrzyn/ConiferGenomes/Psme/analysis/SURF_annotation/analyze_orig_maker/busco
# Date:            Fri Jul 10 13:44:24 2020
# [ok]
