#                                                                            --- full sequence --- -------------- this domain -------------   hmm coord   ali coord   env coord
# target name        accession   tlen query name           accession   qlen   E-value  score  bias   #  of  c-Evalue  i-Evalue  score  bias  from    to  from    to  from    to  acc description of target
#------------------- ---------- ----- -------------------- ---------- ----- --------- ------ ----- --- --- --------- --------- ------ ----- ----- ----- ----- ----- ----- ----- ---- ---------------------
ID=PSME_00004842     -            408 146234at3193         -            239   5.5e-50  171.3   0.0   1   1   2.2e-53   8.6e-50  170.7   0.0     3   216    91   323    89   340 0.88 -
ID=PSME_00019897     -            197 146234at3193         -            239   4.3e-08   34.2   0.5   1   2    0.0044        17    6.0   0.0   102   144     7    52     2    60 0.77 -
ID=PSME_00019897     -            197 146234at3193         -            239   4.3e-08   34.2   0.5   2   2   2.2e-09   8.7e-06   26.7   0.2   152   217   114   181    60   189 0.77 -
ID=PSME_00048937     -            229 146234at3193         -            239   9.3e-07   29.8   0.0   1   1   5.5e-10   2.2e-06   28.6   0.0     2   198    10   197     9   221 0.79 -
ID=PSME_00034380     -            542 146234at3193         -            239   6.1e-06   27.1   0.0   1   1   9.5e-09   3.7e-05   24.6   0.0     3   194   198   381   196   407 0.75 -
ID=PSME_00018556     -            440 146234at3193         -            239   0.00088   20.1   0.0   1   1   4.2e-07    0.0017   19.2   0.0    97   198    80   186    65   210 0.78 -
ID=PSME_00000778     -            203 146234at3193         -            239      0.01   16.6   0.0   1   1   6.6e-06     0.026   15.3   0.0   159   201   104   146    18   162 0.77 -
ID=PSME_00029694     -            288 146234at3193         -            239     0.027   15.2   0.3   1   2      0.27   1.1e+03    0.2   0.1     3    28   120   148   118   156 0.70 -
ID=PSME_00029694     -            288 146234at3193         -            239     0.027   15.2   0.3   2   2   2.2e-05     0.087   13.6   0.0    96   179   154   236   133   255 0.80 -
ID=PSME_00020008     -            304 146234at3193         -            239     0.094   13.4   0.1   1   1   3.8e-05      0.15   12.8   0.1   158   207   168   218   116   253 0.84 -
ID=PSME_00020007     -            350 146234at3193         -            239      0.13   13.0   0.1   1   1   4.5e-05      0.18   12.6   0.1   153   204   208   259   159   293 0.81 -
ID=PSME_00044252     -            336 146234at3193         -            239      0.18   12.5   0.0   1   1   7.7e-05       0.3   11.8   0.0   112   180   234   300   219   316 0.65 -
ID=PSME_00008485     -            244 146234at3193         -            239      0.24   12.1   0.0   1   1   8.1e-05      0.32   11.7   0.0   148   188   172   213   114   220 0.73 -
ID=PSME_00036438     -            115 146234at3193         -            239      0.27   11.9   0.0   1   1   8.3e-05      0.33   11.7   0.0   110   174    21    83     9    92 0.77 -
ID=PSME_00008450     -            275 146234at3193         -            239      0.38   11.4   0.0   1   1   0.00014      0.54   11.0   0.0   149   180   213   244   170   259 0.83 -
ID=PSME_00010662     -            193 146234at3193         -            239      0.49   11.1   0.0   1   1   0.00015      0.58   10.9   0.0    85   195    48   158    19   164 0.78 -
#
# Program:         hmmsearch
# Version:         3.2.1 (June 2018)
# Pipeline mode:   SEARCH
# Query file:      /isg/shared/databases/BUSCO/odb10/embryophyta_odb10/hmms/146234at3193.hmm
# Target file:     /labs/Wegrzyn/ConiferGenomes/Psme/analysis/SURF_annotation/analyze_orig_maker/gfacs/filtered/maker_genes.fasta.faa
# Option settings: /usr/local/bin/hmmsearch --domtblout /labs/Wegrzyn/ConiferGenomes/Psme/analysis/SURF_annotation/analyze_orig_maker/busco/maker/run_embryophyta_odb10/hmmer_output/146234at3193.out --cpu 1 /isg/shared/databases/BUSCO/odb10/embryophyta_odb10/hmms/146234at3193.hmm /labs/Wegrzyn/ConiferGenomes/Psme/analysis/SURF_annotation/analyze_orig_maker/gfacs/filtered/maker_genes.fasta.faa 
# Current dir:     /labs/Wegrzyn/ConiferGenomes/Psme/analysis/SURF_annotation/analyze_orig_maker/busco
# Date:            Fri Jul 10 13:44:24 2020
# [ok]
