#                                                                            --- full sequence --- -------------- this domain -------------   hmm coord   ali coord   env coord
# target name        accession   tlen query name           accession   qlen   E-value  score  bias   #  of  c-Evalue  i-Evalue  score  bias  from    to  from    to  from    to  acc description of target
#------------------- ---------- ----- -------------------- ---------- ----- --------- ------ ----- --- --- --------- --------- ------ ----- ----- ----- ----- ----- ----- ----- ---- ---------------------
ID=PSME_00002423     -            292 146428at3193         -            195   2.8e-92  308.9   7.7   1   1   4.5e-96     5e-92  308.1   7.7     8   194    88   288    83   289 0.95 -
ID=PSME_00002740     -            728 146428at3193         -            195     0.083   13.6   1.7   1   1   2.5e-05      0.28   11.9   1.7   130   185   264   320   232   325 0.89 -
ID=PSME_00034213     -            240 146428at3193         -            195      0.13   13.0   0.4   1   1   1.8e-05      0.19   12.5   0.4   123   189   161   229   151   234 0.79 -
ID=PSME_00027422     -            126 146428at3193         -            195      0.54   11.0   0.0   1   1   6.1e-05      0.67   10.7   0.0   142   174    67    99    54   111 0.88 -
ID=PSME_00030905     -            831 146428at3193         -            195      0.68   10.7   0.4   1   2    0.0026        28    5.4   0.1   162   183   259   280   239   291 0.81 -
ID=PSME_00030905     -            831 146428at3193         -            195      0.68   10.7   0.4   2   2     0.014   1.6e+02    2.9   0.1   162   181   728   747   704   750 0.79 -
#
# Program:         hmmsearch
# Version:         3.2.1 (June 2018)
# Pipeline mode:   SEARCH
# Query file:      /isg/shared/databases/BUSCO/odb10/embryophyta_odb10/hmms/146428at3193.hmm
# Target file:     /labs/Wegrzyn/ConiferGenomes/Psme/analysis/SURF_annotation/analyze_orig_maker/gfacs/filtered/maker_genes.fasta.faa
# Option settings: /usr/local/bin/hmmsearch --domtblout /labs/Wegrzyn/ConiferGenomes/Psme/analysis/SURF_annotation/analyze_orig_maker/busco/maker/run_embryophyta_odb10/hmmer_output/146428at3193.out --cpu 1 /isg/shared/databases/BUSCO/odb10/embryophyta_odb10/hmms/146428at3193.hmm /labs/Wegrzyn/ConiferGenomes/Psme/analysis/SURF_annotation/analyze_orig_maker/gfacs/filtered/maker_genes.fasta.faa 
# Current dir:     /labs/Wegrzyn/ConiferGenomes/Psme/analysis/SURF_annotation/analyze_orig_maker/busco
# Date:            Fri Jul 10 13:44:25 2020
# [ok]
