#                                                                            --- full sequence --- -------------- this domain -------------   hmm coord   ali coord   env coord
# target name        accession   tlen query name           accession   qlen   E-value  score  bias   #  of  c-Evalue  i-Evalue  score  bias  from    to  from    to  from    to  acc description of target
#------------------- ---------- ----- -------------------- ---------- ----- --------- ------ ----- --- --- --------- --------- ------ ----- ----- ----- ----- ----- ----- ----- ---- ---------------------
ID=PSME_00032023     -            501 147320at3193         -            292     0.012   16.3   0.6   1   4       3.5   1.4e+04   -3.5   0.0   199   237    69   104    64   123 0.54 -
ID=PSME_00032023     -            501 147320at3193         -            292     0.012   16.3   0.6   2   4      0.54   2.1e+03   -0.9   0.0   117   164   161   206   142   217 0.76 -
ID=PSME_00032023     -            501 147320at3193         -            292     0.012   16.3   0.6   3   4   3.6e-05      0.14   12.8   0.1     7    92   282   372   279   412 0.82 -
ID=PSME_00032023     -            501 147320at3193         -            292     0.012   16.3   0.6   4   4       0.6   2.3e+03   -1.0   0.0   265   285   475   495   471   497 0.90 -
ID=PSME_00022507     -            505 147320at3193         -            292     0.032   14.9   1.5   1   3      0.35   1.4e+03   -0.3   0.0   117   161   161   204    61   216 0.57 -
ID=PSME_00022507     -            505 147320at3193         -            292     0.032   14.9   1.5   2   3   7.5e-05      0.29   11.8   0.1     7    59   283   335   280   378 0.86 -
ID=PSME_00022507     -            505 147320at3193         -            292     0.032   14.9   1.5   3   3      0.38   1.5e+03   -0.4   0.0   265   285   469   489   464   492 0.90 -
ID=PSME_00021936     -            405 147320at3193         -            292     0.084   13.6   0.5   1   2   0.00012      0.47   11.1   0.1     7    70   174   244   171   305 0.75 -
ID=PSME_00021936     -            405 147320at3193         -            292     0.084   13.6   0.5   2   2      0.29   1.2e+03   -0.0   0.0   265   285   369   389   364   392 0.90 -
ID=PSME_00013713     -            455 147320at3193         -            292     0.086   13.5   1.4   1   3      0.82   3.2e+03   -1.5   0.1    57    87    79   109    52   203 0.56 -
ID=PSME_00013713     -            455 147320at3193         -            292     0.086   13.5   1.4   2   3   0.00013       0.5   11.0   0.0     7    58   274   325   270   375 0.92 -
ID=PSME_00013713     -            455 147320at3193         -            292     0.086   13.5   1.4   3   3      0.34   1.3e+03   -0.2   0.0   265   285   419   439   414   442 0.90 -
ID=PSME_00014454     -            461 147320at3193         -            292      0.33   11.6   0.3   1   3       3.9   1.5e+04   -3.7   0.0    13   146   119   147   111   166 0.49 -
ID=PSME_00014454     -            461 147320at3193         -            292      0.33   11.6   0.3   2   3   0.00024      0.95   10.1   0.0     7    58   232   283   229   356 0.89 -
ID=PSME_00014454     -            461 147320at3193         -            292      0.33   11.6   0.3   3   3         4   1.6e+04   -3.8   0.0   266   285   426   445   424   446 0.84 -
ID=PSME_00032713     -            492 147320at3193         -            292       0.4   11.3   2.5   1   3      0.21   8.1e+02    0.5   0.1    42    89    48    98    38   193 0.48 -
ID=PSME_00032713     -            492 147320at3193         -            292       0.4   11.3   2.5   2   3   0.00068       2.7    8.6   0.1     7    93   261   354   258   401 0.75 -
ID=PSME_00032713     -            492 147320at3193         -            292       0.4   11.3   2.5   3   3      0.36   1.4e+03   -0.3   0.0   265   285   456   476   452   480 0.90 -
ID=PSME_00018074     -            487 147320at3193         -            292      0.48   11.1   2.4   1   3       2.1     8e+03   -2.8   0.1    38    87    67   118    61   123 0.58 -
ID=PSME_00018074     -            487 147320at3193         -            292      0.48   11.1   2.4   2   3   0.00026         1   10.0   0.1     7    59   256   310   253   384 0.78 -
ID=PSME_00018074     -            487 147320at3193         -            292      0.48   11.1   2.4   3   3      0.38   1.5e+03   -0.4   0.0   265   285   451   471   446   473 0.90 -
ID=PSME_00018834     -            422 147320at3193         -            292      0.53   10.9   3.3   1   3      0.62   2.4e+03   -1.1   0.1    55    89    21    55     2    62 0.75 -
ID=PSME_00018834     -            422 147320at3193         -            292      0.53   10.9   3.3   2   3   0.00029       1.1    9.9   0.1     7    59   212   266   209   351 0.76 -
ID=PSME_00018834     -            422 147320at3193         -            292      0.53   10.9   3.3   3   3      0.31   1.2e+03   -0.1   0.0   265   285   386   406   381   409 0.90 -
ID=PSME_00015904     -            425 147320at3193         -            292      0.66   10.6   3.4   1   3      0.35   1.4e+03   -0.3   0.1    42    88    11    60     3   155 0.62 -
ID=PSME_00015904     -            425 147320at3193         -            292      0.66   10.6   3.4   2   3   0.00042       1.6    9.3   0.1     7    59   224   278   219   300 0.83 -
ID=PSME_00015904     -            425 147320at3193         -            292      0.66   10.6   3.4   3   3      0.31   1.2e+03   -0.1   0.0   265   285   389   409   384   412 0.90 -
ID=PSME_00018569     -            476 147320at3193         -            292      0.69   10.5   1.7   1   3     0.035   1.4e+02    3.0   0.0    55   164    70   191    43   206 0.56 -
ID=PSME_00018569     -            476 147320at3193         -            292      0.69   10.5   1.7   2   3    0.0046        18    5.9   0.1     7    59   267   322   264   345 0.87 -
ID=PSME_00018569     -            476 147320at3193         -            292      0.69   10.5   1.7   3   3       2.3     9e+03   -3.0   0.0   266   285   442   461   439   462 0.87 -
ID=PSME_00016028     -            495 147320at3193         -            292      0.75   10.4   4.7   1   3     0.057   2.2e+02    2.3   0.5    10    88    20   100    15   192 0.79 -
ID=PSME_00016028     -            495 147320at3193         -            292      0.75   10.4   4.7   2   3   0.00095       3.7    8.1   0.1     7    59   264   318   261   393 0.80 -
ID=PSME_00016028     -            495 147320at3193         -            292      0.75   10.4   4.7   3   3      0.39   1.5e+03   -0.4   0.0   265   285   459   479   454   481 0.90 -
ID=PSME_00005374     -            363 147320at3193         -            292      0.78   10.4   2.1   1   3       2.2   8.6e+03   -2.9   0.1    69    87    55    73    44    79 0.78 -
ID=PSME_00005374     -            363 147320at3193         -            292      0.78   10.4   2.1   2   3   0.00052       2.1    9.0   0.0     7    59   132   186   129   259 0.84 -
ID=PSME_00005374     -            363 147320at3193         -            292      0.78   10.4   2.1   3   3      0.26     1e+03    0.2   0.0   265   285   327   347   322   350 0.90 -
ID=PSME_00009615     -            381 147320at3193         -            292       1.3    9.6   2.5   1   3       1.1   4.3e+03   -1.9   0.1    42    87     8    56     4    64 0.65 -
ID=PSME_00009615     -            381 147320at3193         -            292       1.3    9.6   2.5   2   3   0.00089       3.5    8.2   0.1     7    59   187   242   183   292 0.80 -
ID=PSME_00009615     -            381 147320at3193         -            292       1.3    9.6   2.5   3   3      0.27   1.1e+03    0.1   0.0   265   285   345   365   340   368 0.90 -
ID=PSME_00032408     -            508 147320at3193         -            292       2.4    8.8   3.7   1   3      0.13   5.2e+02    1.1   0.2    34    87    63   118    58   134 0.84 -
ID=PSME_00032408     -            508 147320at3193         -            292       2.4    8.8   3.7   2   3    0.0013       5.2    7.7   0.0     7    59   283   337   280   402 0.85 -
ID=PSME_00032408     -            508 147320at3193         -            292       2.4    8.8   3.7   3   3       1.8   7.1e+03   -2.6   0.1   265   285   468   488   464   489 0.87 -
#
# Program:         hmmsearch
# Version:         3.2.1 (June 2018)
# Pipeline mode:   SEARCH
# Query file:      /isg/shared/databases/BUSCO/odb10/embryophyta_odb10/hmms/147320at3193.hmm
# Target file:     /labs/Wegrzyn/ConiferGenomes/Psme/analysis/SURF_annotation/analyze_orig_maker/gfacs/filtered/maker_genes.fasta.faa
# Option settings: /usr/local/bin/hmmsearch --domtblout /labs/Wegrzyn/ConiferGenomes/Psme/analysis/SURF_annotation/analyze_orig_maker/busco/maker/run_embryophyta_odb10/hmmer_output/147320at3193.out --cpu 1 /isg/shared/databases/BUSCO/odb10/embryophyta_odb10/hmms/147320at3193.hmm /labs/Wegrzyn/ConiferGenomes/Psme/analysis/SURF_annotation/analyze_orig_maker/gfacs/filtered/maker_genes.fasta.faa 
# Current dir:     /labs/Wegrzyn/ConiferGenomes/Psme/analysis/SURF_annotation/analyze_orig_maker/busco
# Date:            Fri Jul 10 13:44:26 2020
# [ok]
