#                                                                            --- full sequence --- -------------- this domain -------------   hmm coord   ali coord   env coord
# target name        accession   tlen query name           accession   qlen   E-value  score  bias   #  of  c-Evalue  i-Evalue  score  bias  from    to  from    to  from    to  acc description of target
#------------------- ---------- ----- -------------------- ---------- ----- --------- ------ ----- --- --- --------- --------- ------ ----- ----- ----- ----- ----- ----- ----- ---- ---------------------
ID=PSME_00057116     -            936 149386at3193         -            228     0.016   16.1   0.7   1   4     0.018   2.4e+02    2.5   0.0    84   105   107   128    85   136 0.85 -
ID=PSME_00057116     -            936 149386at3193         -            228     0.016   16.1   0.7   2   4    0.0016        23    5.9   0.0    82   104   307   329   251   357 0.86 -
ID=PSME_00057116     -            936 149386at3193         -            228     0.016   16.1   0.7   3   4      0.17   2.3e+03   -0.7   0.0    84   103   581   600   573   605 0.89 -
ID=PSME_00057116     -            936 149386at3193         -            228     0.016   16.1   0.7   4   4     0.018   2.5e+02    2.5   0.0    82   102   614   634   585   646 0.78 -
ID=PSME_00025037     -            306 149386at3193         -            228     0.025   15.5   0.7   1   1   2.9e-06     0.039   14.9   0.7   108   172   154   218   148   260 0.89 -
ID=PSME_00010278     -            967 149386at3193         -            228     0.047   14.6   0.0   1   5      0.49   6.7e+03   -2.2   0.0    84   102   121   139    91   142 0.87 -
ID=PSME_00010278     -            967 149386at3193         -            228     0.047   14.6   0.0   2   5    0.0049        67    4.3   0.0    71   104   209   242   170   251 0.81 -
ID=PSME_00010278     -            967 149386at3193         -            228     0.047   14.6   0.0   3   5    0.0044        60    4.5   0.0    84   103   351   370   344   411 0.87 -
ID=PSME_00010278     -            967 149386at3193         -            228     0.047   14.6   0.0   4   5      0.58     8e+03   -2.5   0.0    83   113   411   442   383   448 0.63 -
ID=PSME_00010278     -            967 149386at3193         -            228     0.047   14.6   0.0   5   5      0.29     4e+03   -1.5   0.0    84   104   646   666   638   671 0.89 -
ID=PSME_00002348     -            827 149386at3193         -            228      0.21   12.5   0.1   1   2   7.5e-05         1   10.2   0.0    85   114    91   120    85   126 0.90 -
ID=PSME_00002348     -            827 149386at3193         -            228      0.21   12.5   0.1   2   2      0.43   5.9e+03   -2.1   0.0    84   131   393   440   387   445 0.84 -
#
# Program:         hmmsearch
# Version:         3.2.1 (June 2018)
# Pipeline mode:   SEARCH
# Query file:      /isg/shared/databases/BUSCO/odb10/embryophyta_odb10/hmms/149386at3193.hmm
# Target file:     /labs/Wegrzyn/ConiferGenomes/Psme/analysis/SURF_annotation/analyze_orig_maker/gfacs/filtered/maker_genes.fasta.faa
# Option settings: /usr/local/bin/hmmsearch --domtblout /labs/Wegrzyn/ConiferGenomes/Psme/analysis/SURF_annotation/analyze_orig_maker/busco/maker/run_embryophyta_odb10/hmmer_output/149386at3193.out --cpu 1 /isg/shared/databases/BUSCO/odb10/embryophyta_odb10/hmms/149386at3193.hmm /labs/Wegrzyn/ConiferGenomes/Psme/analysis/SURF_annotation/analyze_orig_maker/gfacs/filtered/maker_genes.fasta.faa 
# Current dir:     /labs/Wegrzyn/ConiferGenomes/Psme/analysis/SURF_annotation/analyze_orig_maker/busco
# Date:            Fri Jul 10 13:44:27 2020
# [ok]
