#                                                                            --- full sequence --- -------------- this domain -------------   hmm coord   ali coord   env coord
# target name        accession   tlen query name           accession   qlen   E-value  score  bias   #  of  c-Evalue  i-Evalue  score  bias  from    to  from    to  from    to  acc description of target
#------------------- ---------- ----- -------------------- ---------- ----- --------- ------ ----- --- --- --------- --------- ------ ----- ----- ----- ----- ----- ----- ----- ---- ---------------------
ID=PSME_00054418     -            373 149671at3193         -            224      0.26   12.4  10.0   1   7      0.32   1.7e+04   -3.4   0.0   119   131     8    20     5    24 0.75 -
ID=PSME_00054418     -            373 149671at3193         -            224      0.26   12.4  10.0   2   7    0.0069   3.8e+02    2.0   0.0   114   133    49    68    46    75 0.86 -
ID=PSME_00054418     -            373 149671at3193         -            224      0.26   12.4  10.0   3   7    0.0029   1.6e+02    3.2   0.0   115   132    96   113    92   117 0.87 -
ID=PSME_00054418     -            373 149671at3193         -            224      0.26   12.4  10.0   4   7    0.0053   2.9e+02    2.4   0.0   114   132   141   159   139   165 0.87 -
ID=PSME_00054418     -            373 149671at3193         -            224      0.26   12.4  10.0   5   7       0.1   5.5e+03   -1.8   0.0   115   133   188   206   186   211 0.84 -
ID=PSME_00054418     -            373 149671at3193         -            224      0.26   12.4  10.0   6   7    0.0024   1.3e+02    3.5   0.0   115   133   234   252   231   259 0.86 -
ID=PSME_00054418     -            373 149671at3193         -            224      0.26   12.4  10.0   7   7    0.0086   4.7e+02    1.7   0.0   114   133   279   298   276   305 0.87 -
#
# Program:         hmmsearch
# Version:         3.2.1 (June 2018)
# Pipeline mode:   SEARCH
# Query file:      /isg/shared/databases/BUSCO/odb10/embryophyta_odb10/hmms/149671at3193.hmm
# Target file:     /labs/Wegrzyn/ConiferGenomes/Psme/analysis/SURF_annotation/analyze_orig_maker/gfacs/filtered/maker_genes.fasta.faa
# Option settings: /usr/local/bin/hmmsearch --domtblout /labs/Wegrzyn/ConiferGenomes/Psme/analysis/SURF_annotation/analyze_orig_maker/busco/maker/run_embryophyta_odb10/hmmer_output/149671at3193.out --cpu 1 /isg/shared/databases/BUSCO/odb10/embryophyta_odb10/hmms/149671at3193.hmm /labs/Wegrzyn/ConiferGenomes/Psme/analysis/SURF_annotation/analyze_orig_maker/gfacs/filtered/maker_genes.fasta.faa 
# Current dir:     /labs/Wegrzyn/ConiferGenomes/Psme/analysis/SURF_annotation/analyze_orig_maker/busco
# Date:            Fri Jul 10 13:44:27 2020
# [ok]
