#                                                                            --- full sequence --- -------------- this domain -------------   hmm coord   ali coord   env coord
# target name        accession   tlen query name           accession   qlen   E-value  score  bias   #  of  c-Evalue  i-Evalue  score  bias  from    to  from    to  from    to  acc description of target
#------------------- ---------- ----- -------------------- ---------- ----- --------- ------ ----- --- --- --------- --------- ------ ----- ----- ----- ----- ----- ----- ----- ---- ---------------------
ID=PSME_00045388     -            106 15187at3193          -            681   3.1e-47  162.8   0.2   1   1   2.5e-51   3.4e-47  162.6   0.2   515   607     1   103     1   105 0.94 -
ID=PSME_00046769     -            241 15187at3193          -            681   2.5e-36  126.7  15.2   1   3   1.7e-08   0.00023   21.1   0.1   176   204    10    39     3    65 0.84 -
ID=PSME_00046769     -            241 15187at3193          -            681   2.5e-36  126.7  15.2   2   3   6.5e-23   8.9e-19   68.7   3.7   201   270    78   170    61   180 0.85 -
ID=PSME_00046769     -            241 15187at3193          -            681   2.5e-36  126.7  15.2   3   3   1.8e-15   2.5e-11   44.1   0.6   261   303   181   227   176   235 0.85 -
ID=PSME_00016779     -            175 15187at3193          -            681     0.086   12.6   0.0   1   1   8.3e-06      0.11   12.2   0.0   517   573    59   114    50   119 0.83 -
ID=PSME_00049056     -            132 15187at3193          -            681      0.32   10.7   0.0   1   1     3e-05      0.41   10.4   0.0   409   451    17    59     9    67 0.90 -
#
# Program:         hmmsearch
# Version:         3.2.1 (June 2018)
# Pipeline mode:   SEARCH
# Query file:      /isg/shared/databases/BUSCO/odb10/embryophyta_odb10/hmms/15187at3193.hmm
# Target file:     /labs/Wegrzyn/ConiferGenomes/Psme/analysis/SURF_annotation/analyze_orig_maker/gfacs/filtered/maker_genes.fasta.faa
# Option settings: /usr/local/bin/hmmsearch --domtblout /labs/Wegrzyn/ConiferGenomes/Psme/analysis/SURF_annotation/analyze_orig_maker/busco/maker/run_embryophyta_odb10/hmmer_output/15187at3193.out --cpu 1 /isg/shared/databases/BUSCO/odb10/embryophyta_odb10/hmms/15187at3193.hmm /labs/Wegrzyn/ConiferGenomes/Psme/analysis/SURF_annotation/analyze_orig_maker/gfacs/filtered/maker_genes.fasta.faa 
# Current dir:     /labs/Wegrzyn/ConiferGenomes/Psme/analysis/SURF_annotation/analyze_orig_maker/busco
# Date:            Fri Jul 10 13:44:28 2020
# [ok]
