#                                                                            --- full sequence --- -------------- this domain -------------   hmm coord   ali coord   env coord
# target name        accession   tlen query name           accession   qlen   E-value  score  bias   #  of  c-Evalue  i-Evalue  score  bias  from    to  from    to  from    to  acc description of target
#------------------- ---------- ----- -------------------- ---------- ----- --------- ------ ----- --- --- --------- --------- ------ ----- ----- ----- ----- ----- ----- ----- ---- ---------------------
ID=PSME_00037499     -            180 151831at3193         -            213     2e-85  287.3   0.1   1   1   1.6e-89   2.2e-85  287.2   0.1    15   184     2   176     1   179 0.96 -
ID=PSME_00010490     -            219 151831at3193         -            213   2.8e-30  107.1   0.0   1   1   2.3e-34   3.2e-30  106.9   0.0    63   213    67   218    30   218 0.90 -
ID=PSME_00020353     -            188 151831at3193         -            213   1.3e-19   72.2   0.1   1   1   1.3e-23   1.8e-19   71.8   0.1   136   213   110   187   101   187 0.92 -
ID=PSME_00052452     -            102 151831at3193         -            213     0.073   14.2   1.6   1   1   5.1e-06     0.069   14.3   1.6    17    97    18    94     1   102 0.74 -
#
# Program:         hmmsearch
# Version:         3.2.1 (June 2018)
# Pipeline mode:   SEARCH
# Query file:      /isg/shared/databases/BUSCO/odb10/embryophyta_odb10/hmms/151831at3193.hmm
# Target file:     /labs/Wegrzyn/ConiferGenomes/Psme/analysis/SURF_annotation/analyze_orig_maker/gfacs/filtered/maker_genes.fasta.faa
# Option settings: /usr/local/bin/hmmsearch --domtblout /labs/Wegrzyn/ConiferGenomes/Psme/analysis/SURF_annotation/analyze_orig_maker/busco/maker/run_embryophyta_odb10/hmmer_output/151831at3193.out --cpu 1 /isg/shared/databases/BUSCO/odb10/embryophyta_odb10/hmms/151831at3193.hmm /labs/Wegrzyn/ConiferGenomes/Psme/analysis/SURF_annotation/analyze_orig_maker/gfacs/filtered/maker_genes.fasta.faa 
# Current dir:     /labs/Wegrzyn/ConiferGenomes/Psme/analysis/SURF_annotation/analyze_orig_maker/busco
# Date:            Fri Jul 10 13:44:27 2020
# [ok]
