#                                                                            --- full sequence --- -------------- this domain -------------   hmm coord   ali coord   env coord
# target name        accession   tlen query name           accession   qlen   E-value  score  bias   #  of  c-Evalue  i-Evalue  score  bias  from    to  from    to  from    to  acc description of target
#------------------- ---------- ----- -------------------- ---------- ----- --------- ------ ----- --- --- --------- --------- ------ ----- ----- ----- ----- ----- ----- ----- ---- ---------------------
ID=PSME_00036560     -             88 152646at3193         -            206     0.046   14.8   0.0   1   1   9.9e-06      0.05   14.7   0.0   100   138    15    52     8    70 0.80 -
ID=PSME_00032734     -            820 152646at3193         -            206     0.068   14.3  16.4   1   2      0.93   4.6e+03   -1.5   0.1    51    84   291   324   279   358 0.73 -
ID=PSME_00032734     -            820 152646at3193         -            206     0.068   14.3  16.4   2   2   6.9e-06     0.034   15.2  13.1    10   140   506   632   500   636 0.77 -
ID=PSME_00052514     -            136 152646at3193         -            206     0.069   14.2   7.0   1   1   1.6e-05      0.08   14.0   7.0    25   122    18   117     1   125 0.87 -
ID=PSME_00054251     -            185 152646at3193         -            206     0.092   13.8   2.5   1   2   1.8e-05     0.092   13.8   2.5    85   130    56   101    52   108 0.87 -
ID=PSME_00054251     -            185 152646at3193         -            206     0.092   13.8   2.5   2   2      0.12   5.8e+02    1.4   5.5    96   131   107   142   100   164 0.77 -
ID=PSME_00019769     -            532 152646at3193         -            206      0.17   13.0   1.0   1   1   6.4e-05      0.32   12.1   1.0    62   101    38    77    18    90 0.86 -
ID=PSME_00029934     -            187 152646at3193         -            206      0.38   11.8   8.6   1   1   0.00011      0.56   11.3   8.6    33   106    90   163    59   168 0.84 -
ID=PSME_00037619     -            144 152646at3193         -            206      0.45   11.6   7.6   1   1   0.00021         1   10.4   7.5    52   109    60   117    47   138 0.60 -
ID=PSME_00030774     -            239 152646at3193         -            206      0.54   11.3   3.8   1   3       0.3   1.5e+03    0.1   0.1    93   113    16    36     8    39 0.82 -
ID=PSME_00030774     -            239 152646at3193         -            206      0.54   11.3   3.8   2   3     0.016        78    4.3   0.2   108   138    84   113    75   129 0.75 -
ID=PSME_00030774     -            239 152646at3193         -            206      0.54   11.3   3.8   3   3    0.0029        14    6.7   0.0   109   139   130   159   119   174 0.80 -
ID=PSME_00024699     -             96 152646at3193         -            206      0.55   11.3   0.0   1   1   0.00019      0.94   10.6   0.0   117   161    15    56    13    60 0.90 -
ID=PSME_00009031     -            450 152646at3193         -            206      0.57   11.3   1.1   1   1    0.0002      0.99   10.5   1.1    56   116    61   121    54   154 0.87 -
ID=PSME_00045923     -            240 152646at3193         -            206       1.6    9.8  11.7   1   1    0.0017       8.3    7.5  11.7    36   103    95   162    62   189 0.64 -
#
# Program:         hmmsearch
# Version:         3.2.1 (June 2018)
# Pipeline mode:   SEARCH
# Query file:      /isg/shared/databases/BUSCO/odb10/embryophyta_odb10/hmms/152646at3193.hmm
# Target file:     /labs/Wegrzyn/ConiferGenomes/Psme/analysis/SURF_annotation/analyze_orig_maker/gfacs/filtered/maker_genes.fasta.faa
# Option settings: /usr/local/bin/hmmsearch --domtblout /labs/Wegrzyn/ConiferGenomes/Psme/analysis/SURF_annotation/analyze_orig_maker/busco/maker/run_embryophyta_odb10/hmmer_output/152646at3193.out --cpu 1 /isg/shared/databases/BUSCO/odb10/embryophyta_odb10/hmms/152646at3193.hmm /labs/Wegrzyn/ConiferGenomes/Psme/analysis/SURF_annotation/analyze_orig_maker/gfacs/filtered/maker_genes.fasta.faa 
# Current dir:     /labs/Wegrzyn/ConiferGenomes/Psme/analysis/SURF_annotation/analyze_orig_maker/busco
# Date:            Fri Jul 10 13:44:29 2020
# [ok]
