#                                                                            --- full sequence --- -------------- this domain -------------   hmm coord   ali coord   env coord
# target name        accession   tlen query name           accession   qlen   E-value  score  bias   #  of  c-Evalue  i-Evalue  score  bias  from    to  from    to  from    to  acc description of target
#------------------- ---------- ----- -------------------- ---------- ----- --------- ------ ----- --- --- --------- --------- ------ ----- ----- ----- ----- ----- ----- ----- ---- ---------------------
ID=PSME_00028780     -            268 152910at3193         -            187   1.8e-88  296.8   6.1   1   3   2.5e-70   4.5e-66  223.8   0.0     1   130    12   142    12   144 0.98 -
ID=PSME_00028780     -            268 152910at3193         -            187   1.8e-88  296.8   6.1   2   3   5.1e-16   9.4e-12   46.7   0.1   129   165   170   206   162   214 0.88 -
ID=PSME_00028780     -            268 152910at3193         -            187   1.8e-88  296.8   6.1   3   3   2.1e-10   3.8e-06   28.4   0.5   161   187   242   268   234   268 0.92 -
ID=PSME_00000606     -            162 152910at3193         -            187     0.046   15.1   0.0   1   1   3.4e-06     0.062   14.6   0.0     6    49    77   117    73   132 0.88 -
ID=PSME_00005281     -            108 152910at3193         -            187      0.19   13.1   0.0   1   1   1.2e-05      0.23   12.8   0.0    86   120    44    79    32    91 0.83 -
#
# Program:         hmmsearch
# Version:         3.2.1 (June 2018)
# Pipeline mode:   SEARCH
# Query file:      /isg/shared/databases/BUSCO/odb10/embryophyta_odb10/hmms/152910at3193.hmm
# Target file:     /labs/Wegrzyn/ConiferGenomes/Psme/analysis/SURF_annotation/analyze_orig_maker/gfacs/filtered/maker_genes.fasta.faa
# Option settings: /usr/local/bin/hmmsearch --domtblout /labs/Wegrzyn/ConiferGenomes/Psme/analysis/SURF_annotation/analyze_orig_maker/busco/maker/run_embryophyta_odb10/hmmer_output/152910at3193.out --cpu 1 /isg/shared/databases/BUSCO/odb10/embryophyta_odb10/hmms/152910at3193.hmm /labs/Wegrzyn/ConiferGenomes/Psme/analysis/SURF_annotation/analyze_orig_maker/gfacs/filtered/maker_genes.fasta.faa 
# Current dir:     /labs/Wegrzyn/ConiferGenomes/Psme/analysis/SURF_annotation/analyze_orig_maker/busco
# Date:            Fri Jul 10 13:44:28 2020
# [ok]
