#                                                                            --- full sequence --- -------------- this domain -------------   hmm coord   ali coord   env coord
# target name        accession   tlen query name           accession   qlen   E-value  score  bias   #  of  c-Evalue  i-Evalue  score  bias  from    to  from    to  from    to  acc description of target
#------------------- ---------- ----- -------------------- ---------- ----- --------- ------ ----- --- --- --------- --------- ------ ----- ----- ----- ----- ----- ----- ----- ---- ---------------------
ID=PSME_00042365     -            219 152960at3193         -            277   2.1e-66  225.6   6.7   1   1     8e-69   7.3e-65  220.6   6.7    67   236    24   213    14   216 0.89 -
ID=PSME_00001542     -            166 152960at3193         -            277   6.4e-31  109.3   0.5   1   1   1.5e-33   1.3e-29  104.9   0.5     3   111     9   158     7   160 0.80 -
ID=PSME_00042366     -            210 152960at3193         -            277   2.3e-26   94.3   4.1   1   1   4.9e-29   4.5e-25   90.1   4.1   123   206     1    95     1    95 0.89 -
ID=PSME_00008769     -             90 152960at3193         -            277   8.5e-25   89.2   4.5   1   1   1.3e-27   1.2e-23   85.4   4.5   123   199     1    88     1    89 0.89 -
ID=PSME_00001541     -            203 152960at3193         -            277   5.9e-05   24.1   0.0   1   1   8.8e-09     8e-05   23.7   0.0   177   206     2    31     1    48 0.84 -
ID=PSME_00002037     -            419 152960at3193         -            277       0.1   13.5   0.3   1   1   1.8e-05      0.17   12.8   0.3    44   131   319   411   313   414 0.80 -
#
# Program:         hmmsearch
# Version:         3.2.1 (June 2018)
# Pipeline mode:   SEARCH
# Query file:      /isg/shared/databases/BUSCO/odb10/embryophyta_odb10/hmms/152960at3193.hmm
# Target file:     /labs/Wegrzyn/ConiferGenomes/Psme/analysis/SURF_annotation/analyze_orig_maker/gfacs/filtered/maker_genes.fasta.faa
# Option settings: /usr/local/bin/hmmsearch --domtblout /labs/Wegrzyn/ConiferGenomes/Psme/analysis/SURF_annotation/analyze_orig_maker/busco/maker/run_embryophyta_odb10/hmmer_output/152960at3193.out --cpu 1 /isg/shared/databases/BUSCO/odb10/embryophyta_odb10/hmms/152960at3193.hmm /labs/Wegrzyn/ConiferGenomes/Psme/analysis/SURF_annotation/analyze_orig_maker/gfacs/filtered/maker_genes.fasta.faa 
# Current dir:     /labs/Wegrzyn/ConiferGenomes/Psme/analysis/SURF_annotation/analyze_orig_maker/busco
# Date:            Fri Jul 10 13:44:29 2020
# [ok]
