#                                                                            --- full sequence --- -------------- this domain -------------   hmm coord   ali coord   env coord
# target name        accession   tlen query name           accession   qlen   E-value  score  bias   #  of  c-Evalue  i-Evalue  score  bias  from    to  from    to  from    to  acc description of target
#------------------- ---------- ----- -------------------- ---------- ----- --------- ------ ----- --- --- --------- --------- ------ ----- ----- ----- ----- ----- ----- ----- ---- ---------------------
ID=PSME_00001487     -           3191 153174at3193         -            175   9.1e-35  121.4  12.3   1   3   2.2e-13   4.8e-11   44.1   0.4    74   167   743   839   719   845 0.85 -
ID=PSME_00001487     -           3191 153174at3193         -            175   9.1e-35  121.4  12.3   2   3   1.7e-10   3.7e-08   34.7   0.2    85   167  1694  1779  1673  1785 0.85 -
ID=PSME_00001487     -           3191 153174at3193         -            175   9.1e-35  121.4  12.3   3   3   1.8e-14   3.9e-12   47.7   0.1    64   167  3060  3166  3053  3174 0.85 -
ID=PSME_00021092     -           1222 153174at3193         -            175   1.6e-27   97.8   1.7   1   2   6.5e-14   1.4e-11   45.8   0.2    91   166   504   583   496   591 0.85 -
ID=PSME_00021092     -           1222 153174at3193         -            175   1.6e-27   97.8   1.7   2   2   1.9e-15   4.2e-13   50.8   0.1    90   168  1109  1191  1103  1197 0.92 -
ID=PSME_00016535     -           1277 153174at3193         -            175   1.6e-27   97.7   4.7   1   2   2.4e-14   5.2e-12   47.3   0.3    86   167   523   607   517   613 0.90 -
ID=PSME_00016535     -           1277 153174at3193         -            175   1.6e-27   97.7   4.7   2   2     5e-15   1.1e-12   49.4   0.1    86   168  1169  1254  1157  1260 0.90 -
ID=PSME_00036222     -           1182 153174at3193         -            175   2.1e-27   97.4   1.7   1   2     6e-13   1.3e-10   42.7   0.1    91   166   514   593   508   602 0.84 -
ID=PSME_00036222     -           1182 153174at3193         -            175   2.1e-27   97.4   1.7   2   2   3.4e-16   7.5e-14   53.3   0.2    90   168  1077  1159  1072  1165 0.92 -
ID=PSME_00001910     -           1271 153174at3193         -            175   2.2e-27   97.3   2.5   1   2   1.1e-13   2.4e-11   45.1   0.2    86   166   529   612   522   618 0.89 -
ID=PSME_00001910     -           1271 153174at3193         -            175   2.2e-27   97.3   2.5   2   2   1.1e-15   2.3e-13   51.6   0.1    90   168  1164  1246  1158  1253 0.89 -
ID=PSME_00011041     -           1259 153174at3193         -            175   2.7e-27   97.0   4.3   1   2   3.7e-14   8.1e-12   46.6   0.3    86   168   514   599   508   606 0.91 -
ID=PSME_00011041     -           1259 153174at3193         -            175   2.7e-27   97.0   4.3   2   2   2.5e-15   5.5e-13   50.4   0.5    86   167  1153  1237  1148  1244 0.87 -
ID=PSME_00006521     -           1282 153174at3193         -            175   9.8e-27   95.2   2.6   1   2   2.3e-13   5.1e-11   44.0   0.3    87   167   536   619   529   627 0.88 -
ID=PSME_00006521     -           1282 153174at3193         -            175   9.8e-27   95.2   2.6   2   2   2.2e-15   4.9e-13   50.6   0.1    88   168  1174  1257  1167  1264 0.90 -
ID=PSME_00006519     -           1190 153174at3193         -            175   1.3e-26   94.8   2.7   1   2   2.6e-13   5.8e-11   43.8   0.3    87   167   462   545   455   553 0.88 -
ID=PSME_00006519     -           1190 153174at3193         -            175   1.3e-26   94.8   2.7   2   2     2e-15   4.5e-13   50.7   0.1    88   168  1082  1165  1075  1172 0.90 -
ID=PSME_00023028     -           1259 153174at3193         -            175   2.7e-26   93.8   1.9   1   2     1e-12   2.3e-10   41.9   0.2    86   166   518   601   511   609 0.87 -
ID=PSME_00023028     -           1259 153174at3193         -            175   2.7e-26   93.8   1.9   2   2     2e-15   4.3e-13   50.8   0.1    88   168  1151  1234  1144  1241 0.90 -
ID=PSME_00039275     -           1254 153174at3193         -            175   4.2e-26   93.1   3.5   1   2   7.2e-13   1.6e-10   42.4   0.6    86   167   514   598   508   603 0.87 -
ID=PSME_00039275     -           1254 153174at3193         -            175   4.2e-26   93.1   3.5   2   2     2e-15   4.3e-13   50.8   0.1    88   168  1146  1229  1139  1236 0.90 -
ID=PSME_00039058     -           1189 153174at3193         -            175   4.5e-26   93.1   3.3   1   2     3e-12   6.7e-10   40.4   0.3    91   166   505   584   497   592 0.85 -
ID=PSME_00039058     -           1189 153174at3193         -            175   4.5e-26   93.1   3.3   2   2   6.7e-16   1.5e-13   52.3   0.2    90   168  1084  1166  1079  1172 0.92 -
ID=PSME_00043262     -            941 153174at3193         -            175   4.9e-26   92.9   2.8   1   2   2.5e-13   5.5e-11   43.9   0.3    86   167   200   284   193   290 0.88 -
ID=PSME_00043262     -            941 153174at3193         -            175   4.9e-26   92.9   2.8   2   2   9.7e-15   2.1e-12   48.5   0.1    88   168   833   916   826   923 0.90 -
ID=PSME_00001938     -           1330 153174at3193         -            175   6.5e-26   92.5   1.6   1   2   1.1e-13   2.5e-11   45.1   0.1    90   166   542   622   519   627 0.91 -
ID=PSME_00001938     -           1330 153174at3193         -            175   6.5e-26   92.5   1.6   2   2   6.7e-14   1.5e-11   45.8   0.3    90   167  1226  1307  1219  1312 0.86 -
ID=PSME_00036536     -           1254 153174at3193         -            175   6.6e-26   92.5   2.8   1   2   9.6e-13   2.1e-10   42.0   0.4    86   167   517   601   511   607 0.87 -
ID=PSME_00036536     -           1254 153174at3193         -            175   6.6e-26   92.5   2.8   2   2   3.6e-15     8e-13   49.9   0.1    91   168  1149  1230  1142  1237 0.91 -
ID=PSME_00037733     -           1271 153174at3193         -            175   6.8e-26   92.5   2.8   1   2     2e-12   4.5e-10   40.9   0.2    86   167   533   617   526   623 0.88 -
ID=PSME_00037733     -           1271 153174at3193         -            175   6.8e-26   92.5   2.8   2   2   1.7e-15   3.8e-13   50.9   0.2    88   168  1164  1247  1156  1254 0.90 -
ID=PSME_00031965     -           1246 153174at3193         -            175   7.4e-26   92.3   2.6   1   2   3.3e-12   7.2e-10   40.3   0.1    91   166   505   584   500   591 0.87 -
ID=PSME_00031965     -           1246 153174at3193         -            175   7.4e-26   92.3   2.6   2   2   1.4e-15   3.1e-13   51.2   0.2    90   168  1141  1223  1135  1229 0.91 -
ID=PSME_00023523     -           1291 153174at3193         -            175   7.8e-26   92.3   5.9   1   2     6e-16   1.3e-13   52.4   0.2    90   167   543   624   535   631 0.93 -
ID=PSME_00023523     -           1291 153174at3193         -            175   7.8e-26   92.3   5.9   2   2   1.7e-12   3.8e-10   41.2   0.5    90   167  1183  1264  1175  1270 0.85 -
ID=PSME_00023263     -           1098 153174at3193         -            175   8.7e-26   92.1   3.4   1   2   2.4e-12   5.3e-10   40.7   0.3    91   166   365   444   357   452 0.84 -
ID=PSME_00023263     -           1098 153174at3193         -            175   8.7e-26   92.1   3.4   2   2   1.5e-15   3.4e-13   51.1   0.2    90   168   993  1075   988  1081 0.91 -
ID=PSME_00046830     -            968 153174at3193         -            175     9e-26   92.1   1.5   1   2   6.4e-11   1.4e-08   36.1   0.1    91   167   256   336   247   341 0.88 -
ID=PSME_00046830     -            968 153174at3193         -            175     9e-26   92.1   1.5   2   2   1.3e-16   2.9e-14   54.6   0.1    88   168   857   941   850   948 0.91 -
ID=PSME_00038180     -           1250 153174at3193         -            175   9.1e-26   92.1   3.0   1   2   1.6e-12   3.5e-10   41.3   0.4    86   167   514   598   508   604 0.87 -
ID=PSME_00038180     -           1250 153174at3193         -            175   9.1e-26   92.1   3.0   2   2   2.3e-15   5.2e-13   50.5   0.1    88   168  1144  1227  1137  1234 0.90 -
ID=PSME_00020852     -           1263 153174at3193         -            175   1.2e-25   91.7   4.4   1   2   1.5e-12   3.3e-10   41.4   0.3    87   167   520   603   513   610 0.88 -
ID=PSME_00020852     -           1263 153174at3193         -            175   1.2e-25   91.7   4.4   2   2   2.1e-15   4.6e-13   50.7   0.1    88   168  1155  1238  1146  1245 0.90 -
ID=PSME_00023484     -           1364 153174at3193         -            175   1.2e-25   91.7   2.3   1   2   1.6e-11   3.5e-09   38.0   0.2    91   166   595   674   588   682 0.89 -
ID=PSME_00023484     -           1364 153174at3193         -            175   1.2e-25   91.7   2.3   2   2   1.4e-15     3e-13   51.3   0.2    90   168  1246  1328  1230  1335 0.89 -
ID=PSME_00004142     -           1185 153174at3193         -            175   1.3e-25   91.5   2.3   1   2   1.4e-12   3.2e-10   41.4   0.0    91   166   443   522   436   532 0.85 -
ID=PSME_00004142     -           1185 153174at3193         -            175   1.3e-25   91.5   2.3   2   2   8.1e-15   1.8e-12   48.8   0.4    88   168  1073  1156  1067  1162 0.91 -
ID=PSME_00021941     -           1133 153174at3193         -            175   1.5e-25   91.3   2.5   1   2   1.4e-13   3.2e-11   44.7   0.1    90   166   382   462   374   468 0.90 -
ID=PSME_00021941     -           1133 153174at3193         -            175   1.5e-25   91.3   2.5   2   2   6.1e-14   1.4e-11   45.9   0.2    90   167  1028  1109  1019  1114 0.87 -
ID=PSME_00042040     -           1202 153174at3193         -            175   1.5e-25   91.3   5.1   1   2     1e-12   2.2e-10   41.9   0.6    86   166   462   545   456   551 0.87 -
ID=PSME_00042040     -           1202 153174at3193         -            175   1.5e-25   91.3   5.1   2   2   2.7e-15   5.9e-13   50.3   0.2    88   168  1095  1178  1087  1184 0.91 -
ID=PSME_00030174     -           1318 153174at3193         -            175     2e-25   90.9   3.9   1   2     1e-13   2.3e-11   45.2   0.3    90   167   532   613   523   619 0.90 -
ID=PSME_00030174     -           1318 153174at3193         -            175     2e-25   90.9   3.9   2   2   1.1e-13   2.5e-11   45.1   0.3    86   167  1210  1294  1202  1301 0.88 -
ID=PSME_00023264     -           1238 153174at3193         -            175   2.2e-25   90.8   3.8   1   2   3.4e-12   7.6e-10   40.2   0.3    91   166   505   584   497   592 0.85 -
ID=PSME_00023264     -           1238 153174at3193         -            175   2.2e-25   90.8   3.8   2   2   1.8e-15   3.9e-13   50.9   0.2    90   168  1133  1215  1128  1221 0.91 -
ID=PSME_00009726     -           1349 153174at3193         -            175   2.5e-25   90.6   4.5   1   2   9.6e-14   2.1e-11   45.3   0.3    90   167   565   646   556   652 0.90 -
ID=PSME_00009726     -           1349 153174at3193         -            175   2.5e-25   90.6   4.5   2   2   9.8e-14   2.2e-11   45.2   0.4    86   167  1241  1325  1232  1333 0.88 -
ID=PSME_00038380     -           1264 153174at3193         -            175   2.9e-25   90.4   2.6   1   2     6e-12   1.3e-09   39.4   0.2    91   166   524   603   516   611 0.85 -
ID=PSME_00038380     -           1264 153174at3193         -            175   2.9e-25   90.4   2.6   2   2   2.8e-15   6.2e-13   50.3   0.1    90   168  1159  1241  1154  1247 0.91 -
ID=PSME_00001908     -           1230 153174at3193         -            175   3.6e-25   90.1   3.0   1   2   2.2e-12   4.8e-10   40.9   0.4    91   166   491   570   483   575 0.89 -
ID=PSME_00001908     -           1230 153174at3193         -            175   3.6e-25   90.1   3.0   2   2   7.4e-15   1.6e-12   48.9   0.1    88   168  1123  1206  1112  1213 0.89 -
ID=PSME_00026486     -           1367 153174at3193         -            175   3.6e-25   90.1   4.6   1   2   4.8e-14     1e-11   46.3   0.3    89   167   580   662   529   667 0.89 -
ID=PSME_00026486     -           1367 153174at3193         -            175   3.6e-25   90.1   4.6   2   2   2.6e-13   5.8e-11   43.8   0.4    90   167  1262  1343  1253  1348 0.88 -
ID=PSME_00021093     -           1119 153174at3193         -            175   4.3e-25   89.9   0.7   1   2   1.5e-13   3.3e-11   44.7   0.2    91   166   281   360   272   368 0.84 -
ID=PSME_00021093     -           1119 153174at3193         -            175   4.3e-25   89.9   0.7   2   2   5.8e-13   1.3e-10   42.7   0.0    90   161   909   984   903   993 0.92 -
ID=PSME_00005534     -           1235 153174at3193         -            175   6.5e-25   89.3   2.7   1   2   5.7e-13   1.2e-10   42.8   0.1    90   166   446   526   438   531 0.89 -
ID=PSME_00005534     -           1235 153174at3193         -            175   6.5e-25   89.3   2.7   2   2     7e-14   1.5e-11   45.7   0.3    91   167  1131  1211  1123  1216 0.87 -
ID=PSME_00027754     -           1353 153174at3193         -            175   1.6e-24   88.0   4.3   1   2   2.7e-13   5.9e-11   43.8   0.3    90   167   567   648   560   654 0.91 -
ID=PSME_00027754     -           1353 153174at3193         -            175   1.6e-24   88.0   4.3   2   2   1.7e-13   3.8e-11   44.4   0.4    86   167  1245  1329  1238  1337 0.87 -
ID=PSME_00015619     -            721 153174at3193         -            175   1.1e-22   82.1   2.1   1   2     1e-12   2.3e-10   41.9   0.1    91   167    10    90     4    97 0.90 -
ID=PSME_00015619     -            721 153174at3193         -            175   1.1e-22   82.1   2.1   2   2     7e-12   1.5e-09   39.2   0.1    89   168   614   696   607   703 0.88 -
ID=PSME_00000837     -            552 153174at3193         -            175     2e-22   81.2   0.3   1   2     1e-11   2.2e-09   38.7   0.0    82   164   185   274   172   281 0.87 -
ID=PSME_00000837     -            552 153174at3193         -            175     2e-22   81.2   0.3   2   2   5.6e-12   1.2e-09   39.5   0.1    82   164   439   528   424   536 0.86 -
ID=PSME_00037475     -           1244 153174at3193         -            175   6.7e-22   79.5   1.8   1   2     2e-08   4.4e-06   28.0   0.1    95   166   540   615   501   621 0.87 -
ID=PSME_00037475     -           1244 153174at3193         -            175   6.7e-22   79.5   1.8   2   2   3.2e-15   7.1e-13   50.1   0.2    88   169  1141  1225  1134  1230 0.91 -
ID=PSME_00001491     -           1030 153174at3193         -            175   9.7e-22   78.9   6.6   1   3       1.4     3e+02    2.4   0.1    89   102   321   333   314   335 0.83 -
ID=PSME_00001491     -           1030 153174at3193         -            175   9.7e-22   78.9   6.6   2   3   2.2e-10   4.7e-08   34.4   1.0    85   161   329   409   321   422 0.84 -
ID=PSME_00001491     -           1030 153174at3193         -            175   9.7e-22   78.9   6.6   3   3   7.4e-14   1.6e-11   45.6   0.2    89   168   923  1005   916  1012 0.89 -
ID=PSME_00026671     -           1043 153174at3193         -            175   2.2e-20   74.5   0.4   1   2   5.2e-14   1.1e-11   46.1   0.2    91   166   365   444   355   452 0.84 -
ID=PSME_00026671     -           1043 153174at3193         -            175   2.2e-20   74.5   0.4   2   2   9.6e-08   2.1e-05   25.7   0.0    90   124  1003  1037   997  1041 0.92 -
ID=PSME_00023924     -           1148 153174at3193         -            175   2.3e-17   64.7   2.6   1   3   5.5e-09   1.2e-06   29.8   0.2    91   167   446   526   436   532 0.83 -
ID=PSME_00023924     -           1148 153174at3193         -            175   2.3e-17   64.7   2.6   2   3       3.5   7.7e+02    1.1   0.0     6    32   913   939   908   951 0.82 -
ID=PSME_00023924     -           1148 153174at3193         -            175   2.3e-17   64.7   2.6   3   3   1.4e-09   3.1e-07   31.7   0.1    91   168  1042  1123  1034  1130 0.89 -
ID=PSME_00012048     -            131 153174at3193         -            175   5.6e-15   56.9   0.2   1   1   3.3e-17   7.2e-15   56.6   0.2    90   168    26   108    20   114 0.91 -
ID=PSME_00022740     -            676 153174at3193         -            175   8.7e-15   56.3   1.0   1   3       2.1   4.7e+02    1.8   0.0    25    55   137   173   124   182 0.74 -
ID=PSME_00022740     -            676 153174at3193         -            175   8.7e-15   56.3   1.0   2   3   2.3e-07     5e-05   24.5   0.0    68   150   264   351   223   362 0.82 -
ID=PSME_00022740     -            676 153174at3193         -            175   8.7e-15   56.3   1.0   3   3   7.8e-08   1.7e-05   26.0   0.1    55   136   493   583   433   619 0.66 -
ID=PSME_00031976     -            987 153174at3193         -            175   1.8e-14   55.3   1.0   1   2       1.2   2.5e+02    2.7   0.0   139   167   304   332   258   338 0.85 -
ID=PSME_00031976     -            987 153174at3193         -            175   1.8e-14   55.3   1.0   2   2   5.6e-15   1.2e-12   49.3   0.1    88   168   880   963   873   970 0.90 -
ID=PSME_00031853     -            278 153174at3193         -            175   1.8e-14   55.2   0.1   1   2         8   1.8e+03   -0.1   0.0    10    36    83   109    76   119 0.80 -
ID=PSME_00031853     -            278 153174at3193         -            175   1.8e-14   55.2   0.1   2   2   4.9e-16   1.1e-13   52.7   0.1    90   168   166   248   155   254 0.91 -
ID=PSME_00051284     -            131 153174at3193         -            175   5.2e-14   53.8   0.1   1   1   3.1e-16   6.9e-14   53.4   0.1    90   168    26   108    21   114 0.92 -
ID=PSME_00012238     -            267 153174at3193         -            175   1.1e-13   52.7   0.3   1   2       6.3   1.4e+03    0.3   0.0     9    36    25    52    19    61 0.84 -
ID=PSME_00012238     -            267 153174at3193         -            175   1.1e-13   52.7   0.3   2   2   3.3e-15   7.2e-13   50.0   0.2    90   168   162   244   155   250 0.91 -
ID=PSME_00010123     -            131 153174at3193         -            175   1.2e-13   52.5   0.1   1   1   6.9e-16   1.5e-13   52.2   0.1    90   168    26   108    18   115 0.89 -
ID=PSME_00039126     -            315 153174at3193         -            175   2.3e-13   51.7   0.1   1   1   1.8e-15   3.9e-13   50.9   0.1    88   168   208   291   201   298 0.89 -
ID=PSME_00013022     -            447 153174at3193         -            175   3.8e-13   51.0   1.1   1   1   4.7e-15     1e-12   49.5   0.7    75   168   325   422   304   428 0.87 -
ID=PSME_00007371     -            226 153174at3193         -            175   4.2e-13   50.8   0.8   1   1   4.5e-15   9.8e-13   49.6   0.1    90   168   124   206   118   212 0.89 -
ID=PSME_00001078     -            424 153174at3193         -            175   4.5e-13   50.7   0.4   1   1   4.2e-15   9.3e-13   49.7   0.1    90   168   319   401   312   407 0.93 -
ID=PSME_00014914     -            131 153174at3193         -            175   4.8e-13   50.6   0.2   1   1   2.9e-15   6.4e-13   50.2   0.2    90   168    26   108    20   114 0.91 -
ID=PSME_00014276     -           1486 153174at3193         -            175     6e-13   50.3   1.4   1   2     4e-06   0.00088   20.5   0.1    91   167   627   707   622   713 0.88 -
ID=PSME_00014276     -           1486 153174at3193         -            175     6e-13   50.3   1.4   2   2   1.8e-08     4e-06   28.1   0.1    91   167  1375  1456  1366  1464 0.86 -
ID=PSME_00052931     -            467 153174at3193         -            175   7.5e-13   50.0   0.4   1   2       8.5   1.9e+03   -0.1   0.0     8    29   241   262   223   274 0.63 -
ID=PSME_00052931     -            467 153174at3193         -            175   7.5e-13   50.0   0.4   2   2   2.2e-14   4.8e-12   47.4   0.2    90   168   363   445   358   451 0.91 -
ID=PSME_00054519     -            392 153174at3193         -            175   1.1e-12   49.5   0.2   1   1   9.9e-15   2.2e-12   48.5   0.2    91   166   124   203   115   211 0.85 -
ID=PSME_00000251     -           1250 153174at3193         -            175   1.6e-12   48.9   0.1   1   2   1.8e-09     4e-07   31.3   0.0    90   167   735   817   674   824 0.89 -
ID=PSME_00000251     -           1250 153174at3193         -            175   1.6e-12   48.9   0.1   2   2    0.0002     0.044   14.9   0.0    91   163  1142  1218  1128  1225 0.82 -
ID=PSME_00030389     -            854 153174at3193         -            175   1.7e-12   48.9   0.2   1   1   2.9e-14   6.5e-12   46.9   0.2    85   168   513   599   507   605 0.91 -
ID=PSME_00018696     -            395 153174at3193         -            175   1.7e-12   48.8   0.3   1   2       7.8   1.7e+03   -0.0   0.0     6    30   164   188   159   204 0.84 -
ID=PSME_00018696     -            395 153174at3193         -            175   1.7e-12   48.8   0.3   2   2   7.2e-14   1.6e-11   45.7   0.3    90   166   291   371   224   379 0.90 -
ID=PSME_00009725     -           1046 153174at3193         -            175   1.7e-12   48.8   0.5   1   1   7.8e-14   1.7e-11   45.6   0.4    86   167   938  1022   929  1029 0.88 -
ID=PSME_00044880     -            277 153174at3193         -            175   1.8e-12   48.7   0.3   1   1   1.4e-14     3e-12   48.0   0.3    90   167    62   143    54   151 0.88 -
ID=PSME_00021576     -            448 153174at3193         -            175     2e-12   48.6   0.1   1   1     9e-15     2e-12   48.6   0.1    90   168   343   425   338   431 0.91 -
ID=PSME_00017831     -            793 153174at3193         -            175     2e-12   48.6   0.2   1   1   2.2e-14   4.9e-12   47.3   0.2    90   166   370   450   360   457 0.89 -
ID=PSME_00029982     -           1406 153174at3193         -            175   2.6e-12   48.2   0.5   1   2   2.8e-08   6.1e-06   27.5   0.1    90   166   801   882   791   890 0.80 -
ID=PSME_00029982     -           1406 153174at3193         -            175   2.6e-12   48.2   0.5   2   2   2.3e-05    0.0052   18.0   0.1    91   165  1298  1376  1288  1386 0.84 -
ID=PSME_00034515     -            526 153174at3193         -            175   2.9e-12   48.1   0.2   1   1   5.1e-14   1.1e-11   46.2   0.1    91   168   422   503   417   509 0.92 -
ID=PSME_00044147     -            686 153174at3193         -            175   3.7e-12   47.7   0.3   1   1   3.8e-14   8.3e-12   46.6   0.3    91   166   344   423   335   431 0.84 -
ID=PSME_00011596     -            626 153174at3193         -            175   7.9e-12   46.7   0.1   1   1   7.3e-14   1.6e-11   45.6   0.1    91   166   312   391   303   399 0.86 -
ID=PSME_00040636     -            437 153174at3193         -            175   8.3e-12   46.6   0.3   1   1   1.6e-13   3.5e-11   44.5   0.1    90   163   358   435   352   436 0.92 -
ID=PSME_00005535     -           1066 153174at3193         -            175   1.1e-11   46.2   0.3   1   1   9.7e-14   2.1e-11   45.2   0.3    88   169   340   424   310   430 0.86 -
ID=PSME_00048779     -            143 153174at3193         -            175   1.8e-11   45.5   0.1   1   1   1.3e-13   2.8e-11   44.9   0.1    90   162    54   135     8   140 0.83 -
ID=PSME_00033055     -            231 153174at3193         -            175   2.1e-11   45.3   0.3   1   1   1.4e-13   3.1e-11   44.7   0.3    90   167    59   140    52   146 0.89 -
ID=PSME_00021000     -           1307 153174at3193         -            175   2.8e-11   44.9   0.3   1   2   1.9e-07   4.1e-05   24.8   0.0    90   166   540   621   530   626 0.86 -
ID=PSME_00021000     -           1307 153174at3193         -            175   2.8e-11   44.9   0.3   2   2     3e-05    0.0067   17.6   0.0    90   164  1091  1169  1068  1177 0.83 -
ID=PSME_00031356     -            891 153174at3193         -            175   3.1e-11   44.7   0.2   1   1   3.6e-13   7.9e-11   43.4   0.2    89   166   404   485   393   492 0.86 -
ID=PSME_00003012     -           1423 153174at3193         -            175   3.4e-11   44.6   0.4   1   2   2.7e-05     0.006   17.8   0.0    90   166   433   514   423   521 0.81 -
ID=PSME_00003012     -           1423 153174at3193         -            175   3.4e-11   44.6   0.4   2   2   3.2e-07   7.1e-05   24.0   0.1    90   164  1069  1147  1050  1156 0.85 -
ID=PSME_00023134     -           1436 153174at3193         -            175   3.9e-11   44.4   0.2   1   2   2.1e-07   4.6e-05   24.6   0.0    90   166   763   844   753   849 0.86 -
ID=PSME_00023134     -           1436 153174at3193         -            175   3.9e-11   44.4   0.2   2   2   4.6e-05      0.01   17.0   0.0    91   164  1320  1397  1298  1406 0.87 -
ID=PSME_00036002     -            273 153174at3193         -            175   3.9e-11   44.4   0.1   1   1   5.1e-13   1.1e-10   42.9   0.1    82   164   160   249   140   260 0.84 -
ID=PSME_00040794     -            188 153174at3193         -            175   4.9e-11   44.1   0.0   1   1   3.3e-13   7.4e-11   43.5   0.0    90   164    94   177    61   182 0.81 -
ID=PSME_00031702     -            174 153174at3193         -            175   5.8e-11   43.8   0.0   1   1   3.7e-13   8.2e-11   43.3   0.0    90   167    55   136    47   141 0.92 -
ID=PSME_00023991     -           1237 153174at3193         -            175   5.9e-11   43.8   0.4   1   2   1.9e-05    0.0043   18.2   0.0    90   166   247   328   237   334 0.81 -
ID=PSME_00023991     -           1237 153174at3193         -            175   5.9e-11   43.8   0.4   2   2   8.1e-07   0.00018   22.7   0.1    90   164   883   961   864   970 0.86 -
ID=PSME_00039347     -            755 153174at3193         -            175   6.2e-11   43.8   0.0   1   2       5.6   1.2e+03    0.4   0.0     4    30   260   286   257   298 0.89 -
ID=PSME_00039347     -            755 153174at3193         -            175   6.2e-11   43.8   0.0   2   2   3.1e-12   6.9e-10   40.3   0.1    89   156   375   446   327   459 0.79 -
ID=PSME_00021918     -           1528 153174at3193         -            175   7.6e-11   43.5   0.3   1   2   2.2e-07   4.8e-05   24.6   0.0    90   166   766   847   756   852 0.86 -
ID=PSME_00021918     -           1528 153174at3193         -            175   7.6e-11   43.5   0.3   2   2   7.2e-05     0.016   16.4   0.1    91   164  1318  1395  1295  1403 0.83 -
ID=PSME_00030919     -           1023 153174at3193         -            175   8.3e-11   43.3   0.4   1   1   8.4e-13   1.8e-10   42.2   0.4    86   167   406   490   398   496 0.84 -
ID=PSME_00045612     -            906 153174at3193         -            175   1.4e-10   42.6   0.0   1   3         1   2.3e+02    2.8   0.0     8    42   174   210   166   240 0.73 -
ID=PSME_00045612     -            906 153174at3193         -            175   1.4e-10   42.6   0.0   2   3   3.1e-05    0.0068   17.6   0.0    82   123   304   345   288   355 0.90 -
ID=PSME_00045612     -            906 153174at3193         -            175   1.4e-10   42.6   0.0   3   3   2.3e-05     0.005   18.0   0.0    86   124   608   646   586   667 0.86 -
ID=PSME_00014970     -            184 153174at3193         -            175   1.6e-10   42.4   0.0   1   1   1.1e-12   2.5e-10   41.8   0.0    90   164    91   174    74   179 0.81 -
ID=PSME_00041915     -            282 153174at3193         -            175   2.2e-10   42.0   0.0   1   1   1.9e-12   4.3e-10   41.0   0.0    90   170   106   195    92   199 0.81 -
ID=PSME_00000867     -           1467 153174at3193         -            175   2.4e-10   41.8   0.2   1   2   1.1e-07   2.4e-05   25.6   0.0    89   145   329   385   318   418 0.76 -
ID=PSME_00000867     -           1467 153174at3193         -            175   2.4e-10   41.8   0.2   2   2     0.001      0.23   12.6   0.0    88   136  1015  1063  1002  1071 0.92 -
ID=PSME_00021746     -            165 153174at3193         -            175   2.6e-10   41.7   0.1   1   2   7.9e-09   1.7e-06   29.3   0.0    90   125    72   107    49   125 0.88 -
ID=PSME_00021746     -            165 153174at3193         -            175   2.6e-10   41.7   0.1   2   2    0.0033      0.72   11.0   0.0   132   163   133   164   112   165 0.87 -
ID=PSME_00036003     -            289 153174at3193         -            175   3.5e-10   41.3   0.1   1   1   4.8e-12   1.1e-09   39.7   0.1    81   164   175   265   159   273 0.81 -
ID=PSME_00003815     -            184 153174at3193         -            175   3.7e-10   41.2   0.0   1   1   2.6e-12   5.6e-10   40.6   0.0    90   164    91   174    58   179 0.81 -
ID=PSME_00010270     -            446 153174at3193         -            175   3.9e-10   41.1   0.4   1   1   3.8e-12   8.3e-10   40.1   0.4    84   167   355   442   260   445 0.89 -
ID=PSME_00022482     -            187 153174at3193         -            175   4.2e-10   41.0   0.0   1   1   3.8e-12   8.4e-10   40.1   0.0    90   164    93   176    84   181 0.82 -
ID=PSME_00030171     -            745 153174at3193         -            175   4.3e-10   41.0   0.1   1   1   4.7e-12     1e-09   39.8   0.1    90   166   433   513   413   520 0.88 -
ID=PSME_00020479     -            303 153174at3193         -            175   4.8e-10   40.9   0.0   1   1   4.8e-12   1.1e-09   39.7   0.0    81   164   189   279   174   285 0.85 -
ID=PSME_00034484     -            848 153174at3193         -            175   5.2e-10   40.7   0.1   1   1   7.2e-12   1.6e-09   39.2   0.1    90   167   405   486   394   492 0.89 -
ID=PSME_00042092     -            524 153174at3193         -            175   6.3e-10   40.5   0.2   1   1   6.2e-12   1.4e-09   39.4   0.2    90   167   258   339   248   345 0.90 -
ID=PSME_00012870     -           1527 153174at3193         -            175   6.6e-10   40.4   0.1   1   2   6.3e-08   1.4e-05   26.3   0.0    89   165   339   423   330   430 0.77 -
ID=PSME_00012870     -           1527 153174at3193         -            175   6.6e-10   40.4   0.1   2   2    0.0043      0.95   10.6   0.0    88   136  1012  1060  1001  1068 0.92 -
ID=PSME_00015426     -            627 153174at3193         -            175   6.8e-10   40.4   0.3   1   1   5.6e-12   1.2e-09   39.5   0.3    87   166   500   582   493   589 0.88 -
ID=PSME_00054478     -            147 153174at3193         -            175   6.9e-10   40.3   0.0   1   1   3.9e-12   8.5e-10   40.0   0.0    83   164    35   123    20   133 0.86 -
ID=PSME_00038316     -            204 153174at3193         -            175   7.6e-10   40.2   0.1   1   1   5.5e-12   1.2e-09   39.6   0.1    90   164    78   161    33   167 0.84 -
ID=PSME_00007073     -           1467 153174at3193         -            175   1.1e-09   39.7   0.8   1   2   1.5e-07   3.3e-05   25.1   0.0    89   166   335   420   327   425 0.77 -
ID=PSME_00007073     -           1467 153174at3193         -            175   1.1e-09   39.7   0.8   2   2    0.0026      0.58   11.3   0.1    87   136  1014  1063   981  1073 0.88 -
ID=PSME_00021039     -            836 153174at3193         -            175   1.1e-09   39.6   0.4   1   1   1.6e-11   3.6e-09   38.0   0.4    56   167   314   435   296   441 0.71 -
ID=PSME_00049879     -            274 153174at3193         -            175   1.2e-09   39.5   0.0   1   1   1.8e-11   3.9e-09   37.9   0.0    83   164   162   250   142   260 0.85 -
ID=PSME_00030497     -            773 153174at3193         -            175   1.9e-09   38.9   0.5   1   1   1.6e-11   3.6e-09   38.0   0.5    86   166   474   557   468   564 0.85 -
ID=PSME_00015395     -           1468 153174at3193         -            175   2.1e-09   38.8   0.5   1   2   4.1e-07     9e-05   23.7   0.0    90   144   335   389   326   422 0.79 -
ID=PSME_00015395     -           1468 153174at3193         -            175   2.1e-09   38.8   0.5   2   2    0.0026      0.56   11.3   0.1    87   136  1014  1063   983  1074 0.89 -
ID=PSME_00024672     -            173 153174at3193         -            175   2.3e-09   38.7   0.1   1   1   1.9e-11   4.1e-09   37.8   0.1    90   164    79   162    33   166 0.83 -
ID=PSME_00005733     -           1350 153174at3193         -            175   2.3e-09   38.6   0.2   1   2   1.1e-07   2.3e-05   25.6   0.1    91   165   678   757   655   763 0.87 -
ID=PSME_00005733     -           1350 153174at3193         -            175   2.3e-09   38.6   0.2   2   2    0.0046         1   10.5   0.0    91   163  1234  1310  1228  1323 0.82 -
ID=PSME_00001268     -           1484 153174at3193         -            175   2.8e-09   38.4   0.2   1   2   4.6e-07    0.0001   23.5   0.0    90   142   312   364   304   399 0.75 -
ID=PSME_00001268     -           1484 153174at3193         -            175   2.8e-09   38.4   0.2   2   2     0.003      0.67   11.1   0.0    88   136  1031  1079  1007  1086 0.91 -
ID=PSME_00035350     -            765 153174at3193         -            175   3.2e-09   38.2   0.1   1   1   3.1e-11   6.8e-09   37.1   0.1    87   160   531   607   524   615 0.79 -
ID=PSME_00024036     -            949 153174at3193         -            175   3.5e-09   38.0   0.1   1   1   5.2e-11   1.2e-08   36.4   0.1    90   156   496   566   486   579 0.82 -
ID=PSME_00011558     -           1411 153174at3193         -            175   3.8e-09   37.9   0.3   1   2   0.00011     0.024   15.8   0.0    83   123   816   855   809   879 0.83 -
ID=PSME_00011558     -           1411 153174at3193         -            175   3.8e-09   37.9   0.3   2   2     1e-05    0.0022   19.2   0.1    91   165  1295  1373  1287  1384 0.83 -
ID=PSME_00031136     -            577 153174at3193         -            175   4.2e-09   37.8   0.4   1   1   6.2e-11   1.4e-08   36.1   0.3    90   167   492   573   483   576 0.88 -
ID=PSME_00015981     -            600 153174at3193         -            175   6.4e-09   37.2   0.0   1   2   1.5e-06   0.00032   21.9   0.0    83   164   211   295   195   308 0.78 -
ID=PSME_00015981     -            600 153174at3193         -            175   6.4e-09   37.2   0.0   2   2   0.00086      0.19   12.9   0.0    86   134   500   548   481   591 0.73 -
ID=PSME_00021011     -           1249 153174at3193         -            175   6.6e-09   37.2   0.2   1   2   3.3e-07   7.4e-05   24.0   0.0    91   165   612   691   595   697 0.86 -
ID=PSME_00021011     -           1249 153174at3193         -            175   6.6e-09   37.2   0.2   2   2     0.004      0.89   10.7   0.0    91   163  1133  1209  1126  1222 0.82 -
ID=PSME_00033760     -            909 153174at3193         -            175   7.1e-09   37.0   0.3   1   1   1.1e-10   2.3e-08   35.4   0.1    90   154   486   554   456   564 0.87 -
ID=PSME_00011320     -            949 153174at3193         -            175   9.9e-09   36.6   0.2   1   2   4.6e-06     0.001   20.3   0.0    89   139   201   251   190   292 0.76 -
ID=PSME_00011320     -            949 153174at3193         -            175   9.9e-09   36.6   0.2   2   2   0.00064      0.14   13.3   0.0    88   136   845   893   837   900 0.93 -
ID=PSME_00014724     -           1491 153174at3193         -            175   9.9e-09   36.6   0.4   1   3       8.9     2e+03   -0.2   0.0     4    36   174   212   171   219 0.73 -
ID=PSME_00014724     -           1491 153174at3193         -            175   9.9e-09   36.6   0.4   2   3     3e-06   0.00065   20.9   0.0    90   142   335   387   326   421 0.83 -
ID=PSME_00014724     -           1491 153174at3193         -            175   9.9e-09   36.6   0.4   3   3    0.0026      0.57   11.3   0.1    87   136  1014  1063   983  1074 0.89 -
ID=PSME_00004238     -            899 153174at3193         -            175   1.1e-08   36.4   0.0   1   2   1.5e-06   0.00032   21.9   0.0    90   165   183   266   175   271 0.76 -
ID=PSME_00004238     -            899 153174at3193         -            175   1.1e-08   36.4   0.0   2   2    0.0016      0.35   12.0   0.0    88   137   751   800   739   810 0.93 -
ID=PSME_00028133     -            111 153174at3193         -            175   1.1e-08   36.4   0.0   1   1   5.5e-11   1.2e-08   36.3   0.0    89   138    56   105    18   110 0.90 -
ID=PSME_00022442     -            724 153174at3193         -            175   1.3e-08   36.1   0.6   1   1   1.4e-10   3.1e-08   35.0   0.1    90   168   344   426   335   432 0.89 -
ID=PSME_00028351     -            831 153174at3193         -            175     2e-08   35.5   0.1   1   1   2.5e-10   5.5e-08   34.2   0.1    90   163   351   426   329   435 0.82 -
ID=PSME_00013473     -            822 153174at3193         -            175   2.1e-08   35.5   0.6   1   1   2.9e-10   6.4e-08   33.9   0.1    89   158   396   454   319   468 0.79 -
ID=PSME_00009192     -           1497 153174at3193         -            175   2.2e-08   35.4   0.2   1   2   2.4e-06   0.00052   21.2   0.0    89   165   325   409   312   415 0.72 -
ID=PSME_00009192     -           1497 153174at3193         -            175   2.2e-08   35.4   0.2   2   2    0.0026      0.56   11.3   0.1    87   136  1043  1092  1022  1102 0.89 -
ID=PSME_00000869     -           1457 153174at3193         -            175   2.4e-08   35.3   0.5   1   2   4.2e-06   0.00093   20.4   0.0    90   143   347   400   339   434 0.76 -
ID=PSME_00000869     -           1457 153174at3193         -            175   2.4e-08   35.3   0.5   2   2    0.0023      0.51   11.4   0.1    86   136  1030  1080  1001  1087 0.85 -
ID=PSME_00009312     -            651 153174at3193         -            175   2.4e-08   35.3   0.0   1   1   2.2e-10   4.8e-08   34.3   0.0    90   162   483   559   454   570 0.92 -
ID=PSME_00006563     -            974 153174at3193         -            175   3.4e-08   34.8   0.0   1   2   6.5e-06    0.0014   19.8   0.0    90   165   215   298   207   303 0.76 -
ID=PSME_00006563     -            974 153174at3193         -            175   3.4e-08   34.8   0.0   2   2    0.0012      0.27   12.4   0.0    87   136   853   902   751   909 0.70 -
ID=PSME_00035958     -            173 153174at3193         -            175   4.6e-08   34.4   0.0   1   1   3.7e-10   8.1e-08   33.6   0.0    90   163    79   161    70   166 0.79 -
ID=PSME_00015447     -           1506 153174at3193         -            175   5.1e-08   34.2   0.6   1   2   1.6e-05    0.0036   18.5   0.0    87   166   398   485   389   491 0.79 -
ID=PSME_00015447     -           1506 153174at3193         -            175   5.1e-08   34.2   0.6   2   2   0.00086      0.19   12.9   0.1    88   137  1056  1105  1028  1114 0.91 -
ID=PSME_00005403     -           1464 153174at3193         -            175   5.6e-08   34.1   0.1   1   2   3.3e-06   0.00074   20.7   0.0    90   137   317   364   305   405 0.76 -
ID=PSME_00005403     -           1464 153174at3193         -            175   5.6e-08   34.1   0.1   2   2    0.0037      0.81   10.8   0.1    87   136  1010  1059   989  1069 0.90 -
ID=PSME_00032551     -            938 153174at3193         -            175   6.1e-08   34.0   0.3   1   1   9.8e-10   2.1e-07   32.2   0.3    89   167   485   567   449   573 0.88 -
ID=PSME_00015316     -           1528 153174at3193         -            175   6.9e-08   33.8   0.1   1   2   5.2e-06    0.0012   20.1   0.0    90   139   345   394   335   434 0.73 -
ID=PSME_00015316     -           1528 153174at3193         -            175   6.9e-08   33.8   0.1   2   2    0.0036      0.79   10.8   0.1    88   136  1043  1091  1023  1101 0.92 -
ID=PSME_00013320     -           1482 153174at3193         -            175   7.1e-08   33.8   0.3   1   2   6.2e-06    0.0014   19.8   0.0    90   137   326   373   316   413 0.78 -
ID=PSME_00013320     -           1482 153174at3193         -            175   7.1e-08   33.8   0.3   2   2    0.0031      0.68   11.0   0.1    87   136  1028  1077  1009  1087 0.91 -
ID=PSME_00011677     -           1083 153174at3193         -            175   7.4e-08   33.7   0.0   1   2     5e-06    0.0011   20.1   0.0    90   140   229   279   223   318 0.76 -
ID=PSME_00011677     -           1083 153174at3193         -            175   7.4e-08   33.7   0.0   2   2    0.0033      0.72   11.0   0.0    88   136   657   705   640   712 0.92 -
ID=PSME_00050152     -            210 153174at3193         -            175   8.1e-08   33.6   0.2   1   1   6.6e-10   1.5e-07   32.8   0.2    91   164    74   151    66   161 0.85 -
ID=PSME_00001762     -           1486 153174at3193         -            175   8.9e-08   33.5   0.3   1   2   1.2e-05    0.0027   18.8   0.0    90   145   344   399   293   432 0.81 -
ID=PSME_00001762     -           1486 153174at3193         -            175   8.9e-08   33.5   0.3   2   2     0.004      0.88   10.7   0.1    88   136  1033  1081  1003  1090 0.91 -
ID=PSME_00017479     -            933 153174at3193         -            175   9.6e-08   33.4   0.0   1   2   3.7e-06   0.00082   20.6   0.0    90   142   166   218   158   254 0.76 -
ID=PSME_00017479     -            933 153174at3193         -            175   9.6e-08   33.4   0.0   2   2    0.0053       1.2   10.3   0.0    88   136   802   850   776   863 0.92 -
ID=PSME_00024544     -            168 153174at3193         -            175   1.3e-07   32.9   0.0   1   1   9.8e-10   2.2e-07   32.2   0.0    90   136    81   126    35   129 0.89 -
ID=PSME_00023061     -            954 153174at3193         -            175   1.3e-07   32.9   0.1   1   1     2e-09   4.3e-07   31.2   0.1    90   167   492   573   482   579 0.89 -
ID=PSME_00000647     -           1456 153174at3193         -            175   1.9e-07   32.4   0.2   1   2   5.9e-05     0.013   16.7   0.0    90   138   313   361   304   399 0.83 -
ID=PSME_00000647     -           1456 153174at3193         -            175   1.9e-07   32.4   0.2   2   2    0.0009       0.2   12.8   0.0    88   136  1008  1056   988  1063 0.92 -
ID=PSME_00045888     -            147 153174at3193         -            175   2.2e-07   32.2   0.0   1   1   1.5e-09   3.2e-07   31.6   0.0    90   136    60   105    51   108 0.88 -
ID=PSME_00015152     -            918 153174at3193         -            175   2.3e-07   32.2   0.0   1   2   1.3e-05    0.0028   18.8   0.0    90   165   145   228   137   233 0.76 -
ID=PSME_00015152     -            918 153174at3193         -            175   2.3e-07   32.2   0.0   2   2    0.0038      0.84   10.7   0.0    88   136   834   882   807   889 0.93 -
ID=PSME_00019068     -            847 153174at3193         -            175   3.3e-07   31.6   0.2   1   2       9.2     2e+03   -0.3   0.0   130   161   454   485   446   499 0.79 -
ID=PSME_00019068     -            847 153174at3193         -            175   3.3e-07   31.6   0.2   2   2   2.4e-08   5.2e-06   27.7   0.1    86   168   511   584   505   591 0.87 -
ID=PSME_00013090     -             77 153174at3193         -            175     4e-07   31.3   0.1   1   1   1.8e-09     4e-07   31.3   0.1    92   137    21    66    11    76 0.88 -
ID=PSME_00048284     -            144 153174at3193         -            175   6.2e-07   30.7   0.0   1   1   4.8e-09   1.1e-06   30.0   0.0    90   136    57   102    10   105 0.88 -
ID=PSME_00041356     -            164 153174at3193         -            175   6.3e-07   30.7   0.0   1   1   4.3e-09   9.4e-07   30.1   0.0    61   153    64   162    56   163 0.66 -
ID=PSME_00042896     -           1257 153174at3193         -            175     1e-06   30.0   0.1   1   1   9.5e-09   2.1e-06   29.0   0.1    90   166   770   851   701   855 0.88 -
ID=PSME_00048312     -            207 153174at3193         -            175   1.1e-06   29.9   0.0   1   1   7.3e-09   1.6e-06   29.4   0.0    90   126    47    83    40   108 0.82 -
ID=PSME_00007099     -            182 153174at3193         -            175   1.1e-06   29.9   0.1   1   1   1.6e-08   3.5e-06   28.3   0.0    90   124    49    83    44    90 0.92 -
ID=PSME_00002220     -            976 153174at3193         -            175   1.2e-06   29.8   0.1   1   2   0.00011     0.025   15.7   0.0    90   166   155   233   145   239 0.87 -
ID=PSME_00002220     -            976 153174at3193         -            175   1.2e-06   29.8   0.1   2   2    0.0023       0.5   11.5   0.1    87   136   827   876   797   886 0.89 -
ID=PSME_00009768     -           1071 153174at3193         -            175   1.7e-06   29.3   0.3   1   2   0.00011     0.023   15.8   0.0    90   139   437   486   427   492 0.91 -
ID=PSME_00009768     -           1071 153174at3193         -            175   1.7e-06   29.3   0.3   2   2    0.0031      0.68   11.0   0.0    88   136   968  1016   938  1023 0.91 -
ID=PSME_00001267     -           1305 153174at3193         -            175   2.1e-06   29.0   0.1   1   2   0.00014      0.03   15.5   0.0    90   140   235   285   223   290 0.86 -
ID=PSME_00001267     -           1305 153174at3193         -            175   2.1e-06   29.0   0.1   2   2    0.0039      0.86   10.7   0.0    88   136   852   900   838   908 0.92 -
ID=PSME_00019954     -            135 153174at3193         -            175   2.2e-06   28.9   0.0   1   1   1.4e-08   3.1e-06   28.4   0.0    89   166    18   103     9   110 0.80 -
ID=PSME_00046724     -            397 153174at3193         -            175   2.7e-06   28.6   0.0   1   1     2e-08   4.4e-06   28.0   0.0    90   136   309   354   267   359 0.91 -
ID=PSME_00004629     -            521 153174at3193         -            175   3.1e-06   28.5   0.1   1   1   3.8e-08   8.4e-06   27.0   0.1    90   167   418   499   386   505 0.87 -
ID=PSME_00007343     -            478 153174at3193         -            175   3.1e-06   28.4   0.0   1   1     3e-08   6.7e-06   27.4   0.0    89   166   146   231   136   237 0.80 -
ID=PSME_00001490     -            132 153174at3193         -            175   3.5e-06   28.3   0.1   1   1   2.1e-08   4.6e-06   27.9   0.1    89   166    34   114    26   122 0.85 -
ID=PSME_00033032     -            193 153174at3193         -            175   3.6e-06   28.2   0.0   1   1   2.2e-08   4.9e-06   27.8   0.0    90   136   106   151    61   154 0.90 -
ID=PSME_00045549     -            356 153174at3193         -            175   4.4e-06   28.0   0.0   1   1   3.6e-08     8e-06   27.1   0.0    87   166     6    93     2    99 0.80 -
ID=PSME_00012292     -           1265 153174at3193         -            175   4.5e-06   27.9   0.0   1   2   9.2e-05      0.02   16.0   0.0    90   136   124   170   115   211 0.77 -
ID=PSME_00012292     -           1265 153174at3193         -            175   4.5e-06   27.9   0.0   2   2     0.011       2.3    9.3   0.0    90   136   815   861   801   872 0.93 -
ID=PSME_00000252     -           1162 153174at3193         -            175   5.8e-06   27.6   0.5   1   2   0.00019     0.041   15.0   0.0    90   132   743   785   732   808 0.81 -
ID=PSME_00000252     -           1162 153174at3193         -            175   5.8e-06   27.6   0.5   2   2    0.0056       1.2   10.2   0.1    90   155  1037  1106  1007  1123 0.76 -
ID=PSME_00008988     -            919 153174at3193         -            175   7.2e-06   27.3   0.0   1   2   0.00038     0.084   14.0   0.0    90   142   147   199   139   235 0.77 -
ID=PSME_00008988     -            919 153174at3193         -            175   7.2e-06   27.3   0.0   2   2     0.004      0.87   10.7   0.0    88   136   816   864   786   871 0.90 -
ID=PSME_00027598     -            209 153174at3193         -            175   7.4e-06   27.2   0.1   1   1   5.1e-08   1.1e-05   26.6   0.1    91   164    10    87     4    94 0.84 -
ID=PSME_00022644     -            598 153174at3193         -            175   7.9e-06   27.1   0.0   1   1   6.4e-08   1.4e-05   26.3   0.0    87   166    62   149    52   155 0.79 -
ID=PSME_00026744     -            366 153174at3193         -            175   1.1e-05   26.7   0.2   1   1   8.4e-08   1.9e-05   25.9   0.2    67   166   228   328   222   338 0.72 -
ID=PSME_00033312     -            273 153174at3193         -            175   1.1e-05   26.7   0.0   1   1   9.3e-08     2e-05   25.8   0.0    80   116   197   233   181   247 0.85 -
ID=PSME_00026230     -            821 153174at3193         -            175   1.1e-05   26.6   0.2   1   1   1.6e-07   3.5e-05   25.0   0.2    96   167   404   479   364   488 0.89 -
ID=PSME_00006871     -            902 153174at3193         -            175   1.2e-05   26.5   0.0   1   2    0.0018      0.39   11.8   0.0    90   165   145   222   137   228 0.82 -
ID=PSME_00006871     -            902 153174at3193         -            175   1.2e-05   26.5   0.0   2   2    0.0017      0.38   11.9   0.1    88   136   754   802   723   812 0.90 -
ID=PSME_00011704     -            794 153174at3193         -            175   1.2e-05   26.5   0.1   1   2   1.5e-05    0.0033   18.6   0.0    90   166    71   155    63   160 0.82 -
ID=PSME_00011704     -            794 153174at3193         -            175   1.2e-05   26.5   0.1   2   2      0.17        38    5.3   0.1    87   136   673   722   643   729 0.89 -
ID=PSME_00048377     -            170 153174at3193         -            175   1.8e-05   25.9   0.1   1   1   1.1e-07   2.5e-05   25.5   0.1    90   124   128   162    83   168 0.93 -
ID=PSME_00019468     -            363 153174at3193         -            175   1.9e-05   25.9   0.1   1   1   1.5e-07   3.4e-05   25.1   0.1    91   164    10    87     5    96 0.85 -
ID=PSME_00047733     -            338 153174at3193         -            175   2.4e-05   25.5   0.0   1   1   1.8e-07   4.1e-05   24.8   0.0    87   166     6    93     2    99 0.80 -
ID=PSME_00034199     -            181 153174at3193         -            175   2.9e-05   25.3   0.0   1   1   1.9e-07   4.1e-05   24.8   0.0    89   166    64   149    51   156 0.80 -
ID=PSME_00006204     -           1418 153174at3193         -            175     3e-05   25.2   0.0   1   2    0.0031      0.68   11.0   0.0    89   133   319   363   307   406 0.76 -
ID=PSME_00006204     -           1418 153174at3193         -            175     3e-05   25.2   0.0   2   2    0.0032      0.71   11.0   0.0    88   136   965  1013   936  1042 0.93 -
ID=PSME_00043620     -            367 153174at3193         -            175   3.3e-05   25.1   0.0   1   3       3.1   6.9e+02    1.3   0.0    10    31   130   151   124   159 0.87 -
ID=PSME_00043620     -            367 153174at3193         -            175   3.3e-05   25.1   0.0   2   3   6.3e-06    0.0014   19.8   0.0    70   162   157   259   151   271 0.72 -
ID=PSME_00043620     -            367 153174at3193         -            175   3.3e-05   25.1   0.0   3   3       8.3   1.8e+03   -0.1   0.0    72    97   288   313   280   324 0.85 -
ID=PSME_00054272     -             99 153174at3193         -            175   3.3e-05   25.1   0.1   1   1   1.9e-07   4.3e-05   24.7   0.1    90   124    57    91    10    97 0.92 -
ID=PSME_00040224     -            479 153174at3193         -            175     4e-05   24.8   0.0   1   1   3.4e-07   7.5e-05   23.9   0.0    90   166   116   200   105   206 0.82 -
ID=PSME_00048867     -            142 153174at3193         -            175   4.1e-05   24.8   0.0   1   1   3.1e-07   6.8e-05   24.1   0.0    90   120    91   121    44   128 0.93 -
ID=PSME_00024822     -            330 153174at3193         -            175   4.2e-05   24.7   0.0   1   3       2.8   6.2e+02    1.4   0.0    10    31    93   114    87   121 0.87 -
ID=PSME_00024822     -            330 153174at3193         -            175   4.2e-05   24.7   0.0   2   3   8.5e-06    0.0019   19.4   0.0    69   150   119   209   111   232 0.74 -
ID=PSME_00024822     -            330 153174at3193         -            175   4.2e-05   24.7   0.0   3   3       6.8   1.5e+03    0.2   0.0    72    97   251   276   242   288 0.85 -
ID=PSME_00011251     -           1162 153174at3193         -            175   5.7e-05   24.3   0.0   1   2   6.6e-05     0.014   16.5   0.0    90   124   803   837   793   854 0.85 -
ID=PSME_00011251     -           1162 153174at3193         -            175   5.7e-05   24.3   0.0   2   2      0.26        57    4.8   0.0   129   166   877   914   869   921 0.87 -
ID=PSME_00001399     -            133 153174at3193         -            175   6.4e-05   24.2   0.0   1   1   4.2e-07   9.1e-05   23.7   0.0    90   166    39   123    30   128 0.79 -
ID=PSME_00003089     -            336 153174at3193         -            175   9.6e-05   23.6   0.0   1   1     8e-07   0.00018   22.7   0.0    87   166    16   103     8   109 0.75 -
ID=PSME_00005988     -            704 153174at3193         -            175   0.00013   23.1   0.0   1   1   1.2e-06   0.00027   22.1   0.0    88   137   191   240   180   251 0.93 -
ID=PSME_00030599     -            499 153174at3193         -            175   0.00015   23.0   0.0   1   2       3.2   7.1e+02    1.2   0.0    11    31   281   301   274   313 0.84 -
ID=PSME_00030599     -            499 153174at3193         -            175   0.00015   23.0   0.0   2   2   9.2e-06     0.002   19.3   0.0    89   161   396   473   373   482 0.75 -
ID=PSME_00012924     -            539 153174at3193         -            175   0.00016   22.9   0.0   1   1   3.1e-06   0.00068   20.8   0.0     8   135    41   167    37   172 0.79 -
ID=PSME_00001270     -            580 153174at3193         -            175   0.00026   22.2   0.0   1   1   2.3e-06    0.0005   21.3   0.0    88   140   138   190   132   226 0.85 -
ID=PSME_00051941     -            285 153174at3193         -            175   0.00027   22.1   0.0   1   1   1.9e-06   0.00042   21.5   0.0    85   136    29    80     6   103 0.83 -
ID=PSME_00003437     -            337 153174at3193         -            175   0.00029   22.0   0.0   1   1   2.7e-06   0.00059   21.0   0.0    90   124   290   324   283   330 0.92 -
ID=PSME_00040273     -            182 153174at3193         -            175   0.00036   21.7   0.0   1   1   2.2e-06   0.00048   21.3   0.0    94   135     4    45     1    59 0.88 -
ID=PSME_00044473     -            167 153174at3193         -            175   0.00038   21.7   0.1   1   1   2.9e-06   0.00064   20.9   0.1    90   140   103   153    90   164 0.91 -
ID=PSME_00039146     -            467 153174at3193         -            175    0.0005   21.3   0.2   1   2         9     2e+03   -0.2   0.0    60    91    92   122    80   131 0.82 -
ID=PSME_00039146     -            467 153174at3193         -            175    0.0005   21.3   0.2   2   2   1.5e-05    0.0034   18.6   0.0    86   136   403   457   389   460 0.83 -
ID=PSME_00047115     -            238 153174at3193         -            175    0.0007   20.8   0.0   1   2   2.3e-05    0.0051   18.0   0.0    82   150    46   118    25   143 0.72 -
ID=PSME_00047115     -            238 153174at3193         -            175    0.0007   20.8   0.0   2   2       5.4   1.2e+03    0.5   0.0    73    97   161   185   154   203 0.86 -
ID=PSME_00036453     -            553 153174at3193         -            175   0.00071   20.8   0.0   1   1   6.1e-06    0.0013   19.9   0.0    85   137   208   260   188   298 0.87 -
ID=PSME_00005287     -            800 153174at3193         -            175   0.00073   20.7   0.0   1   1   1.4e-05    0.0032   18.7   0.0    89   163   464   543   442   553 0.76 -
ID=PSME_00023720     -            245 153174at3193         -            175    0.0011   20.1   0.1   1   1   7.8e-06    0.0017   19.5   0.1    92   164    11    87     5    97 0.84 -
ID=PSME_00055047     -            550 153174at3193         -            175    0.0015   19.7   0.0   1   2       1.1   2.4e+02    2.7   0.0     8    42    41    81    37    89 0.86 -
ID=PSME_00055047     -            550 153174at3193         -            175    0.0015   19.7   0.0   2   2   0.00028     0.062   14.4   0.0    85   135   161   211   150   216 0.89 -
ID=PSME_00029164     -            357 153174at3193         -            175    0.0018   19.4   0.0   1   2       2.5   5.4e+02    1.6   0.0    25    43    65    89    48    99 0.71 -
ID=PSME_00029164     -            357 153174at3193         -            175    0.0018   19.4   0.0   2   2   0.00017     0.038   15.1   0.0    70   123   146   209   125   271 0.78 -
ID=PSME_00015005     -            809 153174at3193         -            175    0.0018   19.4   0.0   1   2   0.00037     0.081   14.1   0.0    90   166   121   199   113   205 0.87 -
ID=PSME_00015005     -            809 153174at3193         -            175    0.0018   19.4   0.0   2   2         1   2.3e+02    2.8   0.0    88   118   727   757   698   763 0.90 -
ID=PSME_00000646     -            396 153174at3193         -            175    0.0018   19.4   0.0   1   1   2.8e-05    0.0061   17.7   0.0    90   138   158   206   126   235 0.85 -
ID=PSME_00022191     -            140 153174at3193         -            175    0.0019   19.4   0.0   1   1   1.1e-05    0.0023   19.1   0.0    89   134    21    66    10   111 0.78 -
ID=PSME_00056379     -            695 153174at3193         -            175     0.002   19.3   0.0   1   2       4.5   9.9e+02    0.8   0.0     8    42   118   158   114   166 0.86 -
ID=PSME_00056379     -            695 153174at3193         -            175     0.002   19.3   0.0   2   2    0.0001     0.023   15.8   0.0    85   135   238   288   227   293 0.89 -
ID=PSME_00005285     -            796 153174at3193         -            175    0.0026   18.9   0.0   1   1   5.3e-05     0.012   16.8   0.0    89   162   466   544   442   555 0.75 -
ID=PSME_00000106     -            709 153174at3193         -            175     0.003   18.7   0.0   1   1   3.8e-05    0.0084   17.3   0.0    88   137   251   300   220   322 0.82 -
ID=PSME_00029501     -            748 153174at3193         -            175     0.003   18.7   0.0   1   1   2.6e-05    0.0058   17.8   0.0    88   137   240   289   229   294 0.92 -
ID=PSME_00005442     -            675 153174at3193         -            175     0.007   17.5   0.0   1   1   0.00013      0.03   15.5   0.0    89   163   432   511   409   521 0.75 -
ID=PSME_00046957     -            326 153174at3193         -            175    0.0082   17.3   0.1   1   1   5.9e-05     0.013   16.6   0.1    87   136   179   228   154   263 0.88 -
ID=PSME_00003090     -            589 153174at3193         -            175    0.0088   17.2   0.0   1   1   7.4e-05     0.016   16.3   0.0    88   137   136   185   111   200 0.92 -
ID=PSME_00022643     -            211 153174at3193         -            175    0.0088   17.2   0.1   1   1   7.2e-05     0.016   16.4   0.1    88   137   139   188   108   196 0.88 -
ID=PSME_00030029     -            941 153174at3193         -            175     0.012   16.8   0.0   1   1   0.00014      0.03   15.4   0.0    85   135   463   513   437   531 0.82 -
ID=PSME_00007700     -            720 153174at3193         -            175     0.012   16.7   0.0   1   1    0.0001     0.023   15.8   0.0    87   136   190   239   175   247 0.89 -
ID=PSME_00011293     -            209 153174at3193         -            175     0.014   16.5   0.0   1   1   8.6e-05     0.019   16.1   0.0    87   137    72   122    44   142 0.89 -
ID=PSME_00044009     -             80 153174at3193         -            175     0.014   16.5   0.0   1   1     7e-05     0.015   16.4   0.0    88   135    19    64     6    74 0.87 -
ID=PSME_00037486     -            200 153174at3193         -            175     0.015   16.5   0.1   1   1   9.3e-05      0.02   16.0   0.1    91   165    87   165    63   170 0.82 -
ID=PSME_00029337     -            543 153174at3193         -            175     0.015   16.4   0.1   1   1   0.00014     0.031   15.4   0.1    87   137   338   388   313   400 0.90 -
ID=PSME_00028259     -            685 153174at3193         -            175     0.015   16.4   0.0   1   1   0.00017     0.038   15.1   0.0    66   136   463   533   452   564 0.92 -
ID=PSME_00001400     -            229 153174at3193         -            175     0.017   16.3   0.0   1   1    0.0001     0.022   15.9   0.0    46   136    75   164    54   195 0.80 -
ID=PSME_00044965     -            332 153174at3193         -            175      0.02   16.0   0.1   1   1   0.00015     0.033   15.3   0.1    87   137    67   117    40   127 0.89 -
ID=PSME_00007341     -            567 153174at3193         -            175     0.022   15.9   0.1   1   1   0.00018     0.039   15.1   0.1    86   137   112   163    81   170 0.85 -
ID=PSME_00026672     -             67 153174at3193         -            175     0.023   15.8   0.0   1   1   0.00013      0.03   15.5   0.0   137   168     5    36     2    42 0.91 -
ID=PSME_00017231     -            802 153174at3193         -            175     0.023   15.8   0.0   1   1   0.00021     0.046   14.9   0.0    89   133   333   377   321   420 0.79 -
ID=PSME_00011269     -            682 153174at3193         -            175     0.025   15.7   0.1   1   1   0.00019     0.043   15.0   0.1    87   137   250   300   224   311 0.89 -
ID=PSME_00022190     -            215 153174at3193         -            175     0.027   15.6   0.0   1   1   0.00019     0.042   15.0   0.0    87   136   138   187   103   195 0.90 -
ID=PSME_00039519     -            471 153174at3193         -            175     0.028   15.6   0.0   1   1    0.0002     0.044   14.9   0.0    91   123     1    33     1    46 0.88 -
ID=PSME_00007229     -            343 153174at3193         -            175     0.028   15.5   0.0   1   1   0.00024     0.052   14.7   0.0    81   113   244   276   228   286 0.82 -
ID=PSME_00048056     -            315 153174at3193         -            175     0.029   15.5   0.0   1   1   0.00022     0.049   14.8   0.0    88   138   121   171    98   179 0.91 -
ID=PSME_00000836     -            282 153174at3193         -            175     0.029   15.5   0.0   1   2       8.7   1.9e+03   -0.2   0.0   119   155   116   154    71   170 0.81 -
ID=PSME_00000836     -            282 153174at3193         -            175     0.029   15.5   0.0   2   2     0.001      0.22   12.7   0.1   105   164   192   258   176   264 0.75 -
ID=PSME_00014557     -            515 153174at3193         -            175     0.035   15.2   0.0   1   1   0.00031     0.067   14.3   0.0    90   145    39    94    29   126 0.77 -
ID=PSME_00020482     -            370 153174at3193         -            175     0.036   15.2   0.0   1   1   0.00031     0.069   14.3   0.0    81   113   244   276   228   284 0.83 -
ID=PSME_00025179     -            463 153174at3193         -            175     0.044   14.9   0.0   1   1   0.00032     0.071   14.3   0.0    90   166     9    90     3    95 0.85 -
ID=PSME_00033551     -            174 153174at3193         -            175     0.051   14.7   0.0   1   1    0.0003     0.065   14.4   0.0    88   137    23    72    13   109 0.89 -
ID=PSME_00032229     -            850 153174at3193         -            175     0.051   14.7   0.2   1   1   0.00067      0.15   13.2   0.1    86   131   373   418   345   434 0.80 -
ID=PSME_00002896     -            675 153174at3193         -            175     0.056   14.6   0.0   1   1   0.00078      0.17   13.0   0.0    87   135   179   227   114   246 0.80 -
ID=PSME_00015036     -            354 153174at3193         -            175     0.058   14.5   0.0   1   1   0.00038     0.083   14.0   0.0    87   136   224   273   188   292 0.89 -
ID=PSME_00030569     -            507 153174at3193         -            175     0.068   14.3   0.0   1   1   0.00049      0.11   13.7   0.0    88   136   186   234   151   267 0.92 -
ID=PSME_00004239     -            362 153174at3193         -            175     0.069   14.3   0.0   1   1   0.00057      0.13   13.4   0.0    91   165   165   247   157   252 0.74 -
ID=PSME_00014750     -            773 153174at3193         -            175     0.079   14.1   0.0   1   1   0.00066      0.15   13.2   0.0    89   137   266   314   190   348 0.90 -
ID=PSME_00005319     -            712 153174at3193         -            175     0.082   14.0   0.0   1   1   0.00085      0.19   12.9   0.0    87   135   216   264   151   283 0.80 -
ID=PSME_00014748     -            765 153174at3193         -            175     0.092   13.9   0.0   1   1   0.00075      0.17   13.1   0.0    89   137   258   306   188   316 0.91 -
ID=PSME_00002898     -            762 153174at3193         -            175     0.093   13.9   0.0   1   1   0.00093      0.21   12.7   0.0    87   135   266   314   201   332 0.80 -
ID=PSME_00004240     -            132 153174at3193         -            175     0.095   13.8   0.0   1   1   0.00049      0.11   13.6   0.0    88   136    19    67     9    98 0.93 -
ID=PSME_00048726     -            534 153174at3193         -            175     0.096   13.8   0.1   1   2       7.8   1.7e+03   -0.0   0.0     7    46   133   178   128   230 0.71 -
ID=PSME_00048726     -            534 153174at3193         -            175     0.096   13.8   0.1   2   2    0.0041       0.9   10.7   0.0    72   123   260   315   247   361 0.83 -
ID=PSME_00017232     -            592 153174at3193         -            175      0.11   13.6   0.0   1   1   0.00098      0.22   12.7   0.0    88   136   139   187   105   198 0.91 -
ID=PSME_00008294     -            152 153174at3193         -            175      0.13   13.4   0.2   1   1     0.001      0.23   12.6   0.2   110   166    59   114    52   124 0.81 -
ID=PSME_00021533     -             90 153174at3193         -            175      0.15   13.2   0.1   1   1   0.00077      0.17   13.0   0.1   111   172     8    76     3    79 0.80 -
ID=PSME_00005062     -            836 153174at3193         -            175      0.15   13.2   0.0   1   2       2.8   6.2e+02    1.4   0.0   108   165   196   261   169   266 0.74 -
ID=PSME_00005062     -            836 153174at3193         -            175      0.15   13.2   0.0   2   2     0.013       2.9    9.0   0.1    87   135   763   811   733   816 0.87 -
ID=PSME_00041578     -            327 153174at3193         -            175      0.16   13.1   0.0   1   1    0.0012      0.26   12.4   0.0    90   123   206   239   196   253 0.86 -
ID=PSME_00045465     -            706 153174at3193         -            175      0.16   13.1   0.0   1   1    0.0015      0.33   12.1   0.0    89   137   246   294   242   304 0.91 -
ID=PSME_00020162     -            253 153174at3193         -            175      0.17   13.0   0.1   1   1    0.0011      0.25   12.5   0.1    91   157   147   217   127   227 0.76 -
ID=PSME_00025234     -            273 153174at3193         -            175      0.19   12.9   0.0   1   1    0.0016      0.36   12.0   0.0    88   137    75   124    49   133 0.91 -
ID=PSME_00032914     -            460 153174at3193         -            175      0.27   12.4   0.1   1   1    0.0022       0.5   11.5   0.1    87   137   134   184   104   192 0.88 -
ID=PSME_00023022     -            169 153174at3193         -            175      0.32   12.1   0.1   1   1     0.002      0.43   11.7   0.1    90   153    28    95     6   113 0.74 -
ID=PSME_00046831     -            329 153174at3193         -            175      0.36   12.0   0.1   1   1    0.0028      0.62   11.2   0.1    88   137   135   184   108   192 0.88 -
#
# Program:         hmmsearch
# Version:         3.2.1 (June 2018)
# Pipeline mode:   SEARCH
# Query file:      /isg/shared/databases/BUSCO/odb10/embryophyta_odb10/hmms/153174at3193.hmm
# Target file:     /labs/Wegrzyn/ConiferGenomes/Psme/analysis/SURF_annotation/analyze_orig_maker/gfacs/filtered/maker_genes.fasta.faa
# Option settings: /usr/local/bin/hmmsearch --domtblout /labs/Wegrzyn/ConiferGenomes/Psme/analysis/SURF_annotation/analyze_orig_maker/busco/maker/run_embryophyta_odb10/hmmer_output/153174at3193.out --cpu 1 /isg/shared/databases/BUSCO/odb10/embryophyta_odb10/hmms/153174at3193.hmm /labs/Wegrzyn/ConiferGenomes/Psme/analysis/SURF_annotation/analyze_orig_maker/gfacs/filtered/maker_genes.fasta.faa 
# Current dir:     /labs/Wegrzyn/ConiferGenomes/Psme/analysis/SURF_annotation/analyze_orig_maker/busco
# Date:            Fri Jul 10 13:44:45 2020
# [ok]
