#                                                                            --- full sequence --- -------------- this domain -------------   hmm coord   ali coord   env coord
# target name        accession   tlen query name           accession   qlen   E-value  score  bias   #  of  c-Evalue  i-Evalue  score  bias  from    to  from    to  from    to  acc description of target
#------------------- ---------- ----- -------------------- ---------- ----- --------- ------ ----- --- --- --------- --------- ------ ----- ----- ----- ----- ----- ----- ----- ---- ---------------------
ID=PSME_00004488     -            330 153139at3193         -            193     1e-19   72.7   1.3   1   1   5.1e-23   4.7e-19   70.5   1.3    10   138    86   240    80   249 0.80 -
ID=PSME_00004489     -             95 153139at3193         -            193   2.5e-08   35.6   0.1   1   1   3.2e-12   2.9e-08   35.3   0.1   133   183     1    52     1    58 0.91 -
ID=PSME_00049106     -            412 153139at3193         -            193   2.3e-05   25.9   1.0   1   1   4.4e-09     4e-05   25.1   0.2    77   161   230   313   216   321 0.87 -
ID=PSME_00045974     -            407 153139at3193         -            193   2.7e-05   25.7   0.2   1   1   8.3e-09   7.6e-05   24.2   0.2    77   159   225   306   217   311 0.88 -
ID=PSME_00001117     -            187 153139at3193         -            193      0.06   14.7   0.0   1   1     1e-05     0.096   14.1   0.0    63   121   107   163    96   168 0.79 -
ID=PSME_00055772     -            355 153139at3193         -            193      0.73   11.2   0.8   1   4      0.39   3.6e+03   -0.8   0.0    59    74   153   170   143   195 0.66 -
ID=PSME_00055772     -            355 153139at3193         -            193      0.73   11.2   0.8   2   4      0.28   2.6e+03   -0.4   0.0    60    80   200   220   186   232 0.77 -
ID=PSME_00055772     -            355 153139at3193         -            193      0.73   11.2   0.8   3   4    0.0018        16    6.8   0.0    56    90   271   305   258   315 0.84 -
ID=PSME_00055772     -            355 153139at3193         -            193      0.73   11.2   0.8   4   4      0.74   6.8e+03   -1.8   0.0    62    72   315   325   306   334 0.82 -
#
# Program:         hmmsearch
# Version:         3.2.1 (June 2018)
# Pipeline mode:   SEARCH
# Query file:      /isg/shared/databases/BUSCO/odb10/embryophyta_odb10/hmms/153139at3193.hmm
# Target file:     /labs/Wegrzyn/ConiferGenomes/Psme/analysis/SURF_annotation/analyze_orig_maker/gfacs/filtered/maker_genes.fasta.faa
# Option settings: /usr/local/bin/hmmsearch --domtblout /labs/Wegrzyn/ConiferGenomes/Psme/analysis/SURF_annotation/analyze_orig_maker/busco/maker/run_embryophyta_odb10/hmmer_output/153139at3193.out --cpu 1 /isg/shared/databases/BUSCO/odb10/embryophyta_odb10/hmms/153139at3193.hmm /labs/Wegrzyn/ConiferGenomes/Psme/analysis/SURF_annotation/analyze_orig_maker/gfacs/filtered/maker_genes.fasta.faa 
# Current dir:     /labs/Wegrzyn/ConiferGenomes/Psme/analysis/SURF_annotation/analyze_orig_maker/busco
# Date:            Fri Jul 10 13:44:29 2020
# [ok]
