#                                                                            --- full sequence --- -------------- this domain -------------   hmm coord   ali coord   env coord
# target name        accession   tlen query name           accession   qlen   E-value  score  bias   #  of  c-Evalue  i-Evalue  score  bias  from    to  from    to  from    to  acc description of target
#------------------- ---------- ----- -------------------- ---------- ----- --------- ------ ----- --- --- --------- --------- ------ ----- ----- ----- ----- ----- ----- ----- ---- ---------------------
ID=PSME_00054668     -            468 153434at3193         -            230   4.1e-17   63.8   6.2   1   2   3.9e-11   1.2e-08   36.1   1.3   116   204   136   222   125   244 0.82 -
ID=PSME_00054668     -            468 153434at3193         -            230   4.1e-17   63.8   6.2   2   2   2.8e-09   8.5e-07   30.0   0.3   116   200   348   430   337   443 0.81 -
ID=PSME_00052501     -            316 153434at3193         -            230   2.4e-13   51.5   5.5   1   2   5.4e-08   1.6e-05   25.8   0.1   115   168   168   219   155   234 0.86 -
ID=PSME_00052501     -            316 153434at3193         -            230   2.4e-13   51.5   5.5   2   2   1.7e-08     5e-06   27.5   1.4   115   166   251   300   238   310 0.84 -
ID=PSME_00020804     -            418 153434at3193         -            230   1.5e-09   39.1  11.4   1   2   7.5e-06    0.0023   18.8   1.5   112   152   117   155   105   162 0.87 -
ID=PSME_00020804     -            418 153434at3193         -            230   1.5e-09   39.1  11.4   2   2     9e-08   2.7e-05   25.1   2.8   112   168   361   414   352   416 0.87 -
ID=PSME_00049746     -            322 153434at3193         -            230   4.5e-09   37.5   1.4   1   1   2.1e-11   6.3e-09   37.0   1.4   108   191    93   176    73   197 0.80 -
ID=PSME_00025923     -            426 153434at3193         -            230   6.1e-09   37.0   9.7   1   2   7.5e-06    0.0022   18.8   0.7   113   165   111   160    79   187 0.76 -
ID=PSME_00025923     -            426 153434at3193         -            230   6.1e-09   37.0   9.7   2   2   5.9e-07   0.00018   22.4   2.6   113   169   350   404   324   421 0.72 -
ID=PSME_00022171     -            272 153434at3193         -            230   8.2e-09   36.6   2.8   1   1   3.6e-11   1.1e-08   36.2   2.8    91   166    67   146    44   171 0.75 -
ID=PSME_00056655     -            415 153434at3193         -            230   1.2e-08   36.1   0.3   1   1   6.8e-11     2e-08   35.3   0.3   116   187   135   204   125   243 0.78 -
ID=PSME_00056664     -            325 153434at3193         -            230   1.4e-08   35.9   0.3   1   1   6.7e-11     2e-08   35.3   0.3   108   182    92   166    71   182 0.78 -
ID=PSME_00053220     -            163 153434at3193         -            230   1.9e-08   35.4   0.9   1   1   8.6e-11   2.6e-08   35.0   0.9   114   171    88   144    80   158 0.87 -
ID=PSME_00002061     -            282 153434at3193         -            230   2.2e-08   35.2   0.3   1   1   7.2e-11   2.2e-08   35.2   0.3   113   194   143   219   128   236 0.78 -
ID=PSME_00024755     -            120 153434at3193         -            230   2.3e-08   35.2   0.5   1   1   8.3e-11   2.5e-08   35.1   0.5   106   173    29    92    12   113 0.75 -
ID=PSME_00053219     -            163 153434at3193         -            230   2.6e-08   35.0   0.9   1   1   1.2e-10   3.5e-08   34.5   0.9   113   171    87   144    78   159 0.83 -
ID=PSME_00052932     -            175 153434at3193         -            230   3.2e-08   34.7   0.7   1   1   1.2e-10   3.7e-08   34.5   0.7   114   165    94   144    54   162 0.86 -
ID=PSME_00004575     -            308 153434at3193         -            230   3.7e-08   34.5   1.0   1   2   1.2e-10   3.7e-08   34.5   1.0   114   169    93   144    79   175 0.82 -
ID=PSME_00004575     -            308 153434at3193         -            230   3.7e-08   34.5   1.0   2   2       5.8   1.7e+03   -0.4   0.0   147   175   188   217   183   254 0.74 -
ID=PSME_00056400     -            327 153434at3193         -            230   8.8e-08   33.2   0.1   1   1   5.3e-10   1.6e-07   32.4   0.1   108   167    93   151    52   180 0.77 -
ID=PSME_00049505     -            322 153434at3193         -            230     1e-07   33.1   0.2   1   1   5.9e-10   1.8e-07   32.3   0.2   108   168    93   152    73   187 0.75 -
ID=PSME_00032072     -            368 153434at3193         -            230   1.5e-07   32.5   7.5   1   2   2.4e-06   0.00071   20.5   1.2   135   165     1    30     1    44 0.83 -
ID=PSME_00032072     -            368 153434at3193         -            230   1.5e-07   32.5   7.5   2   2   7.1e-05     0.021   15.6   0.6   134   165   312   342   297   356 0.83 -
ID=PSME_00040631     -            191 153434at3193         -            230   1.5e-07   32.5   0.4   1   1   6.8e-10     2e-07   32.1   0.4   117   175   101   157    87   187 0.78 -
ID=PSME_00044469     -            246 153434at3193         -            230   1.7e-07   32.3   1.1   1   1   8.3e-10   2.5e-07   31.8   1.1   107   165   107   166    93   201 0.82 -
ID=PSME_00021656     -            391 153434at3193         -            230   2.1e-07   32.0   7.7   1   2      0.05        15    6.3   0.3   136   166     3    33     1    55 0.91 -
ID=PSME_00021656     -            391 153434at3193         -            230   2.1e-07   32.0   7.7   2   2   6.2e-09   1.8e-06   28.9   2.3   114   171   187   241   170   250 0.82 -
ID=PSME_00033978     -            251 153434at3193         -            230   2.1e-07   32.0   0.3   1   1   9.4e-10   2.8e-07   31.6   0.3   109   165   149   203   115   221 0.83 -
ID=PSME_00033975     -            245 153434at3193         -            230   2.6e-07   31.7   0.4   1   1   1.2e-09   3.7e-07   31.2   0.4   115   168   139   190   125   208 0.82 -
ID=PSME_00057213     -            324 153434at3193         -            230   3.9e-07   31.1   2.6   1   1     2e-09   6.1e-07   30.5   2.6   109   165   100   155    96   171 0.84 -
ID=PSME_00035419     -            423 153434at3193         -            230   4.3e-07   31.0   0.4   1   1   2.1e-09   6.3e-07   30.5   0.4   116   182   139   203   127   245 0.72 -
ID=PSME_00027347     -             65 153434at3193         -            230   4.3e-07   31.0   2.9   1   1   1.6e-09   4.7e-07   30.9   2.9   117   165     4    49     2    58 0.84 -
ID=PSME_00022170     -            218 153434at3193         -            230     5e-07   30.8   1.9   1   1   2.3e-09     7e-07   30.3   1.9    99   166    78   149    66   174 0.73 -
ID=PSME_00033977     -            220 153434at3193         -            230   6.1e-07   30.5   0.1   1   1   2.5e-09   7.5e-07   30.2   0.1   111   166   115   168    96   209 0.79 -
ID=PSME_00052933     -            184 153434at3193         -            230   6.3e-07   30.5   1.4   1   1   2.1e-09   6.3e-07   30.5   1.4   114   165   105   154    92   164 0.81 -
ID=PSME_00039820     -            412 153434at3193         -            230   7.7e-07   30.2   0.5   1   1   4.2e-09   1.3e-06   29.5   0.5   116   175   134   191   122   214 0.81 -
ID=PSME_00046671     -            257 153434at3193         -            230   7.8e-07   30.1   0.9   1   1   3.9e-09   1.2e-06   29.6   0.9   102   168   157   223   120   238 0.83 -
ID=PSME_00003018     -            252 153434at3193         -            230   9.3e-07   29.9   1.0   1   1   4.6e-09   1.4e-06   29.3   1.0   100   166   132   196   121   203 0.78 -
ID=PSME_00003020     -            382 153434at3193         -            230   1.4e-06   29.3   0.9   1   1     9e-09   2.7e-06   28.4   0.9   116   167   167   216   157   228 0.83 -
ID=PSME_00003022     -            483 153434at3193         -            230   1.4e-06   29.3   0.9   1   1   7.8e-09   2.3e-06   28.6   0.9   115   168   152   203   137   210 0.79 -
ID=PSME_00054622     -            288 153434at3193         -            230   1.7e-06   29.1   6.5   1   2       1.1   3.2e+02    2.0   0.0   116   143    77   103    70   110 0.82 -
ID=PSME_00054622     -            288 153434at3193         -            230   1.7e-06   29.1   6.5   2   2   1.5e-08   4.5e-06   27.7   3.6   116   180   196   258   192   268 0.86 -
ID=PSME_00003016     -            378 153434at3193         -            230   1.7e-06   29.1   1.2   1   1     1e-08   3.1e-06   28.2   1.2   110   165   103   156    91   161 0.77 -
ID=PSME_00043621     -            543 153434at3193         -            230   1.7e-06   29.1   0.9   1   1     1e-08   3.1e-06   28.2   0.9   108   165   475   530   428   537 0.84 -
ID=PSME_00033979     -            186 153434at3193         -            230   1.9e-06   28.9   5.4   1   1     8e-09   2.4e-06   28.6   5.4   109   166   116   171    66   176 0.79 -
ID=PSME_00040632     -            225 153434at3193         -            230     2e-06   28.8   6.8   1   1   1.7e-08   5.1e-06   27.5   6.8   116   184   134   200   116   208 0.83 -
ID=PSME_00033976     -            180 153434at3193         -            230   2.1e-06   28.7   0.5   1   1   9.6e-09   2.9e-06   28.3   0.5   115   165   109   157    99   172 0.86 -
ID=PSME_00053493     -            192 153434at3193         -            230   2.1e-06   28.7   0.6   1   1   9.1e-09   2.7e-06   28.4   0.6   115   173    99   155    80   182 0.84 -
ID=PSME_00008176     -            820 153434at3193         -            230   2.2e-06   28.7   0.5   1   1   1.6e-08   4.7e-06   27.6   0.5   114   179   662   722   649   760 0.76 -
ID=PSME_00003019     -            469 153434at3193         -            230   2.4e-06   28.6   1.7   1   1   1.3e-08   3.9e-06   27.9   1.7   115   165   152   200   136   205 0.79 -
ID=PSME_00053494     -            159 153434at3193         -            230   2.4e-06   28.6   1.6   1   1   9.8e-09     3e-06   28.3   1.6   116   179    67   128    55   146 0.84 -
ID=PSME_00041762     -            498 153434at3193         -            230   3.2e-06   28.1   1.8   1   1   1.9e-08   5.8e-06   27.3   1.8   112   165   428   478   417   489 0.85 -
ID=PSME_00012983     -            191 153434at3193         -            230   3.5e-06   28.0   3.1   1   1   1.6e-08   4.8e-06   27.6   3.1   110   164    93   145    90   174 0.87 -
ID=PSME_00003017     -            463 153434at3193         -            230   3.7e-06   27.9   1.4   1   1   2.1e-08   6.3e-06   27.2   1.4   116   165   154   201   141   206 0.81 -
ID=PSME_00003023     -            389 153434at3193         -            230     4e-06   27.8   1.6   1   1     2e-08   5.9e-06   27.3   1.6   115   168   153   204   137   209 0.76 -
ID=PSME_00052758     -            174 153434at3193         -            230   4.3e-06   27.7   0.8   1   1   1.6e-08   4.9e-06   27.6   0.8   101   165    70   130    44   153 0.81 -
ID=PSME_00051306     -            162 153434at3193         -            230   4.5e-06   27.6   3.4   1   1   1.7e-08   5.2e-06   27.5   3.4   115   161   116   160    74   161 0.84 -
ID=PSME_00031443     -            452 153434at3193         -            230   4.6e-06   27.6   1.0   1   1   2.3e-08     7e-06   27.0   1.0   114   170    56   109    42   134 0.81 -
ID=PSME_00003015     -            488 153434at3193         -            230   5.1e-06   27.5   1.2   1   1   2.8e-08   8.4e-06   26.8   1.2   116   165   152   199   138   205 0.81 -
ID=PSME_00024216     -            331 153434at3193         -            230   8.2e-06   26.8   1.1   1   1   4.6e-08   1.4e-05   26.1   1.1   115   164   123   170   113   180 0.84 -
ID=PSME_00056848     -            194 153434at3193         -            230   9.1e-06   26.7   0.5   1   1   4.7e-08   1.4e-05   26.0   0.5    96   174   106   189    86   192 0.70 -
ID=PSME_00052759     -            156 153434at3193         -            230   9.2e-06   26.6   1.6   1   1   3.5e-08   1.1e-05   26.4   1.6   101   165    52   112    35   135 0.79 -
ID=PSME_00017433     -           1049 153434at3193         -            230   9.7e-06   26.6   1.8   1   1   6.7e-08     2e-05   25.5   1.8   110   169   806   861   792   883 0.83 -
ID=PSME_00042839     -            202 153434at3193         -            230   1.1e-05   26.4   4.4   1   1   8.1e-08   2.4e-05   25.3   4.4   116   184   118   184    47   198 0.77 -
ID=PSME_00041187     -            407 153434at3193         -            230   1.3e-05   26.1   3.0   1   1   6.8e-08     2e-05   25.5   3.0   114   170    30    83    18   106 0.81 -
ID=PSME_00052031     -            210 153434at3193         -            230   1.4e-05   26.1   3.4   1   1   7.5e-08   2.3e-05   25.4   3.4   116   165   137   184   130   192 0.84 -
ID=PSME_00032068     -            365 153434at3193         -            230   1.6e-05   25.8   1.6   1   1   5.4e-08   1.6e-05   25.8   1.6   116   173   164   220   153   228 0.79 -
ID=PSME_00052032     -            186 153434at3193         -            230   1.7e-05   25.8   5.3   1   1   9.8e-08   2.9e-05   25.0   5.3   116   168   131   181   123   185 0.84 -
ID=PSME_00051307     -            213 153434at3193         -            230     2e-05   25.6   6.5   1   1     1e-07     3e-05   25.0   6.5   116   165   115   162   102   170 0.84 -
ID=PSME_00052520     -            328 153434at3193         -            230     2e-05   25.5   2.1   1   1   9.5e-08   2.9e-05   25.0   2.1   112   165   251   301   222   320 0.71 -
ID=PSME_00026521     -            402 153434at3193         -            230   2.4e-05   25.3   0.9   1   1   1.2e-07   3.6e-05   24.7   0.9   110   164   237   288   224   306 0.85 -
ID=PSME_00019240     -            240 153434at3193         -            230   3.3e-05   24.8   3.6   1   1   1.9e-07   5.7e-05   24.1   3.6   114   164   165   212   143   231 0.77 -
ID=PSME_00047310     -            190 153434at3193         -            230   4.1e-05   24.5   0.5   1   1   1.6e-07   4.9e-05   24.3   0.5   114   170    87   141    64   169 0.77 -
ID=PSME_00034279     -            552 153434at3193         -            230   4.2e-05   24.5   4.1   1   1   2.3e-07   6.9e-05   23.8   4.1   115   165   145   193   136   213 0.82 -
ID=PSME_00036643     -            365 153434at3193         -            230   4.4e-05   24.4   1.1   1   1   2.2e-07   6.6e-05   23.8   1.1   115   172   162   217   139   239 0.82 -
ID=PSME_00049451     -            396 153434at3193         -            230   4.7e-05   24.3   3.3   1   1   2.9e-07   8.8e-05   23.4   3.3   112   165    85   138    80   153 0.93 -
ID=PSME_00044961     -            335 153434at3193         -            230   4.8e-05   24.3   4.2   1   1   3.1e-07   9.3e-05   23.4   4.2   110   165    54   109    48   125 0.92 -
ID=PSME_00003941     -            283 153434at3193         -            230   5.5e-05   24.1   1.3   1   1   2.5e-07   7.5e-05   23.7   1.3   114   172   180   236   166   273 0.81 -
ID=PSME_00049504     -            854 153434at3193         -            230   5.6e-05   24.1   0.0   1   1     4e-07   0.00012   23.0   0.0   116   180   157   221   149   261 0.81 -
ID=PSME_00012984     -            247 153434at3193         -            230     6e-05   24.0   3.9   1   1   3.1e-07   9.2e-05   23.4   3.9   115   164   182   229   170   233 0.82 -
ID=PSME_00024701     -            265 153434at3193         -            230   6.2e-05   23.9   2.1   1   1   3.1e-07   9.3e-05   23.4   2.1   116   164   118   164   103   179 0.82 -
ID=PSME_00056209     -            302 153434at3193         -            230   6.4e-05   23.9   5.3   1   1   3.1e-07   9.4e-05   23.3   5.3   109   166    78   134    73   152 0.81 -
ID=PSME_00001721     -            190 153434at3193         -            230   6.8e-05   23.8   7.9   1   1   3.3e-07   9.8e-05   23.3   7.9   111   162   121   170   114   174 0.82 -
ID=PSME_00043352     -            424 153434at3193         -            230   7.1e-05   23.7   4.1   1   1   4.8e-07   0.00014   22.7   4.1   116   182    84   148    16   161 0.80 -
ID=PSME_00040633     -            301 153434at3193         -            230   7.2e-05   23.7   9.2   1   1   5.6e-07   0.00017   22.5   9.2   116   166   134   182   118   204 0.83 -
ID=PSME_00019239     -            139 153434at3193         -            230   7.5e-05   23.7   2.1   1   1   2.9e-07   8.7e-05   23.4   2.1   116   165    66   112    43   131 0.77 -
ID=PSME_00032069     -            142 153434at3193         -            230   7.7e-05   23.6   4.9   1   1   7.5e-07   0.00023   22.1   4.9   116   165    70   116    64   129 0.80 -
ID=PSME_00028404     -            318 153434at3193         -            230   7.8e-05   23.6   1.4   1   1   4.7e-07   0.00014   22.8   1.4   111   164    77   130    27   141 0.93 -
ID=PSME_00006201     -            227 153434at3193         -            230   8.3e-05   23.5   5.0   1   1     4e-07   0.00012   23.0   5.0   109   168   166   225   161   226 0.83 -
ID=PSME_00006200     -            227 153434at3193         -            230   8.5e-05   23.5   5.0   1   1     4e-07   0.00012   23.0   5.0   109   168   166   225   161   226 0.83 -
ID=PSME_00050325     -            398 153434at3193         -            230     9e-05   23.4   2.3   1   1   4.7e-07   0.00014   22.8   2.3   117   166   135   182   121   205 0.82 -
ID=PSME_00006203     -            234 153434at3193         -            230   9.4e-05   23.3   3.9   1   1   4.8e-07   0.00014   22.7   3.9   108   164   164   222   157   227 0.79 -
ID=PSME_00030870     -            310 153434at3193         -            230   9.5e-05   23.3   0.4   1   1   5.1e-07   0.00015   22.7   0.4   116   163   115   160   105   191 0.87 -
ID=PSME_00046899     -            173 153434at3193         -            230   9.5e-05   23.3   2.5   1   1   4.5e-07   0.00014   22.8   2.5   117   162    88   131    77   138 0.81 -
ID=PSME_00053032     -             75 153434at3193         -            230   9.6e-05   23.3   5.2   1   1   3.8e-07   0.00011   23.1   5.2   116   163    23    70    13    72 0.81 -
ID=PSME_00010570     -            294 153434at3193         -            230   9.8e-05   23.3   0.2   1   1   4.6e-07   0.00014   22.8   0.2   117   166   152   199   147   247 0.77 -
ID=PSME_00045282     -            318 153434at3193         -            230    0.0001   23.2   5.9   1   1   5.2e-07   0.00016   22.6   5.9   115   161   161   205   147   210 0.81 -
ID=PSME_00014469     -            409 153434at3193         -            230   0.00012   23.0   0.4   1   2       6.3   1.9e+03   -0.6   0.3   155   178    29    52    10    67 0.73 -
ID=PSME_00014469     -            409 153434at3193         -            230   0.00012   23.0   0.4   2   2     4e-07   0.00012   23.0   0.4   117   171   220   271   209   297 0.80 -
ID=PSME_00046900     -            177 153434at3193         -            230   0.00013   22.9   2.3   1   1   6.4e-07   0.00019   22.3   2.3   117   163    98   142    86   151 0.80 -
ID=PSME_00033208     -            205 153434at3193         -            230   0.00013   22.8   3.1   1   1   4.5e-07   0.00013   22.8   3.1   117   173    16    76     9   129 0.74 -
ID=PSME_00001626     -            187 153434at3193         -            230   0.00014   22.8   3.0   1   1   7.5e-07   0.00023   22.1   3.0   116   163   115   160    92   178 0.85 -
ID=PSME_00057023     -            258 153434at3193         -            230   0.00016   22.6   0.9   1   1   7.5e-07   0.00023   22.1   0.9   112   167   192   249   156   255 0.79 -
ID=PSME_00046898     -            114 153434at3193         -            230   0.00016   22.5   3.4   1   1     7e-07   0.00021   22.2   3.4   117   162    29    72    18    80 0.80 -
ID=PSME_00057118     -            179 153434at3193         -            230   0.00017   22.5   3.2   1   1   8.1e-07   0.00024   22.0   3.2   117   162    95   138    84   147 0.81 -
ID=PSME_00036826     -             94 153434at3193         -            230   0.00021   22.2   0.9   1   1     8e-07   0.00024   22.0   0.9   103   165    21    84    16    92 0.75 -
ID=PSME_00051567     -            388 153434at3193         -            230   0.00023   22.1   1.7   1   1   1.2e-06   0.00036   21.4   1.7   116   164   199   245   183   260 0.79 -
ID=PSME_00031633     -            179 153434at3193         -            230   0.00023   22.0   2.8   1   1   1.1e-06   0.00034   21.5   2.8   117   162   100   143    89   151 0.80 -
ID=PSME_00029662     -            224 153434at3193         -            230   0.00023   22.0   4.1   1   1   7.8e-07   0.00023   22.0   4.1   114   165   170   218   156   221 0.80 -
ID=PSME_00047144     -            831 153434at3193         -            230   0.00027   21.8   3.5   1   1     2e-06   0.00061   20.7   3.5   111   165   113   167   107   180 0.93 -
ID=PSME_00040781     -            186 153434at3193         -            230   0.00031   21.7   4.1   1   1   1.4e-06   0.00043   21.2   4.1   114   164   132   179   117   181 0.83 -
ID=PSME_00032071     -            364 153434at3193         -            230   0.00032   21.6   5.1   1   1   3.9e-06    0.0012   19.8   5.1   117   166   164   210   159   223 0.75 -
ID=PSME_00031336     -            789 153434at3193         -            230   0.00034   21.5   2.6   1   1   2.2e-06   0.00065   20.6   2.6   101   163   677   736   648   739 0.79 -
ID=PSME_00047308     -            190 153434at3193         -            230   0.00034   21.5   1.2   1   1   1.4e-06   0.00043   21.2   1.2   114   172    93   149    78   174 0.78 -
ID=PSME_00032070     -            364 153434at3193         -            230   0.00039   21.3   5.5   1   1     3e-06   0.00091   20.1   5.5   116   166   163   210   155   223 0.78 -
ID=PSME_00054449     -            367 153434at3193         -            230   0.00042   21.2   2.7   1   1   1.4e-06   0.00042   21.2   2.7   133   170   228   264   203   273 0.83 -
ID=PSME_00034762     -            155 153434at3193         -            230   0.00045   21.1   6.5   1   1   2.4e-06   0.00072   20.4   6.5   116   164   101   147    85   153 0.82 -
ID=PSME_00034763     -            295 153434at3193         -            230   0.00049   21.0   5.7   1   1   2.7e-06   0.00082   20.3   5.7   116   165   241   288   224   293 0.81 -
ID=PSME_00051452     -            830 153434at3193         -            230   0.00051   20.9   1.6   1   1   3.1e-06   0.00094   20.1   1.6   116   165   108   157   103   164 0.92 -
ID=PSME_00001126     -            193 153434at3193         -            230   0.00062   20.7   1.6   1   1   3.3e-06   0.00098   20.0   1.6   114   163   136   182   123   186 0.83 -
ID=PSME_00035855     -            718 153434at3193         -            230   0.00074   20.4   0.3   1   1   4.9e-06    0.0015   19.4   0.3   112   171   431   487   414   496 0.77 -
ID=PSME_00054741     -            802 153434at3193         -            230   0.00076   20.4   4.4   1   1   6.5e-06    0.0019   19.0   4.4   112   165   113   166   107   174 0.93 -
ID=PSME_00006964     -            522 153434at3193         -            230    0.0009   20.1   0.2   1   1   4.8e-06    0.0014   19.5   0.2   116   165   322   372   306   414 0.85 -
ID=PSME_00057070     -            125 153434at3193         -            230   0.00096   20.0   3.1   1   1   4.4e-06    0.0013   19.6   3.1   116   166    63   112    47   116 0.84 -
ID=PSME_00036825     -            145 153434at3193         -            230    0.0011   19.8   0.4   1   1   5.2e-06    0.0016   19.3   0.4   133   165   104   135    98   143 0.83 -
ID=PSME_00055985     -            766 153434at3193         -            230    0.0012   19.7   1.2   1   1     1e-05     0.003   18.4   1.2   116   165    92   141    83   157 0.93 -
ID=PSME_00056709     -            351 153434at3193         -            230    0.0012   19.7   5.9   1   1   1.1e-05    0.0032   18.3   5.9   116   164   166   211   155   218 0.80 -
ID=PSME_00014067     -            287 153434at3193         -            230    0.0013   19.6   3.3   1   1   6.5e-06    0.0019   19.0   3.3   117   166    90   138    80   155 0.89 -
ID=PSME_00014893     -           1827 153434at3193         -            230    0.0016   19.3   3.6   1   1   1.1e-05    0.0034   18.3   3.6   115   163  1774  1825  1706  1826 0.71 -
ID=PSME_00001478     -            680 153434at3193         -            230    0.0017   19.3   0.6   1   1   1.3e-05    0.0039   18.0   0.6   118   166   311   353   299   359 0.79 -
ID=PSME_00022640     -            246 153434at3193         -            230    0.0017   19.2   4.9   1   1   8.5e-06    0.0025   18.7   4.9   109   165    33    91    21   102 0.84 -
ID=PSME_00000054     -            352 153434at3193         -            230    0.0018   19.1   2.5   1   1   9.8e-06    0.0029   18.5   2.5   112   162   214   261   206   263 0.76 -
ID=PSME_00021298     -            249 153434at3193         -            230    0.0019   19.0   6.1   1   1   6.5e-06    0.0019   19.0   6.1   105   164   185   241   149   246 0.80 -
ID=PSME_00021962     -            396 153434at3193         -            230     0.002   19.0   1.2   1   1   1.1e-05    0.0034   18.2   1.2   117   165   245   290   234   294 0.76 -
ID=PSME_00027469     -            162 153434at3193         -            230     0.002   19.0   6.1   1   1   9.9e-06     0.003   18.4   6.1   115   163    97   142    88   147 0.82 -
ID=PSME_00056149     -            174 153434at3193         -            230    0.0021   18.9   3.3   1   1     1e-05    0.0031   18.4   3.3   116   166   112   161    97   165 0.84 -
ID=PSME_00033519     -            186 153434at3193         -            230    0.0021   18.9   4.3   1   1   1.1e-05    0.0032   18.3   4.3   116   158   134   174   118   177 0.83 -
ID=PSME_00056314     -            401 153434at3193         -            230    0.0024   18.8   4.4   1   1   1.2e-05    0.0037   18.1   4.4   115   164   111   158    90   175 0.85 -
ID=PSME_00016294     -             64 153434at3193         -            230    0.0024   18.7   0.9   1   1   8.2e-06    0.0025   18.7   0.9   119   168     3    50     1    61 0.82 -
ID=PSME_00002717     -            280 153434at3193         -            230    0.0027   18.6   3.3   1   1   1.5e-05    0.0046   17.8   3.3   114   164   215   262   208   270 0.85 -
ID=PSME_00055670     -            485 153434at3193         -            230    0.0033   18.3   5.2   1   1     2e-05    0.0059   17.4   5.2   112   165   113   166   107   174 0.94 -
ID=PSME_00003461     -            306 153434at3193         -            230    0.0035   18.2   0.5   1   1   1.8e-05    0.0054   17.6   0.5   112   157   173   217   152   227 0.88 -
ID=PSME_00032515     -            735 153434at3193         -            230    0.0039   18.0   2.3   1   1   2.3e-05    0.0069   17.2   2.3   116   165     5    54     2    58 0.93 -
ID=PSME_00052492     -            134 153434at3193         -            230     0.004   18.0   1.6   1   1   1.7e-05    0.0051   17.7   1.6   112   162    82   129    58   133 0.76 -
ID=PSME_00027109     -            288 153434at3193         -            230     0.004   18.0   2.2   1   1   1.8e-05    0.0055   17.5   2.2    96   164   143   210   128   225 0.75 -
ID=PSME_00026989     -            208 153434at3193         -            230    0.0043   17.9   1.7   1   1   1.8e-05    0.0054   17.6   1.7   116   164   153   198   116   206 0.82 -
ID=PSME_00042010     -            200 153434at3193         -            230    0.0056   17.5   8.2   1   1   2.7e-05    0.0081   17.0   8.2   117   165    39    87    25    96 0.90 -
ID=PSME_00033290     -            297 153434at3193         -            230     0.006   17.4   3.0   1   1   2.9e-05    0.0088   16.9   3.0   112   163   168   217   130   222 0.81 -
ID=PSME_00001235     -            226 153434at3193         -            230    0.0064   17.3   6.6   1   1   3.3e-05      0.01   16.7   6.6   112   163   174   222   165   224 0.81 -
ID=PSME_00017931     -            448 153434at3193         -            230    0.0071   17.2   3.9   1   1   3.5e-05      0.01   16.7   3.9   136   163   156   180   141   197 0.86 -
ID=PSME_00041932     -            308 153434at3193         -            230    0.0073   17.2   1.2   1   1   3.9e-05     0.012   16.5   1.2   119   168   256   304   238   306 0.83 -
ID=PSME_00014343     -            203 153434at3193         -            230    0.0078   17.1   0.1   1   1   4.1e-05     0.012   16.4   0.1   108   149    99   139    89   148 0.81 -
ID=PSME_00056304     -            333 153434at3193         -            230    0.0084   16.9   7.2   1   1   6.4e-05     0.019   15.8   7.2   115   164   121   167   110   171 0.78 -
ID=PSME_00014065     -            305 153434at3193         -            230    0.0088   16.9   9.8   1   1   2.9e-05    0.0088   16.9   9.8   116   179   185   245   183   262 0.83 -
ID=PSME_00030521     -            835 153434at3193         -            230    0.0094   16.8   0.4   1   1     5e-05     0.015   16.1   0.4   105   161   776   829   749   833 0.78 -
ID=PSME_00014055     -            373 153434at3193         -            230    0.0094   16.8   3.0   1   1   4.5e-05     0.014   16.3   3.0   112   163   242   291   205   296 0.82 -
ID=PSME_00056956     -            363 153434at3193         -            230     0.013   16.3   7.6   1   2         8   2.4e+03   -0.9   0.1   136   165     7    36     4    43 0.85 -
ID=PSME_00056956     -            363 153434at3193         -            230     0.013   16.3   7.6   2   2   4.3e-05     0.013   16.3   7.6   115   162   178   222   168   226 0.79 -
ID=PSME_00021586     -            365 153434at3193         -            230     0.015   16.1  11.1   1   1   5.1e-05     0.015   16.1  11.1   107   165   169   226   160   238 0.87 -
ID=PSME_00046691     -            405 153434at3193         -            230     0.016   16.0   1.7   1   1    0.0001     0.031   15.1   1.7   112   164    52   104    45   120 0.92 -
ID=PSME_00052402     -             64 153434at3193         -            230     0.016   16.0   0.2   1   1     6e-05     0.018   15.9   0.2   141   163     2    23     1    34 0.88 -
ID=PSME_00046959     -            554 153434at3193         -            230     0.017   15.9   7.4   1   1   6.8e-05      0.02   15.7   5.9   112   165   113   166   107   175 0.93 -
ID=PSME_00040174     -            249 153434at3193         -            230     0.022   15.6   1.7   1   1   9.9e-05      0.03   15.2   1.7   126   163   142   178    91   183 0.73 -
ID=PSME_00001236     -            210 153434at3193         -            230     0.023   15.5   9.0   1   1   7.6e-05     0.023   15.5   9.0   113   164   159   207   148   209 0.81 -
ID=PSME_00056466     -            393 153434at3193         -            230     0.024   15.5   4.8   1   1   0.00013     0.038   14.8   4.8   115   165   114   162    96   175 0.78 -
ID=PSME_00057075     -            213 153434at3193         -            230     0.027   15.3   1.7   1   1   0.00012     0.037   14.8   1.7   104   166     9    73     4    79 0.71 -
ID=PSME_00026187     -            240 153434at3193         -            230      0.03   15.2   0.9   1   1   0.00017     0.052   14.4   0.9   104   166     9    73     4    79 0.75 -
ID=PSME_00035064     -            231 153434at3193         -            230     0.035   14.9   2.9   1   2       9.5   2.8e+03   -1.1   0.4   180   209    81   110    54   130 0.62 -
ID=PSME_00035064     -            231 153434at3193         -            230     0.035   14.9   2.9   2   2   0.00012     0.035   14.9   2.9   134   172   190   228   175   230 0.90 -
ID=PSME_00018223     -            406 153434at3193         -            230     0.037   14.9   0.0   1   1   0.00027      0.08   13.8   0.0     6    77    42   112    36   125 0.77 -
ID=PSME_00011688     -             75 153434at3193         -            230     0.042   14.7   0.8   1   1   0.00017      0.05   14.4   0.8   135   165    11    42     4    48 0.81 -
ID=PSME_00051448     -            271 153434at3193         -            230     0.054   14.3  11.5   1   1   0.00018     0.054   14.3  11.5   115   166   219   267   211   269 0.84 -
ID=PSME_00008630     -            139 153434at3193         -            230     0.055   14.3   0.4   1   1   0.00024     0.071   13.9   0.4   115   165    41    95    30   103 0.80 -
ID=PSME_00055088     -            900 153434at3193         -            230     0.089   13.6   3.4   1   1   0.00054      0.16   12.7   3.4   118   165   382   429   366   435 0.82 -
ID=PSME_00012865     -            424 153434at3193         -            230      0.12   13.1   1.3   1   1   0.00075      0.23   12.3   1.3   136   190    13    72     9   102 0.73 -
ID=PSME_00045773     -            367 153434at3193         -            230      0.14   12.9   0.0   1   1   0.00076      0.23   12.3   0.0     2   107     3   113     2   117 0.83 -
ID=PSME_00018926     -            289 153434at3193         -            230      0.23   12.2   3.6   1   1    0.0014       0.4   11.4   3.6   132   163   252   282   229   287 0.74 -
ID=PSME_00049313     -            170 153434at3193         -            230      0.24   12.2   3.7   1   1    0.0013      0.38   11.5   3.7   135   163     8    38     6    49 0.78 -
ID=PSME_00037413     -            292 153434at3193         -            230      0.26   12.1   4.9   1   1    0.0013       0.4   11.5   4.9   116   161   241   283   226   286 0.81 -
ID=PSME_00047707     -            187 153434at3193         -            230      0.28   12.0   8.5   1   1    0.0013      0.38   11.5   8.5   116   164   121   168   102   185 0.79 -
ID=PSME_00017989     -            244 153434at3193         -            230       0.3   11.9   6.1   1   1    0.0014      0.42   11.4   6.1   114   164   117   164    96   170 0.78 -
ID=PSME_00026636     -            816 153434at3193         -            230       0.3   11.9   0.1   1   1    0.0019      0.57   11.0   0.1   119   185   380   448   372   465 0.73 -
ID=PSME_00047688     -            656 153434at3193         -            230      0.32   11.8   2.0   1   1    0.0019      0.58   10.9   2.0   116   162   609   652   583   655 0.73 -
ID=PSME_00051131     -            293 153434at3193         -            230      0.39   11.5   4.6   1   1    0.0024      0.71   10.7   4.6   115   165     3    53     1    63 0.93 -
ID=PSME_00018924     -            278 153434at3193         -            230      0.52   11.1   4.8   1   1    0.0028      0.84   10.4   4.8   132   164   237   268   216   276 0.74 -
ID=PSME_00011441     -            292 153434at3193         -            230      0.58   10.9   5.1   1   1    0.0032      0.95   10.2   5.1   117   172   236   285   230   287 0.80 -
ID=PSME_00037809     -            287 153434at3193         -            230       0.7   10.7   2.0   1   1    0.0035       1.1   10.1   2.0   116   161   232   274   220   284 0.77 -
ID=PSME_00007367     -            174 153434at3193         -            230       1.2   10.0   2.6   1   1    0.0069       2.1    9.1   2.6   114   164   119   163   105   168 0.84 -
ID=PSME_00030181     -            405 153434at3193         -            230       1.3    9.8   4.0   1   1    0.0079       2.4    8.9   4.0   134   166   366   398   345   403 0.76 -
ID=PSME_00024426     -            202 153434at3193         -            230       1.4    9.7   8.5   1   1    0.0075       2.3    9.0   8.5   107   164   103   161    68   164 0.72 -
ID=PSME_00022642     -            169 153434at3193         -            230       2.3    9.0   3.7   1   1      0.01       3.1    8.5   3.7   135   165    10    42     3    53 0.89 -
ID=PSME_00038363     -            318 153434at3193         -            230       4.4    8.1   5.7   1   1    0.0056       1.7    9.4   3.1   116   169   246   297   237   309 0.79 -
ID=PSME_00011603     -            900 153434at3193         -            230       8.3    7.2  11.1   1   1     0.001      0.31   11.8   4.0   135   172   860   897   845   899 0.90 -
ID=PSME_00048902     -            121 153434at3193         -            230       9.4    7.0  12.4   1   2       1.2   3.6e+02    1.8   1.8   150   170    46    66    33    82 0.77 -
ID=PSME_00048902     -            121 153434at3193         -            230       9.4    7.0  12.4   2   2    0.0025      0.74   10.6   3.6   136   159    85   107    74   113 0.87 -
#
# Program:         hmmsearch
# Version:         3.2.1 (June 2018)
# Pipeline mode:   SEARCH
# Query file:      /isg/shared/databases/BUSCO/odb10/embryophyta_odb10/hmms/153434at3193.hmm
# Target file:     /labs/Wegrzyn/ConiferGenomes/Psme/analysis/SURF_annotation/analyze_orig_maker/gfacs/filtered/maker_genes.fasta.faa
# Option settings: /usr/local/bin/hmmsearch --domtblout /labs/Wegrzyn/ConiferGenomes/Psme/analysis/SURF_annotation/analyze_orig_maker/busco/maker/run_embryophyta_odb10/hmmer_output/153434at3193.out --cpu 1 /isg/shared/databases/BUSCO/odb10/embryophyta_odb10/hmms/153434at3193.hmm /labs/Wegrzyn/ConiferGenomes/Psme/analysis/SURF_annotation/analyze_orig_maker/gfacs/filtered/maker_genes.fasta.faa 
# Current dir:     /labs/Wegrzyn/ConiferGenomes/Psme/analysis/SURF_annotation/analyze_orig_maker/busco
# Date:            Fri Jul 10 13:44:41 2020
# [ok]
