#                                                                            --- full sequence --- -------------- this domain -------------   hmm coord   ali coord   env coord
# target name        accession   tlen query name           accession   qlen   E-value  score  bias   #  of  c-Evalue  i-Evalue  score  bias  from    to  from    to  from    to  acc description of target
#------------------- ---------- ----- -------------------- ---------- ----- --------- ------ ----- --- --- --------- --------- ------ ----- ----- ----- ----- ----- ----- ----- ---- ---------------------
ID=PSME_00009722     -            367 155066at3193         -            218  4.4e-114  381.1  15.5   1   4      0.47   2.4e+03   -0.5   0.6   154   184     7    37     4    42 0.85 -
ID=PSME_00009722     -            367 155066at3193         -            218  4.4e-114  381.1  15.5   2   4  8.8e-118  4.4e-114  381.1  15.5     2   197    48   244    47   257 0.97 -
ID=PSME_00009722     -            367 155066at3193         -            218  4.4e-114  381.1  15.5   3   4    0.0015       7.5    7.6   0.1   193   210   260   277   251   282 0.84 -
ID=PSME_00009722     -            367 155066at3193         -            218  4.4e-114  381.1  15.5   4   4      0.52   2.6e+03   -0.7   0.1   204   218   299   313   291   313 0.79 -
ID=PSME_00021616     -           1116 155066at3193         -            218   2.1e-10   42.2   0.1   1   1   4.1e-14   2.1e-10   42.2   0.1    25    77  1031  1084  1021  1094 0.90 -
ID=PSME_00026293     -            866 155066at3193         -            218   2.9e-10   41.7   0.8   1   2   5.8e-14   2.9e-10   41.7   0.8    33    74   191   232   184   239 0.92 -
ID=PSME_00026293     -            866 155066at3193         -            218   2.9e-10   41.7   0.8   2   2       0.6     3e+03   -0.9   3.4   144   196   327   384   260   393 0.62 -
ID=PSME_00007967     -            154 155066at3193         -            218   1.9e-09   39.0   7.1   1   1   8.8e-13   4.4e-09   37.8   7.1    30   125    46   137    37   149 0.78 -
ID=PSME_00046964     -            242 155066at3193         -            218   5.9e-09   37.4   0.1   1   1   1.6e-12   8.2e-09   36.9   0.1    24    78    70   126    63   143 0.81 -
ID=PSME_00005551     -            278 155066at3193         -            218   2.6e-07   32.0   0.2   1   1   9.2e-11   4.6e-07   31.2   0.2    32    76   124   170    99   176 0.85 -
ID=PSME_00016192     -            420 155066at3193         -            218   4.5e-06   28.0   0.1   1   2       3.7   1.8e+04   -3.4   4.5   156   185   135   164   117   183 0.53 -
ID=PSME_00016192     -            420 155066at3193         -            218   4.5e-06   28.0   0.1   2   2   9.1e-10   4.5e-06   28.0   0.1    37    72   250   286   245   294 0.91 -
ID=PSME_00040322     -             68 155066at3193         -            218   0.00058   21.1   0.0   1   1   1.2e-07   0.00058   21.1   0.0    46    78     5    37     1    61 0.88 -
ID=PSME_00049785     -            643 155066at3193         -            218      0.14   13.3   0.1   1   2    0.0012       5.9    8.0   0.1   125   176   184   234   157   251 0.85 -
ID=PSME_00049785     -            643 155066at3193         -            218      0.14   13.3   0.1   2   2     0.041     2e+02    2.9   0.0   125   172   388   434   342   448 0.80 -
ID=PSME_00018130     -            429 155066at3193         -            218      0.45   11.6   2.8   1   2      0.51   2.5e+03   -0.6   0.3   125   157    12    44     4    69 0.81 -
ID=PSME_00018130     -            429 155066at3193         -            218      0.45   11.6   2.8   2   2    0.0001      0.52   11.4   0.4   108   154    63   105    39   115 0.73 -
ID=PSME_00044720     -            409 155066at3193         -            218      0.69   11.0   1.9   1   2       2.2   1.1e+04   -2.7   0.1   127   145    91   109    88   114 0.76 -
ID=PSME_00044720     -            409 155066at3193         -            218      0.69   11.0   1.9   2   2   0.00013      0.66   11.1   0.3   122   148   163   189   154   196 0.88 -
#
# Program:         hmmsearch
# Version:         3.2.1 (June 2018)
# Pipeline mode:   SEARCH
# Query file:      /isg/shared/databases/BUSCO/odb10/embryophyta_odb10/hmms/155066at3193.hmm
# Target file:     /labs/Wegrzyn/ConiferGenomes/Psme/analysis/SURF_annotation/analyze_orig_maker/gfacs/filtered/maker_genes.fasta.faa
# Option settings: /usr/local/bin/hmmsearch --domtblout /labs/Wegrzyn/ConiferGenomes/Psme/analysis/SURF_annotation/analyze_orig_maker/busco/maker/run_embryophyta_odb10/hmmer_output/155066at3193.out --cpu 1 /isg/shared/databases/BUSCO/odb10/embryophyta_odb10/hmms/155066at3193.hmm /labs/Wegrzyn/ConiferGenomes/Psme/analysis/SURF_annotation/analyze_orig_maker/gfacs/filtered/maker_genes.fasta.faa 
# Current dir:     /labs/Wegrzyn/ConiferGenomes/Psme/analysis/SURF_annotation/analyze_orig_maker/busco
# Date:            Fri Jul 10 13:44:32 2020
# [ok]
