#                                                                            --- full sequence --- -------------- this domain -------------   hmm coord   ali coord   env coord
# target name        accession   tlen query name           accession   qlen   E-value  score  bias   #  of  c-Evalue  i-Evalue  score  bias  from    to  from    to  from    to  acc description of target
#------------------- ---------- ----- -------------------- ---------- ----- --------- ------ ----- --- --- --------- --------- ------ ----- ----- ----- ----- ----- ----- ----- ---- ---------------------
ID=PSME_00023580     -            230 157002at3193         -            197   3.1e-91  305.7   6.2   1   4   1.1e-46   6.5e-43  148.0   0.1    38   122     8    90     2    92 0.96 -
ID=PSME_00023580     -            230 157002at3193         -            197   3.1e-91  305.7   6.2   2   4   1.7e-13     1e-09   39.7   0.1   142   178    90   126    89   127 0.94 -
ID=PSME_00023580     -            230 157002at3193         -            197   3.1e-91  305.7   6.2   3   4     4e-27   2.5e-23   84.1   0.0    37    91   123   175   123   177 0.96 -
ID=PSME_00023580     -            230 157002at3193         -            197   3.1e-91  305.7   6.2   4   4   2.2e-13   1.4e-09   39.3   0.1   143   176   177   210   175   213 0.96 -
ID=PSME_00024118     -            300 157002at3193         -            197   4.4e-91  305.2   1.8   1   2   4.6e-71   2.8e-67  227.5   0.3     8   122   129   244   123   245 0.96 -
ID=PSME_00024118     -            300 157002at3193         -            197   4.4e-91  305.2   1.8   2   2   3.2e-25   1.9e-21   77.9   0.1   142   197   244   299   243   299 0.98 -
ID=PSME_00044055     -            130 157002at3193         -            197   2.5e-41  142.8   0.2   1   1   5.1e-45   3.1e-41  142.5   0.2     9    96     5    91     2   103 0.94 -
ID=PSME_00018901     -            112 157002at3193         -            197   1.6e-32  114.1   3.4   1   2   4.3e-17   2.6e-13   51.4   2.4     9    55     7    52     2    53 0.90 -
ID=PSME_00018901     -            112 157002at3193         -            197   1.6e-32  114.1   3.4   2   2     9e-21   5.5e-17   63.4   0.0   140   189    52   101    50   109 0.92 -
ID=PSME_00017014     -            361 157002at3193         -            197   1.3e-20   75.2   0.0   1   1   3.5e-24   2.1e-20   74.5   0.0   142   197   305   360   295   360 0.97 -
ID=PSME_00041691     -             67 157002at3193         -            197   8.4e-20   72.6   0.0   1   1   1.5e-23   9.3e-20   72.5   0.0   142   197    11    66     5    66 0.97 -
ID=PSME_00018899     -            152 157002at3193         -            197   5.3e-13   50.4   6.2   1   2   1.1e-13   6.8e-10   40.3   1.6     9    56    16    62     9    65 0.89 -
ID=PSME_00018899     -            152 157002at3193         -            197   5.3e-13   50.4   6.2   2   2   1.1e-05     0.068   14.1   0.6   140   159    61    80    59    85 0.91 -
ID=PSME_00049363     -            223 157002at3193         -            197   3.7e-06   28.1   0.1   1   1   9.2e-10   5.6e-06   27.5   0.1    15    66   130   184   126   189 0.86 -
ID=PSME_00034246     -            389 157002at3193         -            197     0.011   16.7   0.0   1   1   2.8e-06     0.017   16.1   0.0    17    95    88   168    74   189 0.84 -
#
# Program:         hmmsearch
# Version:         3.2.1 (June 2018)
# Pipeline mode:   SEARCH
# Query file:      /isg/shared/databases/BUSCO/odb10/embryophyta_odb10/hmms/157002at3193.hmm
# Target file:     /labs/Wegrzyn/ConiferGenomes/Psme/analysis/SURF_annotation/analyze_orig_maker/gfacs/filtered/maker_genes.fasta.faa
# Option settings: /usr/local/bin/hmmsearch --domtblout /labs/Wegrzyn/ConiferGenomes/Psme/analysis/SURF_annotation/analyze_orig_maker/busco/maker/run_embryophyta_odb10/hmmer_output/157002at3193.out --cpu 1 /isg/shared/databases/BUSCO/odb10/embryophyta_odb10/hmms/157002at3193.hmm /labs/Wegrzyn/ConiferGenomes/Psme/analysis/SURF_annotation/analyze_orig_maker/gfacs/filtered/maker_genes.fasta.faa 
# Current dir:     /labs/Wegrzyn/ConiferGenomes/Psme/analysis/SURF_annotation/analyze_orig_maker/busco
# Date:            Fri Jul 10 13:44:33 2020
# [ok]
