#                                                                            --- full sequence --- -------------- this domain -------------   hmm coord   ali coord   env coord
# target name        accession   tlen query name           accession   qlen   E-value  score  bias   #  of  c-Evalue  i-Evalue  score  bias  from    to  from    to  from    to  acc description of target
#------------------- ---------- ----- -------------------- ---------- ----- --------- ------ ----- --- --- --------- --------- ------ ----- ----- ----- ----- ----- ----- ----- ---- ---------------------
ID=PSME_00039409     -            906 159297at3193         -            214   2.5e-05   25.6   0.0   1   2    0.0002       1.4   10.1   0.0   109   155    81   127    78   149 0.89 -
ID=PSME_00039409     -            906 159297at3193         -            214   2.5e-05   25.6   0.0   2   2   2.9e-05       0.2   12.9   0.0   109   171   182   244   178   257 0.85 -
ID=PSME_00002600     -            626 159297at3193         -            214     0.041   15.1   0.0   1   1   1.2e-05     0.082   14.1   0.0   106   179    80   153    25   161 0.90 -
ID=PSME_00011804     -            615 159297at3193         -            214     0.067   14.4   0.0   1   1   2.5e-05      0.17   13.1   0.0   106   156    60   110    50   124 0.79 -
ID=PSME_00039410     -            647 159297at3193         -            214      0.11   13.6   0.0   1   1     3e-05       0.2   12.8   0.0   110   157    73   120    69   147 0.86 -
ID=PSME_00052796     -            914 159297at3193         -            214      0.18   13.0   0.1   1   3   0.00038       2.6    9.2   0.0   106   154   162   210   156   219 0.90 -
ID=PSME_00052796     -            914 159297at3193         -            214      0.18   13.0   0.1   2   3      0.52   3.5e+03   -1.0   0.0   109   151   468   510   460   541 0.85 -
ID=PSME_00052796     -            914 159297at3193         -            214      0.18   13.0   0.1   3   3      0.53   3.6e+03   -1.1   0.1    39    68   816   844   798   889 0.62 -
ID=PSME_00003568     -            802 159297at3193         -            214      0.33   12.1   0.3   1   3   0.00029         2    9.6   0.0    98   154    53   110    49   120 0.84 -
ID=PSME_00003568     -            802 159297at3193         -            214      0.33   12.1   0.3   2   3      0.59   4.1e+03   -1.2   0.0   109   156   365   412   361   416 0.83 -
ID=PSME_00003568     -            802 159297at3193         -            214      0.33   12.1   0.3   3   3       2.3   1.6e+04   -3.2   0.0   121   155   579   613   566   639 0.73 -
ID=PSME_00017106     -            703 159297at3193         -            214      0.42   11.8   0.0   1   4    0.0013       9.1    7.4   0.0   112   155    69   112    63   118 0.85 -
ID=PSME_00017106     -            703 159297at3193         -            214      0.42   11.8   0.0   2   4       2.1   1.5e+04   -3.0   0.0   106   154   164   212   153   243 0.74 -
ID=PSME_00017106     -            703 159297at3193         -            214      0.42   11.8   0.0   3   4      0.17   1.2e+03    0.5   0.0   102   155   293   345   285   351 0.87 -
ID=PSME_00017106     -            703 159297at3193         -            214      0.42   11.8   0.0   4   4       2.6   1.8e+04   -3.3   0.0   111   154   433   476   430   478 0.78 -
ID=PSME_00056966     -            888 159297at3193         -            214      0.45   11.7   0.0   1   1   0.00018       1.3   10.2   0.0   109   151    33    75    20    84 0.85 -
#
# Program:         hmmsearch
# Version:         3.2.1 (June 2018)
# Pipeline mode:   SEARCH
# Query file:      /isg/shared/databases/BUSCO/odb10/embryophyta_odb10/hmms/159297at3193.hmm
# Target file:     /labs/Wegrzyn/ConiferGenomes/Psme/analysis/SURF_annotation/analyze_orig_maker/gfacs/filtered/maker_genes.fasta.faa
# Option settings: /usr/local/bin/hmmsearch --domtblout /labs/Wegrzyn/ConiferGenomes/Psme/analysis/SURF_annotation/analyze_orig_maker/busco/maker/run_embryophyta_odb10/hmmer_output/159297at3193.out --cpu 1 /isg/shared/databases/BUSCO/odb10/embryophyta_odb10/hmms/159297at3193.hmm /labs/Wegrzyn/ConiferGenomes/Psme/analysis/SURF_annotation/analyze_orig_maker/gfacs/filtered/maker_genes.fasta.faa 
# Current dir:     /labs/Wegrzyn/ConiferGenomes/Psme/analysis/SURF_annotation/analyze_orig_maker/busco
# Date:            Fri Jul 10 13:44:36 2020
# [ok]
