#                                                                            --- full sequence --- -------------- this domain -------------   hmm coord   ali coord   env coord
# target name        accession   tlen query name           accession   qlen   E-value  score  bias   #  of  c-Evalue  i-Evalue  score  bias  from    to  from    to  from    to  acc description of target
#------------------- ---------- ----- -------------------- ---------- ----- --------- ------ ----- --- --- --------- --------- ------ ----- ----- ----- ----- ----- ----- ----- ---- ---------------------
ID=PSME_00004078     -             98 160405at3193         -            171   3.1e-20   73.9   0.0   1   1   3.2e-24   3.5e-20   73.8   0.0    16    71     5    64     3    86 0.91 -
ID=PSME_00012739     -            253 160405at3193         -            171     0.054   14.6   0.1   1   2   2.2e-05      0.24   12.4   0.1    87   157    91   172    78   181 0.75 -
ID=PSME_00012739     -            253 160405at3193         -            171     0.054   14.6   0.1   2   2      0.72   7.9e+03   -2.2   0.0    17    49   177   210   175   221 0.74 -
ID=PSME_00012557     -            291 160405at3193         -            171      0.17   13.0   0.0   1   1   2.7e-05      0.29   12.2   0.0    13    67   124   176   118   185 0.80 -
ID=PSME_00007005     -            296 160405at3193         -            171       0.3   12.1   0.0   1   2    0.0022        24    6.0   0.0    76   106    86   116    68   130 0.83 -
ID=PSME_00007005     -            296 160405at3193         -            171       0.3   12.1   0.0   2   2    0.0088        97    4.0   0.0    19    56   160   198   146   224 0.76 -
ID=PSME_00028651     -            123 160405at3193         -            171      0.35   11.9   0.1   1   2    0.0025        28    5.8   0.0   115   155    21    61     8    72 0.81 -
ID=PSME_00028651     -            123 160405at3193         -            171      0.35   11.9   0.1   2   2    0.0065        71    4.4   0.0    20    48    82   110    76   116 0.89 -
#
# Program:         hmmsearch
# Version:         3.2.1 (June 2018)
# Pipeline mode:   SEARCH
# Query file:      /isg/shared/databases/BUSCO/odb10/embryophyta_odb10/hmms/160405at3193.hmm
# Target file:     /labs/Wegrzyn/ConiferGenomes/Psme/analysis/SURF_annotation/analyze_orig_maker/gfacs/filtered/maker_genes.fasta.faa
# Option settings: /usr/local/bin/hmmsearch --domtblout /labs/Wegrzyn/ConiferGenomes/Psme/analysis/SURF_annotation/analyze_orig_maker/busco/maker/run_embryophyta_odb10/hmmer_output/160405at3193.out --cpu 1 /isg/shared/databases/BUSCO/odb10/embryophyta_odb10/hmms/160405at3193.hmm /labs/Wegrzyn/ConiferGenomes/Psme/analysis/SURF_annotation/analyze_orig_maker/gfacs/filtered/maker_genes.fasta.faa 
# Current dir:     /labs/Wegrzyn/ConiferGenomes/Psme/analysis/SURF_annotation/analyze_orig_maker/busco
# Date:            Fri Jul 10 13:44:37 2020
# [ok]
