#                                                                            --- full sequence --- -------------- this domain -------------   hmm coord   ali coord   env coord
# target name        accession   tlen query name           accession   qlen   E-value  score  bias   #  of  c-Evalue  i-Evalue  score  bias  from    to  from    to  from    to  acc description of target
#------------------- ---------- ----- -------------------- ---------- ----- --------- ------ ----- --- --- --------- --------- ------ ----- ----- ----- ----- ----- ----- ----- ---- ---------------------
ID=PSME_00015840     -            552 160775at3193         -            379  5.7e-137  459.0 152.0   1   3  4.9e-110  2.2e-106  358.3  36.3     1   213    15   237    15   239 0.83 -
ID=PSME_00015840     -            552 160775at3193         -            379  5.7e-137  459.0 152.0   2   3      0.15   6.9e+02    1.2  49.0   178   276   229   323   224   328 0.61 -
ID=PSME_00015840     -            552 160775at3193         -            379  5.7e-137  459.0 152.0   3   3   2.8e-31   1.3e-27   99.1  25.4   270   379   418   548   418   548 0.72 -
ID=PSME_00023684     -            253 160775at3193         -            379   8.9e-15   56.8  47.0   1   2   0.00018      0.82   10.9  27.9   240   304    70   137    33   137 0.71 -
ID=PSME_00023684     -            253 160775at3193         -            379   8.9e-15   56.8  47.0   2   2   8.1e-15   3.7e-11   44.9  18.3   283   356   130   225   122   233 0.63 -
ID=PSME_00054728     -            106 160775at3193         -            379   1.2e-06   30.1   1.8   1   1   2.9e-10   1.3e-06   29.9   1.8   293   354    35    94     3   100 0.63 -
ID=PSME_00013506     -            447 160775at3193         -            379     0.002   19.5  21.3   1   1   6.4e-07    0.0029   18.9  21.3   177   265   122   204    27   221 0.68 -
ID=PSME_00029291     -            482 160775at3193         -            379      0.44   11.8   5.7   1   1   0.00018      0.83   10.9   5.7   265   311    11    57     5    69 0.92 -
ID=PSME_00013310     -            334 160775at3193         -            379      0.88   10.8   0.3   1   1   0.00028       1.3   10.2   0.3    14    52   109   147   104   168 0.87 -
ID=PSME_00045241     -            376 160775at3193         -            379      0.98   10.6  15.5   1   1   0.00033       1.5   10.0  15.5   149   253   112   214    98   228 0.50 -
ID=PSME_00031796     -            607 160775at3193         -            379       1.4   10.1   6.1   1   1   0.00055       2.5    9.3   6.1   188   309   418   545   385   554 0.64 -
ID=PSME_00055915     -            549 160775at3193         -            379       1.6    9.9  15.0   1   1   0.00059       2.7    9.2  15.0   143   243   273   376   265   396 0.66 -
ID=PSME_00019815     -            396 160775at3193         -            379       2.7    9.2  10.0   1   1   0.00079       3.6    8.8  10.0   153   227   278   349   266   374 0.74 -
ID=PSME_00051794     -            274 160775at3193         -            379       4.3    8.5  17.6   1   1    0.0012       5.7    8.1  17.6   149   247   153   249   139   258 0.47 -
ID=PSME_00037136     -            549 160775at3193         -            379       7.4    7.7  15.6   1   1    0.0027        12    7.0  15.6   139   244   272   377   264   397 0.65 -
#
# Program:         hmmsearch
# Version:         3.2.1 (June 2018)
# Pipeline mode:   SEARCH
# Query file:      /isg/shared/databases/BUSCO/odb10/embryophyta_odb10/hmms/160775at3193.hmm
# Target file:     /labs/Wegrzyn/ConiferGenomes/Psme/analysis/SURF_annotation/analyze_orig_maker/gfacs/filtered/maker_genes.fasta.faa
# Option settings: /usr/local/bin/hmmsearch --domtblout /labs/Wegrzyn/ConiferGenomes/Psme/analysis/SURF_annotation/analyze_orig_maker/busco/maker/run_embryophyta_odb10/hmmer_output/160775at3193.out --cpu 1 /isg/shared/databases/BUSCO/odb10/embryophyta_odb10/hmms/160775at3193.hmm /labs/Wegrzyn/ConiferGenomes/Psme/analysis/SURF_annotation/analyze_orig_maker/gfacs/filtered/maker_genes.fasta.faa 
# Current dir:     /labs/Wegrzyn/ConiferGenomes/Psme/analysis/SURF_annotation/analyze_orig_maker/busco
# Date:            Fri Jul 10 13:44:41 2020
# [ok]
