#                                                                            --- full sequence --- -------------- this domain -------------   hmm coord   ali coord   env coord
# target name        accession   tlen query name           accession   qlen   E-value  score  bias   #  of  c-Evalue  i-Evalue  score  bias  from    to  from    to  from    to  acc description of target
#------------------- ---------- ----- -------------------- ---------- ----- --------- ------ ----- --- --- --------- --------- ------ ----- ----- ----- ----- ----- ----- ----- ---- ---------------------
ID=PSME_00002423     -            292 162919at3193         -            205   2.5e-36  126.5   5.4   1   1   1.8e-40   3.2e-36  126.1   5.4    13   203   101   289    92   291 0.95 -
ID=PSME_00043402     -            305 162919at3193         -            205     0.069   14.0   0.1   1   2   7.1e-05       1.3    9.8   0.1   115   156    61   102    44   110 0.89 -
ID=PSME_00043402     -            305 162919at3193         -            205     0.069   14.0   0.1   2   2     0.019   3.5e+02    1.9   0.0   108   154   153   199   131   207 0.83 -
ID=PSME_00031710     -            124 162919at3193         -            205      0.48   11.2   0.0   1   1     3e-05      0.56   11.0   0.0    63   112    49    96    36   116 0.89 -
#
# Program:         hmmsearch
# Version:         3.2.1 (June 2018)
# Pipeline mode:   SEARCH
# Query file:      /isg/shared/databases/BUSCO/odb10/embryophyta_odb10/hmms/162919at3193.hmm
# Target file:     /labs/Wegrzyn/ConiferGenomes/Psme/analysis/SURF_annotation/analyze_orig_maker/gfacs/filtered/maker_genes.fasta.faa
# Option settings: /usr/local/bin/hmmsearch --domtblout /labs/Wegrzyn/ConiferGenomes/Psme/analysis/SURF_annotation/analyze_orig_maker/busco/maker/run_embryophyta_odb10/hmmer_output/162919at3193.out --cpu 1 /isg/shared/databases/BUSCO/odb10/embryophyta_odb10/hmms/162919at3193.hmm /labs/Wegrzyn/ConiferGenomes/Psme/analysis/SURF_annotation/analyze_orig_maker/gfacs/filtered/maker_genes.fasta.faa 
# Current dir:     /labs/Wegrzyn/ConiferGenomes/Psme/analysis/SURF_annotation/analyze_orig_maker/busco
# Date:            Fri Jul 10 13:44:38 2020
# [ok]
