#                                                                            --- full sequence --- -------------- this domain -------------   hmm coord   ali coord   env coord
# target name        accession   tlen query name           accession   qlen   E-value  score  bias   #  of  c-Evalue  i-Evalue  score  bias  from    to  from    to  from    to  acc description of target
#------------------- ---------- ----- -------------------- ---------- ----- --------- ------ ----- --- --- --------- --------- ------ ----- ----- ----- ----- ----- ----- ----- ---- ---------------------
ID=PSME_00012844     -            370 164366at3193         -            230   2.3e-40  140.1  10.8   1   2   8.4e-19   5.7e-15   57.0   0.7    33    92    32    91    19   102 0.91 -
ID=PSME_00012844     -            370 164366at3193         -            230   2.3e-40  140.1  10.8   2   2   8.3e-28   5.7e-24   86.5   3.7   144   227   188   271   126   272 0.78 -
ID=PSME_00004802     -            207 164366at3193         -            230   6.2e-39  135.5   8.5   1   1   1.5e-42   1.1e-38  134.7   8.5    33   227     3   200     1   203 0.80 -
ID=PSME_00033346     -             79 164366at3193         -            230   2.2e-27   97.7   1.2   1   1   3.5e-31   2.4e-27   97.6   1.2   153   209     4    60     1    68 0.94 -
ID=PSME_00002677     -            150 164366at3193         -            230   5.8e-23   83.2   1.6   1   1   9.2e-27   6.3e-23   83.1   1.6   149   227    65   143    34   146 0.95 -
ID=PSME_00012405     -            390 164366at3193         -            230   2.4e-12   48.5   2.8   1   2     2e-09   1.4e-05   26.3   0.1   164   212    86   134    50   152 0.83 -
ID=PSME_00012405     -            390 164366at3193         -            230   2.4e-12   48.5   2.8   2   2   3.7e-08   0.00025   22.2   0.5   165   212   205   252   190   261 0.91 -
ID=PSME_00002583     -             75 164366at3193         -            230     9e-07   30.2   0.0   1   1   1.4e-10   9.6e-07   30.1   0.0   149   185    21    57    11    69 0.90 -
ID=PSME_00020044     -            335 164366at3193         -            230     0.011   16.8   0.1   1   1   2.6e-06     0.018   16.2   0.1    16    56    74   114    60   123 0.80 -
ID=PSME_00021005     -            472 164366at3193         -            230      0.42   11.7   0.1   1   1    0.0001       0.7   10.9   0.1    22   139   192   304   183   325 0.85 -
#
# Program:         hmmsearch
# Version:         3.2.1 (June 2018)
# Pipeline mode:   SEARCH
# Query file:      /isg/shared/databases/BUSCO/odb10/embryophyta_odb10/hmms/164366at3193.hmm
# Target file:     /labs/Wegrzyn/ConiferGenomes/Psme/analysis/SURF_annotation/analyze_orig_maker/gfacs/filtered/maker_genes.fasta.faa
# Option settings: /usr/local/bin/hmmsearch --domtblout /labs/Wegrzyn/ConiferGenomes/Psme/analysis/SURF_annotation/analyze_orig_maker/busco/maker/run_embryophyta_odb10/hmmer_output/164366at3193.out --cpu 1 /isg/shared/databases/BUSCO/odb10/embryophyta_odb10/hmms/164366at3193.hmm /labs/Wegrzyn/ConiferGenomes/Psme/analysis/SURF_annotation/analyze_orig_maker/gfacs/filtered/maker_genes.fasta.faa 
# Current dir:     /labs/Wegrzyn/ConiferGenomes/Psme/analysis/SURF_annotation/analyze_orig_maker/busco
# Date:            Fri Jul 10 13:44:39 2020
# [ok]
