#                                                                            --- full sequence --- -------------- this domain -------------   hmm coord   ali coord   env coord
# target name        accession   tlen query name           accession   qlen   E-value  score  bias   #  of  c-Evalue  i-Evalue  score  bias  from    to  from    to  from    to  acc description of target
#------------------- ---------- ----- -------------------- ---------- ----- --------- ------ ----- --- --- --------- --------- ------ ----- ----- ----- ----- ----- ----- ----- ---- ---------------------
ID=PSME_00010325     -            189 165991at3193         -            246   1.2e-90  304.8   0.1   1   1   1.3e-94   1.5e-90  304.5   0.1    93   246    19   175    14   175 0.96 -
ID=PSME_00010327     -            146 165991at3193         -            246   1.1e-54  187.1   0.1   1   1   1.3e-58   1.4e-54  186.7   0.1   145   240     6   101     3   109 0.94 -
ID=PSME_00011156     -            979 165991at3193         -            246   4.2e-35  122.9   2.7   1   2   6.5e-31   7.2e-27   96.0   3.0     2   246   435   707   434   708 0.74 -
ID=PSME_00011156     -            979 165991at3193         -            246   4.2e-35  122.9   2.7   2   2   2.3e-08   0.00025   22.1   0.0   152   233   746   830   738   840 0.82 -
ID=PSME_00020187     -            668 165991at3193         -            246   2.8e-34  120.2   2.4   1   2   5.3e-34   5.8e-30  106.1   3.3     1   246   255   528   255   528 0.81 -
ID=PSME_00020187     -            668 165991at3193         -            246   2.8e-34  120.2   2.4   2   2   0.00043       4.7    8.1   0.0   152   226   567   644   551   651 0.85 -
ID=PSME_00011120     -            636 165991at3193         -            246     6e-34  119.1   2.6   1   2     1e-33   1.1e-29  105.2   3.4     1   246   223   496   223   496 0.81 -
ID=PSME_00011120     -            636 165991at3193         -            246     6e-34  119.1   2.6   2   2   0.00042       4.6    8.2   0.0   152   226   535   612   519   619 0.85 -
#
# Program:         hmmsearch
# Version:         3.2.1 (June 2018)
# Pipeline mode:   SEARCH
# Query file:      /isg/shared/databases/BUSCO/odb10/embryophyta_odb10/hmms/165991at3193.hmm
# Target file:     /labs/Wegrzyn/ConiferGenomes/Psme/analysis/SURF_annotation/analyze_orig_maker/gfacs/filtered/maker_genes.fasta.faa
# Option settings: /usr/local/bin/hmmsearch --domtblout /labs/Wegrzyn/ConiferGenomes/Psme/analysis/SURF_annotation/analyze_orig_maker/busco/maker/run_embryophyta_odb10/hmmer_output/165991at3193.out --cpu 1 /isg/shared/databases/BUSCO/odb10/embryophyta_odb10/hmms/165991at3193.hmm /labs/Wegrzyn/ConiferGenomes/Psme/analysis/SURF_annotation/analyze_orig_maker/gfacs/filtered/maker_genes.fasta.faa 
# Current dir:     /labs/Wegrzyn/ConiferGenomes/Psme/analysis/SURF_annotation/analyze_orig_maker/busco
# Date:            Fri Jul 10 13:44:41 2020
# [ok]
