#                                                                            --- full sequence --- -------------- this domain -------------   hmm coord   ali coord   env coord
# target name        accession   tlen query name           accession   qlen   E-value  score  bias   #  of  c-Evalue  i-Evalue  score  bias  from    to  from    to  from    to  acc description of target
#------------------- ---------- ----- -------------------- ---------- ----- --------- ------ ----- --- --- --------- --------- ------ ----- ----- ----- ----- ----- ----- ----- ---- ---------------------
ID=PSME_00021540     -            192 166568at3193         -            186   3.6e-40  139.1   0.1   1   1   1.6e-44   4.4e-40  138.8   0.1    85   177    28   120    19   128 0.93 -
ID=PSME_00046526     -            256 166568at3193         -            186   1.8e-06   29.2   0.1   1   3     0.075   2.1e+03   -0.3   1.0     4    22    60    80    57    87 0.76 -
ID=PSME_00046526     -            256 166568at3193         -            186   1.8e-06   29.2   0.1   2   3     0.003        83    4.2   0.1    19    70   146   199   132   206 0.74 -
ID=PSME_00046526     -            256 166568at3193         -            186   1.8e-06   29.2   0.1   3   3   6.4e-11   1.8e-06   29.2   0.1    39    82   209   255   204   255 0.87 -
#
# Program:         hmmsearch
# Version:         3.2.1 (June 2018)
# Pipeline mode:   SEARCH
# Query file:      /isg/shared/databases/BUSCO/odb10/embryophyta_odb10/hmms/166568at3193.hmm
# Target file:     /labs/Wegrzyn/ConiferGenomes/Psme/analysis/SURF_annotation/analyze_orig_maker/gfacs/filtered/maker_genes.fasta.faa
# Option settings: /usr/local/bin/hmmsearch --domtblout /labs/Wegrzyn/ConiferGenomes/Psme/analysis/SURF_annotation/analyze_orig_maker/busco/maker/run_embryophyta_odb10/hmmer_output/166568at3193.out --cpu 1 /isg/shared/databases/BUSCO/odb10/embryophyta_odb10/hmms/166568at3193.hmm /labs/Wegrzyn/ConiferGenomes/Psme/analysis/SURF_annotation/analyze_orig_maker/gfacs/filtered/maker_genes.fasta.faa 
# Current dir:     /labs/Wegrzyn/ConiferGenomes/Psme/analysis/SURF_annotation/analyze_orig_maker/busco
# Date:            Fri Jul 10 13:44:42 2020
# [ok]
