#                                                                            --- full sequence --- -------------- this domain -------------   hmm coord   ali coord   env coord
# target name        accession   tlen query name           accession   qlen   E-value  score  bias   #  of  c-Evalue  i-Evalue  score  bias  from    to  from    to  from    to  acc description of target
#------------------- ---------- ----- -------------------- ---------- ----- --------- ------ ----- --- --- --------- --------- ------ ----- ----- ----- ----- ----- ----- ----- ---- ---------------------
ID=PSME_00007247     -            206 170998at3193         -            176   1.8e-74  250.6   4.8   1   1     3e-77   1.5e-73  247.6   4.8    12   172     6   189     2   193 0.93 -
ID=PSME_00013373     -            192 170998at3193         -            176   6.1e-53  180.5   2.6   1   1   1.2e-55   5.8e-52  177.3   2.6    12   172     5   186     2   189 0.90 -
ID=PSME_00020620     -            260 170998at3193         -            176   6.4e-24   86.0   0.9   1   1     1e-25   5.1e-22   79.8   0.9    12   152    57   218    47   243 0.82 -
ID=PSME_00029985     -            191 170998at3193         -            176   2.3e-19   71.1   0.5   1   1     6e-23     3e-19   70.8   0.5    56   152    50   149    44   174 0.87 -
ID=PSME_00041488     -            124 170998at3193         -            176   4.5e-19   70.2   0.2   1   1   1.1e-22   5.7e-19   69.8   0.2    55   114     2    63     1    76 0.91 -
ID=PSME_00044683     -            291 170998at3193         -            176   4.4e-16   60.4   0.5   1   2   0.00015      0.74   10.9   0.0    16    37    40    61    36    67 0.90 -
ID=PSME_00044683     -            291 170998at3193         -            176   4.4e-16   60.4   0.5   2   2   7.6e-16   3.8e-12   47.6   0.1    86   160    99   184    75   196 0.75 -
ID=PSME_00006538     -            200 170998at3193         -            176     3e-08   34.9   0.0   1   1   8.4e-12   4.2e-08   34.5   0.0   106   160    30    93    16   105 0.77 -
ID=PSME_00027870     -            848 170998at3193         -            176   7.1e-05   24.0   0.5   1   3         3   1.5e+04   -3.2   0.0    22    37    81    96    78   107 0.78 -
ID=PSME_00027870     -            848 170998at3193         -            176   7.1e-05   24.0   0.5   2   3      0.41   2.1e+03   -0.4   0.0   132   169   318   355   315   359 0.89 -
ID=PSME_00027870     -            848 170998at3193         -            176   7.1e-05   24.0   0.5   3   3   1.2e-07    0.0006   20.9   0.0    42   125   627   711   613   726 0.87 -
ID=PSME_00004606     -            118 170998at3193         -            176    0.0026   18.8   0.0   1   1   6.1e-07    0.0031   18.6   0.0   123   172    49    98    30   101 0.91 -
ID=PSME_00024274     -            178 170998at3193         -            176     0.082   14.0   0.0   1   1   2.5e-05      0.13   13.4   0.0   125   172    51    98    43   101 0.88 -
ID=PSME_00039627     -            336 170998at3193         -            176      0.28   12.2   0.0   1   1   9.6e-05      0.48   11.5   0.0   124   172   101   149    91   152 0.88 -
#
# Program:         hmmsearch
# Version:         3.2.1 (June 2018)
# Pipeline mode:   SEARCH
# Query file:      /isg/shared/databases/BUSCO/odb10/embryophyta_odb10/hmms/170998at3193.hmm
# Target file:     /labs/Wegrzyn/ConiferGenomes/Psme/analysis/SURF_annotation/analyze_orig_maker/gfacs/filtered/maker_genes.fasta.faa
# Option settings: /usr/local/bin/hmmsearch --domtblout /labs/Wegrzyn/ConiferGenomes/Psme/analysis/SURF_annotation/analyze_orig_maker/busco/maker/run_embryophyta_odb10/hmmer_output/170998at3193.out --cpu 1 /isg/shared/databases/BUSCO/odb10/embryophyta_odb10/hmms/170998at3193.hmm /labs/Wegrzyn/ConiferGenomes/Psme/analysis/SURF_annotation/analyze_orig_maker/gfacs/filtered/maker_genes.fasta.faa 
# Current dir:     /labs/Wegrzyn/ConiferGenomes/Psme/analysis/SURF_annotation/analyze_orig_maker/busco
# Date:            Fri Jul 10 13:44:44 2020
# [ok]
