#                                                                            --- full sequence --- -------------- this domain -------------   hmm coord   ali coord   env coord
# target name        accession   tlen query name           accession   qlen   E-value  score  bias   #  of  c-Evalue  i-Evalue  score  bias  from    to  from    to  from    to  acc description of target
#------------------- ---------- ----- -------------------- ---------- ----- --------- ------ ----- --- --- --------- --------- ------ ----- ----- ----- ----- ----- ----- ----- ---- ---------------------
ID=PSME_00004174     -            233 171667at3193         -            181   7.3e-46  157.9   1.6   1   1   6.8e-50   9.4e-46  157.6   1.6     2   107   124   230   123   232 0.95 -
ID=PSME_00025340     -            251 171667at3193         -            181   0.00013   23.5   0.0   1   1   9.4e-08    0.0013   20.3   0.0    36   170    89   237    54   244 0.73 -
ID=PSME_00013903     -            245 171667at3193         -            181      0.23   13.0   0.3   1   1   2.5e-05      0.34   12.4   0.3    35   105   178   244   157   245 0.93 -
ID=PSME_00046324     -            225 171667at3193         -            181       0.6   11.6   0.0   1   2    0.0041        57    5.1   0.0    13    62    13    62     7    69 0.91 -
ID=PSME_00046324     -            225 171667at3193         -            181       0.6   11.6   0.0   2   2    0.0079   1.1e+02    4.2   0.0     8    61   129   182   127   188 0.84 -
#
# Program:         hmmsearch
# Version:         3.2.1 (June 2018)
# Pipeline mode:   SEARCH
# Query file:      /isg/shared/databases/BUSCO/odb10/embryophyta_odb10/hmms/171667at3193.hmm
# Target file:     /labs/Wegrzyn/ConiferGenomes/Psme/analysis/SURF_annotation/analyze_orig_maker/gfacs/filtered/maker_genes.fasta.faa
# Option settings: /usr/local/bin/hmmsearch --domtblout /labs/Wegrzyn/ConiferGenomes/Psme/analysis/SURF_annotation/analyze_orig_maker/busco/maker/run_embryophyta_odb10/hmmer_output/171667at3193.out --cpu 1 /isg/shared/databases/BUSCO/odb10/embryophyta_odb10/hmms/171667at3193.hmm /labs/Wegrzyn/ConiferGenomes/Psme/analysis/SURF_annotation/analyze_orig_maker/gfacs/filtered/maker_genes.fasta.faa 
# Current dir:     /labs/Wegrzyn/ConiferGenomes/Psme/analysis/SURF_annotation/analyze_orig_maker/busco
# Date:            Fri Jul 10 13:44:45 2020
# [ok]
