#                                                                            --- full sequence --- -------------- this domain -------------   hmm coord   ali coord   env coord
# target name        accession   tlen query name           accession   qlen   E-value  score  bias   #  of  c-Evalue  i-Evalue  score  bias  from    to  from    to  from    to  acc description of target
#------------------- ---------- ----- -------------------- ---------- ----- --------- ------ ----- --- --- --------- --------- ------ ----- ----- ----- ----- ----- ----- ----- ---- ---------------------
ID=PSME_00037104     -            272 175201at3193         -            174   6.3e-10   40.7   0.1   1   1   1.1e-13   8.7e-10   40.3   0.1    25    98   114   190    97   197 0.82 -
ID=PSME_00031671     -            341 175201at3193         -            174   7.3e-08   34.0   0.7   1   3       1.5   1.1e+04   -2.4   0.1    28    47    98   117    92   123 0.83 -
ID=PSME_00031671     -            341 175201at3193         -            174   7.3e-08   34.0   0.7   2   3   1.8e-07    0.0014   20.0   0.0    49    99   164   213   154   220 0.91 -
ID=PSME_00031671     -            341 175201at3193         -            174   7.3e-08   34.0   0.7   3   3   6.8e-05      0.54   11.6   0.0   101   128   239   266   219   271 0.82 -
ID=PSME_00031672     -            312 175201at3193         -            174   1.5e-06   29.7   0.5   1   3       1.2   9.5e+03   -2.2   0.0    28    47    69    88    63    95 0.83 -
ID=PSME_00031672     -            312 175201at3193         -            174   1.5e-06   29.7   0.5   2   3     4e-06     0.031   15.7   0.0    51    99   137   184   128   187 0.90 -
ID=PSME_00031672     -            312 175201at3193         -            174   1.5e-06   29.7   0.5   3   3   8.4e-05      0.66   11.4   0.0    86   128   196   237   189   242 0.75 -
ID=PSME_00049649     -            301 175201at3193         -            174   0.00011   23.6   0.0   1   1     3e-08   0.00023   22.6   0.0    26    66    66   106    38   114 0.89 -
ID=PSME_00021931     -            289 175201at3193         -            174     0.011   17.1   0.1   1   2   6.7e-06     0.052   14.9   0.0    25    90    56   118    38   128 0.85 -
ID=PSME_00021931     -            289 175201at3193         -            174     0.011   17.1   0.1   2   2      0.57   4.5e+03   -1.1   0.0   102   114   155   166   140   183 0.71 -
ID=PSME_00043312     -            182 175201at3193         -            174      0.32   12.4   0.0   1   1   5.3e-05      0.42   12.0   0.0    14    94    72   156    60   166 0.74 -
ID=PSME_00010017     -            286 175201at3193         -            174      0.66   11.4   0.0   1   1   0.00015       1.2   10.5   0.0   134   151   265   282   263   284 0.92 -
#
# Program:         hmmsearch
# Version:         3.2.1 (June 2018)
# Pipeline mode:   SEARCH
# Query file:      /isg/shared/databases/BUSCO/odb10/embryophyta_odb10/hmms/175201at3193.hmm
# Target file:     /labs/Wegrzyn/ConiferGenomes/Psme/analysis/SURF_annotation/analyze_orig_maker/gfacs/filtered/maker_genes.fasta.faa
# Option settings: /usr/local/bin/hmmsearch --domtblout /labs/Wegrzyn/ConiferGenomes/Psme/analysis/SURF_annotation/analyze_orig_maker/busco/maker/run_embryophyta_odb10/hmmer_output/175201at3193.out --cpu 1 /isg/shared/databases/BUSCO/odb10/embryophyta_odb10/hmms/175201at3193.hmm /labs/Wegrzyn/ConiferGenomes/Psme/analysis/SURF_annotation/analyze_orig_maker/gfacs/filtered/maker_genes.fasta.faa 
# Current dir:     /labs/Wegrzyn/ConiferGenomes/Psme/analysis/SURF_annotation/analyze_orig_maker/busco
# Date:            Fri Jul 10 13:44:47 2020
# [ok]
