#                                                                            --- full sequence --- -------------- this domain -------------   hmm coord   ali coord   env coord
# target name        accession   tlen query name           accession   qlen   E-value  score  bias   #  of  c-Evalue  i-Evalue  score  bias  from    to  from    to  from    to  acc description of target
#------------------- ---------- ----- -------------------- ---------- ----- --------- ------ ----- --- --- --------- --------- ------ ----- ----- ----- ----- ----- ----- ----- ---- ---------------------
ID=PSME_00011838     -            139 177680at3193         -            246     7e-54  184.0   0.1   1   1   4.4e-58   8.1e-54  183.8   0.1   124   242     1   119     1   122 0.96 -
ID=PSME_00003150     -            467 177680at3193         -            246    0.0089   16.6   0.1   1   2   1.3e-05      0.23   12.0   0.2    94   147    92   147    12   154 0.75 -
ID=PSME_00003150     -            467 177680at3193         -            246    0.0089   16.6   0.1   2   2     0.013   2.3e+02    2.2   0.0   182   238   222   281   175   287 0.79 -
ID=PSME_00045852     -            242 177680at3193         -            246      0.25   11.9   0.2   1   2   7.1e-05       1.3    9.5   0.1   167   223    49   105     6   120 0.89 -
ID=PSME_00045852     -            242 177680at3193         -            246      0.25   11.9   0.2   2   2     0.059   1.1e+03   -0.0   0.0    15    43   163   192   157   194 0.85 -
#
# Program:         hmmsearch
# Version:         3.2.1 (June 2018)
# Pipeline mode:   SEARCH
# Query file:      /isg/shared/databases/BUSCO/odb10/embryophyta_odb10/hmms/177680at3193.hmm
# Target file:     /labs/Wegrzyn/ConiferGenomes/Psme/analysis/SURF_annotation/analyze_orig_maker/gfacs/filtered/maker_genes.fasta.faa
# Option settings: /usr/local/bin/hmmsearch --domtblout /labs/Wegrzyn/ConiferGenomes/Psme/analysis/SURF_annotation/analyze_orig_maker/busco/maker/run_embryophyta_odb10/hmmer_output/177680at3193.out --cpu 1 /isg/shared/databases/BUSCO/odb10/embryophyta_odb10/hmms/177680at3193.hmm /labs/Wegrzyn/ConiferGenomes/Psme/analysis/SURF_annotation/analyze_orig_maker/gfacs/filtered/maker_genes.fasta.faa 
# Current dir:     /labs/Wegrzyn/ConiferGenomes/Psme/analysis/SURF_annotation/analyze_orig_maker/busco
# Date:            Fri Jul 10 13:46:26 2020
# [ok]
