#                                                                            --- full sequence --- -------------- this domain -------------   hmm coord   ali coord   env coord
# target name        accession   tlen query name           accession   qlen   E-value  score  bias   #  of  c-Evalue  i-Evalue  score  bias  from    to  from    to  from    to  acc description of target
#------------------- ---------- ----- -------------------- ---------- ----- --------- ------ ----- --- --- --------- --------- ------ ----- ----- ----- ----- ----- ----- ----- ---- ---------------------
ID=PSME_00012170     -            161 178308at3193         -            128   1.4e-27   97.7   0.0   1   1     3e-31   1.8e-27   97.4   0.0    63   128     1    66     1    66 0.98 -
ID=PSME_00043189     -            213 178308at3193         -            128   8.7e-11   43.5   0.7   1   2   4.9e-08    0.0003   22.4   0.1    10    79     5    68     2    94 0.73 -
ID=PSME_00043189     -            213 178308at3193         -            128   8.7e-11   43.5   0.7   2   2   2.5e-07    0.0015   20.1   0.1    69   103    95   129    76   145 0.87 -
ID=PSME_00029274     -            511 178308at3193         -            128   1.7e-09   39.3   0.1   1   3   5.8e-07    0.0035   18.9   0.0    29    93    44   108    21   120 0.91 -
ID=PSME_00029274     -            511 178308at3193         -            128   1.7e-09   39.3   0.1   2   3       3.2   1.9e+04   -2.9   0.0    70    91   198   219   143   232 0.69 -
ID=PSME_00029274     -            511 178308at3193         -            128   1.7e-09   39.3   0.1   3   3   1.8e-06     0.011   17.3   0.1    19   112   267   361   256   372 0.82 -
ID=PSME_00027180     -            518 178308at3193         -            128   3.4e-09   38.3   1.2   1   2       0.3   1.8e+03    0.4   0.0     6    22   139   155   134   165 0.79 -
ID=PSME_00027180     -            518 178308at3193         -            128   3.4e-09   38.3   1.2   2   2   2.9e-12   1.8e-08   36.0   0.4     7    95   310   400   304   410 0.88 -
ID=PSME_00001055     -            680 178308at3193         -            128   6.1e-08   34.3   1.0   1   3   1.3e-07   0.00076   21.0   0.0    12    93    35   117    29   129 0.91 -
ID=PSME_00001055     -            680 178308at3193         -            128   6.1e-08   34.3   1.0   2   3      0.79   4.8e+03   -0.9   0.1    16    93   155   230   144   244 0.59 -
ID=PSME_00001055     -            680 178308at3193         -            128   6.1e-08   34.3   1.0   3   3    0.0003       1.8   10.1   0.1    20    96   277   354   264   381 0.77 -
ID=PSME_00018679     -            574 178308at3193         -            128     6e-06   27.8   0.0   1   2   3.5e-05      0.21   13.1   0.0    12   100    57   146    50   156 0.85 -
ID=PSME_00018679     -            574 178308at3193         -            128     6e-06   27.8   0.0   2   2   7.6e-05      0.46   12.0   0.0    26   116   307   398   287   406 0.73 -
ID=PSME_00045865     -            820 178308at3193         -            128    0.0013   20.3   1.1   1   2   0.00069       4.2    8.9   0.1    19    96   120   198   105   217 0.78 -
ID=PSME_00045865     -            820 178308at3193         -            128    0.0013   20.3   1.1   2   2   0.00049         3    9.4   0.1    19    96   553   631   539   653 0.78 -
ID=PSME_00033432     -            149 178308at3193         -            128     0.096   14.2   0.1   1   1   2.1e-05      0.13   13.9   0.1    18    96    53   132    38   146 0.78 -
ID=PSME_00033605     -            194 178308at3193         -            128      0.24   13.0   0.0   1   1   8.5e-05      0.52   11.9   0.0    64   101     2    39     1    50 0.89 -
#
# Program:         hmmsearch
# Version:         3.2.1 (June 2018)
# Pipeline mode:   SEARCH
# Query file:      /isg/shared/databases/BUSCO/odb10/embryophyta_odb10/hmms/178308at3193.hmm
# Target file:     /labs/Wegrzyn/ConiferGenomes/Psme/analysis/SURF_annotation/analyze_orig_maker/gfacs/filtered/maker_genes.fasta.faa
# Option settings: /usr/local/bin/hmmsearch --domtblout /labs/Wegrzyn/ConiferGenomes/Psme/analysis/SURF_annotation/analyze_orig_maker/busco/maker/run_embryophyta_odb10/hmmer_output/178308at3193.out --cpu 1 /isg/shared/databases/BUSCO/odb10/embryophyta_odb10/hmms/178308at3193.hmm /labs/Wegrzyn/ConiferGenomes/Psme/analysis/SURF_annotation/analyze_orig_maker/gfacs/filtered/maker_genes.fasta.faa 
# Current dir:     /labs/Wegrzyn/ConiferGenomes/Psme/analysis/SURF_annotation/analyze_orig_maker/busco
# Date:            Fri Jul 10 13:46:26 2020
# [ok]
