#                                                                            --- full sequence --- -------------- this domain -------------   hmm coord   ali coord   env coord
# target name        accession   tlen query name           accession   qlen   E-value  score  bias   #  of  c-Evalue  i-Evalue  score  bias  from    to  from    to  from    to  acc description of target
#------------------- ---------- ----- -------------------- ---------- ----- --------- ------ ----- --- --- --------- --------- ------ ----- ----- ----- ----- ----- ----- ----- ---- ---------------------
ID=PSME_00031479     -            769 179162at3193         -            205   3.1e-14   54.8   0.8   1   2   3.2e-05      0.44   11.9   0.5     3    20    74    91    72    98 0.85 -
ID=PSME_00031479     -            769 179162at3193         -            205   3.1e-14   54.8   0.8   2   2   6.4e-14   8.7e-10   40.3   0.0    18    50   616   648   605   667 0.86 -
ID=PSME_00019333     -            126 179162at3193         -            205   5.7e-14   54.0   0.0   1   1   5.1e-18     7e-14   53.7   0.0    75   165    10   102     3   110 0.88 -
ID=PSME_00002754     -            192 179162at3193         -            205     0.033   15.5   0.1   1   1   1.3e-05      0.18   13.1   0.1    90   142    40   107    19   115 0.75 -
ID=PSME_00003900     -            357 179162at3193         -            205      0.22   12.9   0.2   1   2       1.5     2e+04   -3.4   0.0   107   116   119   128   116   132 0.82 -
ID=PSME_00003900     -            357 179162at3193         -            205      0.22   12.9   0.2   2   2   3.6e-05       0.5   11.7   0.1    89   183   253   350   245   352 0.85 -
#
# Program:         hmmsearch
# Version:         3.2.1 (June 2018)
# Pipeline mode:   SEARCH
# Query file:      /isg/shared/databases/BUSCO/odb10/embryophyta_odb10/hmms/179162at3193.hmm
# Target file:     /labs/Wegrzyn/ConiferGenomes/Psme/analysis/SURF_annotation/analyze_orig_maker/gfacs/filtered/maker_genes.fasta.faa
# Option settings: /usr/local/bin/hmmsearch --domtblout /labs/Wegrzyn/ConiferGenomes/Psme/analysis/SURF_annotation/analyze_orig_maker/busco/maker/run_embryophyta_odb10/hmmer_output/179162at3193.out --cpu 1 /isg/shared/databases/BUSCO/odb10/embryophyta_odb10/hmms/179162at3193.hmm /labs/Wegrzyn/ConiferGenomes/Psme/analysis/SURF_annotation/analyze_orig_maker/gfacs/filtered/maker_genes.fasta.faa 
# Current dir:     /labs/Wegrzyn/ConiferGenomes/Psme/analysis/SURF_annotation/analyze_orig_maker/busco
# Date:            Fri Jul 10 13:46:26 2020
# [ok]
