#                                                                            --- full sequence --- -------------- this domain -------------   hmm coord   ali coord   env coord
# target name        accession   tlen query name           accession   qlen   E-value  score  bias   #  of  c-Evalue  i-Evalue  score  bias  from    to  from    to  from    to  acc description of target
#------------------- ---------- ----- -------------------- ---------- ----- --------- ------ ----- --- --- --------- --------- ------ ----- ----- ----- ----- ----- ----- ----- ---- ---------------------
ID=PSME_00037266     -            208 179537at3193         -            146   8.1e-34  118.4  23.4   1   1   7.1e-37   1.6e-33  117.5  23.4    12   137    58   172    47   178 0.91 -
ID=PSME_00018741     -            276 179537at3193         -            146   2.6e-32  113.5  20.5   1   1   1.2e-35   2.6e-32  113.5  20.5    13   137     2   113     1   118 0.91 -
ID=PSME_00049293     -            206 179537at3193         -            146   1.3e-31  111.2  20.6   1   1   2.2e-34   4.7e-31  109.4  20.6    11   137    60   173    50   177 0.90 -
ID=PSME_00011467     -            169 179537at3193         -            146     2e-31  110.6  18.0   1   1     3e-34   6.7e-31  108.9  18.0     6   137    42   162    37   166 0.89 -
ID=PSME_00049318     -            185 179537at3193         -            146   6.5e-31  109.0  22.2   1   1   9.6e-34   2.1e-30  107.3  22.2     6   137    34   154    29   158 0.89 -
ID=PSME_00037267     -            159 179537at3193         -            146   1.6e-28  101.2  19.7   1   1   6.8e-31   1.5e-27   98.1  19.7    11   137    19   129     9   134 0.89 -
ID=PSME_00046603     -            244 179537at3193         -            146   7.5e-28   99.0   8.7   1   1   1.7e-30   3.8e-27   96.7   8.7    17   136    66   200    56   209 0.83 -
ID=PSME_00048643     -            341 179537at3193         -            146     2e-19   71.7   7.5   1   1   2.9e-22   6.3e-19   70.1   7.5    31   138   216   310   212   314 0.90 -
ID=PSME_00052992     -            176 179537at3193         -            146   3.7e-19   70.8   4.5   1   1   2.4e-22   5.3e-19   70.3   4.5    68   137    74   143    65   149 0.87 -
ID=PSME_00030305     -            164 179537at3193         -            146   4.7e-19   70.5   6.7   1   1   1.8e-21   3.8e-18   67.5   6.7    36   136     4   119     1   128 0.78 -
ID=PSME_00009869     -            289 179537at3193         -            146   4.6e-17   64.0   4.5   1   1   3.9e-20   8.6e-17   63.2   4.5    18   137    91   220    85   225 0.83 -
ID=PSME_00032765     -            217 179537at3193         -            146   7.3e-09   37.4  10.4   1   2   6.1e-05      0.13   13.9   1.2    36   117     2    76     1    96 0.68 -
ID=PSME_00032765     -            217 179537at3193         -            146   7.3e-09   37.4  10.4   2   2   3.6e-08   7.8e-05   24.4   6.8   111   135    96   120    76   125 0.86 -
ID=PSME_00001562     -             92 179537at3193         -            146   7.1e-07   31.0   0.0   1   1   3.8e-10   8.4e-07   30.8   0.0    13    57    29    73    20    86 0.87 -
ID=PSME_00019463     -            237 179537at3193         -            146     5e-06   28.2   0.4   1   1   4.4e-09   9.7e-06   27.3   0.4    18    81    91   156    84   188 0.76 -
ID=PSME_00010436     -            228 179537at3193         -            146   1.9e-05   26.4   0.7   1   1   1.4e-08   3.1e-05   25.7   0.7    18    78    82   144    74   167 0.80 -
ID=PSME_00019637     -            196 179537at3193         -            146   3.8e-05   25.4   0.3   1   1   2.8e-08   6.2e-05   24.7   0.3    18    62   144   188   139   194 0.91 -
ID=PSME_00043595     -            144 179537at3193         -            146   0.00014   23.6   0.1   1   1   9.7e-08   0.00021   23.0   0.1    18    58    91   131    82   140 0.87 -
ID=PSME_00011853     -            643 179537at3193         -            146   0.00018   23.2   4.2   1   1   3.5e-07   0.00076   21.2   4.2    17   130   355   488   347   499 0.69 -
ID=PSME_00001835     -            609 179537at3193         -            146   0.00046   21.9   9.5   1   1   9.7e-07    0.0021   19.7   9.5    17   130   338   471   326   482 0.70 -
ID=PSME_00014889     -            109 179537at3193         -            146   0.00048   21.8   0.1   1   1   3.4e-07   0.00076   21.2   0.1    18    59    67   108    61   109 0.92 -
ID=PSME_00008099     -            149 179537at3193         -            146   0.00049   21.8   0.5   1   1   3.3e-07   0.00073   21.2   0.5    18    58   107   147   102   148 0.88 -
ID=PSME_00009471     -            765 179537at3193         -            146   0.00082   21.1   1.4   1   3       2.3   5.1e+03   -1.0   0.1    24    75   128   179   113   192 0.81 -
ID=PSME_00009471     -            765 179537at3193         -            146   0.00082   21.1   1.4   2   3   1.9e-06    0.0041   18.8   0.1    18    59   295   336   288   359 0.78 -
ID=PSME_00009471     -            765 179537at3193         -            146   0.00082   21.1   1.4   3   3       4.7     1e+04   -2.0   0.0   113   138   703   729   694   734 0.74 -
ID=PSME_00054071     -            136 179537at3193         -            146      0.01   17.5   0.5   1   1   6.1e-06     0.013   17.1   0.5    24    60    97   133    94   136 0.91 -
ID=PSME_00033266     -            134 179537at3193         -            146     0.036   15.7   0.1   1   1   2.4e-05     0.052   15.2   0.1    18    59    91   132    84   132 0.91 -
ID=PSME_00036422     -            136 179537at3193         -            146     0.048   15.3   0.1   1   1   3.2e-05     0.069   14.8   0.1    18    60    91   133    84   135 0.90 -
#
# Program:         hmmsearch
# Version:         3.2.1 (June 2018)
# Pipeline mode:   SEARCH
# Query file:      /isg/shared/databases/BUSCO/odb10/embryophyta_odb10/hmms/179537at3193.hmm
# Target file:     /labs/Wegrzyn/ConiferGenomes/Psme/analysis/SURF_annotation/analyze_orig_maker/gfacs/filtered/maker_genes.fasta.faa
# Option settings: /usr/local/bin/hmmsearch --domtblout /labs/Wegrzyn/ConiferGenomes/Psme/analysis/SURF_annotation/analyze_orig_maker/busco/maker/run_embryophyta_odb10/hmmer_output/179537at3193.out --cpu 1 /isg/shared/databases/BUSCO/odb10/embryophyta_odb10/hmms/179537at3193.hmm /labs/Wegrzyn/ConiferGenomes/Psme/analysis/SURF_annotation/analyze_orig_maker/gfacs/filtered/maker_genes.fasta.faa 
# Current dir:     /labs/Wegrzyn/ConiferGenomes/Psme/analysis/SURF_annotation/analyze_orig_maker/busco
# Date:            Fri Jul 10 13:46:26 2020
# [ok]
