#                                                                            --- full sequence --- -------------- this domain -------------   hmm coord   ali coord   env coord
# target name        accession   tlen query name           accession   qlen   E-value  score  bias   #  of  c-Evalue  i-Evalue  score  bias  from    to  from    to  from    to  acc description of target
#------------------- ---------- ----- -------------------- ---------- ----- --------- ------ ----- --- --- --------- --------- ------ ----- ----- ----- ----- ----- ----- ----- ---- ---------------------
ID=PSME_00028683     -            106 180839at3193         -            141   1.5e-60  204.5   0.1   1   1   1.8e-63   1.6e-60  204.3   0.1    16   112     3    99     1   104 0.98 -
ID=PSME_00042980     -            260 180839at3193         -            141   1.8e-19   71.3   0.0   1   2   1.6e-07   0.00015   23.0   0.0    19    76     9    66     3    68 0.83 -
ID=PSME_00042980     -            260 180839at3193         -            141   1.8e-19   71.3   0.0   2   2     7e-15   6.4e-12   46.8   0.0    19   138    67   189    61   192 0.87 -
ID=PSME_00016155     -            183 180839at3193         -            141   2.5e-16   61.1   0.0   1   1   3.5e-19   3.2e-16   60.8   0.0     7   138     9   143     3   146 0.85 -
ID=PSME_00032847     -            207 180839at3193         -            141   5.2e-16   60.1   0.0   1   1   7.4e-19   6.8e-16   59.7   0.0    18   138    20   143    13   146 0.89 -
ID=PSME_00001067     -            207 180839at3193         -            141     7e-16   59.7   0.0   1   1   9.8e-19     9e-16   59.3   0.0    10   138    18   149     9   152 0.87 -
ID=PSME_00050567     -            179 180839at3193         -            141   9.4e-16   59.3   0.0   1   1   1.3e-18   1.1e-15   59.0   0.0    22   138     1   120     1   123 0.88 -
ID=PSME_00033758     -            188 180839at3193         -            141   1.2e-15   58.9   0.0   1   1   1.6e-18   1.5e-15   58.6   0.0    17   138    16   140     4   143 0.87 -
ID=PSME_00036150     -            207 180839at3193         -            141   2.8e-15   57.7   0.0   1   1   3.9e-18   3.5e-15   57.4   0.0    10   138    18   149     9   152 0.87 -
ID=PSME_00024283     -            199 180839at3193         -            141   3.1e-15   57.6   0.0   1   1   4.3e-18   3.9e-15   57.3   0.0    18   137    17   139     3   143 0.87 -
ID=PSME_00032553     -            276 180839at3193         -            141   8.3e-15   56.2   0.0   1   1   1.3e-17   1.2e-14   55.7   0.0    10   138    98   229    89   232 0.87 -
ID=PSME_00044066     -            245 180839at3193         -            141   1.4e-14   55.4   0.0   1   1   2.1e-17   1.9e-14   55.0   0.0     6   139     6   142     1   144 0.85 -
ID=PSME_00040563     -            205 180839at3193         -            141   1.9e-14   55.0   0.0   1   1   2.7e-17   2.5e-14   54.6   0.0    19   138    19   141    12   144 0.86 -
ID=PSME_00053464     -            154 180839at3193         -            141   2.5e-14   54.6   0.0   1   1   3.4e-17   3.1e-14   54.3   0.0    18   138    16   139     8   142 0.86 -
ID=PSME_00002369     -            198 180839at3193         -            141   3.1e-14   54.4   0.0   1   1   4.6e-17   4.2e-14   53.9   0.0    18   138    19   142     8   145 0.86 -
ID=PSME_00040564     -            216 180839at3193         -            141   3.4e-14   54.2   0.0   1   1   5.2e-17   4.7e-14   53.8   0.0    18   138    17   140    10   143 0.87 -
ID=PSME_00024284     -            196 180839at3193         -            141   5.5e-14   53.5   0.0   1   1     8e-17   7.3e-14   53.1   0.0    18   138    18   141     3   144 0.87 -
ID=PSME_00033757     -            173 180839at3193         -            141   7.5e-14   53.1   0.0   1   1   1.1e-16   9.6e-14   52.7   0.0    21   117     6   100     3   129 0.84 -
ID=PSME_00044084     -            213 180839at3193         -            141   7.8e-14   53.0   0.0   1   1   1.1e-16     1e-13   52.7   0.0    10   139    25   157    16   159 0.82 -
ID=PSME_00052804     -            193 180839at3193         -            141   1.8e-13   51.8   0.0   1   1   2.5e-16   2.3e-13   51.5   0.0    16   138    25   150    10   153 0.84 -
ID=PSME_00052529     -            157 180839at3193         -            141   2.1e-13   51.7   0.0   1   1   2.8e-16   2.6e-13   51.4   0.0    20   138    22   143    12   146 0.87 -
ID=PSME_00040199     -            237 180839at3193         -            141   2.2e-13   51.6   0.0   1   1   3.4e-16   3.1e-13   51.1   0.0    14   139    19   147     7   149 0.84 -
ID=PSME_00052045     -            204 180839at3193         -            141   4.4e-13   50.6   0.0   1   1   6.5e-16     6e-13   50.2   0.0    19   138    10   132     2   135 0.88 -
ID=PSME_00036061     -            204 180839at3193         -            141   8.5e-13   49.7   0.0   1   1   1.2e-15   1.1e-12   49.3   0.0    15   138    16   142     3   145 0.81 -
ID=PSME_00027564     -            307 180839at3193         -            141   1.4e-12   48.9   0.0   1   1   2.9e-15   2.7e-12   48.1   0.0    10   136    20   149    11   154 0.84 -
ID=PSME_00041818     -            209 180839at3193         -            141     2e-12   48.5   0.0   1   1     3e-15   2.7e-12   48.0   0.0    18   138    20   143    12   146 0.86 -
ID=PSME_00050702     -            205 180839at3193         -            141   2.9e-12   48.0   0.0   1   1   4.9e-15   4.4e-12   47.4   0.0    19   137    17   138     5   141 0.85 -
ID=PSME_00053320     -            228 180839at3193         -            141   4.7e-12   47.3   0.1   1   2   1.7e-13   1.5e-10   42.4   0.0    10    97    18   103     9   112 0.86 -
ID=PSME_00053320     -            228 180839at3193         -            141   4.7e-12   47.3   0.1   2   2      0.18   1.7e+02    3.4   0.0    85   138   111   170   103   173 0.70 -
ID=PSME_00034292     -            223 180839at3193         -            141     5e-12   47.2   0.0   1   1   7.3e-15   6.6e-12   46.8   0.0     8   138     5   138     1   141 0.85 -
ID=PSME_00035810     -            194 180839at3193         -            141   5.3e-12   47.1   0.0   1   1   7.4e-15   6.8e-12   46.8   0.0    10   138    22   153    13   156 0.80 -
ID=PSME_00017307     -            146 180839at3193         -            141   1.7e-11   45.4   0.0   1   1   2.3e-14   2.1e-11   45.2   0.0    11   102    19   108    10   132 0.86 -
ID=PSME_00022720     -            207 180839at3193         -            141   3.1e-11   44.6   0.0   1   1   4.2e-14   3.9e-11   44.3   0.0    10   125    18   133     9   152 0.83 -
ID=PSME_00026842     -            136 180839at3193         -            141   8.8e-11   43.2   0.0   1   1   1.2e-13   1.1e-10   42.9   0.0    10    97    18   103     9   112 0.87 -
ID=PSME_00030799     -            153 180839at3193         -            141   1.4e-10   42.5   0.0   1   1     2e-13   1.8e-10   42.2   0.0    10    98    18   104     9   119 0.86 -
ID=PSME_00047546     -            269 180839at3193         -            141     3e-10   41.4   0.0   1   1   4.4e-13     4e-10   41.0   0.0    18   139    53   177    36   179 0.85 -
ID=PSME_00012530     -            283 180839at3193         -            141   3.1e-10   41.4   0.0   1   2     5e-12   4.5e-09   37.6   0.0    19   137    20   136     6   140 0.78 -
ID=PSME_00012530     -            283 180839at3193         -            141   3.1e-10   41.4   0.0   2   2      0.68   6.2e+02    1.5   0.0    84   138   207   266   183   269 0.62 -
ID=PSME_00014192     -            269 180839at3193         -            141   3.1e-10   41.4   0.0   1   1   4.7e-13   4.3e-10   40.9   0.0    18   139    53   177    36   179 0.86 -
ID=PSME_00054031     -            148 180839at3193         -            141   7.6e-10   40.1   0.0   1   1   1.1e-12   9.7e-10   39.8   0.0     9    93    17    99     9   102 0.86 -
ID=PSME_00000739     -            156 180839at3193         -            141   8.5e-10   40.0   0.1   1   1   1.1e-12     1e-09   39.7   0.1    10    96    18   102     9   122 0.86 -
ID=PSME_00030798     -            148 180839at3193         -            141   1.5e-08   35.9   0.0   1   1   2.2e-11     2e-08   35.5   0.0     9    82    17    88     9    93 0.86 -
ID=PSME_00038009     -            128 180839at3193         -            141   4.3e-08   34.4   0.0   1   1   5.4e-11   4.9e-08   34.2   0.0    19    95    21    95     6   111 0.88 -
ID=PSME_00012529     -            117 180839at3193         -            141   2.2e-07   32.2   0.0   1   1   2.7e-10   2.5e-07   32.0   0.0    19   115    21   115    10   116 0.93 -
ID=PSME_00015961     -            213 180839at3193         -            141   2.2e-07   32.1   0.0   1   1   4.4e-10   4.1e-07   31.3   0.0    10   138    18   155     9   158 0.75 -
ID=PSME_00014222     -             69 180839at3193         -            141     1e-06   30.0   0.0   1   1   1.2e-09   1.1e-06   29.9   0.0     8    62    16    68     8    68 0.81 -
ID=PSME_00014225     -             69 180839at3193         -            141   2.7e-06   28.6   0.0   1   1   3.1e-09   2.8e-06   28.5   0.0     8    62    16    68     8    68 0.81 -
ID=PSME_00014226     -             69 180839at3193         -            141   2.7e-06   28.6   0.0   1   1   3.1e-09   2.8e-06   28.5   0.0     8    62    16    68     8    68 0.81 -
ID=PSME_00038988     -             69 180839at3193         -            141   5.9e-06   27.5   0.0   1   1   6.9e-09   6.3e-06   27.4   0.0     9    62    17    68     8    68 0.80 -
ID=PSME_00047757     -             68 180839at3193         -            141     6e-06   27.5   0.0   1   1   7.1e-09   6.5e-06   27.4   0.0     9    62    16    67     8    67 0.81 -
ID=PSME_00005821     -             69 180839at3193         -            141     8e-06   27.1   0.0   1   1   9.2e-09   8.4e-06   27.0   0.0    10    62    18    68     8    68 0.81 -
ID=PSME_00038437     -             83 180839at3193         -            141   9.2e-06   26.9   0.0   1   1   1.2e-08   1.1e-05   26.6   0.0    10    62    32    82    21    82 0.81 -
ID=PSME_00048291     -            219 180839at3193         -            141   9.3e-06   26.9   0.0   1   2     2e-07   0.00018   22.7   0.0    10    52    17    58     8    79 0.78 -
ID=PSME_00048291     -            219 180839at3193         -            141   9.3e-06   26.9   0.0   2   2       0.4   3.6e+02    2.3   0.0    96   138   114   161    98   164 0.74 -
ID=PSME_00041211     -            443 180839at3193         -            141   1.6e-05   26.1   0.0   1   1   4.2e-08   3.8e-05   24.9   0.0    15    65    12    60     3    65 0.84 -
ID=PSME_00006349     -             68 180839at3193         -            141   1.8e-05   26.0   0.0   1   1   2.2e-08     2e-05   25.8   0.0    10    50    18    57     9    62 0.81 -
ID=PSME_00014227     -             69 180839at3193         -            141   2.1e-05   25.7   0.0   1   1   2.4e-08   2.2e-05   25.6   0.0     9    62    17    68     8    68 0.81 -
ID=PSME_00037428     -            123 180839at3193         -            141     3e-05   25.2   0.0   1   1   4.1e-08   3.8e-05   24.9   0.0    70   138    11    84     3    87 0.84 -
ID=PSME_00015884     -            176 180839at3193         -            141   0.00011   23.4   0.0   1   1   1.8e-07   0.00017   22.8   0.0    14    62   129   175   118   175 0.79 -
ID=PSME_00024093     -             63 180839at3193         -            141   0.00071   20.8   0.0   1   1   7.7e-07   0.00071   20.8   0.0    20    49    22    51     8    62 0.84 -
ID=PSME_00048543     -            146 180839at3193         -            141    0.0016   19.6   0.0   1   2   1.2e-05     0.011   16.9   0.0    16    48    17    49     3    54 0.84 -
ID=PSME_00048543     -            146 180839at3193         -            141    0.0016   19.6   0.0   2   2      0.97   8.8e+02    1.0   0.0   100   138    51    94    49    97 0.61 -
ID=PSME_00055396     -            139 180839at3193         -            141    0.0026   18.9   0.0   1   1   3.9e-06    0.0035   18.5   0.0    19    56    53    90    37   105 0.90 -
ID=PSME_00049711     -            179 180839at3193         -            141    0.0039   18.4   0.0   1   1   5.7e-06    0.0052   18.0   0.0    68   116    47    95     3   107 0.83 -
ID=PSME_00029761     -             63 180839at3193         -            141    0.0055   17.9   0.0   1   1     6e-06    0.0055   17.9   0.0    19    51    21    52     5    61 0.85 -
#
# Program:         hmmsearch
# Version:         3.2.1 (June 2018)
# Pipeline mode:   SEARCH
# Query file:      /isg/shared/databases/BUSCO/odb10/embryophyta_odb10/hmms/180839at3193.hmm
# Target file:     /labs/Wegrzyn/ConiferGenomes/Psme/analysis/SURF_annotation/analyze_orig_maker/gfacs/filtered/maker_genes.fasta.faa
# Option settings: /usr/local/bin/hmmsearch --domtblout /labs/Wegrzyn/ConiferGenomes/Psme/analysis/SURF_annotation/analyze_orig_maker/busco/maker/run_embryophyta_odb10/hmmer_output/180839at3193.out --cpu 1 /isg/shared/databases/BUSCO/odb10/embryophyta_odb10/hmms/180839at3193.hmm /labs/Wegrzyn/ConiferGenomes/Psme/analysis/SURF_annotation/analyze_orig_maker/gfacs/filtered/maker_genes.fasta.faa 
# Current dir:     /labs/Wegrzyn/ConiferGenomes/Psme/analysis/SURF_annotation/analyze_orig_maker/busco
# Date:            Fri Jul 10 13:46:30 2020
# [ok]
