#                                                                            --- full sequence --- -------------- this domain -------------   hmm coord   ali coord   env coord
# target name        accession   tlen query name           accession   qlen   E-value  score  bias   #  of  c-Evalue  i-Evalue  score  bias  from    to  from    to  from    to  acc description of target
#------------------- ---------- ----- -------------------- ---------- ----- --------- ------ ----- --- --- --------- --------- ------ ----- ----- ----- ----- ----- ----- ----- ---- ---------------------
ID=PSME_00018679     -            574 181042at3193         -            142   7.3e-30  105.3   0.0   1   3   1.4e-17   4.3e-14   54.1   0.0    26   135    57   162    47   166 0.85 -
ID=PSME_00018679     -            574 181042at3193         -            142   7.3e-30  105.3   0.0   2   3   9.6e-07    0.0029   19.1   0.0    90   138   230   284   219   287 0.80 -
ID=PSME_00018679     -            574 181042at3193         -            142   7.3e-30  105.3   0.0   3   3     2e-09   5.9e-06   27.8   0.0    39   127   307   393   297   399 0.84 -
ID=PSME_00001055     -            680 181042at3193         -            142   1.2e-26   94.9   0.6   1   3   7.3e-18   2.2e-14   55.1   0.0    26   135    35   140    25   146 0.86 -
ID=PSME_00001055     -            680 181042at3193         -            142   1.2e-26   94.9   0.6   2   3   6.2e-06     0.019   16.4   0.0    92   137   209   260   194   264 0.84 -
ID=PSME_00001055     -            680 181042at3193         -            142   1.2e-26   94.9   0.6   3   3     6e-07    0.0018   19.7   0.1    41   137   286   378   269   383 0.77 -
ID=PSME_00043189     -            213 181042at3193         -            142   2.4e-25   90.6   0.5   1   2   2.1e-10   6.5e-07   30.9   0.0    26    80     7    66     3    74 0.87 -
ID=PSME_00043189     -            213 181042at3193         -            142   2.4e-25   90.6   0.5   2   2   8.7e-19   2.6e-15   58.1   0.1    94   138   100   144    95   147 0.94 -
ID=PSME_00029274     -            511 181042at3193         -            142   6.5e-25   89.2   0.0   1   3   1.4e-15   4.4e-12   47.7   0.0    27   135    27   131     8   136 0.81 -
ID=PSME_00029274     -            511 181042at3193         -            142   6.5e-25   89.2   0.0   2   3   6.5e-07     0.002   19.6   0.0    91   138   199   252   187   254 0.82 -
ID=PSME_00029274     -            511 181042at3193         -            142   6.5e-25   89.2   0.0   3   3   2.3e-06    0.0071   17.8   0.0    81   137   311   370   269   375 0.83 -
ID=PSME_00027180     -            518 181042at3193         -            142   8.5e-17   62.9   0.3   1   1   5.4e-20   1.6e-16   62.0   0.3    19   137   308   422   294   424 0.87 -
ID=PSME_00033605     -            194 181042at3193         -            142   1.4e-15   59.0   0.0   1   2   1.8e-13   5.6e-10   40.8   0.0    84   136     2    55     1    59 0.93 -
ID=PSME_00033605     -            194 181042at3193         -            142   1.4e-15   59.0   0.0   2   2   7.3e-06     0.022   16.2   0.0    94   138   126   176   112   180 0.81 -
ID=PSME_00045865     -            820 181042at3193         -            142   2.3e-12   48.5   1.0   1   4     0.011        34    5.9   0.0   102   137    63   104    54   108 0.79 -
ID=PSME_00045865     -            820 181042at3193         -            142   2.3e-12   48.5   1.0   2   4     1e-05      0.03   15.8   0.1    42   136   131   221   112   227 0.75 -
ID=PSME_00045865     -            820 181042at3193         -            142   2.3e-12   48.5   1.0   3   4      0.07   2.1e+02    3.3   0.0   103   137   497   537   486   540 0.77 -
ID=PSME_00045865     -            820 181042at3193         -            142   2.3e-12   48.5   1.0   4   4   1.5e-06    0.0044   18.5   0.1    43   137   565   655   549   660 0.75 -
ID=PSME_00044340     -            253 181042at3193         -            142   3.2e-11   44.9   0.0   1   2   4.9e-09   1.5e-05   26.5   0.0    97   135     1    40     1    44 0.91 -
ID=PSME_00044340     -            253 181042at3193         -            142   3.2e-11   44.9   0.0   2   2   7.2e-06     0.022   16.2   0.0    94   137   132   179   100   184 0.88 -
ID=PSME_00010397     -            199 181042at3193         -            142   1.9e-07   32.6   0.0   1   1   8.7e-11   2.6e-07   32.2   0.0    73   137    67   129    42   137 0.88 -
ID=PSME_00041742     -            132 181042at3193         -            142   6.8e-07   30.8   0.0   1   2    0.0019       5.7    8.4   0.0   115   137    12    34     3    38 0.87 -
ID=PSME_00041742     -            132 181042at3193         -            142   6.8e-07   30.8   0.0   2   2   2.9e-07   0.00089   20.7   0.0    39   117    58   130    47   131 0.86 -
ID=PSME_00041875     -             97 181042at3193         -            142   1.3e-06   30.0   0.0   1   1   5.5e-10   1.7e-06   29.6   0.0    97   135     1    40     1    45 0.91 -
ID=PSME_00041741     -            147 181042at3193         -            142   1.3e-05   26.7   0.0   1   2    0.0074        23    6.5   0.0   105   138     9    48     1    52 0.73 -
ID=PSME_00041741     -            147 181042at3193         -            142   1.3e-05   26.7   0.0   2   2   1.4e-06    0.0042   18.5   0.0    41   116    73   142    61   145 0.85 -
ID=PSME_00016830     -            825 181042at3193         -            142   0.00011   23.7   0.0   1   2     0.034     1e+02    4.3   0.0    70   115   127   169   124   179 0.86 -
ID=PSME_00016830     -            825 181042at3193         -            142   0.00011   23.7   0.0   2   2   6.5e-06      0.02   16.4   0.0    70   137   753   821   750   824 0.83 -
ID=PSME_00033432     -            149 181042at3193         -            142     0.002   19.6   0.3   1   2      0.22   6.8e+02    1.7   0.0   121   137    22    38     3    42 0.82 -
ID=PSME_00033432     -            149 181042at3193         -            142     0.002   19.6   0.3   2   2   7.2e-06     0.022   16.2   0.1    39   115    62   131    40   146 0.77 -
ID=PSME_00008309     -            223 181042at3193         -            142     0.024   16.1   0.0   1   1   1.1e-05     0.035   15.6   0.0    88   136     8    59     3    64 0.85 -
ID=PSME_00012170     -            161 181042at3193         -            142     0.034   15.6   0.0   1   1   1.6e-05     0.049   15.1   0.0    86   124     4    42     1    47 0.90 -
ID=PSME_00002980     -            114 181042at3193         -            142      0.11   13.9   0.0   1   1   4.7e-05      0.14   13.6   0.0    83   137    22    80     2    85 0.78 -
ID=PSME_00033434     -            228 181042at3193         -            142      0.15   13.5   0.3   1   2      0.54   1.7e+03    0.4   0.0   121   137   101   117    94   122 0.86 -
ID=PSME_00033434     -            228 181042at3193         -            142      0.15   13.5   0.3   2   2   0.00032      0.98   10.9   0.1    40   116   142   211   122   226 0.74 -
#
# Program:         hmmsearch
# Version:         3.2.1 (June 2018)
# Pipeline mode:   SEARCH
# Query file:      /isg/shared/databases/BUSCO/odb10/embryophyta_odb10/hmms/181042at3193.hmm
# Target file:     /labs/Wegrzyn/ConiferGenomes/Psme/analysis/SURF_annotation/analyze_orig_maker/gfacs/filtered/maker_genes.fasta.faa
# Option settings: /usr/local/bin/hmmsearch --domtblout /labs/Wegrzyn/ConiferGenomes/Psme/analysis/SURF_annotation/analyze_orig_maker/busco/maker/run_embryophyta_odb10/hmmer_output/181042at3193.out --cpu 1 /isg/shared/databases/BUSCO/odb10/embryophyta_odb10/hmms/181042at3193.hmm /labs/Wegrzyn/ConiferGenomes/Psme/analysis/SURF_annotation/analyze_orig_maker/gfacs/filtered/maker_genes.fasta.faa 
# Current dir:     /labs/Wegrzyn/ConiferGenomes/Psme/analysis/SURF_annotation/analyze_orig_maker/busco
# Date:            Fri Jul 10 13:46:28 2020
# [ok]
