#                                                                            --- full sequence --- -------------- this domain -------------   hmm coord   ali coord   env coord
# target name        accession   tlen query name           accession   qlen   E-value  score  bias   #  of  c-Evalue  i-Evalue  score  bias  from    to  from    to  from    to  acc description of target
#------------------- ---------- ----- -------------------- ---------- ----- --------- ------ ----- --- --- --------- --------- ------ ----- ----- ----- ----- ----- ----- ----- ---- ---------------------
ID=PSME_00010011     -            110 18435at3193          -            651   8.4e-46  157.9   0.2   1   1   7.6e-49   9.4e-46  157.8   0.2   433   521     1    90     1   104 0.94 -
ID=PSME_00035120     -            369 18435at3193          -            651   1.7e-40  140.4   1.1   1   2   1.7e-15   2.1e-12   47.6   0.1   251   342     4   120     2   131 0.77 -
ID=PSME_00035120     -            369 18435at3193          -            651   1.7e-40  140.4   1.1   2   2   1.9e-25   2.4e-22   80.4   0.1   362   505   186   327   128   332 0.77 -
ID=PSME_00010010     -            182 18435at3193          -            651   1.4e-38  134.1   0.2   1   1   8.1e-41     1e-37  131.2   0.2   520   638    27   149    20   181 0.88 -
ID=PSME_00055470     -             73 18435at3193          -            651   1.5e-30  107.6   0.2   1   1   1.3e-33   1.6e-30  107.4   0.2   461   520     1    60     1    68 0.97 -
ID=PSME_00010012     -             63 18435at3193          -            651   1.1e-23   84.8   0.0   1   1     1e-26   1.3e-23   84.7   0.0   276   320    17    61    12    62 0.95 -
ID=PSME_00010013     -            323 18435at3193          -            651   2.4e-11   44.1   0.0   1   1   2.7e-14   3.4e-11   43.6   0.0   237   282   236   285   229   301 0.84 -
ID=PSME_00039230     -            553 18435at3193          -            651   3.8e-07   30.2   0.0   1   1   4.1e-10     5e-07   29.8   0.0   173   450   188   500   172   519 0.72 -
ID=PSME_00047772     -            410 18435at3193          -            651   3.8e-07   30.2   0.2   1   2   5.5e-06    0.0069   16.1   0.0   181   281    82   189    72   242 0.68 -
ID=PSME_00047772     -            410 18435at3193          -            651   3.8e-07   30.2   0.2   2   2   7.2e-05      0.09   12.5   0.0   377   455   302   384   269   403 0.79 -
ID=PSME_00041255     -            553 18435at3193          -            651   7.6e-07   29.2   0.1   1   1     8e-10   9.9e-07   28.8   0.1   198   450   223   500   172   519 0.72 -
ID=PSME_00010735     -            620 18435at3193          -            651   1.2e-06   28.6   0.0   1   2   0.00013      0.17   11.6   0.0   199   280   248   334   206   366 0.74 -
ID=PSME_00010735     -            620 18435at3193          -            651   1.2e-06   28.6   0.0   2   2   1.3e-05     0.016   14.9   0.0   387   462   469   544   442   563 0.83 -
ID=PSME_00039978     -            439 18435at3193          -            651   2.7e-06   27.4   0.4   1   2   0.00016       0.2   11.3   0.2   171   279    92   209    81   241 0.70 -
ID=PSME_00039978     -            439 18435at3193          -            651   2.7e-06   27.4   0.4   2   2   2.3e-05     0.029   14.1   0.0   393   454   344   405   321   426 0.74 -
ID=PSME_00049527     -            414 18435at3193          -            651   2.9e-06   27.3   0.1   1   1   2.9e-08   3.7e-05   23.7   0.1   199   458   108   393    77   405 0.68 -
ID=PSME_00039979     -            347 18435at3193          -            651   4.2e-06   26.8   0.5   1   2    0.0003      0.37   10.4   0.1   172   259     1    92     1   148 0.72 -
ID=PSME_00039979     -            347 18435at3193          -            651   4.2e-06   26.8   0.5   2   2   1.6e-05     0.019   14.7   0.0   393   454   252   313   233   334 0.74 -
ID=PSME_00000892     -            412 18435at3193          -            651   4.5e-06   26.7   0.1   1   2   4.7e-06    0.0058   16.4   0.0   198   281   105   192    75   237 0.68 -
ID=PSME_00000892     -            412 18435at3193          -            651   4.5e-06   26.7   0.1   2   2    0.0011       1.4    8.5   0.0   389   458   320   391   277   404 0.73 -
ID=PSME_00047834     -            410 18435at3193          -            651   5.2e-06   26.5   0.2   1   2   7.2e-06     0.009   15.8   0.0   181   281    82   189    72   239 0.68 -
ID=PSME_00047834     -            410 18435at3193          -            651   5.2e-06   26.5   0.2   2   2   0.00078      0.98    9.0   0.0   389   455   318   384   271   403 0.77 -
ID=PSME_00013579     -            522 18435at3193          -            651   5.3e-06   26.4   0.5   1   2   0.00021      0.27   10.9   0.2   172   278    95   210    83   242 0.72 -
ID=PSME_00013579     -            522 18435at3193          -            651   5.3e-06   26.4   0.5   2   2   2.7e-05     0.034   13.9   0.0   391   463   344   415   283   423 0.75 -
ID=PSME_00047883     -            410 18435at3193          -            651   5.4e-06   26.4   0.2   1   2   7.7e-06    0.0096   15.7   0.0   181   263    82   166    72   231 0.70 -
ID=PSME_00047883     -            410 18435at3193          -            651   5.4e-06   26.4   0.2   2   2   0.00081         1    9.0   0.0   389   455   318   384   278   403 0.76 -
ID=PSME_00041552     -            451 18435at3193          -            651   5.7e-06   26.3   0.2   1   2   6.7e-06    0.0084   15.9   0.0   181   281   123   230   113   280 0.68 -
ID=PSME_00041552     -            451 18435at3193          -            651   5.7e-06   26.3   0.2   2   2   0.00092       1.1    8.8   0.0   389   455   359   425   312   444 0.77 -
ID=PSME_00043687     -            413 18435at3193          -            651   7.2e-06   26.0   0.1   1   2     8e-06      0.01   15.6   0.0   198   279   106   191    76   238 0.72 -
ID=PSME_00043687     -            413 18435at3193          -            651   7.2e-06   26.0   0.1   2   2     0.001       1.3    8.6   0.0   377   458   305   392   275   405 0.72 -
ID=PSME_00046222     -            855 18435at3193          -            651   1.1e-05   25.4   0.5   1   1   4.8e-08   5.9e-05   23.0   0.5   203   454   341   618   331   648 0.71 -
ID=PSME_00034125     -            870 18435at3193          -            651   1.2e-05   25.2   0.0   1   2     0.002       2.4    7.7   0.0   201   281   293   377   283   388 0.87 -
ID=PSME_00034125     -            870 18435at3193          -            651   1.2e-05   25.2   0.0   2   2   1.1e-05     0.013   15.2   0.0   389   455   506   572   479   588 0.80 -
ID=PSME_00032141     -            428 18435at3193          -            651   3.2e-05   23.9   0.0   1   2   7.7e-07   0.00096   19.0   0.0   201   281   109   196   104   208 0.79 -
ID=PSME_00032141     -            428 18435at3193          -            651   3.2e-05   23.9   0.0   2   2     0.064        80    2.7   0.0   370   419   319   372   295   382 0.73 -
ID=PSME_00041256     -            266 18435at3193          -            651   7.6e-05   22.6   0.0   1   2    0.0018       2.2    7.8   0.0   200   278    13    95     2   104 0.81 -
ID=PSME_00041256     -            266 18435at3193          -            651   7.6e-05   22.6   0.0   2   2   5.8e-05     0.072   12.8   0.0   371   443   130   206   121   240 0.79 -
ID=PSME_00040415     -            761 18435at3193          -            651    0.0002   21.2   0.0   1   2    0.0082        10    5.7   0.0   199   280   251   336   237   345 0.82 -
ID=PSME_00040415     -            761 18435at3193          -            651    0.0002   21.2   0.0   2   2   3.9e-05     0.048   13.4   0.0   392   454   469   531   448   556 0.85 -
ID=PSME_00050148     -            238 18435at3193          -            651   0.00045   20.1   0.0   1   1   4.6e-07   0.00057   19.7   0.0   371   454    96   183    84   197 0.79 -
ID=PSME_00012859     -            635 18435at3193          -            651   0.00057   19.7   0.0   1   1   1.5e-06    0.0019   18.0   0.0   202   454   268   548   249   567 0.73 -
ID=PSME_00039428     -            658 18435at3193          -            651   0.00078   19.3   0.0   1   2     0.063        78    2.7   0.0   202   280   229   301   224   326 0.63 -
ID=PSME_00039428     -            658 18435at3193          -            651   0.00078   19.3   0.0   2   2   1.9e-05     0.024   14.4   0.0   381   455   427   505   375   512 0.76 -
ID=PSME_00010814     -            597 18435at3193          -            651    0.0016   18.2   0.0   1   1   2.1e-06    0.0026   17.5   0.0   202   453   248   524   216   544 0.75 -
ID=PSME_00017596     -            281 18435at3193          -            651    0.0022   17.8   0.0   1   1   2.3e-06    0.0029   17.4   0.0   380   454    15    93     9   111 0.76 -
ID=PSME_00037049     -            308 18435at3193          -            651    0.0027   17.5   0.0   1   2      0.75   9.4e+02   -0.8   0.0   486   544    36    94     7   120 0.73 -
ID=PSME_00037049     -            308 18435at3193          -            651    0.0027   17.5   0.0   2   2   7.8e-06    0.0097   15.7   0.0   381   463   139   226   130   234 0.80 -
ID=PSME_00010460     -           1691 18435at3193          -            651    0.0037   17.0   0.5   1   2         4     5e+03   -3.2   0.1   180   276   105   207    95   208 0.59 -
ID=PSME_00010460     -           1691 18435at3193          -            651    0.0037   17.0   0.5   2   2   5.2e-06    0.0064   16.2   0.0   378   441   477   540   467   557 0.89 -
ID=PSME_00052722     -            200 18435at3193          -            651    0.0038   17.0   0.0   1   1   3.5e-06    0.0044   16.8   0.0   181   259    85   165    74   194 0.76 -
ID=PSME_00049494     -            220 18435at3193          -            651    0.0042   16.8   0.0   1   1   3.9e-06    0.0049   16.6   0.0   181   260    76   157    65   189 0.73 -
ID=PSME_00036706     -            640 18435at3193          -            651    0.0051   16.6   0.0   1   2     0.094   1.2e+02    2.2   0.0   202   272   255   324   245   344 0.79 -
ID=PSME_00036706     -            640 18435at3193          -            651    0.0051   16.6   0.0   2   2   9.3e-05      0.12   12.1   0.0   381   453   464   540   455   558 0.79 -
ID=PSME_00027092     -            134 18435at3193          -            651    0.0063   16.3   0.1   1   1   5.6e-06     0.007   16.1   0.1   181   258    46   125    35   132 0.79 -
ID=PSME_00015686     -            849 18435at3193          -            651    0.0088   15.8   0.0   1   2     0.011        14    5.3   0.0   201   281   307   394   302   412 0.80 -
ID=PSME_00015686     -            849 18435at3193          -            651    0.0088   15.8   0.0   2   2    0.0013       1.6    8.3   0.0   387   447   578   638   549   654 0.79 -
ID=PSME_00013759     -            610 18435at3193          -            651     0.012   15.4   0.0   1   2     0.002       2.4    7.7   0.0   198   266   211   278   195   303 0.84 -
ID=PSME_00013759     -            610 18435at3193          -            651     0.012   15.4   0.0   2   2    0.0093        12    5.5   0.0   364   419   370   431   351   437 0.73 -
ID=PSME_00041551     -            330 18435at3193          -            651     0.035   13.8   0.2   1   2     0.086   1.1e+02    2.3   0.0   213   310    36   144    27   165 0.69 -
ID=PSME_00041551     -            330 18435at3193          -            651     0.035   13.8   0.2   2   2   0.00045      0.56    9.8   0.0   389   455   238   304   189   323 0.77 -
ID=PSME_00034692     -            661 18435at3193          -            651     0.061   13.0   0.0   1   2       1.6   1.9e+03   -1.9   0.0   221   273   298   350   272   364 0.63 -
ID=PSME_00034692     -            661 18435at3193          -            651     0.061   13.0   0.0   2   2   0.00016       0.2   11.3   0.0   381   455   491   569   481   597 0.79 -
ID=PSME_00045197     -            225 18435at3193          -            651     0.061   13.0   0.0   1   1   5.6e-05     0.069   12.8   0.0   181   261    85   167    75   220 0.76 -
ID=PSME_00017714     -            628 18435at3193          -            651      0.21   11.3   0.0   1   1   0.00023      0.28   10.8   0.0   342   468   335   471   146   490 0.61 -
ID=PSME_00019301     -            459 18435at3193          -            651      0.23   11.1   0.0   1   2     0.051        64    3.0   0.0   199   280   152   237   121   269 0.77 -
ID=PSME_00019301     -            459 18435at3193          -            651      0.23   11.1   0.0   2   2    0.0061       7.6    6.1   0.0   392   442   367   414   325   441 0.75 -
ID=PSME_00055514     -            174 18435at3193          -            651      0.25   11.0   0.0   1   2       1.3   1.6e+03   -1.6   0.0   225   260     6    41     3    78 0.70 -
ID=PSME_00055514     -            174 18435at3193          -            651      0.25   11.0   0.0   2   2   0.00046      0.57    9.8   0.0   392   454    85   147    68   168 0.77 -
ID=PSME_00032541     -            332 18435at3193          -            651      0.51   10.0   0.0   1   1   0.00054      0.68    9.6   0.0   576   649   162   240   138   242 0.77 -
#
# Program:         hmmsearch
# Version:         3.2.1 (June 2018)
# Pipeline mode:   SEARCH
# Query file:      /isg/shared/databases/BUSCO/odb10/embryophyta_odb10/hmms/18435at3193.hmm
# Target file:     /labs/Wegrzyn/ConiferGenomes/Psme/analysis/SURF_annotation/analyze_orig_maker/gfacs/filtered/maker_genes.fasta.faa
# Option settings: /usr/local/bin/hmmsearch --domtblout /labs/Wegrzyn/ConiferGenomes/Psme/analysis/SURF_annotation/analyze_orig_maker/busco/maker/run_embryophyta_odb10/hmmer_output/18435at3193.out --cpu 1 /isg/shared/databases/BUSCO/odb10/embryophyta_odb10/hmms/18435at3193.hmm /labs/Wegrzyn/ConiferGenomes/Psme/analysis/SURF_annotation/analyze_orig_maker/gfacs/filtered/maker_genes.fasta.faa 
# Current dir:     /labs/Wegrzyn/ConiferGenomes/Psme/analysis/SURF_annotation/analyze_orig_maker/busco
# Date:            Fri Jul 10 13:46:31 2020
# [ok]
