#                                                                            --- full sequence --- -------------- this domain -------------   hmm coord   ali coord   env coord
# target name        accession   tlen query name           accession   qlen   E-value  score  bias   #  of  c-Evalue  i-Evalue  score  bias  from    to  from    to  from    to  acc description of target
#------------------- ---------- ----- -------------------- ---------- ----- --------- ------ ----- --- --- --------- --------- ------ ----- ----- ----- ----- ----- ----- ----- ---- ---------------------
ID=PSME_00003868     -            379 185210at3193         -            169    0.0022   19.6   0.2   1   1   1.4e-06    0.0034   19.0   0.2    20   141   185   306   172   327 0.70 -
ID=PSME_00044759     -            252 185210at3193         -            169    0.0022   19.6   0.1   1   1   1.2e-06     0.003   19.1   0.1    21   123    55   157    39   195 0.70 -
ID=PSME_00030655     -            405 185210at3193         -            169    0.0028   19.2   0.9   1   1   1.8e-06    0.0044   18.6   0.9    30   143   222   338   208   348 0.81 -
ID=PSME_00016804     -            305 185210at3193         -            169    0.0028   19.2   0.1   1   1   1.6e-06     0.004   18.7   0.1    34   159   166   291   139   298 0.76 -
ID=PSME_00042555     -            235 185210at3193         -            169     0.007   17.9   0.6   1   1   3.9e-06    0.0097   17.5   0.6    21   152    39   169    26   176 0.76 -
ID=PSME_00045973     -            245 185210at3193         -            169    0.0081   17.7   0.2   1   1   4.4e-06     0.011   17.3   0.2    21   106    50   133    34   188 0.74 -
ID=PSME_00017283     -            262 185210at3193         -            169    0.0084   17.7   0.3   1   1   5.4e-06     0.013   17.0   0.3    22   115    56   146    43   176 0.76 -
ID=PSME_00034733     -            227 185210at3193         -            169     0.011   17.3   0.7   1   1     8e-06      0.02   16.5   0.7    21   133    41   150    25   160 0.81 -
ID=PSME_00004806     -            472 185210at3193         -            169     0.012   17.2   0.1   1   1   7.9e-06      0.02   16.5   0.1    21   123   277   378   263   416 0.70 -
ID=PSME_00018743     -            393 185210at3193         -            169     0.014   17.0   0.2   1   1     9e-06     0.022   16.3   0.2    21   101   196   274   184   328 0.79 -
ID=PSME_00010287     -            258 185210at3193         -            169     0.018   16.6   0.1   1   1   1.1e-05     0.028   16.0   0.1    31   125    57   151    37   196 0.79 -
ID=PSME_00044357     -            284 185210at3193         -            169     0.019   16.6   0.4   1   1   1.1e-05     0.028   16.0   0.4    21   140    92   207    80   231 0.70 -
ID=PSME_00025883     -            343 185210at3193         -            169      0.02   16.5   0.1   1   1   1.4e-05     0.034   15.7   0.1    21   102   141   220   126   238 0.82 -
ID=PSME_00002676     -            476 185210at3193         -            169     0.021   16.4   0.9   1   1   1.4e-05     0.034   15.7   0.9    30   143   269   385   247   400 0.82 -
ID=PSME_00019595     -            272 185210at3193         -            169     0.022   16.3   0.4   1   1   1.2e-05     0.029   15.9   0.4    14   100   172   255   159   270 0.76 -
ID=PSME_00033504     -            280 185210at3193         -            169     0.024   16.2   0.1   1   1   1.6e-05      0.04   15.5   0.1    21    97    73   147    58   184 0.82 -
ID=PSME_00033756     -            436 185210at3193         -            169     0.029   16.0   0.4   1   1   1.8e-05     0.045   15.3   0.4    29   140   249   359   232   382 0.68 -
ID=PSME_00002678     -            466 185210at3193         -            169     0.032   15.8   0.6   1   1   2.1e-05     0.053   15.1   0.6    30   143   255   371   240   380 0.80 -
ID=PSME_00027402     -            196 185210at3193         -            169     0.048   15.2   0.2   1   1   2.8e-05     0.069   14.7   0.2    35   140    34   142     8   149 0.73 -
ID=PSME_00014737     -            409 185210at3193         -            169     0.094   14.3   0.1   1   1     6e-05      0.15   13.6   0.1    21    99   288   364   273   389 0.80 -
ID=PSME_00038628     -            468 185210at3193         -            169      0.17   13.4   0.1   1   1   0.00016      0.39   12.3   0.1    31   102   279   351   265   411 0.75 -
ID=PSME_00008219     -            448 185210at3193         -            169       0.2   13.2   0.1   1   1   0.00013      0.34   12.5   0.1    22   103   328   407   317   428 0.79 -
#
# Program:         hmmsearch
# Version:         3.2.1 (June 2018)
# Pipeline mode:   SEARCH
# Query file:      /isg/shared/databases/BUSCO/odb10/embryophyta_odb10/hmms/185210at3193.hmm
# Target file:     /labs/Wegrzyn/ConiferGenomes/Psme/analysis/SURF_annotation/analyze_orig_maker/gfacs/filtered/maker_genes.fasta.faa
# Option settings: /usr/local/bin/hmmsearch --domtblout /labs/Wegrzyn/ConiferGenomes/Psme/analysis/SURF_annotation/analyze_orig_maker/busco/maker/run_embryophyta_odb10/hmmer_output/185210at3193.out --cpu 1 /isg/shared/databases/BUSCO/odb10/embryophyta_odb10/hmms/185210at3193.hmm /labs/Wegrzyn/ConiferGenomes/Psme/analysis/SURF_annotation/analyze_orig_maker/gfacs/filtered/maker_genes.fasta.faa 
# Current dir:     /labs/Wegrzyn/ConiferGenomes/Psme/analysis/SURF_annotation/analyze_orig_maker/busco
# Date:            Fri Jul 10 13:46:29 2020
# [ok]
