#                                                                            --- full sequence --- -------------- this domain -------------   hmm coord   ali coord   env coord
# target name        accession   tlen query name           accession   qlen   E-value  score  bias   #  of  c-Evalue  i-Evalue  score  bias  from    to  from    to  from    to  acc description of target
#------------------- ---------- ----- -------------------- ---------- ----- --------- ------ ----- --- --- --------- --------- ------ ----- ----- ----- ----- ----- ----- ----- ---- ---------------------
ID=PSME_00000156     -           2299 18614at3193          -           1541         0 2292.1  94.6   1   7   1.3e-73   6.6e-71  240.8   8.5     8   149    35   176    28   186 0.95 -
ID=PSME_00000156     -           2299 18614at3193          -           1541         0 2292.1  94.6   2   7   2.2e-16   1.1e-13   51.1  15.3   148   246   245   336   228   379 0.78 -
ID=PSME_00000156     -           2299 18614at3193          -           1541         0 2292.1  94.6   3   7   8.5e-10   4.2e-07   29.3   6.8   232   301   469   541   439   556 0.79 -
ID=PSME_00000156     -           2299 18614at3193          -           1541         0 2292.1  94.6   4   7         0         0 1702.6   5.3   283  1104   598  1446   584  1463 0.94 -
ID=PSME_00000156     -           2299 18614at3193          -           1541         0 2292.1  94.6   5   7   1.1e-43   5.6e-41  141.6   6.9  1099  1199  1473  1573  1446  1588 0.87 -
ID=PSME_00000156     -           2299 18614at3193          -           1541         0 2292.1  94.6   6   7   1.9e-11   9.2e-09   34.8   8.3  1198  1281  1681  1772  1676  1800 0.69 -
ID=PSME_00000156     -           2299 18614at3193          -           1541         0 2292.1  94.6   7   7   1.1e-36   5.4e-34  118.4   0.6  1250  1452  1804  1983  1785  1998 0.81 -
ID=PSME_00015528     -           1201 18614at3193          -           1541    3e-159  533.6  37.3   1   3    0.0015      0.74    8.6  18.1    44   193   214   385   187   410 0.70 -
ID=PSME_00015528     -           1201 18614at3193          -           1541    3e-159  533.6  37.3   2   3  8.3e-100   4.2e-97  327.6   3.4   323   614   423   727   415   735 0.92 -
ID=PSME_00015528     -           1201 18614at3193          -           1541    3e-159  533.6  37.3   3   3   9.7e-64   4.8e-61  208.1   1.0   852  1004  1002  1154   994  1189 0.95 -
ID=PSME_00013965     -           1573 18614at3193          -           1541  3.1e-156  523.5  32.6   1   3      0.12        58    2.3  12.1    51   199   452   607   416   628 0.71 -
ID=PSME_00013965     -           1573 18614at3193          -           1541  3.1e-156  523.5  32.6   2   3   3.4e-97   1.7e-94  318.9   4.8   323   615   658   961   649   999 0.90 -
ID=PSME_00013965     -           1573 18614at3193          -           1541  3.1e-156  523.5  32.6   3   3   3.8e-65   1.9e-62  212.7   0.9   852  1029  1233  1410  1226  1462 0.92 -
ID=PSME_00005765     -           1227 18614at3193          -           1541  2.2e-141  474.4  21.1   1   2     8e-93     4e-90  304.4   0.9   325   623   198   488   187   491 0.96 -
ID=PSME_00005765     -           1227 18614at3193          -           1541  2.2e-141  474.4  21.1   2   2   1.5e-56   7.4e-54  184.2  13.2   853  1214   504   871   498   957 0.70 -
ID=PSME_00000065     -            830 18614at3193          -           1541  1.9e-133  448.0  11.8   1   2   6.4e-81   3.2e-78  265.0   6.2   186   632   113   577    89   585 0.78 -
ID=PSME_00000065     -            830 18614at3193          -           1541  1.9e-133  448.0  11.8   2   2     2e-57     1e-54  187.1   0.2   844  1045   578   780   573   792 0.92 -
ID=PSME_00001767     -            832 18614at3193          -           1541    8e-132  442.7   5.6   1   3       6.5   3.2e+03   -3.5   6.6   996  1072   148   230    54   245 0.60 -
ID=PSME_00001767     -            832 18614at3193          -           1541    8e-132  442.7   5.6   2   3   3.7e-85   1.8e-82  279.0   1.1   324   628   245   561   237   573 0.89 -
ID=PSME_00001767     -            832 18614at3193          -           1541    8e-132  442.7   5.6   3   3   1.1e-53   5.5e-51  174.7   0.2   853  1038   573   764   563   779 0.88 -
ID=PSME_00006567     -           2632 18614at3193          -           1541  8.9e-103  346.4   6.2   1   2   5.3e-59   2.6e-56  192.4   1.2   322   623   917  1223   895  1243 0.87 -
ID=PSME_00006567     -           2632 18614at3193          -           1541  8.9e-103  346.4   6.2   2   2   2.1e-51     1e-48  167.2   0.3   855  1009  1243  1399  1237  1435 0.91 -
ID=PSME_00005283     -           1957 18614at3193          -           1541     3e-82  278.4   0.2   1   2   6.8e-48   3.4e-45  155.5   0.0   327   590  1352  1625  1343  1636 0.88 -
ID=PSME_00005283     -           1957 18614at3193          -           1541     3e-82  278.4   0.2   2   2   2.2e-37   1.1e-34  120.7   0.0   871  1025  1737  1894  1732  1923 0.86 -
ID=PSME_00015826     -            739 18614at3193          -           1541   1.8e-68  232.7   0.6   1   2   0.00014     0.072   11.9   0.0   590   623   247   280   241   286 0.84 -
ID=PSME_00015826     -            739 18614at3193          -           1541   1.8e-68  232.7   0.6   2   2   5.7e-67   2.8e-64  218.8   0.2   854  1010   294   451   283   463 0.96 -
ID=PSME_00008566     -            769 18614at3193          -           1541   5.9e-60  204.5   2.9   1   2   3.7e-27   1.8e-24   86.8   0.9   385   596    46   259     1   266 0.85 -
ID=PSME_00008566     -            769 18614at3193          -           1541   5.9e-60  204.5   2.9   2   2     3e-36   1.5e-33  117.0   0.0   874  1013   494   632   488   645 0.91 -
ID=PSME_00013853     -            687 18614at3193          -           1541   1.1e-53  183.7   1.0   1   2   5.3e-25   2.6e-22   79.7   0.1   352   621   186   451   173   466 0.83 -
ID=PSME_00013853     -            687 18614at3193          -           1541   1.1e-53  183.7   1.0   2   2   6.2e-31   3.1e-28   99.3   0.1   855  1006   496   660   493   670 0.87 -
ID=PSME_00017433     -           1049 18614at3193          -           1541   6.2e-52  177.9   6.0   1   3   2.6e-05     0.013   14.4   0.7   353   374   443   465   437   469 0.84 -
ID=PSME_00017433     -           1049 18614at3193          -           1541   6.2e-52  177.9   6.0   2   3   5.7e-19   2.8e-16   59.7   0.1   384   627   517   764   510   781 0.73 -
ID=PSME_00017433     -           1049 18614at3193          -           1541   6.2e-52  177.9   6.0   3   3   1.1e-32   5.7e-30  105.1   0.0   856   997   883  1025   879  1036 0.93 -
ID=PSME_00014499     -           1167 18614at3193          -           1541   5.6e-47  161.4   0.1   1   1   1.1e-49   5.6e-47  161.4   0.1   332   588   855  1116   837  1141 0.86 -
ID=PSME_00000429     -            957 18614at3193          -           1541   5.2e-46  158.2   0.0   1   2      0.58   2.9e+02   -0.0   0.1   606   620     4    18     1    23 0.86 -
ID=PSME_00000429     -            957 18614at3193          -           1541   5.2e-46  158.2   0.0   2   2     1e-48   5.2e-46  158.2   0.0   854  1010    42   199    34   251 0.89 -
ID=PSME_00018507     -           1289 18614at3193          -           1541   4.3e-44  151.9   0.4   1   4   1.8e-05    0.0089   15.0   0.0   327   371   520   567   512   570 0.84 -
ID=PSME_00018507     -           1289 18614at3193          -           1541   4.3e-44  151.9   0.4   2   4       1.1   5.7e+02   -1.0   0.0   384   419   639   677   633   697 0.75 -
ID=PSME_00018507     -           1289 18614at3193          -           1541   4.3e-44  151.9   0.4   3   4   1.5e-15   7.7e-13   48.3   0.1   451   629   758   940   753   947 0.85 -
ID=PSME_00018507     -           1289 18614at3193          -           1541   4.3e-44  151.9   0.4   4   4   3.7e-26   1.9e-23   83.5   0.0   869   997  1131  1259  1119  1264 0.95 -
ID=PSME_00040859     -            369 18614at3193          -           1541   1.3e-32  113.8   0.9   1   2   2.2e-19   1.1e-16   61.1   1.0   464   621     1   168     1   173 0.80 -
ID=PSME_00040859     -            369 18614at3193          -           1541   1.3e-32  113.8   0.9   2   2   2.8e-16   1.4e-13   50.8   0.0   847   957   242   367   237   368 0.83 -
ID=PSME_00011717     -           2903 18614at3193          -           1541   1.9e-32  113.3   3.6   1   2   8.3e-11   4.1e-08   32.6   0.4   346   619  1025  1290   977  1295 0.74 -
ID=PSME_00011717     -           2903 18614at3193          -           1541   1.9e-32  113.3   3.6   2   2   5.1e-25   2.5e-22   79.7   0.2   855  1002  1318  1474  1311  1526 0.86 -
ID=PSME_00020447     -            225 18614at3193          -           1541   1.6e-27   97.0   0.1   1   2    0.0076       3.8    6.2   0.0   605   623    81    99    55   102 0.83 -
ID=PSME_00020447     -            225 18614at3193          -           1541   1.6e-27   97.0   0.1   2   2   1.2e-27     6e-25   88.4   0.1   849   945   111   223   105   224 0.83 -
ID=PSME_00027418     -            709 18614at3193          -           1541   1.9e-27   96.7   0.1   1   3     0.058        29    3.3   0.0   355   404   147   195   140   204 0.78 -
ID=PSME_00027418     -            709 18614at3193          -           1541   1.9e-27   96.7   0.1   2   3     1e-08     5e-06   25.7   0.1   457   508   291   342   288   351 0.93 -
ID=PSME_00027418     -            709 18614at3193          -           1541   1.9e-27   96.7   0.1   3   3   3.1e-20   1.5e-17   63.9   0.0   881  1003   533   657   511   663 0.87 -
ID=PSME_00042407     -            238 18614at3193          -           1541   2.2e-27   96.5   0.1   1   1   5.1e-30   2.5e-27   96.3   0.1   862   990     7   135     1   141 0.94 -
ID=PSME_00013264     -           1532 18614at3193          -           1541   3.3e-27   95.9   7.5   1   3   2.7e-29   1.4e-26   93.9   3.9   348   621   801  1104   797  1107 0.73 -
ID=PSME_00013264     -           1532 18614at3193          -           1541   3.3e-27   95.9   7.5   2   3       0.2     1e+02    1.5   0.0   854   891  1186  1223  1173  1226 0.82 -
ID=PSME_00013264     -           1532 18614at3193          -           1541   3.3e-27   95.9   7.5   3   3   5.5e-05     0.027   13.3   0.1   965  1007  1243  1285  1237  1411 0.86 -
ID=PSME_00023417     -            396 18614at3193          -           1541   2.5e-26   93.0   0.0   1   1   6.7e-29   3.4e-26   92.6   0.0   858   997   162   299   150   308 0.93 -
ID=PSME_00008176     -            820 18614at3193          -           1541   1.1e-25   90.9   0.0   1   3    0.0018      0.88    8.3   0.0   353   372   284   303   271   317 0.90 -
ID=PSME_00008176     -            820 18614at3193          -           1541   1.1e-25   90.9   0.0   2   3   7.4e-20   3.7e-17   62.6   0.0   384   621   385   627   380   661 0.80 -
ID=PSME_00008176     -            820 18614at3193          -           1541   1.1e-25   90.9   0.0   3   3     8e-06     0.004   16.1   0.0   871   915   752   796   718   809 0.81 -
ID=PSME_00007867     -            317 18614at3193          -           1541   1.4e-24   87.2   0.0   1   1   3.7e-27   1.8e-24   86.8   0.0   861   997    87   221    77   230 0.93 -
ID=PSME_00039397     -            253 18614at3193          -           1541   2.7e-23   83.0   0.0   1   1   6.6e-26   3.3e-23   82.7   0.0   857   998    17   158    11   168 0.91 -
ID=PSME_00030964     -            238 18614at3193          -           1541   4.7e-23   82.2   0.1   1   1   1.1e-25   5.4e-23   82.0   0.1   859   997     6   142     1   152 0.92 -
ID=PSME_00012748     -            101 18614at3193          -           1541   5.9e-22   78.5   0.0   1   1   1.4e-24   6.8e-22   78.3   0.0   926   995    10    79     6    85 0.95 -
ID=PSME_00028859     -            265 18614at3193          -           1541   7.8e-22   78.1   0.0   1   1     2e-24   9.9e-22   77.8   0.0   864   990    36   162    26   176 0.92 -
ID=PSME_00020985     -            226 18614at3193          -           1541   1.2e-21   77.5   0.2   1   1     3e-24   1.5e-21   77.2   0.2   926  1052    37   169    33   181 0.82 -
ID=PSME_00017987     -            124 18614at3193          -           1541   4.6e-21   75.6   0.0   1   1   1.1e-23   5.6e-21   75.3   0.0   926   995    10    79     6    85 0.95 -
ID=PSME_00037191     -            208 18614at3193          -           1541   5.2e-21   75.4   0.0   1   1   1.3e-23   6.3e-21   75.1   0.0   898   997    13   112     6   122 0.94 -
ID=PSME_00048441     -            112 18614at3193          -           1541   5.9e-21   75.2   0.1   1   1   1.2e-23   5.9e-21   75.2   0.1   931  1010     2    81     1   107 0.91 -
ID=PSME_00031123     -             79 18614at3193          -           1541   8.8e-21   74.6   0.2   1   1   1.8e-23   8.8e-21   74.6   0.2   931   999     2    70     1    78 0.91 -
ID=PSME_00035138     -            211 18614at3193          -           1541   1.3e-20   74.1   0.0   1   1   3.2e-23   1.6e-20   73.8   0.0   893   998    17   122     4   136 0.91 -
ID=PSME_00018693     -            135 18614at3193          -           1541   1.7e-20   73.7   0.0   1   1     4e-23     2e-20   73.5   0.0   367   493     4   132     2   134 0.91 -
ID=PSME_00040297     -            182 18614at3193          -           1541   1.7e-20   73.7   0.0   1   1     4e-23     2e-20   73.4   0.0   881   996    41   156    15   161 0.91 -
ID=PSME_00011000     -            249 18614at3193          -           1541   3.3e-20   72.7   0.1   1   1   8.2e-23   4.1e-20   72.4   0.1   871   997    27   153    13   162 0.92 -
ID=PSME_00021957     -            435 18614at3193          -           1541     4e-20   72.4   0.2   1   2   2.1e-11   1.1e-08   34.6   0.6   332   527   107   323    89   327 0.71 -
ID=PSME_00021957     -            435 18614at3193          -           1541     4e-20   72.4   0.2   2   2   2.9e-11   1.4e-08   34.2   0.0   873   960   342   434   328   435 0.84 -
ID=PSME_00001935     -            354 18614at3193          -           1541   1.2e-19   70.8   0.2   1   1   3.9e-22   1.9e-19   70.2   0.1   860   997   124   259   115   268 0.91 -
ID=PSME_00047179     -            123 18614at3193          -           1541   2.6e-19   69.7   0.1   1   1   5.2e-22   2.6e-19   69.7   0.1   932  1010     3    81     1   111 0.90 -
ID=PSME_00020203     -            324 18614at3193          -           1541   4.1e-19   69.1   0.0   1   1     1e-21   5.2e-19   68.7   0.0   367   493   193   321   187   323 0.92 -
ID=PSME_00036208     -            166 18614at3193          -           1541   9.2e-19   67.9   0.0   1   1   2.1e-21   1.1e-18   67.7   0.0   367   493    35   163    27   165 0.91 -
ID=PSME_00005826     -            238 18614at3193          -           1541   1.2e-18   67.6   0.0   1   1   2.8e-21   1.4e-18   67.3   0.0   858   997     5   142     1   153 0.91 -
ID=PSME_00042454     -            238 18614at3193          -           1541   1.3e-18   67.5   0.2   1   1     3e-21   1.5e-18   67.2   0.2   862   996     7   141     1   143 0.91 -
ID=PSME_00028395     -            231 18614at3193          -           1541   1.4e-18   67.3   0.1   1   1   3.2e-21   1.6e-18   67.2   0.1   860   997     7   135     1   144 0.90 -
ID=PSME_00009495     -            245 18614at3193          -           1541   1.4e-18   67.3   0.1   1   1   3.9e-21   1.9e-18   66.9   0.1   931  1008    88   165    84   180 0.91 -
ID=PSME_00006845     -            146 18614at3193          -           1541   1.5e-18   67.3   0.1   1   1   3.3e-21   1.6e-18   67.1   0.1   926   977    21    72    16   103 0.92 -
ID=PSME_00048073     -            191 18614at3193          -           1541   2.4e-18   66.5   0.1   1   1   5.6e-21   2.8e-18   66.3   0.1   367   493    60   188    53   190 0.90 -
ID=PSME_00022561     -            132 18614at3193          -           1541   3.3e-18   66.1   0.1   1   1   8.7e-21   4.3e-18   65.7   0.1   926   978    78   130    73   131 0.96 -
ID=PSME_00054847     -             63 18614at3193          -           1541   4.3e-18   65.7   0.1   1   1   9.3e-21   4.6e-18   65.6   0.1   926   978    10    62     6    63 0.97 -
ID=PSME_00003202     -             79 18614at3193          -           1541   4.4e-18   65.7   0.1   1   1   8.9e-21   4.4e-18   65.7   0.1   931  1004     2    75     1    78 0.92 -
ID=PSME_00024130     -           1350 18614at3193          -           1541   5.1e-18   65.5   0.0   1   1   1.6e-20   7.8e-18   64.8   0.0   331   391   328   388   319   392 0.95 -
ID=PSME_00036296     -            111 18614at3193          -           1541   6.5e-18   65.1   0.1   1   1   1.5e-20   7.4e-18   64.9   0.1   930  1008    29   107    26   111 0.92 -
ID=PSME_00020829     -            108 18614at3193          -           1541   9.3e-18   64.6   0.2   1   1   2.2e-20   1.1e-17   64.4   0.2   934   995     1    62     1    68 0.95 -
ID=PSME_00027464     -            253 18614at3193          -           1541   4.4e-17   62.4   0.1   1   1   1.1e-19   5.5e-17   62.0   0.1   855   997    15   157    11   167 0.92 -
ID=PSME_00018940     -            222 18614at3193          -           1541   4.8e-17   62.3   0.0   1   2      0.79     4e+02   -0.5   0.0   855   887    15    47     2    52 0.76 -
ID=PSME_00018940     -            222 18614at3193          -           1541   4.8e-17   62.3   0.0   2   2   3.6e-19   1.8e-16   60.3   0.0   925   997    54   126    48   133 0.94 -
ID=PSME_00023407     -            562 18614at3193          -           1541   6.2e-17   61.9   0.1   1   1   1.8e-19   9.2e-17   61.3   0.1   927  1015   225   313   223   325 0.91 -
ID=PSME_00033879     -            252 18614at3193          -           1541   2.5e-16   59.8   0.0   1   1   6.4e-19   3.2e-16   59.5   0.0   895   998    55   158    41   168 0.90 -
ID=PSME_00054608     -             59 18614at3193          -           1541   2.6e-16   59.8   0.1   1   1   5.7e-19   2.8e-16   59.7   0.1   926   978    10    58     6    59 0.96 -
ID=PSME_00033417     -            457 18614at3193          -           1541   3.3e-16   59.5   0.0   1   1   9.2e-19   4.6e-16   59.0   0.0   931   996   380   445   367   455 0.89 -
ID=PSME_00006150     -            310 18614at3193          -           1541   8.2e-16   58.1   0.1   1   1   2.7e-18   1.3e-15   57.5   0.1   859   997    78   214    63   223 0.91 -
ID=PSME_00051888     -             81 18614at3193          -           1541   2.2e-15   56.7   0.0   1   1   4.8e-18   2.4e-15   56.6   0.0   926   979    10    59     6    76 0.91 -
ID=PSME_00034842     -            111 18614at3193          -           1541   5.2e-15   55.5   0.1   1   1   1.2e-17   6.1e-15   55.3   0.1   926   979    37    86    31   103 0.91 -
ID=PSME_00007025     -            238 18614at3193          -           1541   6.1e-15   55.3   0.1   1   1   1.4e-17   7.2e-15   55.0   0.1   859   997     6   142     1   151 0.91 -
ID=PSME_00039596     -            181 18614at3193          -           1541   1.2e-14   54.2   0.0   1   1     3e-17   1.5e-14   54.0   0.0   898   972    13    87     6    97 0.93 -
ID=PSME_00042232     -            318 18614at3193          -           1541   1.8e-14   53.7   0.1   1   1   4.6e-17   2.3e-14   53.4   0.1   349   469   180   309   152   314 0.78 -
ID=PSME_00009907     -            130 18614at3193          -           1541   4.2e-13   49.2   0.7   1   1   9.4e-16   4.7e-13   49.0   0.7   430   497    48   115    18   126 0.90 -
ID=PSME_00004575     -            308 18614at3193          -           1541   1.1e-12   47.8   1.1   1   2   4.2e-07   0.00021   20.4   0.0   856   923   166   233   125   235 0.89 -
ID=PSME_00004575     -            308 18614at3193          -           1541   1.1e-12   47.8   1.1   2   2   4.1e-11   2.1e-08   33.6   0.2   949   997   235   284   232   294 0.86 -
ID=PSME_00020626     -            198 18614at3193          -           1541   8.2e-12   44.9   0.0   1   1     2e-14   9.8e-12   44.6   0.0   944   997    49   102    31   112 0.91 -
ID=PSME_00035168     -             87 18614at3193          -           1541   8.3e-12   44.9   0.0   1   1   2.1e-14     1e-11   44.6   0.0   945   997    27    79    24    82 0.94 -
ID=PSME_00011675     -            812 18614at3193          -           1541   1.4e-11   44.1   0.0   1   1   4.3e-14   2.2e-11   43.5   0.0   331   365   273   307   264   311 0.94 -
ID=PSME_00024744     -            383 18614at3193          -           1541     7e-11   41.8   0.0   1   1     2e-13   9.8e-11   41.3   0.0   924   971    41    88    38    93 0.94 -
ID=PSME_00003045     -            194 18614at3193          -           1541   2.3e-10   40.1   0.0   1   1   5.6e-13   2.8e-10   39.8   0.0   944   997    45    98    37   108 0.90 -
ID=PSME_00019250     -            143 18614at3193          -           1541   3.2e-10   39.6   0.0   1   2       2.4   1.2e+03   -2.1   0.0   868   887    55    74    47    82 0.77 -
ID=PSME_00019250     -            143 18614at3193          -           1541   3.2e-10   39.6   0.0   2   2   1.2e-12   6.1e-10   38.7   0.0   925   979    81   137    75   141 0.89 -
ID=PSME_00032937     -            195 18614at3193          -           1541   1.8e-09   37.1   0.0   1   2       1.6     8e+02   -1.5   0.0   858   887    18    47    14    52 0.76 -
ID=PSME_00032937     -            195 18614at3193          -           1541   1.8e-09   37.1   0.0   2   2   8.7e-12   4.3e-09   35.9   0.0   925   972    54   101    46   110 0.92 -
ID=PSME_00020446     -            273 18614at3193          -           1541   3.1e-09   36.3   0.3   1   2   6.3e-12   3.1e-09   36.3   0.3   950  1004     3    57     1    65 0.93 -
ID=PSME_00020446     -            273 18614at3193          -           1541   3.1e-09   36.3   0.3   2   2         1   5.2e+02   -0.9   0.8  1225  1262   198   235   150   252 0.58 -
ID=PSME_00030499     -            401 18614at3193          -           1541   9.9e-09   34.7   0.3   1   2    0.0024       1.2    7.9   0.1   453   504    71   122    68   132 0.91 -
ID=PSME_00030499     -            401 18614at3193          -           1541   9.9e-09   34.7   0.3   2   2   2.3e-08   1.1e-05   24.5   0.0   874   977   299   391   289   400 0.92 -
ID=PSME_00034862     -            208 18614at3193          -           1541   2.2e-08   33.5   0.0   1   1   5.2e-11   2.6e-08   33.3   0.0   368   506     7   147     2   153 0.80 -
ID=PSME_00012491     -            867 18614at3193          -           1541   3.1e-08   33.0  26.7   1   3   3.4e-05     0.017   14.0   5.6   179   371    65   253    25   261 0.49 -
ID=PSME_00012491     -            867 18614at3193          -           1541   3.1e-08   33.0  26.7   2   3       4.1   2.1e+03   -2.8   0.0   385   418   293   328   291   347 0.79 -
ID=PSME_00012491     -            867 18614at3193          -           1541   3.1e-08   33.0  26.7   3   3   6.4e-11   3.2e-08   33.0   0.0   446   506   496   556   493   564 0.93 -
ID=PSME_00046462     -            405 18614at3193          -           1541   5.9e-08   32.1   0.1   1   1   1.5e-10   7.7e-08   31.7   0.1   368   505   168   307   161   312 0.81 -
ID=PSME_00033042     -            212 18614at3193          -           1541   6.4e-08   32.0   0.0   1   1   1.6e-10   7.8e-08   31.7   0.0   380   506    21   149     5   155 0.79 -
ID=PSME_00053400     -            435 18614at3193          -           1541   8.8e-08   31.5   0.0   1   1   3.2e-10   1.6e-07   30.7   0.0   898   956    10    68     5    75 0.94 -
ID=PSME_00009932     -            141 18614at3193          -           1541   2.1e-07   30.3   0.0   1   1   4.5e-10   2.2e-07   30.2   0.0   940  1010     5    75     2   106 0.86 -
ID=PSME_00010371     -            190 18614at3193          -           1541     8e-07   28.4   0.0   1   1     2e-09     1e-06   28.0   0.0   946   997    43    94    30   101 0.85 -
ID=PSME_00014059     -            497 18614at3193          -           1541   8.1e-07   28.3   0.0   1   1   2.3e-09   1.1e-06   27.8   0.0   379   428    13    62     3    68 0.90 -
ID=PSME_00009908     -            214 18614at3193          -           1541   1.1e-06   27.9   2.8   1   1   8.1e-08     4e-05   22.7   2.8   950  1026    42   145    39   191 0.56 -
ID=PSME_00012041     -           1304 18614at3193          -           1541   1.5e-06   27.5   1.6   1   3       6.1     3e+03   -3.4   0.0   353   371   382   400   381   402 0.90 -
ID=PSME_00012041     -           1304 18614at3193          -           1541   1.5e-06   27.5   1.6   2   3    0.0013      0.63    8.8   0.2   385   494   788   902   784   920 0.78 -
ID=PSME_00012041     -           1304 18614at3193          -           1541   1.5e-06   27.5   1.6   3   3   3.5e-06    0.0018   17.3   0.0   932   990  1194  1252  1170  1271 0.87 -
ID=PSME_00030581     -            136 18614at3193          -           1541   2.9e-06   26.5   0.0   1   1   6.8e-09   3.4e-06   26.3   0.0   940  1009    64   133    60   136 0.90 -
ID=PSME_00013647     -            613 18614at3193          -           1541   1.1e-05   24.5   0.3   1   1   3.2e-08   1.6e-05   24.1   0.3   926   956   577   607   568   611 0.89 -
ID=PSME_00023466     -            513 18614at3193          -           1541   1.6e-05   24.0   0.1   1   1   4.8e-08   2.4e-05   23.5   0.1   351   376   426   451   409   458 0.90 -
ID=PSME_00050482     -            219 18614at3193          -           1541   3.1e-05   23.1   0.0   1   1     7e-08   3.5e-05   22.9   0.0   494   526     1    33     1    71 0.93 -
ID=PSME_00040858     -            396 18614at3193          -           1541   0.00016   20.7   0.0   1   1   5.9e-07   0.00029   19.9   0.0   348   405   285   343   281   347 0.87 -
ID=PSME_00043567     -            212 18614at3193          -           1541   0.00054   19.0   0.2   1   1   1.4e-06   0.00071   18.6   0.2   956   995   127   166   125   172 0.91 -
ID=PSME_00014739     -            104 18614at3193          -           1541    0.0015   17.5   0.2   1   1   3.3e-06    0.0016   17.4   0.2   476   526    25    74    10    83 0.83 -
ID=PSME_00008400     -            219 18614at3193          -           1541    0.0018   17.2   0.2   1   1   4.6e-06    0.0023   16.9   0.2   476   526   100   149    85   159 0.86 -
ID=PSME_00025589     -            139 18614at3193          -           1541    0.0021   17.0   0.1   1   1   5.1e-06    0.0025   16.7   0.1   956  1011    64   119    60   132 0.89 -
ID=PSME_00038955     -            182 18614at3193          -           1541    0.0029   16.6   0.3   1   1   6.9e-06    0.0035   16.3   0.3   476   526   103   152    85   164 0.85 -
ID=PSME_00030069     -            192 18614at3193          -           1541     0.006   15.5   0.2   1   1   1.5e-05    0.0073   15.2   0.2   476   517   125   168   110   182 0.81 -
ID=PSME_00046091     -            204 18614at3193          -           1541     0.018   13.9   0.3   1   1   4.5e-05     0.022   13.6   0.3   476   526   125   174   110   186 0.86 -
ID=PSME_00018228     -            245 18614at3193          -           1541      0.02   13.8   0.0   1   1   4.9e-05     0.024   13.5   0.0   868   929    40   103    28   122 0.86 -
ID=PSME_00050704     -            257 18614at3193          -           1541     0.041   12.7   0.0   1   1   9.3e-05     0.046   12.6   0.0   960  1025     1    66     1    99 0.81 -
ID=PSME_00041618     -            428 18614at3193          -           1541     0.089   11.6   0.2   1   1   0.00023      0.11   11.3   0.2   926   950   402   426   395   427 0.93 -
ID=PSME_00055266     -            100 18614at3193          -           1541      0.25   10.1   0.3   1   1   0.00054      0.27   10.0   0.3   473   503    68    98    54   100 0.85 -
ID=PSME_00038667     -            375 18614at3193          -           1541      0.35    9.7   0.0   1   2    0.0018      0.92    8.3   0.0  1336  1369    18    52     4    63 0.83 -
ID=PSME_00038667     -            375 18614at3193          -           1541      0.35    9.7   0.0   2   2       2.3   1.1e+03   -2.0   0.0  1336  1372    70   106    54   110 0.83 -
ID=PSME_00037931     -            122 18614at3193          -           1541       0.5    9.1   0.2   1   1    0.0011      0.54    9.0   0.2   475   503    92   120    75   122 0.86 -
ID=PSME_00022717     -            186 18614at3193          -           1541      0.57    9.0   0.1   1   1    0.0014      0.72    8.6   0.1   476   504   135   163   119   175 0.87 -
ID=PSME_00045901     -            120 18614at3193          -           1541      0.63    8.8   0.2   1   1    0.0015      0.73    8.6   0.2   476   503    91   118    83   120 0.88 -
ID=PSME_00052713     -            129 18614at3193          -           1541      0.64    8.8   0.2   1   1    0.0014       0.7    8.7   0.2   476   503   100   127    84   129 0.88 -
ID=PSME_00055630     -            157 18614at3193          -           1541       1.7    7.4   9.5   1   1    0.0041       2.1    7.1   9.5  1168  1240    14    85     6   102 0.83 -
ID=PSME_00032358     -            266 18614at3193          -           1541       4.2    6.1  21.2   1   2   0.00028      0.14   11.0  11.3  1175  1315    28   168    11   197 0.61 -
ID=PSME_00032358     -            266 18614at3193          -           1541       4.2    6.1  21.2   2   2      0.32   1.6e+02    0.8   2.2   160   197   224   262   218   265 0.75 -
#
# Program:         hmmsearch
# Version:         3.2.1 (June 2018)
# Pipeline mode:   SEARCH
# Query file:      /isg/shared/databases/BUSCO/odb10/embryophyta_odb10/hmms/18614at3193.hmm
# Target file:     /labs/Wegrzyn/ConiferGenomes/Psme/analysis/SURF_annotation/analyze_orig_maker/gfacs/filtered/maker_genes.fasta.faa
# Option settings: /usr/local/bin/hmmsearch --domtblout /labs/Wegrzyn/ConiferGenomes/Psme/analysis/SURF_annotation/analyze_orig_maker/busco/maker/run_embryophyta_odb10/hmmer_output/18614at3193.out --cpu 1 /isg/shared/databases/BUSCO/odb10/embryophyta_odb10/hmms/18614at3193.hmm /labs/Wegrzyn/ConiferGenomes/Psme/analysis/SURF_annotation/analyze_orig_maker/gfacs/filtered/maker_genes.fasta.faa 
# Current dir:     /labs/Wegrzyn/ConiferGenomes/Psme/analysis/SURF_annotation/analyze_orig_maker/busco
# Date:            Fri Jul 10 13:46:50 2020
# [ok]
