#                                                                            --- full sequence --- -------------- this domain -------------   hmm coord   ali coord   env coord
# target name        accession   tlen query name           accession   qlen   E-value  score  bias   #  of  c-Evalue  i-Evalue  score  bias  from    to  from    to  from    to  acc description of target
#------------------- ---------- ----- -------------------- ---------- ----- --------- ------ ----- --- --- --------- --------- ------ ----- ----- ----- ----- ----- ----- ----- ---- ---------------------
ID=PSME_00029770     -            538 186996at3193         -            163     0.024   15.9   1.4   1   1   3.1e-05     0.066   14.5   1.4    25    79    36    88    28   113 0.76 -
ID=PSME_00017919     -            101 186996at3193         -            163     0.027   15.7   0.4   1   1   1.4e-05     0.029   15.6   0.4    25    76    22    72     6    85 0.73 -
ID=PSME_00025677     -            179 186996at3193         -            163     0.061   14.6   0.1   1   1     5e-05       0.1   13.8   0.1    24    75    21    71     7    91 0.76 -
ID=PSME_00003652     -            151 186996at3193         -            163     0.068   14.4   1.2   1   1   4.2e-05     0.089   14.0   0.5    36    81    34    78    12    83 0.74 -
ID=PSME_00036319     -            179 186996at3193         -            163     0.084   14.1   0.7   1   1   5.3e-05      0.11   13.7   0.4    30    82    29    80    10   115 0.78 -
ID=PSME_00019714     -            630 186996at3193         -            163      0.12   13.6   0.6   1   2   0.00019      0.41   11.9   0.2    24    76   102   153    88   162 0.73 -
ID=PSME_00019714     -            630 186996at3193         -            163      0.12   13.6   0.6   2   2       3.8   8.1e+03   -2.1   0.0   107   125   327   345   321   348 0.86 -
ID=PSME_00015531     -            171 186996at3193         -            163      0.13   13.5   1.7   1   2   6.4e-05      0.14   13.5   0.5    36    82    35    80    18    97 0.78 -
ID=PSME_00015531     -            171 186996at3193         -            163      0.13   13.5   1.7   2   2       2.6   5.5e+03   -1.5   0.1    29    43   104   118    80   138 0.41 -
ID=PSME_00018969     -            315 186996at3193         -            163      0.14   13.4   0.7   1   1   0.00014       0.3   12.3   0.7    34    83   249   297   236   303 0.76 -
ID=PSME_00020568     -            567 186996at3193         -            163      0.16   13.2   0.6   1   1    0.0002      0.41   11.9   0.6    26    76   117   166    99   176 0.73 -
ID=PSME_00040974     -            395 186996at3193         -            163      0.18   13.0   0.0   1   1   0.00022      0.47   11.7   0.0    40    82    38    80    20    90 0.74 -
ID=PSME_00008906     -            622 186996at3193         -            163      0.19   13.0   0.4   1   1    0.0002      0.42   11.9   0.4    23    76    85   137    63   146 0.69 -
ID=PSME_00006643     -            555 186996at3193         -            163      0.21   12.8   0.6   1   1   0.00022      0.47   11.7   0.6    24    76    86   137    65   147 0.69 -
ID=PSME_00002103     -            237 186996at3193         -            163      0.22   12.8   0.3   1   2       8.6   1.8e+04   -3.2   0.1    38    62    26    50    16    61 0.50 -
ID=PSME_00002103     -            237 186996at3193         -            163      0.22   12.8   0.3   2   2    0.0001      0.22   12.8   0.3    28    76    96   143    78   155 0.74 -
ID=PSME_00013482     -            472 186996at3193         -            163      0.22   12.7   0.2   1   1   0.00025      0.52   11.6   0.2    26    76    54   103    35   113 0.73 -
ID=PSME_00011827     -            650 186996at3193         -            163      0.23   12.7   0.4   1   1   0.00023      0.49   11.7   0.4    30    76    89   134    68   144 0.77 -
ID=PSME_00040521     -            411 186996at3193         -            163      0.25   12.6   0.3   1   1   0.00025      0.52   11.6   0.3    27    76   152   200   133   210 0.72 -
ID=PSME_00017300     -            191 186996at3193         -            163      0.25   12.6   0.1   1   1   0.00017      0.36   12.1   0.1    36    76    57    96    38   103 0.74 -
ID=PSME_00010743     -            307 186996at3193         -            163      0.28   12.4   2.8   1   2   0.00013      0.27   12.5   1.1    23    83    91   150    75   155 0.74 -
ID=PSME_00010743     -            307 186996at3193         -            163      0.28   12.4   2.8   2   2       3.3     7e+03   -1.9   0.0    39    65   183   208   149   230 0.50 -
ID=PSME_00008315     -            249 186996at3193         -            163      0.31   12.3   0.7   1   2   0.00023      0.48   11.7   0.2    24    76    21    72     7    81 0.73 -
ID=PSME_00008315     -            249 186996at3193         -            163      0.31   12.3   0.7   2   2       8.2   1.7e+04   -3.1   0.0    98   102   144   148   123   176 0.57 -
ID=PSME_00022204     -            623 186996at3193         -            163      0.34   12.2   0.3   1   1   0.00041      0.86   10.8   0.3    26    76   116   165    98   175 0.73 -
ID=PSME_00005248     -            660 186996at3193         -            163      0.35   12.1   0.1   1   1   0.00033      0.69   11.2   0.1    26    78   407   458   386   465 0.70 -
ID=PSME_00012161     -            701 186996at3193         -            163      0.36   12.1   0.3   1   1   0.00047      0.99   10.6   0.3    27    76   136   184   117   193 0.73 -
ID=PSME_00004122     -            629 186996at3193         -            163      0.36   12.1   0.1   1   1   0.00039      0.83   10.9   0.1    23    74   141   191   122   198 0.71 -
ID=PSME_00026188     -            575 186996at3193         -            163      0.52   11.6   0.5   1   1   0.00062       1.3   10.2   0.5    23    76   109   161    92   173 0.71 -
ID=PSME_00008079     -            586 186996at3193         -            163      0.64   11.3   0.6   1   1    0.0007       1.5   10.1   0.6    37    77    99   139    79   148 0.75 -
ID=PSME_00006184     -            538 186996at3193         -            163       1.4   10.1   5.1   1   2   0.00015      0.31   12.3   1.3    25    80    36    89    28   113 0.75 -
ID=PSME_00006184     -            538 186996at3193         -            163       1.4   10.1   5.1   2   2       5.2   1.1e+04   -2.5   0.1    40    40   425   425   386   473 0.46 -
#
# Program:         hmmsearch
# Version:         3.2.1 (June 2018)
# Pipeline mode:   SEARCH
# Query file:      /isg/shared/databases/BUSCO/odb10/embryophyta_odb10/hmms/186996at3193.hmm
# Target file:     /labs/Wegrzyn/ConiferGenomes/Psme/analysis/SURF_annotation/analyze_orig_maker/gfacs/filtered/maker_genes.fasta.faa
# Option settings: /usr/local/bin/hmmsearch --domtblout /labs/Wegrzyn/ConiferGenomes/Psme/analysis/SURF_annotation/analyze_orig_maker/busco/maker/run_embryophyta_odb10/hmmer_output/186996at3193.out --cpu 1 /isg/shared/databases/BUSCO/odb10/embryophyta_odb10/hmms/186996at3193.hmm /labs/Wegrzyn/ConiferGenomes/Psme/analysis/SURF_annotation/analyze_orig_maker/gfacs/filtered/maker_genes.fasta.faa 
# Current dir:     /labs/Wegrzyn/ConiferGenomes/Psme/analysis/SURF_annotation/analyze_orig_maker/busco
# Date:            Fri Jul 10 13:46:30 2020
# [ok]
