#                                                                            --- full sequence --- -------------- this domain -------------   hmm coord   ali coord   env coord
# target name        accession   tlen query name           accession   qlen   E-value  score  bias   #  of  c-Evalue  i-Evalue  score  bias  from    to  from    to  from    to  acc description of target
#------------------- ---------- ----- -------------------- ---------- ----- --------- ------ ----- --- --- --------- --------- ------ ----- ----- ----- ----- ----- ----- ----- ---- ---------------------
ID=PSME_00009642     -            414 188047at3193         -            178   1.4e-97  326.3   0.5   1   1  2.4e-101   4.4e-97  324.7   0.5     2   178   137   327   136   327 0.97 -
ID=PSME_00030722     -            339 188047at3193         -            178      0.36   12.3   3.2   1   3      0.77   1.4e+04   -2.7   0.0    88   107   132   151   130   155 0.78 -
ID=PSME_00030722     -            339 188047at3193         -            178      0.36   12.3   3.2   2   3    0.0033        60    5.1   0.1    17    40   164   188   158   204 0.76 -
ID=PSME_00030722     -            339 188047at3193         -            178      0.36   12.3   3.2   3   3   0.00077        14    7.1   0.3    98   160   217   280   193   289 0.75 -
ID=PSME_00047288     -            794 188047at3193         -            178       0.5   11.8   0.1   1   2    0.0015        28    6.1   0.0    30    71   203   243   198   268 0.76 -
ID=PSME_00047288     -            794 188047at3193         -            178       0.5   11.8   0.1   2   2     0.013   2.4e+02    3.1   0.0    30    45   426   441   421   469 0.73 -
#
# Program:         hmmsearch
# Version:         3.2.1 (June 2018)
# Pipeline mode:   SEARCH
# Query file:      /isg/shared/databases/BUSCO/odb10/embryophyta_odb10/hmms/188047at3193.hmm
# Target file:     /labs/Wegrzyn/ConiferGenomes/Psme/analysis/SURF_annotation/analyze_orig_maker/gfacs/filtered/maker_genes.fasta.faa
# Option settings: /usr/local/bin/hmmsearch --domtblout /labs/Wegrzyn/ConiferGenomes/Psme/analysis/SURF_annotation/analyze_orig_maker/busco/maker/run_embryophyta_odb10/hmmer_output/188047at3193.out --cpu 1 /isg/shared/databases/BUSCO/odb10/embryophyta_odb10/hmms/188047at3193.hmm /labs/Wegrzyn/ConiferGenomes/Psme/analysis/SURF_annotation/analyze_orig_maker/gfacs/filtered/maker_genes.fasta.faa 
# Current dir:     /labs/Wegrzyn/ConiferGenomes/Psme/analysis/SURF_annotation/analyze_orig_maker/busco
# Date:            Fri Jul 10 13:46:30 2020
# [ok]
