#                                                                            --- full sequence --- -------------- this domain -------------   hmm coord   ali coord   env coord
# target name        accession   tlen query name           accession   qlen   E-value  score  bias   #  of  c-Evalue  i-Evalue  score  bias  from    to  from    to  from    to  acc description of target
#------------------- ---------- ----- -------------------- ---------- ----- --------- ------ ----- --- --- --------- --------- ------ ----- ----- ----- ----- ----- ----- ----- ---- ---------------------
ID=PSME_00034281     -            120 190682at3193         -             88   3.7e-17   63.6   0.1   1   1   4.3e-20   6.1e-17   62.9   0.1    42    77    65   100    61   109 0.92 -
ID=PSME_00018673     -            356 190682at3193         -             88   5.5e-15   56.6   0.4   1   4   1.5e-05     0.021   16.3   0.0    48    78    89   119    44   124 0.84 -
ID=PSME_00018673     -            356 190682at3193         -             88   5.5e-15   56.6   0.4   2   4    0.0055       7.7    8.1   0.0    44    64   156   176   145   184 0.76 -
ID=PSME_00018673     -            356 190682at3193         -             88   5.5e-15   56.6   0.4   3   4   2.5e-05     0.036   15.5   0.0    48    78   257   287   253   292 0.95 -
ID=PSME_00018673     -            356 190682at3193         -             88   5.5e-15   56.6   0.4   4   4    0.0006      0.84   11.1   0.0    38    63   318   343   312   353 0.79 -
ID=PSME_00039039     -            287 190682at3193         -             88   2.1e-13   51.5   0.0   1   4   0.00055      0.78   11.3   0.0    48    78    89   119    45   125 0.88 -
ID=PSME_00039039     -            287 190682at3193         -             88   2.1e-13   51.5   0.0   2   4    0.0021       2.9    9.4   0.0    40    61   152   173   143   176 0.79 -
ID=PSME_00039039     -            287 190682at3193         -             88   2.1e-13   51.5   0.0   3   4     4e-05     0.056   14.9   0.1    48    79   188   219   185   224 0.93 -
ID=PSME_00039039     -            287 190682at3193         -             88   2.1e-13   51.5   0.0   4   4    0.0011       1.5   10.3   0.0    39    61   250   272   242   283 0.80 -
ID=PSME_00000632     -            139 190682at3193         -             88   3.5e-08   34.8   0.2   1   2   3.6e-08     5e-05   24.7   0.1    48    79    40    71    38    78 0.94 -
ID=PSME_00000632     -            139 190682at3193         -             88   3.5e-08   34.8   0.2   2   2    0.0045       6.4    8.3   0.0    45    64   109   128    93   136 0.80 -
ID=PSME_00016756     -            154 190682at3193         -             88   1.2e-07   33.1   0.1   1   2   3.3e-06    0.0046   18.4   0.0    48    79    56    87    54    91 0.95 -
ID=PSME_00016756     -            154 190682at3193         -             88   1.2e-07   33.1   0.1   2   2   0.00024      0.34   12.4   0.0    38    70   117   149   110   153 0.82 -
ID=PSME_00007991     -            146 190682at3193         -             88   2.6e-07   32.0   0.0   1   2   6.2e-07   0.00088   20.7   0.0    48    79    47    78    44    84 0.95 -
ID=PSME_00007991     -            146 190682at3193         -             88   2.6e-07   32.0   0.0   2   2    0.0024       3.4    9.2   0.0    37    61   107   131    98   142 0.74 -
ID=PSME_00035619     -            163 190682at3193         -             88   2.7e-07   32.0   0.1   1   2   4.5e-06    0.0063   18.0   0.0    48    79    65    96    63   101 0.95 -
ID=PSME_00035619     -            163 190682at3193         -             88   2.7e-07   32.0   0.1   2   2   0.00048      0.68   11.4   0.0    40    63   128   151   120   160 0.77 -
ID=PSME_00035622     -            119 190682at3193         -             88   3.4e-07   31.6   0.3   1   2   4.7e-06    0.0067   17.9   0.0    48    79    20    51    18    56 0.95 -
ID=PSME_00035622     -            119 190682at3193         -             88   3.4e-07   31.6   0.3   2   2   0.00031      0.44   12.0   0.0    42    64    85   107    74   117 0.77 -
ID=PSME_00027192     -            205 190682at3193         -             88   3.9e-07   31.4   0.0   1   2   3.3e-06    0.0047   18.4   0.0    46    79   104   137    59   142 0.73 -
ID=PSME_00027192     -            205 190682at3193         -             88   3.9e-07   31.4   0.0   2   2    0.0008       1.1   10.7   0.0    44    64   173   193   161   203 0.77 -
ID=PSME_00007992     -            234 190682at3193         -             88   4.1e-07   31.4   0.1   1   2   7.7e-07    0.0011   20.4   0.0    48    79    95   126    93   132 0.95 -
ID=PSME_00007992     -            234 190682at3193         -             88   4.1e-07   31.4   0.1   2   2    0.0032       4.5    8.8   0.0    44    64   162   182   151   192 0.77 -
ID=PSME_00057014     -            118 190682at3193         -             88   4.5e-07   31.2   0.1   1   2   5.1e-06    0.0072   17.8   0.0    48    79    19    50    17    56 0.94 -
ID=PSME_00057014     -            118 190682at3193         -             88   4.5e-07   31.2   0.1   2   2   0.00042      0.59   11.6   0.0    45    64    87   106    75   116 0.78 -
ID=PSME_00055213     -            164 190682at3193         -             88   5.3e-07   31.0   0.4   1   2   8.4e-06     0.012   17.1   0.0    48    79    65    96    63   101 0.95 -
ID=PSME_00055213     -            164 190682at3193         -             88   5.3e-07   31.0   0.4   2   2   0.00043      0.61   11.6   0.0    40    64   128   152   121   162 0.77 -
ID=PSME_00039038     -            188 190682at3193         -             88   7.2e-07   30.6   0.1   1   2   6.3e-06    0.0088   17.5   0.0    48    79    89   120    48   125 0.90 -
ID=PSME_00039038     -            188 190682at3193         -             88   7.2e-07   30.6   0.1   2   2   0.00072         1   10.9   0.0    44    64   156   176   144   186 0.77 -
ID=PSME_00024494     -            164 190682at3193         -             88   7.3e-07   30.6   0.1   1   2   1.2e-05     0.017   16.6   0.0    48    79    65    96    45   101 0.94 -
ID=PSME_00024494     -            164 190682at3193         -             88   7.3e-07   30.6   0.1   2   2   0.00043       0.6   11.6   0.0    40    64   128   152   120   162 0.78 -
ID=PSME_00050897     -            131 190682at3193         -             88   1.3e-06   29.8   0.0   1   2   9.8e-07    0.0014   20.1   0.0    47    79    32    64     3    69 0.93 -
ID=PSME_00050897     -            131 190682at3193         -             88   1.3e-06   29.8   0.0   2   2    0.0056       7.9    8.0   0.0    47    66   103   122    87   129 0.79 -
ID=PSME_00007990     -            194 190682at3193         -             88   1.4e-06   29.6   0.1   1   2   1.1e-06    0.0015   20.0   0.0    48    79    95   126    93   132 0.95 -
ID=PSME_00007990     -            194 190682at3193         -             88   1.4e-06   29.6   0.1   2   2    0.0086        12    7.4   0.0    45    61   163   179   151   189 0.81 -
ID=PSME_00027190     -            194 190682at3193         -             88   1.8e-06   29.3   0.1   1   2     1e-05     0.015   16.8   0.0    48    79    95   126    92   131 0.95 -
ID=PSME_00027190     -            194 190682at3193         -             88   1.8e-06   29.3   0.1   2   2    0.0012       1.7   10.2   0.0    47    64   165   182   152   192 0.81 -
ID=PSME_00013139     -            163 190682at3193         -             88   1.9e-06   29.2   0.0   1   2   4.3e-06    0.0061   18.0   0.0    48    79    65    96    62   101 0.95 -
ID=PSME_00013139     -            163 190682at3193         -             88   1.9e-06   29.2   0.0   2   2    0.0036       5.1    8.6   0.0    44    62   132   150   118   160 0.76 -
ID=PSME_00029193     -            177 190682at3193         -             88     2e-06   29.2   0.6   1   2   3.7e-06    0.0052   18.2   0.2    48    79    79   110    34   114 0.91 -
ID=PSME_00029193     -            177 190682at3193         -             88     2e-06   29.2   0.6   2   2    0.0038       5.4    8.6   0.0    44    62   146   164   131   174 0.75 -
ID=PSME_00007989     -            194 190682at3193         -             88   2.7e-06   28.7   0.1   1   2     2e-06    0.0028   19.1   0.0    48    79    95   126    93   132 0.95 -
ID=PSME_00007989     -            194 190682at3193         -             88   2.7e-06   28.7   0.1   2   2    0.0086        12    7.4   0.0    45    61   163   179   151   189 0.81 -
ID=PSME_00026034     -            141 190682at3193         -             88   1.4e-05   26.4   0.1   1   2   1.3e-05     0.018   16.5   0.0    48    79    47    78    45    84 0.95 -
ID=PSME_00026034     -            141 190682at3193         -             88   1.4e-05   26.4   0.1   2   2    0.0059       8.3    8.0   0.0    40    61   110   131   103   137 0.80 -
ID=PSME_00052084     -            300 190682at3193         -             88   1.9e-05   26.0   3.9   1   2     2e-06    0.0028   19.1   0.4    50    78   122   150   116   155 0.89 -
ID=PSME_00052084     -            300 190682at3193         -             88   1.9e-05   26.0   3.9   2   2     0.006       8.4    7.9   0.3    50    78   228   256   222   262 0.89 -
ID=PSME_00052911     -            150 190682at3193         -             88   2.1e-05   25.9   0.1   1   3       3.7   5.3e+03   -1.0   0.0    44    54    23    33     7    44 0.76 -
ID=PSME_00052911     -            150 190682at3193         -             88   2.1e-05   25.9   0.1   2   3   0.00013      0.19   13.3   0.0    48    79    52    83    35    86 0.89 -
ID=PSME_00052911     -            150 190682at3193         -             88   2.1e-05   25.9   0.1   3   3    0.0019       2.7    9.5   0.0    43    63   118   138   103   148 0.71 -
ID=PSME_00007993     -            276 190682at3193         -             88   2.4e-05   25.7   0.0   1   2   3.8e-05     0.054   15.0   0.0    48    79   177   208   174   213 0.94 -
ID=PSME_00007993     -            276 190682at3193         -             88   2.4e-05   25.7   0.0   2   2    0.0041       5.7    8.5   0.0    44    64   244   264   233   274 0.77 -
ID=PSME_00042457     -            192 190682at3193         -             88   4.2e-05   24.9   0.3   1   3    0.0014       1.9   10.0   0.0    43    74    60    91    37    98 0.74 -
ID=PSME_00042457     -            192 190682at3193         -             88   4.2e-05   24.9   0.3   2   3    0.0016       2.3    9.8   0.0    48    74   122   148   114   155 0.80 -
ID=PSME_00042457     -            192 190682at3193         -             88   4.2e-05   24.9   0.3   3   3      0.63   8.9e+02    1.5   0.0    51    61   168   178   166   188 0.83 -
ID=PSME_00003606     -            237 190682at3193         -             88   0.00045   21.6   0.1   1   1   5.8e-07   0.00082   20.8   0.1    48    80   132   164    95   169 0.85 -
ID=PSME_00020247     -            252 190682at3193         -             88   0.00075   20.9   0.0   1   2   8.9e-05      0.12   13.8   0.0    41    73    87   119    82   132 0.81 -
ID=PSME_00020247     -            252 190682at3193         -             88   0.00075   20.9   0.0   2   2     0.054        77    4.9   0.0    46    81   201   236   196   243 0.80 -
ID=PSME_00051434     -            113 190682at3193         -             88   0.00099   20.5   0.1   1   1     1e-06    0.0014   20.0   0.1    48    78    47    77    45    85 0.94 -
ID=PSME_00053425     -            136 190682at3193         -             88    0.0021   19.5   0.0   1   1   2.2e-06    0.0031   18.9   0.0    48    79    47    78    45    85 0.95 -
ID=PSME_00050828     -            429 190682at3193         -             88    0.0025   19.3   0.0   1   1   2.9e-06     0.004   18.6   0.0    46    85   232   271   225   274 0.90 -
ID=PSME_00048635     -            260 190682at3193         -             88    0.0026   19.2   0.0   1   1   4.2e-06    0.0059   18.0   0.0    48    79    75   106    73   112 0.95 -
ID=PSME_00018672     -             66 190682at3193         -             88     0.059   14.8   0.0   1   1   4.2e-05     0.059   14.8   0.0    48    78    34    64     1    65 0.90 -
ID=PSME_00055869     -             93 190682at3193         -             88     0.065   14.7   0.0   1   1   6.4e-05      0.09   14.3   0.0    48    78    20    50    18    58 0.92 -
ID=PSME_00020915     -            267 190682at3193         -             88      0.17   13.4   0.0   1   1   0.00026      0.37   12.3   0.0     5    77    88   159    85   168 0.85 -
ID=PSME_00052641     -            141 190682at3193         -             88      0.18   13.3   0.1   1   1   0.00033      0.47   12.0   0.0    43    74    85   116    44   123 0.66 -
ID=PSME_00055384     -             85 190682at3193         -             88      0.24   12.9   0.1   1   1   0.00022      0.31   12.5   0.1    52    83     2    33     1    38 0.87 -
ID=PSME_00056454     -            275 190682at3193         -             88       0.3   12.6   0.0   1   2    0.0097        14    7.3   0.0    39    59    98   118    95   132 0.87 -
ID=PSME_00056454     -            275 190682at3193         -             88       0.3   12.6   0.0   2   2      0.32   4.5e+02    2.4   0.0    48    82   222   256   214   261 0.82 -
ID=PSME_00018805     -            316 190682at3193         -             88      0.31   12.5   0.1   1   1   0.00049      0.69   11.4   0.1    45    76   276   307   273   310 0.93 -
ID=PSME_00014317     -            145 190682at3193         -             88      0.35   12.4   0.0   1   2     0.002       2.8    9.5   0.0    48    78    46    76    44    83 0.94 -
ID=PSME_00014317     -            145 190682at3193         -             88      0.35   12.4   0.0   2   2       1.3   1.8e+03    0.5   0.0    47    61   116   130   102   140 0.82 -
#
# Program:         hmmsearch
# Version:         3.2.1 (June 2018)
# Pipeline mode:   SEARCH
# Query file:      /isg/shared/databases/BUSCO/odb10/embryophyta_odb10/hmms/190682at3193.hmm
# Target file:     /labs/Wegrzyn/ConiferGenomes/Psme/analysis/SURF_annotation/analyze_orig_maker/gfacs/filtered/maker_genes.fasta.faa
# Option settings: /usr/local/bin/hmmsearch --domtblout /labs/Wegrzyn/ConiferGenomes/Psme/analysis/SURF_annotation/analyze_orig_maker/busco/maker/run_embryophyta_odb10/hmmer_output/190682at3193.out --cpu 1 /isg/shared/databases/BUSCO/odb10/embryophyta_odb10/hmms/190682at3193.hmm /labs/Wegrzyn/ConiferGenomes/Psme/analysis/SURF_annotation/analyze_orig_maker/gfacs/filtered/maker_genes.fasta.faa 
# Current dir:     /labs/Wegrzyn/ConiferGenomes/Psme/analysis/SURF_annotation/analyze_orig_maker/busco
# Date:            Fri Jul 10 13:46:31 2020
# [ok]
