#                                                                            --- full sequence --- -------------- this domain -------------   hmm coord   ali coord   env coord
# target name        accession   tlen query name           accession   qlen   E-value  score  bias   #  of  c-Evalue  i-Evalue  score  bias  from    to  from    to  from    to  acc description of target
#------------------- ---------- ----- -------------------- ---------- ----- --------- ------ ----- --- --- --------- --------- ------ ----- ----- ----- ----- ----- ----- ----- ---- ---------------------
ID=PSME_00032447     -            515 19068at3193          -            614  3.6e-101  341.2   4.1   1   2  2.9e-103  1.6e-100  339.0   1.2   167   465    64   369    59   376 0.94 -
ID=PSME_00032447     -            515 19068at3193          -            614  3.6e-101  341.2   4.1   2   2       0.2   1.1e+02    2.7   0.1   523   558   392   427   373   443 0.80 -
ID=PSME_00050106     -            297 19068at3193          -            614   7.7e-54  184.8   1.0   1   2   4.4e-56   2.3e-53  183.2   0.1   411   559     1   154     1   161 0.90 -
ID=PSME_00050106     -            297 19068at3193          -            614   7.7e-54  184.8   1.0   2   2       1.3     7e+02    0.0   0.1   566   584   195   213   189   268 0.48 -
ID=PSME_00007742     -            351 19068at3193          -            614   2.3e-31  110.6   0.1   1   1   5.8e-34   3.1e-31  110.2   0.1    83   209   225   349   215   351 0.93 -
ID=PSME_00028110     -            652 19068at3193          -            614   3.2e-27   96.9   0.0   1   1   8.6e-30   4.6e-27   96.4   0.0   103   369   243   537   218   547 0.85 -
ID=PSME_00028299     -            700 19068at3193          -            614   1.1e-26   95.2   0.0   1   1   2.9e-29   1.6e-26   94.6   0.0   103   369   295   589   269   602 0.85 -
ID=PSME_00007194     -            517 19068at3193          -            614     4e-24   86.7   0.0   1   1     1e-26   5.5e-24   86.2   0.0   104   291   267   460   260   478 0.91 -
ID=PSME_00032565     -            500 19068at3193          -            614   7.2e-19   69.3   0.0   1   1   1.9e-21     1e-18   68.8   0.0   104   289   263   455   249   469 0.88 -
ID=PSME_00028109     -            400 19068at3193          -            614   1.1e-15   58.8   0.0   1   1   2.8e-18   1.5e-15   58.4   0.0   103   289   167   360   133   366 0.86 -
ID=PSME_00028108     -            264 19068at3193          -            614     6e-15   56.4   0.0   1   1   1.4e-17   7.3e-15   56.1   0.0   102   260    24   190     8   221 0.82 -
ID=PSME_00015817     -            264 19068at3193          -            614   2.4e-14   54.4   0.0   1   1   5.5e-17     3e-14   54.1   0.0   103   225    25   154    11   197 0.82 -
ID=PSME_00028301     -            269 19068at3193          -            614   2.4e-13   51.1   0.0   1   1   5.5e-16     3e-13   50.8   0.0   103   269    30   203    14   228 0.84 -
ID=PSME_00043169     -            932 19068at3193          -            614     2e-11   44.8   0.0   1   2     3e-07   0.00016   21.9   0.0   303   349   234   280   219   291 0.85 -
ID=PSME_00043169     -            932 19068at3193          -            614     2e-11   44.8   0.0   2   2   8.2e-07   0.00044   20.5   0.0   303   349   687   733   672   744 0.86 -
ID=PSME_00016741     -            428 19068at3193          -            614   4.2e-11   43.7   0.0   1   1   1.1e-13   5.7e-11   43.2   0.0   102   213   137   257   124   276 0.85 -
ID=PSME_00007741     -            105 19068at3193          -            614   7.6e-11   42.8   0.1   1   1   1.5e-13   8.2e-11   42.7   0.1   222   293    22    92     3   101 0.86 -
ID=PSME_00010219     -            183 19068at3193          -            614   2.4e-09   37.9   0.0   1   1   5.1e-12   2.7e-09   37.7   0.0   304   394    16   107     6   176 0.83 -
ID=PSME_00028300     -            355 19068at3193          -            614   8.8e-09   36.0   0.0   1   1   2.2e-11   1.2e-08   35.6   0.0   103   184   249   330   218   340 0.92 -
ID=PSME_00012394     -            125 19068at3193          -            614   9.6e-09   35.9   0.0   1   1   2.1e-11   1.1e-08   35.7   0.0   169   256     3    83     1    90 0.93 -
ID=PSME_00007740     -            324 19068at3193          -            614   2.7e-08   34.4   0.0   1   1   7.4e-11     4e-08   33.8   0.0   403   463    63   123    56   133 0.92 -
ID=PSME_00014677     -            133 19068at3193          -            614   1.8e-07   31.7   0.0   1   1   3.7e-10     2e-07   31.5   0.0   136   213    42   118    27   130 0.84 -
ID=PSME_00005588     -            342 19068at3193          -            614   2.5e-05   24.6   0.3   1   2     0.039        21    5.1   0.1   173   221   126   172   114   199 0.77 -
ID=PSME_00005588     -            342 19068at3193          -            614   2.5e-05   24.6   0.3   2   2   5.9e-06    0.0032   17.7   0.0   298   359   213   281   204   289 0.85 -
ID=PSME_00016207     -            384 19068at3193          -            614   7.3e-05   23.1   0.0   1   2   3.1e-07   0.00017   21.9   0.0   302   349   109   156    46   168 0.86 -
ID=PSME_00016207     -            384 19068at3193          -            614   7.3e-05   23.1   0.0   2   2       6.7   3.6e+03   -2.3   0.0   151   168   249   266   237   271 0.77 -
ID=PSME_00009474     -            243 19068at3193          -            614   7.3e-05   23.1   0.0   1   1   1.9e-07    0.0001   22.6   0.0   299   350   148   199   138   203 0.88 -
ID=PSME_00045745     -            221 19068at3193          -            614    0.0001   22.6   0.2   1   2     0.064        35    4.3   0.0   175   219     8    50     2    67 0.76 -
ID=PSME_00045745     -            221 19068at3193          -            614    0.0001   22.6   0.2   2   2   1.4e-05    0.0077   16.4   0.0   300   353   111   171    97   183 0.82 -
ID=PSME_00015822     -            205 19068at3193          -            614   0.00012   22.3   4.4   1   3    0.0034       1.8    8.5   0.1   171   195    11    35     4    63 0.88 -
ID=PSME_00015822     -            205 19068at3193          -            614   0.00012   22.3   4.4   2   3     0.014       7.5    6.5   0.1   174   195    79   100    57   130 0.86 -
ID=PSME_00015822     -            205 19068at3193          -            614   0.00012   22.3   4.4   3   3    0.0041       2.2    8.3   0.1   170   194   140   164   122   172 0.85 -
ID=PSME_00039094     -            652 19068at3193          -            614   0.00022   21.5   0.8   1   2     0.029        16    5.5   0.0   174   221    14    59     7    91 0.75 -
ID=PSME_00039094     -            652 19068at3193          -            614   0.00022   21.5   0.8   2   2   5.9e-05     0.032   14.4   0.1   302   355   104   164    97   176 0.83 -
ID=PSME_00024671     -            374 19068at3193          -            614   0.00026   21.2   0.1   1   2       3.6   1.9e+03   -1.5   0.0   173   195    64    86    59   111 0.87 -
ID=PSME_00024671     -            374 19068at3193          -            614   0.00026   21.2   0.1   2   2   1.2e-06   0.00063   20.0   0.0   294   348   153   207    93   233 0.88 -
ID=PSME_00054802     -            429 19068at3193          -            614   0.00035   20.8   0.0   1   1   1.3e-06    0.0007   19.8   0.0   302   349   239   286   224   298 0.83 -
ID=PSME_00016206     -            488 19068at3193          -            614   0.00057   20.1   0.0   1   1   1.6e-06   0.00087   19.5   0.0   298   350   207   258   187   268 0.84 -
ID=PSME_00045372     -            154 19068at3193          -            614   0.00074   19.8   0.3   1   2   2.6e-06    0.0014   18.8   0.0   533   560     2    29     1    71 0.66 -
ID=PSME_00045372     -            154 19068at3193          -            614   0.00074   19.8   0.3   2   2       5.5     3e+03   -2.1   0.0   593   614   128   149   100   149 0.82 -
ID=PSME_00016205     -            487 19068at3193          -            614   0.00089   19.5   0.0   1   1   2.6e-06    0.0014   18.8   0.0   292   349   204   260   187   271 0.84 -
ID=PSME_00043090     -            194 19068at3193          -            614    0.0026   18.0   0.1   1   2   1.7e-05    0.0091   16.2   0.0   170   214    10    56     6    76 0.77 -
ID=PSME_00043090     -            194 19068at3193          -            614    0.0026   18.0   0.1   2   2       1.7   9.4e+02   -0.4   0.0   313   345    97   130    61   151 0.68 -
ID=PSME_00041635     -            220 19068at3193          -            614    0.0035   17.5   0.4   1   2   0.00012     0.066   13.3   0.1   170   203    10    44     5    75 0.76 -
ID=PSME_00041635     -            220 19068at3193          -            614    0.0035   17.5   0.4   2   2      0.18        97    2.8   0.1   292   340    75   128    55   140 0.72 -
ID=PSME_00047180     -            144 19068at3193          -            614    0.0049   17.0   0.0   1   1   1.2e-05    0.0064   16.7   0.0   170   212    10    54     5    70 0.78 -
ID=PSME_00043102     -            267 19068at3193          -            614     0.006   16.8   0.1   1   2     9e-05     0.048   13.8   0.0   170   199    10    39     5    74 0.76 -
ID=PSME_00043102     -            267 19068at3193          -            614     0.006   16.8   0.1   2   2      0.78   4.2e+02    0.7   0.0   313   340   129   157   112   169 0.82 -
ID=PSME_00005960     -            290 19068at3193          -            614    0.0072   16.5   0.3   1   2   0.00018     0.099   12.7   0.0   170   199    80   109    67   141 0.80 -
ID=PSME_00005960     -            290 19068at3193          -            614    0.0072   16.5   0.3   2   2      0.31   1.7e+02    2.1   0.1   294   340   147   198   126   210 0.72 -
ID=PSME_00056798     -             67 19068at3193          -            614    0.0078   16.4   0.0   1   1   1.5e-05    0.0078   16.4   0.0   170   198    10    38     4    61 0.82 -
ID=PSME_00032498     -            471 19068at3193          -            614     0.013   15.6   0.0   1   1   3.3e-05     0.018   15.2   0.0   295   347   246   298   171   315 0.84 -
ID=PSME_00005871     -            102 19068at3193          -            614     0.013   15.6   0.0   1   1   2.5e-05     0.013   15.6   0.0   169   198    44    73    14    95 0.82 -
ID=PSME_00014246     -            281 19068at3193          -            614     0.014   15.6   0.0   1   1   3.9e-05     0.021   15.0   0.0   307   341   128   162   114   178 0.89 -
ID=PSME_00026241     -            960 19068at3193          -            614     0.015   15.5   0.0   1   1   4.4e-05     0.024   14.8   0.0   305   352   721   767   710   783 0.90 -
ID=PSME_00030861     -            102 19068at3193          -            614     0.016   15.3   0.0   1   1     3e-05     0.016   15.3   0.0   169   198    44    73     9    93 0.83 -
ID=PSME_00013702     -            754 19068at3193          -            614     0.017   15.2   3.2   1   4      0.19     1e+02    2.7   0.0   174   194    13    32     6    39 0.87 -
ID=PSME_00013702     -            754 19068at3193          -            614     0.017   15.2   3.2   2   4      0.17        91    2.9   0.1   304   341    86   123    78   135 0.90 -
ID=PSME_00013702     -            754 19068at3193          -            614     0.017   15.2   3.2   3   4      0.11        59    3.6   0.0   174   194   448   467   433   507 0.86 -
ID=PSME_00013702     -            754 19068at3193          -            614     0.017   15.2   3.2   4   4      0.15        79    3.1   0.1   304   341   549   586   536   598 0.89 -
ID=PSME_00005076     -            438 19068at3193          -            614      0.02   15.0   0.7   1   2     0.036        19    5.2   0.2   175   255    24   103    19   121 0.65 -
ID=PSME_00005076     -            438 19068at3193          -            614      0.02   15.0   0.7   2   2    0.0013      0.72    9.9   0.1   283   343    91   159    72   172 0.71 -
ID=PSME_00024296     -            304 19068at3193          -            614     0.024   14.8   0.1   1   2    0.0016      0.87    9.6   0.0   170   199    10    39     4   109 0.88 -
ID=PSME_00024296     -            304 19068at3193          -            614     0.024   14.8   0.1   2   2      0.12        63    3.5   0.0   312   342   129   160   111   175 0.82 -
ID=PSME_00056774     -            433 19068at3193          -            614     0.028   14.5   0.6   1   2     0.023        12    5.8   0.2   173   211    21    65    16   111 0.66 -
ID=PSME_00056774     -            433 19068at3193          -            614     0.028   14.5   0.6   2   2     0.008       4.3    7.3   0.0   312   341   128   157    72   166 0.78 -
ID=PSME_00043579     -            159 19068at3193          -            614     0.034   14.3   0.1   1   1   0.00011     0.058   13.5   0.0   170   198    10    38     5    67 0.84 -
ID=PSME_00049661     -            130 19068at3193          -            614     0.037   14.1   0.0   1   1   8.9e-05     0.048   13.8   0.0   314   368     3    70     1    82 0.75 -
ID=PSME_00016582     -            887 19068at3193          -            614     0.042   14.0   0.0   1   1   0.00012     0.064   13.4   0.0   304   357   627   679   616   684 0.87 -
ID=PSME_00005927     -            369 19068at3193          -            614     0.046   13.8   0.0   1   1   0.00013     0.069   13.3   0.0   310   347   135   172   113   188 0.82 -
ID=PSME_00019799     -            508 19068at3193          -            614     0.053   13.6   0.6   1   3      0.46   2.5e+02    1.5   0.1   170   196    31    57    22    76 0.88 -
ID=PSME_00019799     -            508 19068at3193          -            614     0.053   13.6   0.6   2   3       8.2   4.4e+03   -2.6   0.0    88   108    77    97    68   103 0.78 -
ID=PSME_00019799     -            508 19068at3193          -            614     0.053   13.6   0.6   3   3    0.0017      0.89    9.6   0.0   303   356   140   200   132   208 0.80 -
ID=PSME_00013921     -            367 19068at3193          -            614     0.055   13.6   0.0   1   1   0.00015     0.083   13.0   0.0   170   193    10    33     7    45 0.88 -
ID=PSME_00052977     -            144 19068at3193          -            614     0.066   13.3   0.0   1   1   0.00012     0.066   13.3   0.0   171   204    11    46     4   125 0.83 -
ID=PSME_00046954     -            208 19068at3193          -            614     0.068   13.3   0.0   1   1   0.00018     0.096   12.8   0.0   150   193    83   125    66   141 0.87 -
ID=PSME_00031454     -            175 19068at3193          -            614     0.068   13.3   0.2   1   2   0.00026      0.14   12.2   0.0   170   213    10    55     5   118 0.82 -
ID=PSME_00031454     -            175 19068at3193          -            614     0.068   13.3   0.2   2   2       3.3   1.8e+03   -1.3   0.0   313   340   129   157   104   165 0.76 -
ID=PSME_00056462     -             67 19068at3193          -            614     0.069   13.2   0.0   1   1   0.00013     0.069   13.2   0.0   170   198    10    38     4    60 0.86 -
ID=PSME_00028433     -            373 19068at3193          -            614     0.074   13.2   0.0   1   1    0.0002      0.11   12.6   0.0   303   343    29    69    15    80 0.85 -
ID=PSME_00039228     -            812 19068at3193          -            614     0.081   13.0   0.0   1   2       6.6   3.6e+03   -2.3   0.0   163   199   607   643   599   652 0.69 -
ID=PSME_00039228     -            812 19068at3193          -            614     0.081   13.0   0.0   2   2   0.00043      0.23   11.5   0.0   305   352   724   770   713   777 0.88 -
ID=PSME_00033527     -            543 19068at3193          -            614       0.1   12.7   0.1   1   2      0.14        73    3.3   0.0   174   194   329   348   293   357 0.83 -
ID=PSME_00033527     -            543 19068at3193          -            614       0.1   12.7   0.1   2   2    0.0081       4.3    7.3   0.0   304   341   430   467   413   480 0.89 -
ID=PSME_00033889     -            239 19068at3193          -            614      0.11   12.6   0.4   1   2     0.032        17    5.3   0.2   175   259    27   110    22   123 0.75 -
ID=PSME_00033889     -            239 19068at3193          -            614      0.11   12.6   0.4   2   2     0.026        14    5.6   0.0   313   345   133   165   116   176 0.81 -
ID=PSME_00033776     -            572 19068at3193          -            614      0.12   12.5   0.0   1   2    0.0016      0.87    9.6   0.0   307   343   134   170   124   186 0.84 -
ID=PSME_00033776     -            572 19068at3193          -            614      0.12   12.5   0.0   2   2       1.3   6.8e+02    0.1   0.0   539   592   304   356   286   362 0.73 -
ID=PSME_00032564     -            184 19068at3193          -            614      0.12   12.4   0.0   1   1   0.00028      0.15   12.1   0.0   314   369     5    73     2   158 0.82 -
ID=PSME_00046439     -            214 19068at3193          -            614      0.13   12.3   0.0   1   1   0.00037       0.2   11.7   0.0   171   204    11    46     4    91 0.83 -
ID=PSME_00041980     -            336 19068at3193          -            614      0.14   12.2   0.1   1   2       7.7   4.1e+03   -2.5   0.1   174   222    55   103    47   112 0.70 -
ID=PSME_00041980     -            336 19068at3193          -            614      0.14   12.2   0.1   2   2   0.00058      0.31   11.1   0.0   307   342   159   194   143   213 0.87 -
ID=PSME_00009082     -            366 19068at3193          -            614      0.14   12.2   0.2   1   2    0.0064       3.5    7.6   0.0   170   197    10    37     3    58 0.88 -
ID=PSME_00009082     -            366 19068at3193          -            614      0.14   12.2   0.2   2   2      0.23   1.2e+02    2.5   0.1   311   343   128   161   117   179 0.84 -
ID=PSME_00056789     -             77 19068at3193          -            614      0.15   12.2   0.0   1   1   0.00029      0.15   12.1   0.0   304   349    21    66     8    73 0.91 -
ID=PSME_00039607     -            209 19068at3193          -            614      0.16   12.0   0.0   1   2     0.025        13    5.7   0.0   149   195     4    49     1    86 0.79 -
ID=PSME_00039607     -            209 19068at3193          -            614      0.16   12.0   0.0   2   2     0.056        30    4.5   0.0   302   347   133   178   113   190 0.81 -
ID=PSME_00044937     -             75 19068at3193          -            614      0.16   12.0   0.0   1   1    0.0003      0.16   12.0   0.0   170   196    10    36     3    53 0.87 -
ID=PSME_00004158     -            220 19068at3193          -            614       0.2   11.8   0.5   1   3     0.015       7.9    6.5   0.0   174   197    34    57    24    69 0.87 -
ID=PSME_00004158     -            220 19068at3193          -            614       0.2   11.8   0.5   2   3      0.34   1.8e+02    1.9   0.1   424   479    76   138    68   151 0.74 -
ID=PSME_00004158     -            220 19068at3193          -            614       0.2   11.8   0.5   3   3         1   5.6e+02    0.3   0.0   311   344   148   183   132   197 0.71 -
ID=PSME_00005520     -            336 19068at3193          -            614       0.2   11.7   2.1   1   3      0.77   4.2e+02    0.8   0.1   170   195    60    83    56   109 0.83 -
ID=PSME_00005520     -            336 19068at3193          -            614       0.2   11.7   2.1   2   3      0.46   2.5e+02    1.5   0.0    74   124   114   164    97   169 0.78 -
ID=PSME_00005520     -            336 19068at3193          -            614       0.2   11.7   2.1   3   3    0.0051       2.7    8.0   0.1   310   341   169   201   152   209 0.83 -
ID=PSME_00013919     -            175 19068at3193          -            614      0.21   11.7   0.1   1   2    0.0013      0.69    9.9   0.0   170   194    10    34     5    67 0.86 -
ID=PSME_00013919     -            175 19068at3193          -            614      0.21   11.7   0.1   2   2       2.2   1.2e+03   -0.8   0.0   313   340   129   157   102   166 0.71 -
ID=PSME_00009084     -             67 19068at3193          -            614      0.22   11.6   0.1   1   1   0.00046      0.25   11.4   0.1   170   193    10    33     3    39 0.87 -
ID=PSME_00003495     -             88 19068at3193          -            614      0.22   11.6   0.0   1   1   0.00047      0.25   11.4   0.0   304   350    21    67    12    75 0.91 -
ID=PSME_00054912     -            990 19068at3193          -            614      0.23   11.5   0.0   1   2       3.9   2.1e+03   -1.6   0.0   174   199   655   679   645   688 0.81 -
ID=PSME_00054912     -            990 19068at3193          -            614      0.23   11.5   0.0   2   2    0.0015      0.78    9.8   0.0   306   352   761   806   751   814 0.90 -
ID=PSME_00055475     -            330 19068at3193          -            614      0.25   11.4   0.0   1   2    0.0011      0.59   10.2   0.0   172   295    51   173    33   181 0.76 -
ID=PSME_00055475     -            330 19068at3193          -            614      0.25   11.4   0.0   2   2       1.1   5.8e+02    0.3   0.0   307   341   160   194   152   200 0.85 -
ID=PSME_00055446     -            644 19068at3193          -            614      0.27   11.3   0.0   1   2     0.037        20    5.1   0.0   174   194   334   354   298   369 0.87 -
ID=PSME_00055446     -            644 19068at3193          -            614      0.27   11.3   0.0   2   2     0.079        42    4.0   0.0   304   342   435   473   407   486 0.85 -
ID=PSME_00035401     -            405 19068at3193          -            614      0.27   11.3   0.1   1   2    0.0039       2.1    8.4   0.0   168   197    46    75    27    93 0.82 -
ID=PSME_00035401     -            405 19068at3193          -            614      0.27   11.3   0.1   2   2      0.93     5e+02    0.5   0.1   312   344   167   200   158   214 0.83 -
ID=PSME_00024810     -            514 19068at3193          -            614      0.28   11.3   0.0   1   1    0.0009      0.48   10.5   0.0   175   194    97   116    90   147 0.84 -
ID=PSME_00017102     -            665 19068at3193          -            614      0.29   11.2   0.1   1   2      0.54   2.9e+02    1.3   0.0   175   193    41    59    30    71 0.90 -
ID=PSME_00017102     -            665 19068at3193          -            614      0.29   11.2   0.1   2   2      0.01       5.4    7.0   0.0   171   194   339   362   329   383 0.89 -
ID=PSME_00024642     -            520 19068at3193          -            614      0.29   11.2   0.0   1   1   0.00076      0.41   10.7   0.0   174   194   101   121    90   154 0.84 -
ID=PSME_00055988     -            181 19068at3193          -            614      0.32   11.1   0.0   1   1   0.00074       0.4   10.7   0.0   305   353    47    94    36   101 0.87 -
ID=PSME_00008904     -            422 19068at3193          -            614      0.32   11.0   0.0   1   1   0.00082      0.44   10.6   0.0   270   341    87   169    51   181 0.77 -
ID=PSME_00042844     -            521 19068at3193          -            614      0.34   11.0   0.2   1   2      0.31   1.7e+02    2.1   0.1   175   196    90   111    85   176 0.75 -
ID=PSME_00042844     -            521 19068at3193          -            614      0.34   11.0   0.2   2   2     0.015       8.3    6.4   0.0   313   341   199   227   179   240 0.88 -
ID=PSME_00027970     -            630 19068at3193          -            614      0.35   10.9   0.0   1   2      0.12        62    3.5   0.0   174   194   340   359   303   378 0.83 -
ID=PSME_00027970     -            630 19068at3193          -            614      0.35   10.9   0.0   2   2     0.032        17    5.3   0.0   304   343   440   479   411   491 0.84 -
ID=PSME_00008501     -            337 19068at3193          -            614      0.36   10.9   0.0   1   1   0.00091      0.49   10.4   0.0   284   346   137   204   131   217 0.79 -
ID=PSME_00045384     -            453 19068at3193          -            614      0.36   10.9   0.0   1   1   0.00098      0.53   10.3   0.0   175   194    93   112    86   139 0.84 -
ID=PSME_00052585     -            653 19068at3193          -            614      0.36   10.9   0.1   1   2      0.12        62    3.5   0.0   174   194   351   370   315   386 0.83 -
ID=PSME_00052585     -            653 19068at3193          -            614      0.36   10.9   0.1   2   2     0.035        19    5.2   0.0   304   343   451   490   426   502 0.85 -
ID=PSME_00035978     -            307 19068at3193          -            614      0.38   10.8   0.3   1   2    0.0031       1.7    8.7   0.0   170   196    17    43     5    52 0.85 -
ID=PSME_00035978     -            307 19068at3193          -            614      0.38   10.8   0.3   2   2       1.6   8.6e+02   -0.3   0.1   312   343   132   164   123   174 0.80 -
ID=PSME_00020075     -             77 19068at3193          -            614      0.39   10.8   0.0   1   1   0.00078      0.42   10.7   0.0   305   349    22    66    12    73 0.92 -
ID=PSME_00013918     -            284 19068at3193          -            614      0.42   10.7   0.1   1   2    0.0024       1.3    9.0   0.0   170   194    10    34     5    74 0.84 -
ID=PSME_00013918     -            284 19068at3193          -            614      0.42   10.7   0.1   2   2       2.7   1.5e+03   -1.0   0.0   313   342   129   159   103   183 0.68 -
ID=PSME_00012510     -            345 19068at3193          -            614      0.47   10.5   0.0   1   1    0.0012      0.63   10.1   0.0   169   198   148   177   133   209 0.83 -
ID=PSME_00038011     -            364 19068at3193          -            614      0.47   10.5   0.1   1   2    0.0062       3.3    7.7   0.0   170   197    10    37     3    64 0.88 -
ID=PSME_00038011     -            364 19068at3193          -            614      0.47   10.5   0.1   2   2      0.96   5.1e+02    0.5   0.0   312   343   129   161   120   179 0.82 -
ID=PSME_00006606     -            627 19068at3193          -            614      0.54   10.3   0.1   1   2     0.021        11    6.0   0.0   174   194   316   336   281   347 0.90 -
ID=PSME_00006606     -            627 19068at3193          -            614      0.54   10.3   0.1   2   2      0.33   1.8e+02    2.0   0.0   304   341   417   454   405   467 0.89 -
ID=PSME_00015756     -            359 19068at3193          -            614      0.58   10.2   0.1   1   2     0.018       9.7    6.2   0.0   153   193    29    68    10    77 0.85 -
ID=PSME_00015756     -            359 19068at3193          -            614      0.58   10.2   0.1   2   2      0.38     2e+02    1.8   0.0   307   342   151   187   138   199 0.80 -
ID=PSME_00043987     -            170 19068at3193          -            614      0.58   10.2   0.0   1   1    0.0014      0.74    9.9   0.0   284   345    44   110    39   122 0.80 -
ID=PSME_00052423     -            351 19068at3193          -            614      0.59   10.2   0.0   1   1    0.0015      0.83    9.7   0.0   298   346   155   203   143   226 0.81 -
ID=PSME_00018149     -            305 19068at3193          -            614      0.61   10.1   0.3   1   2    0.0039       2.1    8.3   0.0   171   198    11    38     4    54 0.87 -
ID=PSME_00018149     -            305 19068at3193          -            614      0.61   10.1   0.3   2   2       2.5   1.4e+03   -0.9   0.1   312   340   129   159   119   164 0.82 -
ID=PSME_00031120     -            803 19068at3193          -            614      0.61   10.1   0.4   1   3      0.23   1.3e+02    2.5   0.0   174   194   332   351   296   357 0.87 -
ID=PSME_00031120     -            803 19068at3193          -            614      0.61   10.1   0.4   2   3      0.11        60    3.5   0.1   304   341   429   466   416   475 0.90 -
ID=PSME_00031120     -            803 19068at3193          -            614      0.61   10.1   0.4   3   3       1.5   8.3e+02   -0.2   0.0   304   344   758   798   745   801 0.87 -
ID=PSME_00019591     -            458 19068at3193          -            614      0.62   10.1   0.1   1   2    0.0044       2.4    8.2   0.0   169   194    65    90    53   119 0.84 -
ID=PSME_00019591     -            458 19068at3193          -            614      0.62   10.1   0.1   2   2       2.9   1.5e+03   -1.1   0.0   307   341   161   195   131   201 0.82 -
ID=PSME_00053444     -            543 19068at3193          -            614      0.67   10.0   0.1   1   2      0.09        48    3.8   0.0   174   194   241   260   204   276 0.82 -
ID=PSME_00053444     -            543 19068at3193          -            614      0.67   10.0   0.1   2   2     0.081        43    4.0   0.0   304   342   341   379   323   392 0.85 -
ID=PSME_00055962     -            638 19068at3193          -            614       0.9    9.6   0.1   1   2     0.093        50    3.8   0.0   174   194   315   334   292   373 0.87 -
ID=PSME_00055962     -            638 19068at3193          -            614       0.9    9.6   0.1   2   2      0.11        57    3.6   0.0   304   341   416   453   403   468 0.88 -
ID=PSME_00057124     -            427 19068at3193          -            614      0.91    9.5   1.9   1   2      0.27   1.4e+02    2.3   0.4   175   257    21   102    15   111 0.73 -
ID=PSME_00057124     -            427 19068at3193          -            614      0.91    9.5   1.9   2   2     0.012       6.6    6.7   0.3   312   341   126   155    70   169 0.80 -
ID=PSME_00009579     -            864 19068at3193          -            614         1    9.4   0.6   1   2     0.031        16    5.4   0.4   173   293   537   656   525   659 0.75 -
ID=PSME_00009579     -            864 19068at3193          -            614         1    9.4   0.6   2   2     0.056        30    4.5   0.0   291   343   625   676   620   685 0.82 -
#
# Program:         hmmsearch
# Version:         3.2.1 (June 2018)
# Pipeline mode:   SEARCH
# Query file:      /isg/shared/databases/BUSCO/odb10/embryophyta_odb10/hmms/19068at3193.hmm
# Target file:     /labs/Wegrzyn/ConiferGenomes/Psme/analysis/SURF_annotation/analyze_orig_maker/gfacs/filtered/maker_genes.fasta.faa
# Option settings: /usr/local/bin/hmmsearch --domtblout /labs/Wegrzyn/ConiferGenomes/Psme/analysis/SURF_annotation/analyze_orig_maker/busco/maker/run_embryophyta_odb10/hmmer_output/19068at3193.out --cpu 1 /isg/shared/databases/BUSCO/odb10/embryophyta_odb10/hmms/19068at3193.hmm /labs/Wegrzyn/ConiferGenomes/Psme/analysis/SURF_annotation/analyze_orig_maker/gfacs/filtered/maker_genes.fasta.faa 
# Current dir:     /labs/Wegrzyn/ConiferGenomes/Psme/analysis/SURF_annotation/analyze_orig_maker/busco
# Date:            Fri Jul 10 13:46:41 2020
# [ok]
