#                                                                            --- full sequence --- -------------- this domain -------------   hmm coord   ali coord   env coord
# target name        accession   tlen query name           accession   qlen   E-value  score  bias   #  of  c-Evalue  i-Evalue  score  bias  from    to  from    to  from    to  acc description of target
#------------------- ---------- ----- -------------------- ---------- ----- --------- ------ ----- --- --- --------- --------- ------ ----- ----- ----- ----- ----- ----- ----- ---- ---------------------
ID=PSME_00002610     -           1060 1916at3193           -           1129         0 1111.9   0.3   1   3   4.5e-27   3.1e-23   83.0   0.0   121   191   181   253   164   272 0.85 -
ID=PSME_00002610     -           1060 1916at3193           -           1129         0 1111.9   0.3   2   3    2e-223  1.4e-219  733.2   0.0   186   590   272   702   263   709 0.94 -
ID=PSME_00002610     -           1060 1916at3193           -           1129         0 1111.9   0.3   3   3     3e-90     2e-86  292.2   0.1   586   738   741   896   720   902 0.95 -
ID=PSME_00002611     -            349 1916at3193           -           1129  1.2e-105  355.9   4.1   1   2   3.7e-70   2.5e-66  225.7   0.2   835  1009     1   184     1   195 0.88 -
ID=PSME_00002611     -            349 1916at3193           -           1129  1.2e-105  355.9   4.1   2   2   6.6e-42   4.5e-38  132.1   0.5   989  1129   203   346   185   346 0.77 -
ID=PSME_00008121     -            155 1916at3193           -           1129   8.7e-21   74.9   0.7   1   1   1.5e-24     1e-20   74.6   0.7   695   779     3    96     1   103 0.88 -
ID=PSME_00044110     -             70 1916at3193           -           1129   2.9e-19   69.9   0.0   1   1   4.2e-23   2.9e-19   69.8   0.0   695   738     3    46     1    60 0.96 -
ID=PSME_00036833     -            467 1916at3193           -           1129   8.6e-16   58.3   0.0   1   1   2.1e-19   1.5e-15   57.6   0.0   681   955    63   347    54   353 0.84 -
ID=PSME_00006755     -            571 1916at3193           -           1129   2.1e-12   47.1   1.1   1   1   4.3e-16   2.9e-12   46.6   1.1     3    66    24    97    22   104 0.86 -
ID=PSME_00009901     -           1358 1916at3193           -           1129   0.00019   20.8   0.0   1   3     0.053   3.6e+02   -0.0   0.0   466   602   442   575   427   579 0.82 -
ID=PSME_00009901     -           1358 1916at3193           -           1129   0.00019   20.8   0.0   2   3   3.7e-05      0.26   10.4   0.0   679   731   838   890   822   904 0.86 -
ID=PSME_00009901     -           1358 1916at3193           -           1129   0.00019   20.8   0.0   3   3   0.00086       5.9    5.9   0.0   768   924   958  1131   943  1140 0.72 -
ID=PSME_00017629     -            928 1916at3193           -           1129     0.017   14.3   0.0   1   2     0.032   2.2e+02    0.7   0.0   466   602   399   532   387   536 0.82 -
ID=PSME_00017629     -            928 1916at3193           -           1129     0.017   14.3   0.0   2   2   2.4e-05      0.16   11.0   0.0   679   731   847   899   831   913 0.86 -
#
# Program:         hmmsearch
# Version:         3.2.1 (June 2018)
# Pipeline mode:   SEARCH
# Query file:      /isg/shared/databases/BUSCO/odb10/embryophyta_odb10/hmms/1916at3193.hmm
# Target file:     /labs/Wegrzyn/ConiferGenomes/Psme/analysis/SURF_annotation/analyze_orig_maker/gfacs/filtered/maker_genes.fasta.faa
# Option settings: /usr/local/bin/hmmsearch --domtblout /labs/Wegrzyn/ConiferGenomes/Psme/analysis/SURF_annotation/analyze_orig_maker/busco/maker/run_embryophyta_odb10/hmmer_output/1916at3193.out --cpu 1 /isg/shared/databases/BUSCO/odb10/embryophyta_odb10/hmms/1916at3193.hmm /labs/Wegrzyn/ConiferGenomes/Psme/analysis/SURF_annotation/analyze_orig_maker/gfacs/filtered/maker_genes.fasta.faa 
# Current dir:     /labs/Wegrzyn/ConiferGenomes/Psme/analysis/SURF_annotation/analyze_orig_maker/busco
# Date:            Fri Jul 10 13:46:34 2020
# [ok]
