#                                                                            --- full sequence --- -------------- this domain -------------   hmm coord   ali coord   env coord
# target name        accession   tlen query name           accession   qlen   E-value  score  bias   #  of  c-Evalue  i-Evalue  score  bias  from    to  from    to  from    to  acc description of target
#------------------- ---------- ----- -------------------- ---------- ----- --------- ------ ----- --- --- --------- --------- ------ ----- ----- ----- ----- ----- ----- ----- ---- ---------------------
ID=PSME_00032447     -            515 19243at3193          -            533   1.9e-65  223.1   0.2   1   1   2.6e-68   3.8e-65  222.0   0.2   133   419    64   368    59   426 0.89 -
ID=PSME_00007742     -            351 19243at3193          -            533   1.3e-28  101.4   0.0   1   1   1.3e-31   1.9e-28  100.9   0.0    60   159   233   339   227   349 0.90 -
ID=PSME_00028110     -            652 19243at3193          -            533   4.9e-15   56.7   0.0   1   1   8.6e-18   1.3e-14   55.3   0.0    65   314   236   521   201   532 0.72 -
ID=PSME_00028299     -            700 19243at3193          -            533     3e-14   54.1   0.0   1   1   5.2e-17   7.7e-14   52.7   0.0    65   314   288   573   252   583 0.70 -
ID=PSME_00050106     -            297 19243at3193          -            533   3.2e-12   47.4   0.0   1   1   2.7e-15     4e-12   47.0   0.0   369   452     4    87     1    97 0.92 -
ID=PSME_00007194     -            517 19243at3193          -            533   6.3e-11   43.1   0.0   1   1   6.6e-14   9.8e-11   42.5   0.0    71   214   265   427   260   442 0.76 -
ID=PSME_00028300     -            355 19243at3193          -            533   3.5e-09   37.3   0.0   1   1   3.2e-12   4.8e-09   36.9   0.0    65   146   242   326   205   330 0.86 -
ID=PSME_00032565     -            500 19243at3193          -            533   3.8e-09   37.2   0.0   1   1   3.6e-12   5.4e-09   36.7   0.0    65   147   255   340   220   425 0.80 -
ID=PSME_00028109     -            400 19243at3193          -            533   5.1e-09   36.8   0.0   1   1   6.5e-12   9.6e-09   35.9   0.0    62   146   157   244   122   281 0.78 -
ID=PSME_00028108     -            264 19243at3193          -            533   5.4e-08   33.4   0.0   1   1   5.1e-11   7.6e-08   32.9   0.0    65   146    18   102     8   143 0.87 -
ID=PSME_00043169     -            932 19243at3193          -            533     1e-07   32.5   0.0   1   2   4.8e-06    0.0071   16.5   0.0   231   308   202   278   198   287 0.83 -
ID=PSME_00043169     -            932 19243at3193          -            533     1e-07   32.5   0.0   2   2   3.8e-05     0.057   13.5   0.0   271   308   694   731   652   740 0.74 -
ID=PSME_00015817     -            264 19243at3193          -            533   1.1e-07   32.5   0.0   1   1     1e-10   1.6e-07   31.9   0.0    65   146    18   102     8   140 0.89 -
ID=PSME_00007741     -            105 19243at3193          -            533   1.9e-07   31.6   0.0   1   1   1.3e-10     2e-07   31.6   0.0   180   247    23    95     4   103 0.80 -
ID=PSME_00028301     -            269 19243at3193          -            533   4.5e-07   30.4   0.0   1   1   5.5e-10   8.2e-07   29.5   0.0    65   146    23   107     4   112 0.89 -
ID=PSME_00016741     -            428 19243at3193          -            533   9.4e-07   29.3   0.0   1   1   1.1e-09   1.7e-06   28.5   0.0    63   145   129   215   109   257 0.81 -
ID=PSME_00010219     -            183 19243at3193          -            533   1.9e-06   28.3   0.8   1   2   4.5e-09   6.7e-06   26.5   1.0   271   320    22    70    13   161 0.76 -
ID=PSME_00010219     -            183 19243at3193          -            533   1.9e-06   28.3   0.8   2   2      0.64   9.5e+02   -0.4   0.0   159   178   144   162   135   173 0.83 -
ID=PSME_00012394     -            125 19243at3193          -            533   0.00034   20.9   0.0   1   1   2.9e-07   0.00043   20.5   0.0   138   212     5    82     2    85 0.90 -
ID=PSME_00007740     -            324 19243at3193          -            533   0.00055   20.2   0.0   1   1   6.7e-07   0.00099   19.3   0.0   363   420    68   125    51   142 0.90 -
ID=PSME_00009474     -            243 19243at3193          -            533   0.00056   20.2   0.0   1   1     5e-07   0.00075   19.8   0.0   253   303   141   191   125   199 0.85 -
ID=PSME_00048171     -            414 19243at3193          -            533    0.0018   18.5   0.0   1   3    0.0008       1.2    9.2   0.0   221   302    99   183    85   205 0.78 -
ID=PSME_00048171     -            414 19243at3193          -            533    0.0018   18.5   0.0   2   3     0.007        10    6.1   0.0   344   380   249   285   234   296 0.86 -
ID=PSME_00048171     -            414 19243at3193          -            533    0.0018   18.5   0.0   3   3       1.4     2e+03   -1.5   0.0    85   115   320   350   318   363 0.82 -
ID=PSME_00005927     -            369 19243at3193          -            533    0.0098   16.1   0.1   1   2     2e-05     0.029   14.5   0.0   268   310   132   174    91   188 0.79 -
ID=PSME_00005927     -            369 19243at3193          -            533    0.0098   16.1   0.1   2   2       1.3   1.9e+03   -1.4   0.0   427   461   209   245   206   265 0.77 -
ID=PSME_00016207     -            384 19243at3193          -            533      0.01   16.0   0.0   1   1   1.1e-05     0.016   15.4   0.0   231   308    78   154    63   164 0.81 -
ID=PSME_00028433     -            373 19243at3193          -            533     0.011   16.0   0.0   1   1   9.9e-06     0.015   15.5   0.0   268   308    33    73     4    81 0.80 -
ID=PSME_00000610     -           1104 19243at3193          -            533     0.016   15.3   0.1   1   1   1.7e-05     0.025   14.7   0.1   236   307   320   395   284   404 0.81 -
ID=PSME_00016206     -            488 19243at3193          -            533     0.021   15.0   0.0   1   1   2.1e-05     0.031   14.4   0.0   231   308   179   255   164   269 0.80 -
ID=PSME_00014677     -            133 19243at3193          -            533     0.022   14.9   0.0   1   1   1.5e-05     0.022   14.9   0.0   103   159    40   104     9   125 0.79 -
ID=PSME_00016205     -            487 19243at3193          -            533     0.023   14.8   0.0   1   1   2.6e-05     0.038   14.1   0.0   231   308   182   258   165   267 0.81 -
ID=PSME_00054802     -            429 19243at3193          -            533     0.034   14.3   0.0   1   1   3.3e-05     0.048   13.8   0.0   231   306   208   282   196   297 0.80 -
ID=PSME_00014246     -            281 19243at3193          -            533     0.037   14.1   0.0   1   1   3.5e-05     0.051   13.7   0.0   269   302   129   162   109   176 0.86 -
ID=PSME_00018963     -            230 19243at3193          -            533     0.039   14.1   0.0   1   1   3.1e-05     0.047   13.8   0.0   231   303    62   134    14   144 0.83 -
ID=PSME_00032498     -            471 19243at3193          -            533     0.039   14.1   0.0   1   1   3.2e-05     0.048   13.8   0.0   266   310   256   300   114   314 0.83 -
ID=PSME_00024671     -            374 19243at3193          -            533     0.052   13.7   0.0   1   1   4.7e-05      0.07   13.2   0.0   267   304   165   202   124   213 0.84 -
ID=PSME_00047276     -            428 19243at3193          -            533       0.1   12.7   0.0   1   1   9.6e-05      0.14   12.2   0.0   213   307    70   165    56   176 0.82 -
ID=PSME_00005588     -            342 19243at3193          -            533      0.27   11.3   0.0   1   1   0.00025      0.37   10.9   0.0   272   320   233   281   208   297 0.81 -
ID=PSME_00056283     -            338 19243at3193          -            533      0.52   10.4   0.0   1   1   0.00052      0.78    9.8   0.0   232   305   132   204   128   217 0.82 -
ID=PSME_00001320     -            708 19243at3193          -            533      0.57   10.2   0.0   1   1   0.00054      0.81    9.7   0.0   267   304   260   298   217   328 0.79 -
ID=PSME_00047275     -            416 19243at3193          -            533      0.71    9.9   0.0   1   1   0.00067         1    9.4   0.0   214   303    71   161    56   174 0.82 -
#
# Program:         hmmsearch
# Version:         3.2.1 (June 2018)
# Pipeline mode:   SEARCH
# Query file:      /isg/shared/databases/BUSCO/odb10/embryophyta_odb10/hmms/19243at3193.hmm
# Target file:     /labs/Wegrzyn/ConiferGenomes/Psme/analysis/SURF_annotation/analyze_orig_maker/gfacs/filtered/maker_genes.fasta.faa
# Option settings: /usr/local/bin/hmmsearch --domtblout /labs/Wegrzyn/ConiferGenomes/Psme/analysis/SURF_annotation/analyze_orig_maker/busco/maker/run_embryophyta_odb10/hmmer_output/19243at3193.out --cpu 1 /isg/shared/databases/BUSCO/odb10/embryophyta_odb10/hmms/19243at3193.hmm /labs/Wegrzyn/ConiferGenomes/Psme/analysis/SURF_annotation/analyze_orig_maker/gfacs/filtered/maker_genes.fasta.faa 
# Current dir:     /labs/Wegrzyn/ConiferGenomes/Psme/analysis/SURF_annotation/analyze_orig_maker/busco
# Date:            Fri Jul 10 13:46:33 2020
# [ok]
