#                                                                            --- full sequence --- -------------- this domain -------------   hmm coord   ali coord   env coord
# target name        accession   tlen query name           accession   qlen   E-value  score  bias   #  of  c-Evalue  i-Evalue  score  bias  from    to  from    to  from    to  acc description of target
#------------------- ---------- ----- -------------------- ---------- ----- --------- ------ ----- --- --- --------- --------- ------ ----- ----- ----- ----- ----- ----- ----- ---- ---------------------
ID=PSME_00030425     -           1031 193277at3193         -            142   2.1e-12   48.5   2.7   1   5   0.00042       1.5   10.0   0.0    38    88     8    58     4    76 0.71 -
ID=PSME_00030425     -           1031 193277at3193         -            142   2.1e-12   48.5   2.7   2   5   2.3e-05     0.085   14.1   0.0    48    91   293   336   271   364 0.85 -
ID=PSME_00030425     -           1031 193277at3193         -            142   2.1e-12   48.5   2.7   3   5   0.00024      0.88   10.8   0.1    35    88   664   717   640   734 0.71 -
ID=PSME_00030425     -           1031 193277at3193         -            142   2.1e-12   48.5   2.7   4   5       3.9   1.4e+04   -2.9   0.0    81   100   888   907   883   913 0.78 -
ID=PSME_00030425     -           1031 193277at3193         -            142   2.1e-12   48.5   2.7   5   5   0.00058       2.1    9.5   0.0    48    89   955   996   933  1024 0.86 -
ID=PSME_00048965     -            563 193277at3193         -            142   2.5e-08   35.2   0.0   1   3   2.1e-06    0.0077   17.4   0.0    36   118    26   110     4   129 0.73 -
ID=PSME_00048965     -            563 193277at3193         -            142   2.5e-08   35.2   0.0   2   3       1.4   5.3e+03   -1.5   0.0    79   100   290   311   278   317 0.79 -
ID=PSME_00048965     -            563 193277at3193         -            142   2.5e-08   35.2   0.0   3   3   2.4e-05     0.087   14.0   0.0    48    90   359   401   335   431 0.85 -
ID=PSME_00014266     -            519 193277at3193         -            142   1.4e-05   26.3   0.0   1   2   0.00061       2.2    9.5   0.0    49    93    49    93    44   116 0.79 -
ID=PSME_00014266     -            519 193277at3193         -            142   1.4e-05   26.3   0.0   2   2   2.3e-05     0.086   14.1   0.0    46    93   165   212   146   235 0.86 -
ID=PSME_00009557     -            222 193277at3193         -            142   7.4e-05   24.0   0.0   1   1   2.8e-08    0.0001   23.5   0.0    43   138    14   107     2   110 0.80 -
ID=PSME_00005064     -            245 193277at3193         -            142    0.0011   20.2   0.0   1   2    0.0015       5.5    8.2   0.0    51    92    64   105    51   136 0.83 -
ID=PSME_00005064     -            245 193277at3193         -            142    0.0011   20.2   0.0   2   2   0.00037       1.3   10.2   0.0    32    76   185   229   172   245 0.71 -
ID=PSME_00048518     -            586 193277at3193         -            142     0.002   19.4   0.1   1   3      0.26   9.7e+02    0.9   0.0    51   121    78   149    64   159 0.82 -
ID=PSME_00048518     -            586 193277at3193         -            142     0.002   19.4   0.1   2   3     2e-05     0.073   14.3   0.1    48    88   288   328   278   350 0.86 -
ID=PSME_00048518     -            586 193277at3193         -            142     0.002   19.4   0.1   3   3       1.1   4.1e+03   -1.1   0.1    94   137   519   564   488   573 0.71 -
ID=PSME_00002038     -            454 193277at3193         -            142    0.0057   17.9   0.0   1   2      0.81   2.9e+03   -0.7   0.0    79   100   187   208   179   215 0.81 -
ID=PSME_00002038     -            454 193277at3193         -            142    0.0057   17.9   0.0   2   2   1.2e-05     0.042   15.0   0.0    48    90   256   298   245   338 0.83 -
ID=PSME_00027306     -            312 193277at3193         -            142    0.0091   17.2   0.0   1   2   0.00083         3    9.0   0.0    77   122    80   124    72   130 0.81 -
ID=PSME_00027306     -            312 193277at3193         -            142    0.0091   17.2   0.0   2   2    0.0081        30    5.8   0.0    77   136   238   296   230   301 0.82 -
ID=PSME_00048548     -            234 193277at3193         -            142     0.014   16.6   0.0   1   1     6e-06     0.022   16.0   0.0    42    84    36    77    18    96 0.77 -
ID=PSME_00053121     -            251 193277at3193         -            142     0.072   14.3   0.0   1   1   3.3e-05      0.12   13.6   0.0    41    74   124   157    95   165 0.80 -
ID=PSME_00037126     -            205 193277at3193         -            142     0.098   13.9   0.0   1   1   4.6e-05      0.17   13.1   0.0    42    67    32    57    14    84 0.79 -
ID=PSME_00026225     -            218 193277at3193         -            142      0.12   13.6   0.0   1   1   4.9e-05      0.18   13.0   0.0    51    74     4    27     1    52 0.77 -
ID=PSME_00007835     -            121 193277at3193         -            142      0.15   13.2   0.1   1   1     5e-05      0.18   13.0   0.1    37   120    16    95     2   111 0.78 -
ID=PSME_00011199     -            722 193277at3193         -            142       0.4   11.9   0.1   1   2       4.7   1.7e+04   -3.1   0.6    30    47    49    66    40    70 0.55 -
ID=PSME_00011199     -            722 193277at3193         -            142       0.4   11.9   0.1   2   2   0.00011       0.4   11.9   0.1    33    97   362   434   352   440 0.73 -
ID=PSME_00033814     -            152 193277at3193         -            142      0.61   11.3   0.0   1   2     0.049   1.8e+02    3.3   0.0    80   120    18    57     8    63 0.69 -
ID=PSME_00033814     -            152 193277at3193         -            142      0.61   11.3   0.0   2   2    0.0069        25    6.0   0.0   109   139    90   122    85   125 0.80 -
#
# Program:         hmmsearch
# Version:         3.2.1 (June 2018)
# Pipeline mode:   SEARCH
# Query file:      /isg/shared/databases/BUSCO/odb10/embryophyta_odb10/hmms/193277at3193.hmm
# Target file:     /labs/Wegrzyn/ConiferGenomes/Psme/analysis/SURF_annotation/analyze_orig_maker/gfacs/filtered/maker_genes.fasta.faa
# Option settings: /usr/local/bin/hmmsearch --domtblout /labs/Wegrzyn/ConiferGenomes/Psme/analysis/SURF_annotation/analyze_orig_maker/busco/maker/run_embryophyta_odb10/hmmer_output/193277at3193.out --cpu 1 /isg/shared/databases/BUSCO/odb10/embryophyta_odb10/hmms/193277at3193.hmm /labs/Wegrzyn/ConiferGenomes/Psme/analysis/SURF_annotation/analyze_orig_maker/gfacs/filtered/maker_genes.fasta.faa 
# Current dir:     /labs/Wegrzyn/ConiferGenomes/Psme/analysis/SURF_annotation/analyze_orig_maker/busco
# Date:            Fri Jul 10 13:46:32 2020
# [ok]
