#                                                                            --- full sequence --- -------------- this domain -------------   hmm coord   ali coord   env coord
# target name        accession   tlen query name           accession   qlen   E-value  score  bias   #  of  c-Evalue  i-Evalue  score  bias  from    to  from    to  from    to  acc description of target
#------------------- ---------- ----- -------------------- ---------- ----- --------- ------ ----- --- --- --------- --------- ------ ----- ----- ----- ----- ----- ----- ----- ---- ---------------------
ID=PSME_00005645     -            135 193818at3193         -            112   1.6e-21   77.8   0.0   1   1   1.7e-25   1.9e-21   77.6   0.0     4   110    30   133    27   134 0.92 -
ID=PSME_00049432     -            178 193818at3193         -            112   3.3e-19   70.3   0.1   1   1   3.9e-23   4.3e-19   70.0   0.1     5   111    69   176    65   177 0.89 -
ID=PSME_00023659     -            110 193818at3193         -            112   1.2e-12   49.2   0.0   1   1   1.6e-16   1.7e-12   48.7   0.0     4    85    27   105    24   108 0.89 -
ID=PSME_00022320     -            266 193818at3193         -            112       0.1   14.0   0.0   1   1   1.6e-05      0.17   13.3   0.0     7    91    88   178    83   186 0.78 -
ID=PSME_00006918     -            235 193818at3193         -            112      0.45   11.9   0.1   1   1   6.6e-05      0.73   11.3   0.1    36   101    43   104    19   120 0.83 -
#
# Program:         hmmsearch
# Version:         3.2.1 (June 2018)
# Pipeline mode:   SEARCH
# Query file:      /isg/shared/databases/BUSCO/odb10/embryophyta_odb10/hmms/193818at3193.hmm
# Target file:     /labs/Wegrzyn/ConiferGenomes/Psme/analysis/SURF_annotation/analyze_orig_maker/gfacs/filtered/maker_genes.fasta.faa
# Option settings: /usr/local/bin/hmmsearch --domtblout /labs/Wegrzyn/ConiferGenomes/Psme/analysis/SURF_annotation/analyze_orig_maker/busco/maker/run_embryophyta_odb10/hmmer_output/193818at3193.out --cpu 1 /isg/shared/databases/BUSCO/odb10/embryophyta_odb10/hmms/193818at3193.hmm /labs/Wegrzyn/ConiferGenomes/Psme/analysis/SURF_annotation/analyze_orig_maker/gfacs/filtered/maker_genes.fasta.faa 
# Current dir:     /labs/Wegrzyn/ConiferGenomes/Psme/analysis/SURF_annotation/analyze_orig_maker/busco
# Date:            Fri Jul 10 13:46:32 2020
# [ok]
