#                                                                            --- full sequence --- -------------- this domain -------------   hmm coord   ali coord   env coord
# target name        accession   tlen query name           accession   qlen   E-value  score  bias   #  of  c-Evalue  i-Evalue  score  bias  from    to  from    to  from    to  acc description of target
#------------------- ---------- ----- -------------------- ---------- ----- --------- ------ ----- --- --- --------- --------- ------ ----- ----- ----- ----- ----- ----- ----- ---- ---------------------
ID=PSME_00018378     -           1086 19439at3193          -            730         0 1278.1  21.9   1   2  8.6e-195  1.6e-191  640.0   1.3     5   357     2   392     1   408 0.94 -
ID=PSME_00018378     -           1086 19439at3193          -            730         0 1278.1  21.9   2   2  1.9e-195  3.5e-192  642.2  13.4   367   730   654  1050   646  1050 0.94 -
ID=PSME_00023301     -            915 19439at3193          -            730  1.3e-235  785.7  10.5   1   2  4.2e-174  7.7e-171  571.6   0.2     1   359     1   395     1   413 0.92 -
ID=PSME_00023301     -            915 19439at3193          -            730  1.3e-235  785.7  10.5   2   2   2.5e-66   4.7e-63  215.3   5.0   366   559   724   915   713   915 0.89 -
ID=PSME_00012580     -           1432 19439at3193          -            730  1.3e-208  696.5   4.0   1   2  1.3e-164  2.4e-161  540.2   1.7    24   371   183   568   177   627 0.90 -
ID=PSME_00012580     -           1432 19439at3193          -            730  1.3e-208  696.5   4.0   2   2   1.9e-51   3.4e-48  166.1   0.0   364   492  1271  1427  1266  1430 0.84 -
ID=PSME_00023300     -            183 19439at3193          -            730     5e-63  215.2   0.1   1   1   3.5e-66   6.3e-63  214.8   0.1   586   729     8   156     5   157 0.96 -
ID=PSME_00012579     -            232 19439at3193          -            730   2.6e-49  169.8   0.1   1   1   1.8e-52   3.3e-49  169.5   0.1   591   703     2   111     1   117 0.96 -
ID=PSME_00032148     -             75 19439at3193          -            730   2.5e-31  110.4   0.6   1   1   1.5e-34   2.7e-31  110.3   0.6   420   480     3    63     1    73 0.95 -
ID=PSME_00036645     -             80 19439at3193          -            730   3.6e-30  106.5   1.1   1   1   2.1e-33   3.9e-30  106.4   1.1   420   482     3    65     1    72 0.94 -
ID=PSME_00047256     -            169 19439at3193          -            730   5.5e-30  105.9   0.1   1   1   3.3e-33   6.1e-30  105.8   0.1   420   486     3    69     1    94 0.95 -
ID=PSME_00046037     -             77 19439at3193          -            730   7.3e-30  105.5   0.5   1   1   4.2e-33   7.8e-30  105.5   0.5   420   480     3    63     1    73 0.95 -
ID=PSME_00038933     -           1022 19439at3193          -            730   1.3e-29  104.7   0.7   1   2   1.6e-28   2.8e-25   90.4   0.0   361   591   548   794   539   804 0.84 -
ID=PSME_00038933     -           1022 19439at3193          -            730   1.3e-29  104.7   0.7   2   2   5.6e-05       0.1   12.5   0.3   600   695   849   953   844   983 0.81 -
ID=PSME_00000098     -           1106 19439at3193          -            730   1.1e-28  101.7   0.9   1   2   4.6e-31   8.4e-28   98.7   0.1   365   591   635   881   624   891 0.82 -
ID=PSME_00000098     -           1106 19439at3193          -            730   1.1e-28  101.7   0.9   2   2      0.15   2.7e+02    1.2   0.1   604   694   940  1034   933  1048 0.81 -
ID=PSME_00013330     -            254 19439at3193          -            730     1e-26   95.1   1.5   1   1   7.8e-30   1.4e-26   94.7   1.5   419   477    57   115    47   122 0.93 -
ID=PSME_00033848     -             67 19439at3193          -            730   2.9e-26   93.6   1.7   1   1   1.8e-29   3.2e-26   93.5   1.7   420   476     3    59     1    63 0.97 -
ID=PSME_00034872     -             80 19439at3193          -            730     3e-26   93.6   0.8   1   1   1.7e-29   3.2e-26   93.5   0.8   420   481     3    64     1    72 0.95 -
ID=PSME_00005690     -           1073 19439at3193          -            730     2e-23   84.3   1.5   1   1   2.6e-26   4.7e-23   83.0   1.5   368   591   335   577   318   592 0.80 -
ID=PSME_00003636     -             77 19439at3193          -            730   9.3e-22   78.8   4.3   1   1   1.4e-24   2.5e-21   77.3   4.3   420   476     3    71     1    74 0.88 -
ID=PSME_00037336     -            199 19439at3193          -            730   2.7e-21   77.2   0.1   1   1   1.9e-24   3.4e-21   76.9   0.1   431   478     1    48     1    76 0.86 -
ID=PSME_00012573     -            362 19439at3193          -            730   1.4e-17   64.9   0.1   1   1   1.1e-20     2e-17   64.4   0.1   435   480   278   323   273   334 0.92 -
ID=PSME_00016312     -             78 19439at3193          -            730   4.2e-15   56.7   0.1   1   1   2.4e-18   4.3e-15   56.7   0.1   420   466     3    49     1    62 0.89 -
ID=PSME_00006105     -            240 19439at3193          -            730   1.4e-13   51.7   0.0   1   1     1e-16   1.8e-13   51.3   0.0   443   482     6    45     2    61 0.90 -
ID=PSME_00022586     -            384 19439at3193          -            730   2.9e-11   44.0   0.2   1   1   2.3e-14   4.2e-11   43.5   0.2   444   485   289   329   284   334 0.89 -
ID=PSME_00014853     -            304 19439at3193          -            730   3.5e-10   40.5   0.0   1   1     3e-13   5.4e-10   39.8   0.0   439   483   246   290   243   298 0.89 -
ID=PSME_00039590     -            312 19439at3193          -            730   6.1e-10   39.7   0.6   1   2       5.3   9.6e+03   -4.0   0.0    22    51    48    77    38    82 0.78 -
ID=PSME_00039590     -            312 19439at3193          -            730   6.1e-10   39.7   0.6   2   2   4.9e-13   8.9e-10   39.1   0.1   435   470   270   305   265   308 0.94 -
ID=PSME_00038729     -            344 19439at3193          -            730   1.1e-08   35.5   3.1   1   2      0.16   2.9e+02    1.1   0.1   407   447   101   141    79   153 0.83 -
ID=PSME_00038729     -            344 19439at3193          -            730   1.1e-08   35.5   3.1   2   2   1.2e-11   2.2e-08   34.6   0.6   509   591   164   247   149   258 0.85 -
ID=PSME_00054321     -            141 19439at3193          -            730   6.6e-08   33.0   0.1   1   1   4.3e-11   7.9e-08   32.7   0.1   529   591    35    97    28   109 0.91 -
ID=PSME_00039518     -            413 19439at3193          -            730   2.2e-06   27.9   0.0   1   1   1.8e-09   3.2e-06   27.4   0.0   419   443   338   362   327   369 0.90 -
ID=PSME_00041236     -            308 19439at3193          -            730   2.9e-05   24.2   0.0   1   1   2.2e-08     4e-05   23.8   0.0   420   444   264   288   245   296 0.90 -
ID=PSME_00045166     -            246 19439at3193          -            730   5.9e-05   23.2   0.0   1   1   4.8e-08   8.8e-05   22.6   0.0   419   445   128   154   118   163 0.89 -
ID=PSME_00003480     -             89 19439at3193          -            730      0.19   11.6   0.2   1   1   0.00011      0.21   11.5   0.2    57   129     2    75     1    82 0.84 -
ID=PSME_00022801     -            142 19439at3193          -            730      0.27   11.1   0.0   1   1   0.00017      0.31   10.9   0.0    48   129    52   129    33   134 0.87 -
#
# Program:         hmmsearch
# Version:         3.2.1 (June 2018)
# Pipeline mode:   SEARCH
# Query file:      /isg/shared/databases/BUSCO/odb10/embryophyta_odb10/hmms/19439at3193.hmm
# Target file:     /labs/Wegrzyn/ConiferGenomes/Psme/analysis/SURF_annotation/analyze_orig_maker/gfacs/filtered/maker_genes.fasta.faa
# Option settings: /usr/local/bin/hmmsearch --domtblout /labs/Wegrzyn/ConiferGenomes/Psme/analysis/SURF_annotation/analyze_orig_maker/busco/maker/run_embryophyta_odb10/hmmer_output/19439at3193.out --cpu 1 /isg/shared/databases/BUSCO/odb10/embryophyta_odb10/hmms/19439at3193.hmm /labs/Wegrzyn/ConiferGenomes/Psme/analysis/SURF_annotation/analyze_orig_maker/gfacs/filtered/maker_genes.fasta.faa 
# Current dir:     /labs/Wegrzyn/ConiferGenomes/Psme/analysis/SURF_annotation/analyze_orig_maker/busco
# Date:            Fri Jul 10 13:46:34 2020
# [ok]
