#                                                                            --- full sequence --- -------------- this domain -------------   hmm coord   ali coord   env coord
# target name        accession   tlen query name           accession   qlen   E-value  score  bias   #  of  c-Evalue  i-Evalue  score  bias  from    to  from    to  from    to  acc description of target
#------------------- ---------- ----- -------------------- ---------- ----- --------- ------ ----- --- --- --------- --------- ------ ----- ----- ----- ----- ----- ----- ----- ---- ---------------------
ID=PSME_00034432     -            185 19475at3193          -            548   3.5e-56  192.4   0.0   1   2   1.5e-23   1.7e-20   74.6   0.0   418   465     1    48     1    81 0.90 -
ID=PSME_00034432     -            185 19475at3193          -            548   3.5e-56  192.4   0.0   2   2   3.8e-36   4.4e-33  116.2   0.0   475   548   110   184    90   184 0.95 -
ID=PSME_00032486     -            154 19475at3193          -            548     1e-46  161.1   0.1   1   2   7.4e-14   8.5e-11   42.6   0.0   418   447    52    81    47    82 0.95 -
ID=PSME_00032486     -            154 19475at3193          -            548     1e-46  161.1   0.1   2   2   4.6e-38   5.2e-35  122.5   0.0   474   548    78   153    78   153 0.98 -
ID=PSME_00053022     -            103 19475at3193          -            548   4.1e-46  159.2   0.1   1   2   6.9e-14   7.9e-11   42.7   0.0   418   447     1    30     1    31 0.96 -
ID=PSME_00053022     -            103 19475at3193          -            548   4.1e-46  159.2   0.1   2   2   5.4e-37   6.1e-34  119.0   0.0   475   548    28   102    28   102 0.98 -
ID=PSME_00042857     -            152 19475at3193          -            548   7.9e-46  158.2   0.1   1   2   9.8e-14   1.1e-10   42.2   0.0   403   447    36    79    19    80 0.85 -
ID=PSME_00042857     -            152 19475at3193          -            548   7.9e-46  158.2   0.1   2   2   2.6e-37     3e-34  120.0   0.0   474   548    76   151    76   151 0.98 -
ID=PSME_00008096     -            105 19475at3193          -            548   2.1e-45  156.9   0.2   1   2   8.6e-13   9.8e-10   39.1   0.1   418   447     1    30     1    31 0.96 -
ID=PSME_00008096     -            105 19475at3193          -            548   2.1e-45  156.9   0.2   2   2   7.6e-38   8.7e-35  121.8   0.0   474   548    27   102    27   102 0.98 -
ID=PSME_00043567     -            212 19475at3193          -            548     5e-45  155.6   1.2   1   2   4.6e-33   5.3e-30  106.0   0.1    43   114    23    95    12    96 0.91 -
ID=PSME_00043567     -            212 19475at3193          -            548     5e-45  155.6   1.2   2   2   1.2e-16   1.4e-13   51.8   0.1   135   169    93   127    93   145 0.93 -
ID=PSME_00032463     -            102 19475at3193          -            548   2.7e-44  153.2   0.1   1   2     1e-12   1.2e-09   38.8   0.1   418   447     1    30     1    31 0.96 -
ID=PSME_00032463     -            102 19475at3193          -            548   2.7e-44  153.2   0.1   2   2   8.9e-37     1e-33  118.3   0.0   474   548    27   102    27   102 0.98 -
ID=PSME_00017151     -             94 19475at3193          -            548   3.1e-41  143.1   0.0   1   1   2.9e-44   3.3e-41  143.0   0.0   463   548     3    93     1    93 0.94 -
ID=PSME_00054304     -             75 19475at3193          -            548   5.6e-34  119.1   0.0   1   1   5.3e-37   6.1e-34  119.0   0.0   476   548     1    74     1    74 0.98 -
ID=PSME_00035596     -             77 19475at3193          -            548   1.8e-33  117.5   0.0   1   1   1.7e-36   1.9e-33  117.4   0.0   476   548     3    76     1    76 0.97 -
ID=PSME_00052880     -            188 19475at3193          -            548   4.1e-32  113.0   0.0   1   1   4.3e-35   4.9e-32  112.7   0.0   475   548   113   187    99   187 0.97 -
ID=PSME_00053066     -            306 19475at3193          -            548     1e-21   78.6   0.0   1   1   1.4e-24   1.6e-21   78.0   0.0    54   104     2    53     1    59 0.94 -
ID=PSME_00023407     -            562 19475at3193          -            548   1.3e-21   78.3   0.0   1   1   1.7e-24   1.9e-21   77.7   0.0    51   104   138   192   121   202 0.91 -
ID=PSME_00016285     -            280 19475at3193          -            548   4.2e-14   53.5   0.1   1   1   4.9e-17   5.6e-14   53.1   0.1    67   104     1    38     1    46 0.95 -
ID=PSME_00013464     -            347 19475at3193          -            548     6e-09   36.5   0.2   1   1   7.1e-12   8.1e-09   36.1   0.2    22   159   176   308   171   325 0.81 -
ID=PSME_00030759     -            568 19475at3193          -            548   5.7e-08   33.3   0.0   1   1   7.9e-11   9.1e-08   32.6   0.0    23   126    48   152    43   208 0.82 -
ID=PSME_00003009     -            642 19475at3193          -            548   1.8e-05   25.0   0.0   1   1   2.5e-08   2.9e-05   24.4   0.0    22   112    23   114     3   128 0.90 -
ID=PSME_00036927     -            615 19475at3193          -            548   0.00013   22.2   0.0   1   1   1.8e-07    0.0002   21.6   0.0    21   113    40   130    21   147 0.85 -
ID=PSME_00022852     -            392 19475at3193          -            548   0.00028   21.1   0.0   1   2   0.00085      0.97    9.4   0.0    26    66   104   145    96   172 0.83 -
ID=PSME_00022852     -            392 19475at3193          -            548   0.00028   21.1   0.0   2   2   0.00087         1    9.4   0.0    27    63   226   266   217   298 0.76 -
ID=PSME_00019671     -            692 19475at3193          -            548   0.00077   19.7   0.0   1   1     1e-06    0.0012   19.1   0.0    27   139    47   155    37   162 0.85 -
ID=PSME_00033812     -            511 19475at3193          -            548    0.0012   19.0   0.0   1   2    0.0044         5    7.1   0.0    26    63    62   103    54   107 0.82 -
ID=PSME_00033812     -            511 19475at3193          -            548    0.0012   19.0   0.0   2   2   0.00069      0.78    9.7   0.0    26    65   180   220   172   248 0.86 -
ID=PSME_00032561     -            547 19475at3193          -            548    0.0055   16.8   0.0   1   2    0.0033       3.7    7.5   0.0    26    61    99   137    90   143 0.80 -
ID=PSME_00032561     -            547 19475at3193          -            548    0.0055   16.8   0.0   2   2    0.0044         5    7.1   0.0    26    63   298   339   290   343 0.81 -
ID=PSME_00046324     -            225 19475at3193          -            548     0.011   15.8   0.0   1   2     0.012        14    5.6   0.0    26    62    45    85    37    91 0.79 -
ID=PSME_00046324     -            225 19475at3193          -            548     0.011   15.8   0.0   2   2    0.0022       2.5    8.1   0.0    27    63   167   207   158   211 0.81 -
ID=PSME_00049027     -            656 19475at3193          -            548     0.015   15.4   0.0   1   1   2.2e-05     0.025   14.7   0.0    24   116    25   116     6   133 0.84 -
ID=PSME_00048851     -            654 19475at3193          -            548      0.02   15.0   0.0   1   2   4.9e-05     0.055   13.5   0.0    23   113    24   120     5   141 0.80 -
ID=PSME_00048851     -            654 19475at3193          -            548      0.02   15.0   0.0   2   2         3   3.4e+03   -2.3   0.0   260   310   537   588   535   611 0.68 -
ID=PSME_00056985     -            108 19475at3193          -            548      0.03   14.4   0.0   1   1   2.6e-05      0.03   14.4   0.0    26    63    14    55     6    89 0.82 -
ID=PSME_00000763     -            236 19475at3193          -            548     0.036   14.1   0.0   1   1   6.2e-05      0.07   13.2   0.0    22   141    77   206    73   222 0.68 -
ID=PSME_00047237     -            187 19475at3193          -            548     0.036   14.1   0.0   1   1   4.1e-05     0.047   13.8   0.0    26    80    60   124    51   129 0.75 -
ID=PSME_00022849     -            467 19475at3193          -            548     0.064   13.3   0.0   1   2    0.0049       5.6    6.9   0.0    24    63   106   149    99   156 0.81 -
ID=PSME_00022849     -            467 19475at3193          -            548     0.064   13.3   0.0   2   2     0.038        44    4.0   0.0    27    63   230   270   221   274 0.81 -
ID=PSME_00051668     -            117 19475at3193          -            548     0.069   13.2   0.0   1   1    0.0001      0.12   12.4   0.0    25    63    57    99    46   104 0.82 -
ID=PSME_00015970     -             95 19475at3193          -            548     0.099   12.7   0.0   1   2       6.4   7.3e+03   -3.4   0.0   285   299     8    22     4    32 0.71 -
ID=PSME_00015970     -             95 19475at3193          -            548     0.099   12.7   0.0   2   2   0.00012      0.14   12.2   0.0    25    61    53    93    39    94 0.84 -
ID=PSME_00040181     -            487 19475at3193          -            548       0.1   12.6   0.0   1   2   0.00045      0.51   10.3   0.0    22    57    21    57     9    65 0.87 -
ID=PSME_00040181     -            487 19475at3193          -            548       0.1   12.6   0.0   2   2       1.1   1.3e+03   -0.8   0.0    97   123   161   187   151   198 0.84 -
ID=PSME_00001436     -            702 19475at3193          -            548      0.11   12.5   0.0   1   1   0.00017      0.19   11.7   0.0    23   113    72   158    65   164 0.88 -
ID=PSME_00056945     -            128 19475at3193          -            548      0.14   12.2   0.0   1   1   0.00018       0.2   11.7   0.0    26    63    54    95    43   112 0.84 -
ID=PSME_00003506     -            195 19475at3193          -            548      0.15   12.1   0.1   1   2       1.7   1.9e+03   -1.5   0.1   521   547    16    41     7    47 0.57 -
ID=PSME_00003506     -            195 19475at3193          -            548      0.15   12.1   0.1   2   2   0.00032      0.37   10.8   0.0    27    63    75   115    67   177 0.87 -
ID=PSME_00035594     -            113 19475at3193          -            548      0.16   12.0   0.0   1   2       7.1   8.1e+03   -3.5   0.0   285   299    17    31    11    41 0.71 -
ID=PSME_00035594     -            113 19475at3193          -            548      0.16   12.0   0.0   2   2   0.00021      0.24   11.4   0.0    27    63    64   104    47   107 0.83 -
ID=PSME_00049311     -            223 19475at3193          -            548      0.17   11.9   0.0   1   2       2.8   3.2e+03   -2.2   0.0   516   546    26    55    20    57 0.69 -
ID=PSME_00049311     -            223 19475at3193          -            548      0.17   11.9   0.0   2   2   0.00037      0.42   10.6   0.0    26    63    89   130    80   134 0.81 -
ID=PSME_00051665     -            149 19475at3193          -            548      0.18   11.8   0.0   1   1   0.00021      0.24   11.4   0.0    26    62    47    87    37   103 0.80 -
ID=PSME_00055715     -            197 19475at3193          -            548      0.22   11.6   0.0   1   1   0.00028      0.32   11.0   0.0    26    63    54    95    44   102 0.82 -
ID=PSME_00045847     -            249 19475at3193          -            548      0.22   11.5   0.0   1   1   0.00034      0.39   10.7   0.0    25    63    79   121    67   125 0.82 -
ID=PSME_00011374     -            201 19475at3193          -            548      0.24   11.4   0.0   1   1   0.00032      0.37   10.8   0.0    26    63    58    99    49   103 0.81 -
ID=PSME_00036802     -            274 19475at3193          -            548      0.27   11.3   0.0   1   1   0.00039      0.45   10.5   0.0    26    63    91   132    83   138 0.82 -
ID=PSME_00052147     -            199 19475at3193          -            548      0.35   10.9   0.0   1   1   0.00041      0.47   10.5   0.0    27    63    66   106    56   112 0.82 -
ID=PSME_00019103     -            327 19475at3193          -            548      0.38   10.7   0.0   1   1   0.00049      0.56   10.2   0.0    23    67   221   266   216   274 0.83 -
ID=PSME_00020634     -            439 19475at3193          -            548      0.43   10.6   0.0   1   1    0.0006      0.68    9.9   0.0    26    65   203   243   195   249 0.82 -
ID=PSME_00025854     -            156 19475at3193          -            548      0.44   10.5   0.0   1   1   0.00055      0.63   10.1   0.0    26    63    54    95    45   107 0.82 -
ID=PSME_00016936     -            462 19475at3193          -            548      0.48   10.4   0.1   1   2       4.6   5.3e+03   -2.9   0.0    27    47   109   129   102   140 0.81 -
ID=PSME_00016936     -            462 19475at3193          -            548      0.48   10.4   0.1   2   2    0.0011       1.2    9.1   0.0    26    63   200   241   192   245 0.81 -
ID=PSME_00041687     -            188 19475at3193          -            548      0.81    9.7   0.0   1   1     0.001       1.2    9.1   0.0    27    63    55    95    45   108 0.84 -
#
# Program:         hmmsearch
# Version:         3.2.1 (June 2018)
# Pipeline mode:   SEARCH
# Query file:      /isg/shared/databases/BUSCO/odb10/embryophyta_odb10/hmms/19475at3193.hmm
# Target file:     /labs/Wegrzyn/ConiferGenomes/Psme/analysis/SURF_annotation/analyze_orig_maker/gfacs/filtered/maker_genes.fasta.faa
# Option settings: /usr/local/bin/hmmsearch --domtblout /labs/Wegrzyn/ConiferGenomes/Psme/analysis/SURF_annotation/analyze_orig_maker/busco/maker/run_embryophyta_odb10/hmmer_output/19475at3193.out --cpu 1 /isg/shared/databases/BUSCO/odb10/embryophyta_odb10/hmms/19475at3193.hmm /labs/Wegrzyn/ConiferGenomes/Psme/analysis/SURF_annotation/analyze_orig_maker/gfacs/filtered/maker_genes.fasta.faa 
# Current dir:     /labs/Wegrzyn/ConiferGenomes/Psme/analysis/SURF_annotation/analyze_orig_maker/busco
# Date:            Fri Jul 10 13:46:34 2020
# [ok]
