#                                                                            --- full sequence --- -------------- this domain -------------   hmm coord   ali coord   env coord
# target name        accession   tlen query name           accession   qlen   E-value  score  bias   #  of  c-Evalue  i-Evalue  score  bias  from    to  from    to  from    to  acc description of target
#------------------- ---------- ----- -------------------- ---------- ----- --------- ------ ----- --- --- --------- --------- ------ ----- ----- ----- ----- ----- ----- ----- ---- ---------------------
ID=PSME_00014487     -            432 196273at3193         -            128   3.3e-08   35.4   0.2   1   1   3.1e-12   5.6e-08   34.7   0.2    20   123   177   276   172   281 0.91 -
ID=PSME_00026575     -            406 196273at3193         -            128      0.25   13.2   0.1   1   2      0.26   4.7e+03   -0.6   0.0    75   103   165   193   151   200 0.84 -
ID=PSME_00026575     -            406 196273at3193         -            128      0.25   13.2   0.1   2   2   8.4e-05       1.5   10.6   0.0    50    87   348   385   330   389 0.91 -
ID=PSME_00043179     -            470 196273at3193         -            128      0.32   12.8   0.0   1   2      0.24   4.4e+03   -0.5   0.0    74   103   202   231   182   238 0.83 -
ID=PSME_00043179     -            470 196273at3193         -            128      0.32   12.8   0.0   2   2   0.00013       2.4   10.0   0.0    37    87   372   423   363   428 0.79 -
#
# Program:         hmmsearch
# Version:         3.2.1 (June 2018)
# Pipeline mode:   SEARCH
# Query file:      /isg/shared/databases/BUSCO/odb10/embryophyta_odb10/hmms/196273at3193.hmm
# Target file:     /labs/Wegrzyn/ConiferGenomes/Psme/analysis/SURF_annotation/analyze_orig_maker/gfacs/filtered/maker_genes.fasta.faa
# Option settings: /usr/local/bin/hmmsearch --domtblout /labs/Wegrzyn/ConiferGenomes/Psme/analysis/SURF_annotation/analyze_orig_maker/busco/maker/run_embryophyta_odb10/hmmer_output/196273at3193.out --cpu 1 /isg/shared/databases/BUSCO/odb10/embryophyta_odb10/hmms/196273at3193.hmm /labs/Wegrzyn/ConiferGenomes/Psme/analysis/SURF_annotation/analyze_orig_maker/gfacs/filtered/maker_genes.fasta.faa 
# Current dir:     /labs/Wegrzyn/ConiferGenomes/Psme/analysis/SURF_annotation/analyze_orig_maker/busco
# Date:            Fri Jul 10 13:46:34 2020
# [ok]
