#                                                                            --- full sequence --- -------------- this domain -------------   hmm coord   ali coord   env coord
# target name        accession   tlen query name           accession   qlen   E-value  score  bias   #  of  c-Evalue  i-Evalue  score  bias  from    to  from    to  from    to  acc description of target
#------------------- ---------- ----- -------------------- ---------- ----- --------- ------ ----- --- --- --------- --------- ------ ----- ----- ----- ----- ----- ----- ----- ---- ---------------------
ID=PSME_00045500     -            142 196453at3193         -             95    0.0035   18.9   5.4   1   2   2.7e-05      0.24   13.0   0.6    11    84    16    82    12    85 0.70 -
ID=PSME_00045500     -            142 196453at3193         -             95    0.0035   18.9   5.4   2   2    0.0013        11    7.6   0.4    64    86   106   128   100   137 0.82 -
ID=PSME_00050928     -            327 196453at3193         -             95     0.046   15.3   0.1   1   5     0.002        18    7.0   0.0    38    79    48    89    17    93 0.82 -
ID=PSME_00050928     -            327 196453at3193         -             95     0.046   15.3   0.1   2   5       1.2   1.1e+04   -1.9   0.0    28    55    92   118    88   137 0.67 -
ID=PSME_00050928     -            327 196453at3193         -             95     0.046   15.3   0.1   3   5     0.028   2.5e+02    3.3   0.0    48    79   180   213   169   219 0.80 -
ID=PSME_00050928     -            327 196453at3193         -             95     0.046   15.3   0.1   4   5     0.026   2.3e+02    3.4   0.0    16    55   204   242   195   262 0.75 -
ID=PSME_00050928     -            327 196453at3193         -             95     0.046   15.3   0.1   5   5       3.7   3.4e+04   -3.5   0.0    19    42   293   316   292   318 0.72 -
ID=PSME_00037791     -            226 196453at3193         -             95     0.073   14.7   6.0   1   2   1.6e-05      0.15   13.7   0.1    65    85    68    88    52    99 0.88 -
ID=PSME_00037791     -            226 196453at3193         -             95     0.073   14.7   6.0   2   2     0.048   4.3e+02    2.6   1.9    64    80   183   199   145   208 0.75 -
ID=PSME_00018484     -            339 196453at3193         -             95       0.2   13.3   9.7   1   2   0.00039       3.6    9.3   3.7    22    85   114   180    97   190 0.73 -
ID=PSME_00018484     -            339 196453at3193         -             95       0.2   13.3   9.7   2   2   3.1e-05      0.28   12.8   5.6    26    85   157   217   154   222 0.86 -
ID=PSME_00027385     -            178 196453at3193         -             95       0.3   12.7   4.1   1   2     3e-05      0.28   12.8   2.2    11    73     6    69     3    75 0.89 -
ID=PSME_00027385     -            178 196453at3193         -             95       0.3   12.7   4.1   2   2      0.86   7.9e+03   -1.5   0.0    71    83   114   126    93   132 0.64 -
ID=PSME_00007307     -            476 196453at3193         -             95      0.48   12.0  10.4   1   2   7.3e-05      0.67   11.6   2.2    63    84   377   398   367   412 0.88 -
ID=PSME_00007307     -            476 196453at3193         -             95      0.48   12.0  10.4   2   2     0.011     1e+02    4.6   1.0    62    84   412   434   402   434 0.87 -
#
# Program:         hmmsearch
# Version:         3.2.1 (June 2018)
# Pipeline mode:   SEARCH
# Query file:      /isg/shared/databases/BUSCO/odb10/embryophyta_odb10/hmms/196453at3193.hmm
# Target file:     /labs/Wegrzyn/ConiferGenomes/Psme/analysis/SURF_annotation/analyze_orig_maker/gfacs/filtered/maker_genes.fasta.faa
# Option settings: /usr/local/bin/hmmsearch --domtblout /labs/Wegrzyn/ConiferGenomes/Psme/analysis/SURF_annotation/analyze_orig_maker/busco/maker/run_embryophyta_odb10/hmmer_output/196453at3193.out --cpu 1 /isg/shared/databases/BUSCO/odb10/embryophyta_odb10/hmms/196453at3193.hmm /labs/Wegrzyn/ConiferGenomes/Psme/analysis/SURF_annotation/analyze_orig_maker/gfacs/filtered/maker_genes.fasta.faa 
# Current dir:     /labs/Wegrzyn/ConiferGenomes/Psme/analysis/SURF_annotation/analyze_orig_maker/busco
# Date:            Fri Jul 10 13:46:35 2020
# [ok]
