#                                                                            --- full sequence --- -------------- this domain -------------   hmm coord   ali coord   env coord
# target name        accession   tlen query name           accession   qlen   E-value  score  bias   #  of  c-Evalue  i-Evalue  score  bias  from    to  from    to  from    to  acc description of target
#------------------- ---------- ----- -------------------- ---------- ----- --------- ------ ----- --- --- --------- --------- ------ ----- ----- ----- ----- ----- ----- ----- ---- ---------------------
ID=PSME_00041551     -            330 197413at3193         -            153   1.1e-19   72.4   0.0   1   1   1.5e-22   1.7e-19   71.8   0.0     2   152   170   328   169   329 0.89 -
ID=PSME_00047834     -            410 197413at3193         -            153   3.1e-19   70.9   0.0   1   1   4.7e-22   5.4e-19   70.1   0.0     2   152   250   408   249   409 0.89 -
ID=PSME_00047883     -            410 197413at3193         -            153   3.3e-19   70.8   0.0   1   1   4.7e-22   5.4e-19   70.1   0.0     2   152   250   408   249   409 0.89 -
ID=PSME_00041552     -            451 197413at3193         -            153   3.9e-19   70.6   0.0   1   1   5.8e-22   6.6e-19   69.9   0.0     2   152   291   449   290   450 0.89 -
ID=PSME_00055275     -            274 197413at3193         -            153   4.1e-19   70.5   0.0   1   1   5.3e-22     6e-19   70.0   0.0     2   152   114   272   113   273 0.89 -
ID=PSME_00047772     -            410 197413at3193         -            153   1.6e-18   68.6   0.0   1   1   2.5e-21   2.8e-18   67.8   0.0     2   152   250   408   249   409 0.89 -
ID=PSME_00042380     -            288 197413at3193         -            153   2.5e-18   68.0   0.0   1   1   3.3e-21   3.8e-18   67.4   0.0     2   152   128   286   127   287 0.89 -
ID=PSME_00000892     -            412 197413at3193         -            153   1.1e-17   65.9   0.0   1   1   1.9e-20   2.2e-17   64.9   0.0     2   152   252   410   251   411 0.89 -
ID=PSME_00043687     -            413 197413at3193         -            153   1.4e-17   65.5   0.0   1   1   2.5e-20   2.8e-17   64.6   0.0     2   152   253   411   252   412 0.90 -
ID=PSME_00049527     -            414 197413at3193         -            153   1.5e-17   65.5   0.0   1   1   2.5e-20   2.8e-17   64.6   0.0     2   152   254   412   253   413 0.89 -
ID=PSME_00024625     -            235 197413at3193         -            153   1.3e-12   49.4   0.0   1   1   4.1e-15   4.7e-12   47.6   0.0    40   152   130   233    96   234 0.84 -
ID=PSME_00034714     -            387 197413at3193         -            153   5.6e-12   47.4   0.0   1   1   6.2e-14   7.1e-11   43.8   0.0    41   152   259   385   226   386 0.75 -
ID=PSME_00027093     -            219 197413at3193         -            153   6.8e-11   43.9   0.0   1   1   7.7e-14   8.8e-11   43.5   0.0    53   152   119   217    90   218 0.88 -
ID=PSME_00055514     -            174 197413at3193         -            153   7.9e-11   43.6   0.0   1   1   8.4e-14   9.6e-11   43.4   0.0    50   152    71   172    43   173 0.87 -
ID=PSME_00048644     -            249 197413at3193         -            153   2.7e-10   41.9   0.0   1   1   3.5e-13     4e-10   41.4   0.0    49   152   145   247   113   248 0.86 -
ID=PSME_00017686     -            235 197413at3193         -            153   3.8e-08   34.9   0.0   1   1   4.9e-11   5.6e-08   34.4   0.0    71   152   150   233   139   234 0.91 -
ID=PSME_00039978     -            439 197413at3193         -            153   1.1e-07   33.4   0.0   1   1   1.5e-10   1.7e-07   32.8   0.0    12   150   285   431   273   434 0.77 -
ID=PSME_00039979     -            347 197413at3193         -            153   1.8e-07   32.8   0.0   1   1   2.5e-10   2.9e-07   32.1   0.0    12   150   193   339   181   342 0.76 -
ID=PSME_00040415     -            761 197413at3193         -            153   6.5e-07   30.9   0.0   1   1     1e-09   1.2e-06   30.1   0.0    23   111   420   513   399   522 0.82 -
ID=PSME_00050148     -            238 197413at3193         -            153   9.8e-07   30.3   0.0   1   1   1.1e-09   1.2e-06   30.0   0.0    46   137   101   193    59   207 0.87 -
ID=PSME_00034125     -            870 197413at3193         -            153     1e-06   30.3   0.0   1   1   1.8e-09   2.1e-06   29.3   0.0     5   111   441   553   437   563 0.82 -
ID=PSME_00019301     -            459 197413at3193         -            153   1.7e-05   26.3   0.0   1   1   2.5e-08   2.9e-05   25.6   0.0     3   151   298   453   296   455 0.81 -
ID=PSME_00029838     -            502 197413at3193         -            153   0.00012   23.6   0.0   1   1   1.5e-07   0.00018   23.0   0.0     3   150   341   495   339   498 0.80 -
ID=PSME_00012859     -            635 197413at3193         -            153   0.00023   22.6   0.0   1   1     4e-07   0.00046   21.7   0.0    11   110   425   529   419   544 0.78 -
ID=PSME_00017117     -            639 197413at3193         -            153   0.00023   22.6   0.0   1   1   4.1e-07   0.00047   21.7   0.0     3   142   470   616   467   620 0.81 -
ID=PSME_00017714     -            628 197413at3193         -            153    0.0004   21.9   0.0   1   1   5.7e-07   0.00065   21.2   0.0    49   110   379   439   328   449 0.92 -
ID=PSME_00013579     -            522 197413at3193         -            153   0.00058   21.3   0.0   1   1   8.3e-07   0.00094   20.7   0.0    13   149   288   426   275   430 0.75 -
ID=PSME_00039428     -            658 197413at3193         -            153   0.00068   21.1   0.0   1   1   1.1e-06    0.0013   20.2   0.0    47   112   423   487   381   524 0.77 -
ID=PSME_00015686     -            849 197413at3193         -            153    0.0008   20.9   0.0   1   1   1.5e-06    0.0017   19.8   0.0    49   127   566   645   532   671 0.81 -
ID=PSME_00010814     -            597 197413at3193         -            153     0.001   20.6   0.0   1   1   1.5e-06    0.0017   19.8   0.0    49   110   446   506   403   516 0.90 -
ID=PSME_00043842     -            117 197413at3193         -            153    0.0014   20.1   0.0   1   1   1.5e-06    0.0017   19.8   0.0    40   113    25    97    13   113 0.84 -
ID=PSME_00017596     -            281 197413at3193         -            153    0.0019   19.6   0.0   1   1     3e-06    0.0035   18.8   0.0    47   110    12    74     7    85 0.91 -
ID=PSME_00049962     -            144 197413at3193         -            153    0.0028   19.1   0.0   1   1   2.7e-06    0.0031   19.0   0.0    43   111    53   120    12   139 0.86 -
ID=PSME_00037049     -            308 197413at3193         -            153    0.0029   19.1   0.0   1   1   3.5e-06     0.004   18.6   0.0    48   111   136   198   111   234 0.87 -
ID=PSME_00034692     -            661 197413at3193         -            153    0.0038   18.7   0.0   1   1   5.9e-06    0.0068   17.9   0.0    48   112   488   551   471   592 0.76 -
ID=PSME_00036706     -            640 197413at3193         -            153    0.0061   18.0   0.0   1   1     1e-05     0.012   17.1   0.0    48   136   461   550   437   565 0.78 -
ID=PSME_00018498     -            348 197413at3193         -            153     0.019   16.4   0.0   1   1   3.1e-05     0.035   15.5   0.0    37   110   152   224   131   230 0.89 -
ID=PSME_00043222     -            470 197413at3193         -            153     0.023   16.2   0.0   1   2       3.2   3.6e+03   -0.7   0.0    29    43   126   140   120   144 0.86 -
ID=PSME_00043222     -            470 197413at3193         -            153     0.023   16.2   0.0   2   2   0.00012      0.14   13.6   0.0    69   120   216   267   197   271 0.87 -
ID=PSME_00046222     -            855 197413at3193         -            153     0.023   16.2   0.0   1   1   5.1e-05     0.058   14.9   0.0    46   111   535   599   505   641 0.87 -
ID=PSME_00010735     -            620 197413at3193         -            153     0.027   15.9   0.0   1   1   5.6e-05     0.064   14.7   0.0    38   110   446   517   425   524 0.82 -
ID=PSME_00002746     -            234 197413at3193         -            153     0.035   15.5   0.0   1   1   4.8e-05     0.055   14.9   0.0    40   102   100   161    82   176 0.84 -
ID=PSME_00050090     -            269 197413at3193         -            153      0.05   15.1   0.0   1   1   6.7e-05     0.077   14.4   0.0    34   140   116   220   103   231 0.78 -
ID=PSME_00013820     -            716 197413at3193         -            153     0.051   15.0   0.0   1   1   7.9e-05      0.09   14.2   0.0    39   110   364   434   349   448 0.87 -
ID=PSME_00043362     -             71 197413at3193         -            153     0.098   14.1   0.0   1   1   9.4e-05      0.11   14.0   0.0    13    53     4    44     2    62 0.87 -
ID=PSME_00013617     -           1440 197413at3193         -            153      0.19   13.2   0.0   1   1   0.00039      0.44   12.0   0.0    29   121   927  1027   909  1046 0.75 -
ID=PSME_00043875     -             76 197413at3193         -            153      0.23   12.9   0.0   1   1   0.00023      0.26   12.7   0.0    84   110    32    58    14    66 0.83 -
ID=PSME_00010319     -            109 197413at3193         -            153      0.42   12.1   0.0   1   1   0.00043       0.5   11.8   0.0    11    53    40    82    34    97 0.87 -
ID=PSME_00055087     -            143 197413at3193         -            153      0.47   11.9   0.0   1   1   0.00055      0.63   11.5   0.0     7    55    70   118    65   134 0.88 -
#
# Program:         hmmsearch
# Version:         3.2.1 (June 2018)
# Pipeline mode:   SEARCH
# Query file:      /isg/shared/databases/BUSCO/odb10/embryophyta_odb10/hmms/197413at3193.hmm
# Target file:     /labs/Wegrzyn/ConiferGenomes/Psme/analysis/SURF_annotation/analyze_orig_maker/gfacs/filtered/maker_genes.fasta.faa
# Option settings: /usr/local/bin/hmmsearch --domtblout /labs/Wegrzyn/ConiferGenomes/Psme/analysis/SURF_annotation/analyze_orig_maker/busco/maker/run_embryophyta_odb10/hmmer_output/197413at3193.out --cpu 1 /isg/shared/databases/BUSCO/odb10/embryophyta_odb10/hmms/197413at3193.hmm /labs/Wegrzyn/ConiferGenomes/Psme/analysis/SURF_annotation/analyze_orig_maker/gfacs/filtered/maker_genes.fasta.faa 
# Current dir:     /labs/Wegrzyn/ConiferGenomes/Psme/analysis/SURF_annotation/analyze_orig_maker/busco
# Date:            Fri Jul 10 13:46:36 2020
# [ok]
