#                                                                            --- full sequence --- -------------- this domain -------------   hmm coord   ali coord   env coord
# target name        accession   tlen query name           accession   qlen   E-value  score  bias   #  of  c-Evalue  i-Evalue  score  bias  from    to  from    to  from    to  acc description of target
#------------------- ---------- ----- -------------------- ---------- ----- --------- ------ ----- --- --- --------- --------- ------ ----- ----- ----- ----- ----- ----- ----- ---- ---------------------
ID=PSME_00048201     -            146 198718at3193         -             67   1.5e-32  112.8   1.3   1   1   1.6e-36   2.9e-32  111.9   1.3     8    56    97   145    86   146 0.89 -
ID=PSME_00028176     -            170 198718at3193         -             67     0.095   14.1   2.6   1   2     0.019   3.4e+02    2.7   0.1    11    19   125   133   113   138 0.84 -
ID=PSME_00028176     -            170 198718at3193         -             67     0.095   14.1   2.6   2   2   4.4e-05      0.81   11.2   0.4     4    28   140   164   136   168 0.86 -
ID=PSME_00024615     -            116 198718at3193         -             67      0.43   12.0   0.0   1   1   3.7e-05      0.68   11.4   0.0    44    64    81   101    75   104 0.89 -
#
# Program:         hmmsearch
# Version:         3.2.1 (June 2018)
# Pipeline mode:   SEARCH
# Query file:      /isg/shared/databases/BUSCO/odb10/embryophyta_odb10/hmms/198718at3193.hmm
# Target file:     /labs/Wegrzyn/ConiferGenomes/Psme/analysis/SURF_annotation/analyze_orig_maker/gfacs/filtered/maker_genes.fasta.faa
# Option settings: /usr/local/bin/hmmsearch --domtblout /labs/Wegrzyn/ConiferGenomes/Psme/analysis/SURF_annotation/analyze_orig_maker/busco/maker/run_embryophyta_odb10/hmmer_output/198718at3193.out --cpu 1 /isg/shared/databases/BUSCO/odb10/embryophyta_odb10/hmms/198718at3193.hmm /labs/Wegrzyn/ConiferGenomes/Psme/analysis/SURF_annotation/analyze_orig_maker/gfacs/filtered/maker_genes.fasta.faa 
# Current dir:     /labs/Wegrzyn/ConiferGenomes/Psme/analysis/SURF_annotation/analyze_orig_maker/busco
# Date:            Fri Jul 10 13:46:37 2020
# [ok]
