#                                                                            --- full sequence --- -------------- this domain -------------   hmm coord   ali coord   env coord
# target name        accession   tlen query name           accession   qlen   E-value  score  bias   #  of  c-Evalue  i-Evalue  score  bias  from    to  from    to  from    to  acc description of target
#------------------- ---------- ----- -------------------- ---------- ----- --------- ------ ----- --- --- --------- --------- ------ ----- ----- ----- ----- ----- ----- ----- ---- ---------------------
ID=PSME_00023580     -            230 207476at3193         -            104     1e-06   30.6   3.1   1   2   1.1e-06    0.0067   18.3   0.3    37    58    88   109    80   115 0.83 -
ID=PSME_00023580     -            230 207476at3193         -            104     1e-06   30.6   3.1   2   2   7.9e-05      0.48   12.4   0.2    39    58   176   195   165   202 0.86 -
ID=PSME_00018901     -            112 207476at3193         -            104    0.0016   20.4   0.7   1   1   4.4e-07    0.0027   19.6   0.4    33    58    48    73    44    79 0.81 -
ID=PSME_00041691     -             67 207476at3193         -            104     0.011   17.6   2.3   1   1     5e-06     0.031   16.2   2.3    39    57    11    29     7    63 0.87 -
ID=PSME_00026615     -            336 207476at3193         -            104     0.021   16.8   0.6   1   1   7.4e-06     0.045   15.7   0.6    41    78   134   174   115   187 0.78 -
ID=PSME_00024118     -            300 207476at3193         -            104     0.025   16.5   1.0   1   2     4e-06     0.025   16.5   1.0    37    58   242   263   235   270 0.83 -
ID=PSME_00024118     -            300 207476at3193         -            104     0.025   16.5   1.0   2   2      0.82     5e+03   -0.5   0.1    85   102   279   296   263   297 0.57 -
ID=PSME_00017014     -            361 207476at3193         -            104     0.055   15.4   1.0   1   2   9.1e-06     0.055   15.4   1.0    39    58   305   324   290   331 0.85 -
ID=PSME_00017014     -            361 207476at3193         -            104     0.055   15.4   1.0   2   2      0.88   5.3e+03   -0.6   0.1    75    97   325   348   321   357 0.65 -
ID=PSME_00018899     -            152 207476at3193         -            104      0.18   13.7   0.2   1   2       1.9   1.2e+04   -1.7   0.0    60    60    20    20     3    47 0.47 -
ID=PSME_00018899     -            152 207476at3193         -            104      0.18   13.7   0.2   2   2   7.9e-05      0.48   12.4   0.0    33    55    57    79    52    87 0.82 -
ID=PSME_00016247     -            746 207476at3193         -            104      0.32   12.9   0.1   1   3     0.051   3.1e+02    3.3   0.0    24    41   218   235   206   241 0.90 -
ID=PSME_00016247     -            746 207476at3193         -            104      0.32   12.9   0.1   2   3     0.008        49    5.9   0.0    22    43   317   338   303   386 0.82 -
ID=PSME_00016247     -            746 207476at3193         -            104      0.32   12.9   0.1   3   3       5.8   3.5e+04   -3.3   0.0    24    40   420   436   417   438 0.87 -
ID=PSME_00018095     -            237 207476at3193         -            104      0.65   12.0   2.6   1   2   0.00016      0.98   11.4   0.6    36    95    92   151    85   156 0.87 -
ID=PSME_00018095     -            237 207476at3193         -            104      0.65   12.0   2.6   2   2      0.73   4.5e+03   -0.4   0.1     8    25   163   180   160   188 0.88 -
#
# Program:         hmmsearch
# Version:         3.2.1 (June 2018)
# Pipeline mode:   SEARCH
# Query file:      /isg/shared/databases/BUSCO/odb10/embryophyta_odb10/hmms/207476at3193.hmm
# Target file:     /labs/Wegrzyn/ConiferGenomes/Psme/analysis/SURF_annotation/analyze_orig_maker/gfacs/filtered/maker_genes.fasta.faa
# Option settings: /usr/local/bin/hmmsearch --domtblout /labs/Wegrzyn/ConiferGenomes/Psme/analysis/SURF_annotation/analyze_orig_maker/busco/maker/run_embryophyta_odb10/hmmer_output/207476at3193.out --cpu 1 /isg/shared/databases/BUSCO/odb10/embryophyta_odb10/hmms/207476at3193.hmm /labs/Wegrzyn/ConiferGenomes/Psme/analysis/SURF_annotation/analyze_orig_maker/gfacs/filtered/maker_genes.fasta.faa 
# Current dir:     /labs/Wegrzyn/ConiferGenomes/Psme/analysis/SURF_annotation/analyze_orig_maker/busco
# Date:            Fri Jul 10 13:46:43 2020
# [ok]
