#                                                                            --- full sequence --- -------------- this domain -------------   hmm coord   ali coord   env coord
# target name        accession   tlen query name           accession   qlen   E-value  score  bias   #  of  c-Evalue  i-Evalue  score  bias  from    to  from    to  from    to  acc description of target
#------------------- ---------- ----- -------------------- ---------- ----- --------- ------ ----- --- --- --------- --------- ------ ----- ----- ----- ----- ----- ----- ----- ---- ---------------------
ID=PSME_00022285     -           1088 213697at3193         -            102      0.06   15.3   0.0   1   1   5.7e-06      0.16   14.0   0.0    34    89   203   258   184   261 0.84 -
ID=PSME_00032082     -           1615 213697at3193         -            102      0.39   12.7   2.2   1   4     0.054   1.5e+03    1.2   0.0    75    93  1110  1128  1107  1137 0.85 -
ID=PSME_00032082     -           1615 213697at3193         -            102      0.39   12.7   2.2   2   4      0.01   2.8e+02    3.5   0.0    73    90  1261  1278  1249  1278 0.87 -
ID=PSME_00032082     -           1615 213697at3193         -            102      0.39   12.7   2.2   3   4    0.0041   1.1e+02    4.8   0.1    76    90  1276  1290  1274  1293 0.90 -
ID=PSME_00032082     -           1615 213697at3193         -            102      0.39   12.7   2.2   4   4     0.085   2.3e+03    0.6   0.0    75    92  1311  1328  1309  1339 0.85 -
#
# Program:         hmmsearch
# Version:         3.2.1 (June 2018)
# Pipeline mode:   SEARCH
# Query file:      /isg/shared/databases/BUSCO/odb10/embryophyta_odb10/hmms/213697at3193.hmm
# Target file:     /labs/Wegrzyn/ConiferGenomes/Psme/analysis/SURF_annotation/analyze_orig_maker/gfacs/filtered/maker_genes.fasta.faa
# Option settings: /usr/local/bin/hmmsearch --domtblout /labs/Wegrzyn/ConiferGenomes/Psme/analysis/SURF_annotation/analyze_orig_maker/busco/maker/run_embryophyta_odb10/hmmer_output/213697at3193.out --cpu 1 /isg/shared/databases/BUSCO/odb10/embryophyta_odb10/hmms/213697at3193.hmm /labs/Wegrzyn/ConiferGenomes/Psme/analysis/SURF_annotation/analyze_orig_maker/gfacs/filtered/maker_genes.fasta.faa 
# Current dir:     /labs/Wegrzyn/ConiferGenomes/Psme/analysis/SURF_annotation/analyze_orig_maker/busco
# Date:            Fri Jul 10 13:46:46 2020
# [ok]
