#                                                                            --- full sequence --- -------------- this domain -------------   hmm coord   ali coord   env coord
# target name        accession   tlen query name           accession   qlen   E-value  score  bias   #  of  c-Evalue  i-Evalue  score  bias  from    to  from    to  from    to  acc description of target
#------------------- ---------- ----- -------------------- ---------- ----- --------- ------ ----- --- --- --------- --------- ------ ----- ----- ----- ----- ----- ----- ----- ---- ---------------------
ID=PSME_00015979     -            598 219680at3193         -             78     0.009   17.0   1.9   1   2   9.3e-05       1.7    9.7   0.1     9    46   146   183   139   194 0.80 -
ID=PSME_00015979     -            598 219680at3193         -             78     0.009   17.0   1.9   2   2    0.0012        22    6.2   0.3    27    53   397   425   392   434 0.81 -
ID=PSME_00041958     -            817 219680at3193         -             78     0.014   16.4   0.0   1   3     0.019   3.5e+02    2.3   0.0     6    39    49    82    44    84 0.85 -
ID=PSME_00041958     -            817 219680at3193         -             78     0.014   16.4   0.0   2   3     0.035   6.4e+02    1.5   0.0     5    39   260   294   256   296 0.87 -
ID=PSME_00041958     -            817 219680at3193         -             78     0.014   16.4   0.0   3   3   0.00027       4.9    8.3   0.0     6    46   549   589   545   592 0.83 -
ID=PSME_00004984     -            607 219680at3193         -             78      0.55   11.3   2.4   1   2   7.9e-05       1.4   10.0   0.3    19    73   281   330   266   334 0.85 -
ID=PSME_00004984     -            607 219680at3193         -             78      0.55   11.3   2.4   2   2     0.089   1.6e+03    0.2   0.1    20    37   541   558   535   560 0.85 -
#
# Program:         hmmsearch
# Version:         3.2.1 (June 2018)
# Pipeline mode:   SEARCH
# Query file:      /isg/shared/databases/BUSCO/odb10/embryophyta_odb10/hmms/219680at3193.hmm
# Target file:     /labs/Wegrzyn/ConiferGenomes/Psme/analysis/SURF_annotation/analyze_orig_maker/gfacs/filtered/maker_genes.fasta.faa
# Option settings: /usr/local/bin/hmmsearch --domtblout /labs/Wegrzyn/ConiferGenomes/Psme/analysis/SURF_annotation/analyze_orig_maker/busco/maker/run_embryophyta_odb10/hmmer_output/219680at3193.out --cpu 1 /isg/shared/databases/BUSCO/odb10/embryophyta_odb10/hmms/219680at3193.hmm /labs/Wegrzyn/ConiferGenomes/Psme/analysis/SURF_annotation/analyze_orig_maker/gfacs/filtered/maker_genes.fasta.faa 
# Current dir:     /labs/Wegrzyn/ConiferGenomes/Psme/analysis/SURF_annotation/analyze_orig_maker/busco
# Date:            Fri Jul 10 13:46:48 2020
# [ok]
