#                                                                            --- full sequence --- -------------- this domain -------------   hmm coord   ali coord   env coord
# target name        accession   tlen query name           accession   qlen   E-value  score  bias   #  of  c-Evalue  i-Evalue  score  bias  from    to  from    to  from    to  acc description of target
#------------------- ---------- ----- -------------------- ---------- ----- --------- ------ ----- --- --- --------- --------- ------ ----- ----- ----- ----- ----- ----- ----- ---- ---------------------
ID=PSME_00048138     -             93 220874at3193         -             66     4e-31  108.4   0.2   1   1   1.7e-34   4.8e-31  108.1   0.2     1    66     6    75     6    75 0.93 -
ID=PSME_00021201     -            187 220874at3193         -             66   1.5e-05   26.5   0.2   1   2   0.00016      0.43   12.2   0.1    26    38    27    39    10    45 0.86 -
ID=PSME_00021201     -            187 220874at3193         -             66   1.5e-05   26.5   0.2   2   2   0.00014      0.37   12.3   0.0    32    64   117   153   114   155 0.82 -
ID=PSME_00023084     -            125 220874at3193         -             66     0.014   16.9   0.0   1   1   7.4e-06      0.02   16.4   0.0    32    64    51    87    37    89 0.83 -
ID=PSME_00040900     -             62 220874at3193         -             66     0.039   15.5   0.0   1   1   1.6e-05     0.045   15.3   0.0    32    64     8    44     1    46 0.80 -
ID=PSME_00048162     -             95 220874at3193         -             66      0.04   15.4   0.2   1   2   3.6e-05     0.099   14.2   0.1    24    38     1    15     1    22 0.86 -
ID=PSME_00048162     -             95 220874at3193         -             66      0.04   15.4   0.2   2   2       9.9   2.7e+04   -3.2   0.0    10    14    55    59    44    64 0.67 -
ID=PSME_00014316     -            109 220874at3193         -             66      0.05   15.1   0.0   1   1   2.6e-05     0.071   14.7   0.0    33    64    23    58    10    60 0.83 -
ID=PSME_00048873     -             77 220874at3193         -             66     0.074   14.6   0.0   1   1   3.8e-05       0.1   14.1   0.0    33    64    22    57    15    59 0.82 -
ID=PSME_00053811     -            154 220874at3193         -             66     0.075   14.6   0.3   1   1   4.7e-05      0.13   13.8   0.2    33    65    85   121    77   122 0.82 -
ID=PSME_00022308     -            104 220874at3193         -             66     0.094   14.3   0.0   1   1   4.6e-05      0.13   13.8   0.0    33    64    35    70    22    72 0.82 -
ID=PSME_00054013     -             77 220874at3193         -             66       0.1   14.1   0.0   1   1   4.7e-05      0.13   13.8   0.0    32    64     8    44     1    46 0.79 -
ID=PSME_00036961     -            199 220874at3193         -             66      0.12   14.0   0.0   1   1    0.0001      0.27   12.8   0.0    25    64    91   134    79   136 0.79 -
ID=PSME_00049881     -            135 220874at3193         -             66      0.16   13.5   0.0   1   1   9.8e-05      0.27   12.8   0.0    32    64    71   107    58   109 0.82 -
ID=PSME_00041333     -            261 220874at3193         -             66      0.21   13.2   0.0   1   1   0.00014      0.39   12.3   0.0    31    64    61    98    39   100 0.80 -
ID=PSME_00014857     -            123 220874at3193         -             66      0.22   13.1   0.2   1   1   0.00013      0.35   12.5   0.2    27    38    44    55    38    62 0.86 -
ID=PSME_00001572     -            476 220874at3193         -             66      0.24   13.0   0.0   1   1   0.00021      0.57   11.8   0.0    12    57   161   205   154   209 0.92 -
ID=PSME_00029480     -            121 220874at3193         -             66      0.26   12.9   0.0   1   1   0.00013      0.36   12.4   0.0    32    64    51    87    40    89 0.79 -
ID=PSME_00044541     -            131 220874at3193         -             66      0.32   12.5   0.0   1   1   0.00023      0.62   11.6   0.0    34    64    41    75    35    77 0.81 -
ID=PSME_00043781     -            157 220874at3193         -             66      0.35   12.4   0.2   1   2   0.00045       1.2   10.7   0.1    35    64    35    68    26    69 0.75 -
ID=PSME_00043781     -            157 220874at3193         -             66      0.35   12.4   0.2   2   2         3   8.1e+03   -1.6   0.0    42    58   125   141   122   146 0.75 -
ID=PSME_00049864     -            327 220874at3193         -             66      0.38   12.3   0.1   1   1   0.00027      0.74   11.4   0.1    34    64   182   216   174   218 0.79 -
ID=PSME_00053648     -            154 220874at3193         -             66      0.51   11.9   0.1   1   1    0.0003      0.84   11.2   0.1    33    64    85   120    73   122 0.83 -
#
# Program:         hmmsearch
# Version:         3.2.1 (June 2018)
# Pipeline mode:   SEARCH
# Query file:      /isg/shared/databases/BUSCO/odb10/embryophyta_odb10/hmms/220874at3193.hmm
# Target file:     /labs/Wegrzyn/ConiferGenomes/Psme/analysis/SURF_annotation/analyze_orig_maker/gfacs/filtered/maker_genes.fasta.faa
# Option settings: /usr/local/bin/hmmsearch --domtblout /labs/Wegrzyn/ConiferGenomes/Psme/analysis/SURF_annotation/analyze_orig_maker/busco/maker/run_embryophyta_odb10/hmmer_output/220874at3193.out --cpu 1 /isg/shared/databases/BUSCO/odb10/embryophyta_odb10/hmms/220874at3193.hmm /labs/Wegrzyn/ConiferGenomes/Psme/analysis/SURF_annotation/analyze_orig_maker/gfacs/filtered/maker_genes.fasta.faa 
# Current dir:     /labs/Wegrzyn/ConiferGenomes/Psme/analysis/SURF_annotation/analyze_orig_maker/busco
# Date:            Fri Jul 10 13:46:49 2020
# [ok]
