#                                                                            --- full sequence --- -------------- this domain -------------   hmm coord   ali coord   env coord
# target name        accession   tlen query name           accession   qlen   E-value  score  bias   #  of  c-Evalue  i-Evalue  score  bias  from    to  from    to  from    to  acc description of target
#------------------- ---------- ----- -------------------- ---------- ----- --------- ------ ----- --- --- --------- --------- ------ ----- ----- ----- ----- ----- ----- ----- ---- ---------------------
ID=PSME_00038521     -             86 22695at3193          -            457   2.9e-14   54.5   0.1   1   2   7.5e-15   2.1e-10   41.8   0.1   401   444     9    52     6    57 0.89 -
ID=PSME_00038521     -             86 22695at3193          -            457   2.9e-14   54.5   0.1   2   2   1.3e-05      0.35   11.4   0.0   432   457    57    82    53    82 0.92 -
ID=PSME_00023130     -            440 22695at3193          -            457   1.4e-11   45.6   0.1   1   2   6.2e-06      0.17   12.4   0.0   239   289   233   294   195   297 0.73 -
ID=PSME_00023130     -            440 22695at3193          -            457   1.4e-11   45.6   0.1   2   2   1.6e-11   4.3e-07   30.9   0.1   338   435   316   404   305   410 0.91 -
#
# Program:         hmmsearch
# Version:         3.2.1 (June 2018)
# Pipeline mode:   SEARCH
# Query file:      /isg/shared/databases/BUSCO/odb10/embryophyta_odb10/hmms/22695at3193.hmm
# Target file:     /labs/Wegrzyn/ConiferGenomes/Psme/analysis/SURF_annotation/analyze_orig_maker/gfacs/filtered/maker_genes.fasta.faa
# Option settings: /usr/local/bin/hmmsearch --domtblout /labs/Wegrzyn/ConiferGenomes/Psme/analysis/SURF_annotation/analyze_orig_maker/busco/maker/run_embryophyta_odb10/hmmer_output/22695at3193.out --cpu 1 /isg/shared/databases/BUSCO/odb10/embryophyta_odb10/hmms/22695at3193.hmm /labs/Wegrzyn/ConiferGenomes/Psme/analysis/SURF_annotation/analyze_orig_maker/gfacs/filtered/maker_genes.fasta.faa 
# Current dir:     /labs/Wegrzyn/ConiferGenomes/Psme/analysis/SURF_annotation/analyze_orig_maker/busco
# Date:            Fri Jul 10 13:46:50 2020
# [ok]
