#                                                                            --- full sequence --- -------------- this domain -------------   hmm coord   ali coord   env coord
# target name        accession   tlen query name           accession   qlen   E-value  score  bias   #  of  c-Evalue  i-Evalue  score  bias  from    to  from    to  from    to  acc description of target
#------------------- ---------- ----- -------------------- ---------- ----- --------- ------ ----- --- --- --------- --------- ------ ----- ----- ----- ----- ----- ----- ----- ---- ---------------------
ID=PSME_00048996     -            427 24602at3193          -            500   2.3e-16   60.9   0.0   1   1   4.6e-20   3.2e-16   60.4   0.0    48   210   130   290   116   324 0.88 -
ID=PSME_00055347     -            104 24602at3193          -            500   1.4e-11   45.1   0.0   1   1   2.7e-15   1.9e-11   44.7   0.0   383   434    17    82     7    86 0.74 -
ID=PSME_00047947     -            334 24602at3193          -            500   8.5e-10   39.2   0.0   1   1   1.7e-13   1.2e-09   38.7   0.0   106   238    60   189    49   202 0.86 -
ID=PSME_00005595     -            454 24602at3193          -            500   2.8e-09   37.5   0.1   1   1   5.5e-13   3.8e-09   37.1   0.1    77   238   146   303    88   310 0.75 -
ID=PSME_00005596     -            453 24602at3193          -            500   3.4e-09   37.2   0.1   1   1   6.8e-13   4.7e-09   36.8   0.1    81   238   149   302    93   309 0.79 -
ID=PSME_00044584     -            277 24602at3193          -            500     0.019   14.9   0.0   1   1   3.8e-06     0.026   14.5   0.0   135   188    10    62     6    76 0.87 -
ID=PSME_00007247     -            206 24602at3193          -            500     0.094   12.7   0.0   1   1   1.6e-05      0.11   12.4   0.0   102   156    52   107    43   152 0.88 -
ID=PSME_00009822     -            272 24602at3193          -            500     0.097   12.6   0.0   1   1     2e-05      0.14   12.1   0.0   145   187    40    82    35   102 0.82 -
#
# Program:         hmmsearch
# Version:         3.2.1 (June 2018)
# Pipeline mode:   SEARCH
# Query file:      /isg/shared/databases/BUSCO/odb10/embryophyta_odb10/hmms/24602at3193.hmm
# Target file:     /labs/Wegrzyn/ConiferGenomes/Psme/analysis/SURF_annotation/analyze_orig_maker/gfacs/filtered/maker_genes.fasta.faa
# Option settings: /usr/local/bin/hmmsearch --domtblout /labs/Wegrzyn/ConiferGenomes/Psme/analysis/SURF_annotation/analyze_orig_maker/busco/maker/run_embryophyta_odb10/hmmer_output/24602at3193.out --cpu 1 /isg/shared/databases/BUSCO/odb10/embryophyta_odb10/hmms/24602at3193.hmm /labs/Wegrzyn/ConiferGenomes/Psme/analysis/SURF_annotation/analyze_orig_maker/gfacs/filtered/maker_genes.fasta.faa 
# Current dir:     /labs/Wegrzyn/ConiferGenomes/Psme/analysis/SURF_annotation/analyze_orig_maker/busco
# Date:            Fri Jul 10 13:46:54 2020
# [ok]
