#                                                                            --- full sequence --- -------------- this domain -------------   hmm coord   ali coord   env coord
# target name        accession   tlen query name           accession   qlen   E-value  score  bias   #  of  c-Evalue  i-Evalue  score  bias  from    to  from    to  from    to  acc description of target
#------------------- ---------- ----- -------------------- ---------- ----- --------- ------ ----- --- --- --------- --------- ------ ----- ----- ----- ----- ----- ----- ----- ---- ---------------------
ID=PSME_00004225     -            717 25035at3193          -            592  1.4e-188  629.6   0.0   1   1    1e-191  1.8e-188  629.2   0.0    17   591    48   681    36   682 0.88 -
ID=PSME_00019512     -            693 25035at3193          -            592    6e-173  577.9   0.0   1   1  4.5e-176  7.9e-173  577.5   0.0    54   591     5   600     3   601 0.89 -
ID=PSME_00006452     -            744 25035at3193          -            592    9e-171  570.7   2.6   1   2   1.3e-54   2.4e-51  176.4   0.2    17   164    41   193    24   201 0.89 -
ID=PSME_00006452     -            744 25035at3193          -            592    9e-171  570.7   2.6   2   2    6e-120  1.1e-116  392.2   0.2   165   591   242   731   235   732 0.85 -
ID=PSME_00005080     -           1374 25035at3193          -            592  2.3e-166  556.2   0.0   1   1  2.8e-169  4.9e-166  555.1   0.0    12   591   645  1279   635  1280 0.90 -
ID=PSME_00016394     -           1087 25035at3193          -            592  3.8e-166  555.4   0.0   1   1  3.3e-169  5.8e-166  554.9   0.0    16   504   531  1060   520  1070 0.91 -
ID=PSME_00021187     -            522 25035at3193          -            592  1.5e-155  520.4   4.3   1   3   6.5e-29   1.2e-25   91.5   0.1   125   186    11    72     6    75 0.93 -
ID=PSME_00021187     -            522 25035at3193          -            592  1.5e-155  520.4   4.3   2   3   2.6e-20   4.6e-17   63.1   0.0   179   251    85   165    78   175 0.83 -
ID=PSME_00021187     -            522 25035at3193          -            592  1.5e-155  520.4   4.3   3   3  1.9e-109  3.3e-106  357.5   0.8   253   459   205   451   199   454 0.93 -
ID=PSME_00007813     -            432 25035at3193          -            592  2.8e-110  371.0   0.1   1   1  2.1e-113  3.7e-110  370.6   0.1    27   413     7   425     2   431 0.85 -
ID=PSME_00053286     -            387 25035at3193          -            592  2.6e-100  338.0   0.0   1   1    2e-103  3.5e-100  337.6   0.0   158   467    38   385    33   386 0.89 -
ID=PSME_00038355     -           1708 25035at3193          -            592   9.4e-99  332.9   0.0   1   1    5e-101   8.9e-98  329.7   0.0    23   588   233   877   222   881 0.79 -
ID=PSME_00007417     -            923 25035at3193          -            592   2.5e-61  209.3   2.4   1   5   1.8e-09   3.2e-06   27.3   0.1   131   165    38    72    30    75 0.88 -
ID=PSME_00007417     -            923 25035at3193          -            592   2.5e-61  209.3   2.4   2   5   3.6e-05     0.064   13.1   0.0   165   288    95   227    84   232 0.70 -
ID=PSME_00007417     -            923 25035at3193          -            592   2.5e-61  209.3   2.4   3   5   1.8e-14   3.2e-11   43.8   0.0   242   293   349   401   334   402 0.91 -
ID=PSME_00007417     -            923 25035at3193          -            592   2.5e-61  209.3   2.4   4   5   1.7e-22   3.1e-19   70.3   0.0   312   420   400   516   399   524 0.92 -
ID=PSME_00007417     -            923 25035at3193          -            592   2.5e-61  209.3   2.4   5   5   8.1e-17   1.4e-13   51.6   0.0   442   585   584   730   549   735 0.89 -
ID=PSME_00034853     -           1023 25035at3193          -            592   7.5e-58  197.8   0.0   1   2   2.1e-11   3.6e-08   33.8   0.0   135   207    56   130     4   143 0.85 -
ID=PSME_00034853     -           1023 25035at3193          -            592   7.5e-58  197.8   0.0   2   2   3.3e-50   5.8e-47  161.9   0.0   217   554   323   713   280   725 0.78 -
ID=PSME_00015944     -            564 25035at3193          -            592   9.9e-57  194.1   0.0   1   1   8.5e-60   1.5e-56  193.5   0.0   213   576    12   425     3   435 0.80 -
ID=PSME_00030086     -            688 25035at3193          -            592   3.5e-48  165.9   0.2   1   2     0.029        52    3.5   0.0   163   189     5    31     2    52 0.86 -
ID=PSME_00030086     -            688 25035at3193          -            592   3.5e-48  165.9   0.2   2   2   1.6e-47   2.7e-44  153.0   0.0   212   579   167   608   160   614 0.69 -
ID=PSME_00040441     -            315 25035at3193          -            592   7.1e-35  121.9   0.2   1   1   1.8e-36   3.2e-33  116.5   0.2    39   301    11   288     5   301 0.78 -
ID=PSME_00030983     -            654 25035at3193          -            592   3.8e-33  116.3   0.0   1   1   4.3e-36   7.6e-33  115.3   0.0   205   368   126   308   114   315 0.83 -
ID=PSME_00008239     -            240 25035at3193          -            592   1.4e-29  104.5   0.3   1   2   3.5e-32   6.2e-29  102.3   0.2   111   294     8   204     2   208 0.81 -
ID=PSME_00008239     -            240 25035at3193          -            592   1.4e-29  104.5   0.3   2   2      0.36   6.3e+02   -0.1   0.0   450   471   215   236   206   239 0.88 -
ID=PSME_00030087     -            847 25035at3193          -            592   9.4e-28   98.4   0.0   1   1   7.7e-31   1.4e-27   97.9   0.0    19   158   695   842   685   846 0.87 -
ID=PSME_00026878     -            214 25035at3193          -            592   4.1e-26   93.0   0.0   1   1   3.5e-28   6.3e-25   89.1   0.0    57   199     2   150     1   211 0.85 -
ID=PSME_00009913     -            664 25035at3193          -            592   1.5e-24   87.8   0.0   1   2     6e-05      0.11   12.4   0.0   165   242   301   393   259   438 0.76 -
ID=PSME_00009913     -            664 25035at3193          -            592   1.5e-24   87.8   0.0   2   2   2.3e-23     4e-20   73.2   0.0   242   328   555   642   547   659 0.92 -
ID=PSME_00005253     -            147 25035at3193          -            592   3.2e-22   80.2   0.1   1   1   2.1e-25   3.8e-22   79.9   0.1   201   333     6   145     2   146 0.87 -
ID=PSME_00026879     -            126 25035at3193          -            592   3.3e-22   80.1   0.0   1   1     2e-25   3.5e-22   80.0   0.0   252   365     3   123     1   125 0.90 -
ID=PSME_00057028     -            104 25035at3193          -            592     3e-21   77.0   0.1   1   1     2e-24   3.6e-21   76.7   0.1   256   339     7    90     2    95 0.95 -
ID=PSME_00034519     -            202 25035at3193          -            592   1.3e-20   74.9   0.0   1   2      0.48   8.5e+02   -0.5   0.1   438   481    18    61    15    75 0.78 -
ID=PSME_00034519     -            202 25035at3193          -            592   1.3e-20   74.9   0.0   2   2   2.5e-23   4.5e-20   73.1   0.0   205   319    71   196    65   199 0.80 -
ID=PSME_00011597     -            203 25035at3193          -            592   6.8e-18   65.9   0.0   1   2      0.71   1.2e+03   -1.0   0.0   438   482    19    63    17    77 0.79 -
ID=PSME_00011597     -            203 25035at3193          -            592   6.8e-18   65.9   0.0   2   2   1.1e-20   1.9e-17   64.4   0.0   205   318    72   196    65   199 0.80 -
ID=PSME_00032089     -            131 25035at3193          -            592   2.2e-17   64.2   0.0   1   1   1.5e-20   2.7e-17   63.9   0.0   218   319     7   119     4   129 0.81 -
ID=PSME_00034633     -            128 25035at3193          -            592   3.3e-17   63.6   0.0   1   1   2.2e-20   3.8e-17   63.4   0.0   217   318    16   128     5   128 0.82 -
ID=PSME_00030658     -            787 25035at3193          -            592   1.3e-13   51.7   0.0   1   1   1.2e-16   2.1e-13   51.1   0.0   265   351    28   121    21   130 0.82 -
ID=PSME_00011015     -            457 25035at3193          -            592   1.8e-13   51.2   0.1   1   2   7.8e-15   1.4e-11   45.0   0.0   340   420   190   271   184   275 0.92 -
ID=PSME_00011015     -            457 25035at3193          -            592   1.8e-13   51.2   0.1   2   2     0.023        41    3.8   0.0   557   578   279   300   276   314 0.81 -
ID=PSME_00024373     -             80 25035at3193          -            592   1.1e-09   38.7   0.0   1   1   6.5e-13   1.1e-09   38.7   0.0   248   293    32    77     8    80 0.91 -
ID=PSME_00021824     -            281 25035at3193          -            592   1.7e-05   25.0   0.0   1   1   1.4e-08   2.5e-05   24.4   0.0   245   295    59   110    50   116 0.85 -
ID=PSME_00049416     -            342 25035at3193          -            592     0.014   15.3   0.1   1   1   9.4e-06     0.017   15.1   0.1   448   509     3    70     1   113 0.81 -
#
# Program:         hmmsearch
# Version:         3.2.1 (June 2018)
# Pipeline mode:   SEARCH
# Query file:      /isg/shared/databases/BUSCO/odb10/embryophyta_odb10/hmms/25035at3193.hmm
# Target file:     /labs/Wegrzyn/ConiferGenomes/Psme/analysis/SURF_annotation/analyze_orig_maker/gfacs/filtered/maker_genes.fasta.faa
# Option settings: /usr/local/bin/hmmsearch --domtblout /labs/Wegrzyn/ConiferGenomes/Psme/analysis/SURF_annotation/analyze_orig_maker/busco/maker/run_embryophyta_odb10/hmmer_output/25035at3193.out --cpu 1 /isg/shared/databases/BUSCO/odb10/embryophyta_odb10/hmms/25035at3193.hmm /labs/Wegrzyn/ConiferGenomes/Psme/analysis/SURF_annotation/analyze_orig_maker/gfacs/filtered/maker_genes.fasta.faa 
# Current dir:     /labs/Wegrzyn/ConiferGenomes/Psme/analysis/SURF_annotation/analyze_orig_maker/busco
# Date:            Fri Jul 10 13:46:56 2020
# [ok]
