#                                                                            --- full sequence --- -------------- this domain -------------   hmm coord   ali coord   env coord
# target name        accession   tlen query name           accession   qlen   E-value  score  bias   #  of  c-Evalue  i-Evalue  score  bias  from    to  from    to  from    to  acc description of target
#------------------- ---------- ----- -------------------- ---------- ----- --------- ------ ----- --- --- --------- --------- ------ ----- ----- ----- ----- ----- ----- ----- ---- ---------------------
ID=PSME_00023468     -            727 26756at3193          -            565   7.5e-19   69.1  27.7   1   6   0.00091         2    8.3   0.6   252   299   106   153    91   154 0.86 -
ID=PSME_00023468     -            727 26756at3193          -            565   7.5e-19   69.1  27.7   2   6   8.3e-17   1.8e-13   51.4  11.2   222   444   113   338   105   354 0.83 -
ID=PSME_00023468     -            727 26756at3193          -            565   7.5e-19   69.1  27.7   3   6    0.0029       6.4    6.7   0.2   391   430   363   402   347   413 0.77 -
ID=PSME_00023468     -            727 26756at3193          -            565   7.5e-19   69.1  27.7   4   6    0.0016       3.5    7.5   0.1   238   318   419   502   403   515 0.85 -
ID=PSME_00023468     -            727 26756at3193          -            565   7.5e-19   69.1  27.7   5   6   0.00024      0.53   10.2   0.1    40    94   545   600   529   604 0.84 -
ID=PSME_00023468     -            727 26756at3193          -            565   7.5e-19   69.1  27.7   6   6      0.57   1.2e+03   -0.9   0.1   400   452   613   673   606   684 0.58 -
ID=PSME_00015547     -            568 26756at3193          -            565   6.3e-16   59.5  15.6   1   3   1.1e-13   2.4e-10   41.0   9.1   221   444    79   287    65   317 0.85 -
ID=PSME_00015547     -            568 26756at3193          -            565   6.3e-16   59.5  15.6   2   3     0.074   1.6e+02    2.0   0.0   254   319   323   387   318   414 0.85 -
ID=PSME_00015547     -            568 26756at3193          -            565   6.3e-16   59.5  15.6   3   3   3.3e-05     0.072   13.1   0.1    40    93   429   483   411   487 0.83 -
ID=PSME_00003206     -            699 26756at3193          -            565   5.4e-15   56.4  11.8   1   2   3.3e-12   7.1e-09   36.2   1.1    18   160    62   196    42   207 0.77 -
ID=PSME_00003206     -            699 26756at3193          -            565   5.4e-15   56.4  11.8   2   2   8.7e-08   0.00019   21.6   3.8   186   450   257   545   243   560 0.66 -
ID=PSME_00030027     -            609 26756at3193          -            565   6.1e-14   52.9   6.1   1   1   4.5e-17   9.8e-14   52.3   6.1   243   442   112   317   105   331 0.85 -
ID=PSME_00021526     -            966 26756at3193          -            565   3.4e-13   50.5  20.6   1   5   0.00096       2.1    8.2   0.3   256   296    61   100    46   120 0.74 -
ID=PSME_00021526     -            966 26756at3193          -            565   3.4e-13   50.5  20.6   2   5   0.00017      0.37   10.7   0.0   373   447   122   197   116   244 0.62 -
ID=PSME_00021526     -            966 26756at3193          -            565   3.4e-13   50.5  20.6   3   5      0.35   7.6e+02   -0.2   0.0   257   305   284   335   277   340 0.82 -
ID=PSME_00021526     -            966 26756at3193          -            565   3.4e-13   50.5  20.6   4   5   2.6e-06    0.0058   16.7   6.1   216   453   464   695   449   701 0.75 -
ID=PSME_00021526     -            966 26756at3193          -            565   3.4e-13   50.5  20.6   5   5   4.4e-07   0.00096   19.3   0.1   350   441   702   792   692   818 0.84 -
ID=PSME_00008838     -            527 26756at3193          -            565   3.5e-11   43.8  12.6   1   5     0.022        49    3.7   0.5   255   283    85   113    69   119 0.87 -
ID=PSME_00008838     -            527 26756at3193          -            565   3.5e-11   43.8  12.6   2   5   1.1e-08   2.5e-05   24.5   4.5   220   315    87   179    80   209 0.85 -
ID=PSME_00008838     -            527 26756at3193          -            565   3.5e-11   43.8  12.6   3   5       0.3   6.7e+02   -0.0   0.0   425   456   189   220   181   228 0.78 -
ID=PSME_00008838     -            527 26756at3193          -            565   3.5e-11   43.8  12.6   4   5    0.0036       7.9    6.4   0.1   237   319   225   310   200   322 0.87 -
ID=PSME_00008838     -            527 26756at3193          -            565   3.5e-11   43.8  12.6   5   5     3e-05     0.065   13.2   0.1    40    94   352   407   332   411 0.84 -
ID=PSME_00001512     -            820 26756at3193          -            565   4.9e-10   40.1   8.1   1   1   3.9e-13   8.6e-10   39.3   8.1   235   437    34   242    14   247 0.81 -
ID=PSME_00019673     -            548 26756at3193          -            565     1e-08   35.7  19.1   1   5   4.6e-07     0.001   19.2   1.7   253   322    72   142    56   164 0.78 -
ID=PSME_00019673     -            548 26756at3193          -            565     1e-08   35.7  19.1   2   5    0.0057        12    5.7   0.2   392   441   173   219   161   263 0.62 -
ID=PSME_00019673     -            548 26756at3193          -            565     1e-08   35.7  19.1   3   5    0.0027       5.9    6.8   0.6   389   430   281   322   224   329 0.75 -
ID=PSME_00019673     -            548 26756at3193          -            565     1e-08   35.7  19.1   4   5    0.0091        20    5.0   0.1   238   317   339   421   323   435 0.76 -
ID=PSME_00019673     -            548 26756at3193          -            565     1e-08   35.7  19.1   5   5    0.0017       3.8    7.4   0.1    40    84   465   510   458   523 0.81 -
ID=PSME_00031730     -            409 26756at3193          -            565   4.2e-08   33.7   5.3   1   3      0.11   2.4e+02    1.4   0.0     8    45   129   166   126   167 0.91 -
ID=PSME_00031730     -            409 26756at3193          -            565   4.2e-08   33.7   5.3   2   3   1.1e-05     0.024   14.7   0.3   390   436   163   212   142   216 0.86 -
ID=PSME_00031730     -            409 26756at3193          -            565   4.2e-08   33.7   5.3   3   3   1.5e-07   0.00033   20.8   0.5   272   453   217   404   214   407 0.82 -
ID=PSME_00031668     -            383 26756at3193          -            565   1.1e-07   32.3   1.2   1   2   1.2e-07   0.00025   21.2   0.2   390   448   160   223   140   241 0.83 -
ID=PSME_00031668     -            383 26756at3193          -            565   1.1e-07   32.3   1.2   2   2   6.4e-05      0.14   12.1   0.1   272   433   214   381   212   382 0.73 -
ID=PSME_00010728     -            698 26756at3193          -            565   1.5e-07   31.9  12.2   1   3   5.3e-10   1.2e-06   28.9   7.5   236   444   105   319    80   336 0.84 -
ID=PSME_00010728     -            698 26756at3193          -            565   1.5e-07   31.9  12.2   2   3     0.045     1e+02    2.7   0.0   402   429   355   382   351   383 0.88 -
ID=PSME_00010728     -            698 26756at3193          -            565   1.5e-07   31.9  12.2   3   3      0.14   3.1e+02    1.1   0.1   221   301   385   466   360   472 0.69 -
ID=PSME_00039879     -            708 26756at3193          -            565   7.9e-06   26.2   4.6   1   2   4.3e-07   0.00093   19.3   2.2   242   316   111   185    83   200 0.87 -
ID=PSME_00039879     -            708 26756at3193          -            565   7.9e-06   26.2   4.6   2   2    0.0024       5.2    7.0   0.1   236   296   208   267   187   273 0.66 -
ID=PSME_00005935     -            437 26756at3193          -            565   1.1e-05   25.7   1.1   1   2   2.1e-07   0.00046   20.3   0.1   390   448   230   293   215   313 0.83 -
ID=PSME_00005935     -            437 26756at3193          -            565   1.1e-05   25.7   1.1   2   2      0.02        43    3.9   0.1   401   449   341   390   330   407 0.76 -
ID=PSME_00049782     -           1018 26756at3193          -            565   2.1e-05   24.7   3.4   1   6      0.38   8.3e+02   -0.3   0.0   267   300   425   458   417   467 0.78 -
ID=PSME_00049782     -           1018 26756at3193          -            565   2.1e-05   24.7   3.4   2   6     0.017        36    4.2   0.1    25    79   465   517   451   534 0.75 -
ID=PSME_00049782     -           1018 26756at3193          -            565   2.1e-05   24.7   3.4   3   6      0.17   3.8e+02    0.8   0.1   262   305   621   664   613   678 0.74 -
ID=PSME_00049782     -           1018 26756at3193          -            565   2.1e-05   24.7   3.4   4   6      0.21   4.7e+02    0.5   0.1   262   299   689   726   673   744 0.79 -
ID=PSME_00049782     -           1018 26756at3193          -            565   2.1e-05   24.7   3.4   5   6    0.0014       3.1    7.7   0.0   257   311   785   839   768   845 0.87 -
ID=PSME_00049782     -           1018 26756at3193          -            565   2.1e-05   24.7   3.4   6   6       0.1   2.3e+02    1.5   0.0    19    64   930   976   907   990 0.81 -
ID=PSME_00007938     -            384 26756at3193          -            565     4e-05   23.8   1.2   1   3   2.7e-05     0.058   13.4   0.1   390   436   159   208   142   212 0.85 -
ID=PSME_00007938     -            384 26756at3193          -            565     4e-05   23.8   1.2   2   3         1   2.2e+03   -1.7   0.0   269   294   265   289   247   306 0.67 -
ID=PSME_00007938     -            384 26756at3193          -            565     4e-05   23.8   1.2   3   3    0.0013       2.9    7.8   0.1   397   453   322   379   313   383 0.81 -
ID=PSME_00038229     -            665 26756at3193          -            565   0.00012   22.2   5.6   1   4    0.0071        16    5.4   0.1    19    71    97   149    90   193 0.68 -
ID=PSME_00038229     -            665 26756at3193          -            565   0.00012   22.2   5.6   2   4      0.15   3.4e+02    1.0   0.0   253   309   147   204   138   215 0.78 -
ID=PSME_00038229     -            665 26756at3193          -            565   0.00012   22.2   5.6   3   4       0.1   2.3e+02    1.5   0.2    18    68   266   319   249   434 0.56 -
ID=PSME_00038229     -            665 26756at3193          -            565   0.00012   22.2   5.6   4   4   1.1e-05     0.023   14.7   0.1   242   298   606   662   580   664 0.86 -
ID=PSME_00013811     -            275 26756at3193          -            565   0.00013   22.1   0.1   1   1   8.7e-08   0.00019   21.6   0.1   390   448   183   246   165   260 0.84 -
ID=PSME_00030890     -            395 26756at3193          -            565   0.00016   21.8   2.0   1   2   8.7e-07    0.0019   18.3   0.1   390   448   183   246   167   264 0.83 -
ID=PSME_00030890     -            395 26756at3193          -            565   0.00016   21.8   2.0   2   2     0.039        85    2.9   0.2   257   317   289   350   271   392 0.68 -
ID=PSME_00012062     -            397 26756at3193          -            565   0.00017   21.8   0.6   1   3      0.53   1.2e+03   -0.8   0.0   265   304    52    91    43   104 0.67 -
ID=PSME_00012062     -            397 26756at3193          -            565   0.00017   21.8   0.6   2   3     0.041        90    2.9   0.1   258   300   113   155   102   170 0.78 -
ID=PSME_00012062     -            397 26756at3193          -            565   0.00017   21.8   0.6   3   3   1.9e-05     0.041   13.9   0.0   257   436   213   391   196   394 0.64 -
ID=PSME_00039052     -            203 26756at3193          -            565   0.00099   19.2   0.1   1   1   6.1e-07    0.0013   18.8   0.1   389   436    61   111    28   113 0.87 -
ID=PSME_00037958     -            665 26756at3193          -            565    0.0013   18.9  15.3   1   3     0.018        40    4.0   0.6   255   318    90   153    78   159 0.74 -
ID=PSME_00037958     -            665 26756at3193          -            565    0.0013   18.9  15.3   2   3   0.00031      0.67    9.9   1.5   219   314   192   286   178   295 0.82 -
ID=PSME_00037958     -            665 26756at3193          -            565    0.0013   18.9  15.3   3   3   0.00048       1.1    9.2   0.2   244   295   328   379   320   425 0.77 -
ID=PSME_00025319     -            699 26756at3193          -            565    0.0018   18.4   5.6   1   3     0.077   1.7e+02    2.0   0.4   243   314   112   183   109   189 0.82 -
ID=PSME_00025319     -            699 26756at3193          -            565    0.0018   18.4   5.6   2   3    0.0019       4.3    7.2   0.4   221   314   194   249   184   274 0.50 -
ID=PSME_00025319     -            699 26756at3193          -            565    0.0018   18.4   5.6   3   3   0.00026      0.57   10.1   0.0   404   444   279   319   277   332 0.86 -
ID=PSME_00021378     -            623 26756at3193          -            565     0.012   15.7   0.0   1   2     0.031        67    3.3   0.0   266   316   492   543   481   544 0.81 -
ID=PSME_00021378     -            623 26756at3193          -            565     0.012   15.7   0.0   2   2   1.8e-05     0.039   13.9   0.0    22   106   534   621   522   622 0.66 -
ID=PSME_00008328     -            182 26756at3193          -            565      0.14   12.1   0.0   1   1   8.5e-05      0.19   11.7   0.0   387   478    18   109     5   117 0.91 -
ID=PSME_00042042     -            173 26756at3193          -            565      0.89    9.5   0.0   1   1    0.0005       1.1    9.2   0.0   193   238    25    70     8    73 0.93 -
#
# Program:         hmmsearch
# Version:         3.2.1 (June 2018)
# Pipeline mode:   SEARCH
# Query file:      /isg/shared/databases/BUSCO/odb10/embryophyta_odb10/hmms/26756at3193.hmm
# Target file:     /labs/Wegrzyn/ConiferGenomes/Psme/analysis/SURF_annotation/analyze_orig_maker/gfacs/filtered/maker_genes.fasta.faa
# Option settings: /usr/local/bin/hmmsearch --domtblout /labs/Wegrzyn/ConiferGenomes/Psme/analysis/SURF_annotation/analyze_orig_maker/busco/maker/run_embryophyta_odb10/hmmer_output/26756at3193.out --cpu 1 /isg/shared/databases/BUSCO/odb10/embryophyta_odb10/hmms/26756at3193.hmm /labs/Wegrzyn/ConiferGenomes/Psme/analysis/SURF_annotation/analyze_orig_maker/gfacs/filtered/maker_genes.fasta.faa 
# Current dir:     /labs/Wegrzyn/ConiferGenomes/Psme/analysis/SURF_annotation/analyze_orig_maker/busco
# Date:            Fri Jul 10 13:47:01 2020
# [ok]
