#                                                                            --- full sequence --- -------------- this domain -------------   hmm coord   ali coord   env coord
# target name        accession   tlen query name           accession   qlen   E-value  score  bias   #  of  c-Evalue  i-Evalue  score  bias  from    to  from    to  from    to  acc description of target
#------------------- ---------- ----- -------------------- ---------- ----- --------- ------ ----- --- --- --------- --------- ------ ----- ----- ----- ----- ----- ----- ----- ---- ---------------------
ID=PSME_00001060     -            983 26776at3193          -            541   3.3e-30  106.6  14.0   1   5   5.7e-11   1.2e-07   32.2   0.0   376   508    66   197    61   208 0.88 -
ID=PSME_00001060     -            983 26776at3193          -            541   3.3e-30  106.6  14.0   2   5     2e-08   4.1e-05   23.8   0.1   422   505   179   262   176   267 0.91 -
ID=PSME_00001060     -            983 26776at3193          -            541   3.3e-30  106.6  14.0   3   5     3e-13   6.4e-10   39.7   3.7   391   520   216   345   196   346 0.89 -
ID=PSME_00001060     -            983 26776at3193          -            541   3.3e-30  106.6  14.0   4   5   5.8e-07    0.0012   18.9   1.6   419   501   312   394   311   405 0.94 -
ID=PSME_00001060     -            983 26776at3193          -            541   3.3e-30  106.6  14.0   5   5   1.9e-09     4e-06   27.1   0.0   409   517   404   512   398   523 0.90 -
ID=PSME_00002833     -           1041 26776at3193          -            541   6.5e-28   99.1  22.6   1   6   1.1e-08   2.2e-05   24.7   0.3   402   508   103   209    75   212 0.88 -
ID=PSME_00002833     -           1041 26776at3193          -            541   6.5e-28   99.1  22.6   2   6   6.5e-11   1.4e-07   32.0   0.1   419   511   154   246   151   253 0.96 -
ID=PSME_00002833     -           1041 26776at3193          -            541   6.5e-28   99.1  22.6   3   6   1.9e-09     4e-06   27.1   0.1   422   507   191   276   185   285 0.92 -
ID=PSME_00002833     -           1041 26776at3193          -            541   6.5e-28   99.1  22.6   4   6   4.1e-11   8.7e-08   32.6   0.3   415   501   252   338   246   341 0.89 -
ID=PSME_00002833     -           1041 26776at3193          -            541   6.5e-28   99.1  22.6   5   6   4.4e-06    0.0092   16.0   1.4   420   500   325   405   323   416 0.93 -
ID=PSME_00002833     -           1041 26776at3193          -            541   6.5e-28   99.1  22.6   6   6   4.1e-08   8.6e-05   22.7   0.0   409   517   416   524   411   534 0.89 -
ID=PSME_00008848     -            808 26776at3193          -            541   1.7e-19   71.2  10.2   1   3   0.00011      0.22   11.5   0.0   387   480   108   201    92   210 0.81 -
ID=PSME_00008848     -            808 26776at3193          -            541   1.7e-19   71.2  10.2   2   3   2.2e-10   4.7e-07   30.2   1.0   409   516   205   312   198   322 0.91 -
ID=PSME_00008848     -            808 26776at3193          -            541   1.7e-19   71.2  10.2   3   3   4.1e-11   8.7e-08   32.6   2.9   401   520   340   459   318   477 0.89 -
ID=PSME_00023831     -            423 26776at3193          -            541   2.5e-16   60.8   8.4   1   3      0.95     2e+03   -1.6   0.0   314   426    49   163    41   173 0.49 -
ID=PSME_00023831     -            423 26776at3193          -            541   2.5e-16   60.8   8.4   2   3   2.7e-11   5.6e-08   33.2   0.2   407   481   212   286   188   291 0.92 -
ID=PSME_00023831     -            423 26776at3193          -            541   2.5e-16   60.8   8.4   3   3   7.2e-13   1.5e-09   38.4   3.2   421   539   260   380   255   382 0.92 -
ID=PSME_00013947     -            690 26776at3193          -            541     2e-10   41.4   5.5   1   4     9e-10   1.9e-06   28.2   0.7   418   505    17   104    11   120 0.94 -
ID=PSME_00013947     -            690 26776at3193          -            541     2e-10   41.4   5.5   2   4     0.017        35    4.2   0.0   453   499   259   305   246   325 0.83 -
ID=PSME_00013947     -            690 26776at3193          -            541     2e-10   41.4   5.5   3   4    0.0012       2.6    8.0   0.0   414   507   333   418   327   426 0.80 -
ID=PSME_00013947     -            690 26776at3193          -            541     2e-10   41.4   5.5   4   4      0.97     2e+03   -1.6   0.0   416   435   463   482   454   490 0.83 -
ID=PSME_00056090     -            852 26776at3193          -            541   5.1e-09   36.7   0.0   1   2   0.00058       1.2    9.0   0.0   372   496   230   362   227   381 0.78 -
ID=PSME_00056090     -            852 26776at3193          -            541   5.1e-09   36.7   0.0   2   2   6.4e-09   1.4e-05   25.4   0.1   389   504   391   506   381   518 0.89 -
ID=PSME_00040926     -            277 26776at3193          -            541   8.7e-09   35.9   0.5   1   1     6e-11   1.3e-07   32.1   0.4   389   509   146   266   131   267 0.92 -
ID=PSME_00023588     -            328 26776at3193          -            541   3.3e-07   30.7   0.0   1   1   1.9e-10     4e-07   30.4   0.0   438   506   124   192    88   214 0.79 -
ID=PSME_00018525     -            302 26776at3193          -            541   3.4e-07   30.7   0.2   1   1   1.9e-10     4e-07   30.4   0.2   390   530   123   261    62   272 0.83 -
ID=PSME_00035334     -            424 26776at3193          -            541   1.5e-06   28.6   0.0   1   1   9.7e-10     2e-06   28.1   0.0   438   506   220   288   186   309 0.80 -
ID=PSME_00027908     -            340 26776at3193          -            541   1.8e-06   28.3   0.5   1   1   1.1e-09   2.3e-06   27.9   0.5   415   509   152   247   110   261 0.84 -
ID=PSME_00006921     -            181 26776at3193          -            541   3.2e-06   27.5   0.0   1   1   1.8e-09   3.8e-06   27.2   0.0   407   479    67   139    41   149 0.87 -
ID=PSME_00037608     -           1207 26776at3193          -            541     7e-06   26.3   0.3   1   1   5.2e-09   1.1e-05   25.7   0.3   415   509   115   210    82   226 0.87 -
ID=PSME_00027718     -            575 26776at3193          -            541   1.1e-05   25.6   0.6   1   1   8.7e-09   1.8e-05   25.0   0.6   366   486   426   549   406   571 0.79 -
ID=PSME_00002115     -            612 26776at3193          -            541   0.00013   22.1   0.7   1   4   7.2e-05      0.15   12.0   0.0   454   502     7    55     2    60 0.90 -
ID=PSME_00002115     -            612 26776at3193          -            541   0.00013   22.1   0.7   2   4      0.15   3.2e+02    1.1   0.0   410   457    66   113    60   125 0.74 -
ID=PSME_00002115     -            612 26776at3193          -            541   0.00013   22.1   0.7   3   4     0.037        77    3.1   0.0   433   526   248   338   238   351 0.71 -
ID=PSME_00002115     -            612 26776at3193          -            541   0.00013   22.1   0.7   4   4      0.66   1.4e+03   -1.1   0.0   386   429   371   414   362   419 0.64 -
ID=PSME_00034275     -            493 26776at3193          -            541    0.0004   20.5   0.6   1   2   7.5e-07    0.0016   18.6   0.0   400   522    32   152    20   176 0.83 -
ID=PSME_00034275     -            493 26776at3193          -            541    0.0004   20.5   0.6   2   2      0.46   9.7e+02   -0.5   0.1   341   383   213   255   198   345 0.71 -
ID=PSME_00038222     -            326 26776at3193          -            541    0.0055   16.8   1.5   1   1   3.7e-06    0.0078   16.3   1.5   418   518    33   134    26   156 0.89 -
ID=PSME_00014571     -            632 26776at3193          -            541      0.02   14.9   0.8   1   1   1.4e-05     0.029   14.4   0.8   417   533    29   145    21   149 0.93 -
ID=PSME_00049230     -            393 26776at3193          -            541     0.024   14.7   0.0   1   2     7e-05      0.15   12.1   0.0   414   503   226   311   221   322 0.87 -
ID=PSME_00049230     -            393 26776at3193          -            541     0.024   14.7   0.0   2   2      0.56   1.2e+03   -0.8   0.0   416   434   326   344   320   356 0.80 -
ID=PSME_00052756     -           1057 26776at3193          -            541     0.026   14.6   1.6   1   4       0.8   1.7e+03   -1.3   0.0   464   496   252   285   243   288 0.81 -
ID=PSME_00052756     -           1057 26776at3193          -            541     0.026   14.6   1.6   2   4     0.022        46    3.8   0.0   455   520   344   409   330   423 0.68 -
ID=PSME_00052756     -           1057 26776at3193          -            541     0.026   14.6   1.6   3   4    0.0036       7.5    6.4   0.0   463   523   554   614   543   626 0.88 -
ID=PSME_00052756     -           1057 26776at3193          -            541     0.026   14.6   1.6   4   4      0.31   6.5e+02    0.0   0.0   186   460   838   889   778   922 0.58 -
ID=PSME_00013112     -            574 26776at3193          -            541     0.061   13.3   0.0   1   1   5.2e-05      0.11   12.5   0.0   426   494    50   115    43   146 0.84 -
ID=PSME_00002114     -            419 26776at3193          -            541      0.12   12.3   0.1   1   1   9.5e-05       0.2   11.6   0.1   443   506    72   135    41   173 0.65 -
ID=PSME_00041900     -            102 26776at3193          -            541      0.13   12.3   0.0   1   1   6.3e-05      0.13   12.2   0.0   451   505    31    85    12    98 0.83 -
ID=PSME_00014595     -            316 26776at3193          -            541       0.2   11.6   0.1   1   1   0.00016      0.34   10.9   0.1   418   468    27    77    23    83 0.93 -
ID=PSME_00019868     -            330 26776at3193          -            541      0.26   11.3   0.0   1   1   0.00021      0.45   10.5   0.0   435   503   140   209   126   233 0.77 -
ID=PSME_00056153     -            690 26776at3193          -            541      0.58   10.1   0.1   1   2   0.00091       1.9    8.4   0.0   469   523   370   423   352   434 0.80 -
ID=PSME_00056153     -            690 26776at3193          -            541      0.58   10.1   0.1   2   2       3.2   6.8e+03   -3.3   0.0   472   500   474   502   460   533 0.73 -
#
# Program:         hmmsearch
# Version:         3.2.1 (June 2018)
# Pipeline mode:   SEARCH
# Query file:      /isg/shared/databases/BUSCO/odb10/embryophyta_odb10/hmms/26776at3193.hmm
# Target file:     /labs/Wegrzyn/ConiferGenomes/Psme/analysis/SURF_annotation/analyze_orig_maker/gfacs/filtered/maker_genes.fasta.faa
# Option settings: /usr/local/bin/hmmsearch --domtblout /labs/Wegrzyn/ConiferGenomes/Psme/analysis/SURF_annotation/analyze_orig_maker/busco/maker/run_embryophyta_odb10/hmmer_output/26776at3193.out --cpu 1 /isg/shared/databases/BUSCO/odb10/embryophyta_odb10/hmms/26776at3193.hmm /labs/Wegrzyn/ConiferGenomes/Psme/analysis/SURF_annotation/analyze_orig_maker/gfacs/filtered/maker_genes.fasta.faa 
# Current dir:     /labs/Wegrzyn/ConiferGenomes/Psme/analysis/SURF_annotation/analyze_orig_maker/busco
# Date:            Fri Jul 10 13:47:02 2020
# [ok]
