#                                                                            --- full sequence --- -------------- this domain -------------   hmm coord   ali coord   env coord
# target name        accession   tlen query name           accession   qlen   E-value  score  bias   #  of  c-Evalue  i-Evalue  score  bias  from    to  from    to  from    to  acc description of target
#------------------- ---------- ----- -------------------- ---------- ----- --------- ------ ----- --- --- --------- --------- ------ ----- ----- ----- ----- ----- ----- ----- ---- ---------------------
ID=PSME_00046222     -            855 26794at3193          -            608   4.5e-74  251.4   0.4   1   1   1.1e-76   6.2e-74  250.9   0.4     6   351   269   625   264   653 0.90 -
ID=PSME_00010735     -            620 26794at3193          -            608   2.1e-69  235.9   0.0   1   1   5.1e-72   2.8e-69  235.5   0.0    14   348   186   540   173   557 0.88 -
ID=PSME_00013357     -           1195 26794at3193          -            608   5.8e-69  234.5   0.0   1   1   1.8e-71     1e-68  233.7   0.0    14   430   549   984   542  1008 0.88 -
ID=PSME_00010814     -            597 26794at3193          -            608   1.7e-67  229.6   0.0   1   1   4.2e-70   2.3e-67  229.2   0.0    13   348   182   529   175   546 0.91 -
ID=PSME_00017714     -            628 26794at3193          -            608   2.3e-67  229.2   0.0   1   1   5.7e-70   3.2e-67  228.7   0.0    13   355   111   469   101   484 0.91 -
ID=PSME_00013617     -           1440 26794at3193          -            608   3.3e-67  228.7   0.0   1   1   8.8e-70   4.9e-67  228.1   0.0    14   430   689  1123   681  1146 0.86 -
ID=PSME_00012859     -            635 26794at3193          -            608   4.2e-67  228.3   0.1   1   1   1.1e-69     6e-67  227.8   0.1    14   364   200   569   190   596 0.85 -
ID=PSME_00034125     -            870 26794at3193          -            608   1.3e-65  223.4   0.0   1   1   3.1e-68   1.7e-65  223.0   0.0    14   358   230   585   219   598 0.91 -
ID=PSME_00019301     -            459 26794at3193          -            608   1.7e-65  223.0   0.1   1   1   3.8e-68   2.1e-65  222.7   0.1    15   363    96   448    81   455 0.91 -
ID=PSME_00000892     -            412 26794at3193          -            608   2.4e-65  222.6   0.2   1   1   5.4e-68     3e-65  222.2   0.2     7   363    39   404    34   408 0.92 -
ID=PSME_00043687     -            413 26794at3193          -            608   2.7e-65  222.4   0.2   1   1   6.1e-68   3.4e-65  222.0   0.2     7   362    40   404    35   409 0.92 -
ID=PSME_00036706     -            640 26794at3193          -            608   1.6e-64  219.9   0.0   1   1   3.9e-67   2.1e-64  219.4   0.0    16   341   187   538   174   552 0.87 -
ID=PSME_00047834     -            410 26794at3193          -            608   2.5e-64  219.2   0.3   1   1   5.9e-67   3.3e-64  218.8   0.3     8   363    37   402    33   407 0.92 -
ID=PSME_00049527     -            414 26794at3193          -            608   3.5e-64  218.7   0.3   1   1   8.1e-67   4.5e-64  218.3   0.3     8   363    42   406    37   411 0.92 -
ID=PSME_00041552     -            451 26794at3193          -            608   4.4e-64  218.3   0.2   1   1     1e-66   5.8e-64  218.0   0.2     8   363    78   443    73   448 0.92 -
ID=PSME_00047883     -            410 26794at3193          -            608   4.7e-64  218.2   0.4   1   1   1.1e-66   6.2e-64  217.9   0.4     8   363    37   402    33   407 0.93 -
ID=PSME_00029838     -            502 26794at3193          -            608   1.1e-63  217.0   0.1   1   1   2.6e-66   1.5e-63  216.6   0.1    15   364   139   492   124   498 0.92 -
ID=PSME_00017078     -            795 26794at3193          -            608   1.3e-63  216.8   0.1   1   1   3.7e-66     2e-63  216.2   0.1    16   352    92   442    83   460 0.91 -
ID=PSME_00040415     -            761 26794at3193          -            608   1.9e-63  216.3   0.0   1   1   4.8e-66   2.6e-63  215.8   0.0    15   365   191   552   180   561 0.91 -
ID=PSME_00047772     -            410 26794at3193          -            608   2.7e-61  209.1   0.3   1   1   6.2e-64   3.4e-61  208.8   0.3    22   363    54   402    36   407 0.93 -
ID=PSME_00034692     -            661 26794at3193          -            608   1.4e-60  206.8   0.0   1   1   3.7e-63   2.1e-60  206.2   0.0    17   345   206   569   198   584 0.83 -
ID=PSME_00039428     -            658 26794at3193          -            608   1.9e-57  196.4   0.0   1   1   4.7e-60   2.6e-57  196.0   0.0    15   345   164   505   143   515 0.89 -
ID=PSME_00039230     -            553 26794at3193          -            608   1.2e-53  183.9   0.1   1   1   3.8e-56   2.1e-53  183.1   0.1    21   350   167   510   161   529 0.92 -
ID=PSME_00041255     -            553 26794at3193          -            608   3.2e-53  182.5   0.2   1   2       5.3   2.9e+03   -2.3   0.0   386   421    50    85    46    96 0.81 -
ID=PSME_00041255     -            553 26794at3193          -            608   3.2e-53  182.5   0.2   2   2   1.4e-55   7.5e-53  181.3   0.1    21   350   167   510   161   529 0.92 -
ID=PSME_00013579     -            522 26794at3193          -            608   9.7e-52  177.6   0.3   1   1   2.4e-54   1.3e-51  177.2   0.3    14   343    68   406    54   414 0.88 -
ID=PSME_00034714     -            387 26794at3193          -            608   1.1e-51  177.4   0.8   1   2   2.2e-32   1.2e-29  104.6   0.2    14   198    50   240    37   249 0.87 -
ID=PSME_00034714     -            387 26794at3193          -            608   1.1e-51  177.4   0.8   2   2   2.8e-22   1.5e-19   71.2   0.0   248   364   250   380   246   384 0.87 -
ID=PSME_00039978     -            439 26794at3193          -            608   1.1e-51  177.4   0.2   1   1   2.7e-54   1.5e-51  177.0   0.2    14   343    66   404    52   412 0.89 -
ID=PSME_00015686     -            849 26794at3193          -            608   3.2e-50  172.6   7.0   1   3   2.2e-10   1.2e-07   32.0   0.0    13    65   223   276   216   282 0.90 -
ID=PSME_00015686     -            849 26794at3193          -            608   3.2e-50  172.6   7.0   2   3   1.7e-18   9.5e-16   58.7   0.0    68   167   306   407   301   410 0.93 -
ID=PSME_00015686     -            849 26794at3193          -            608   3.2e-50  172.6   7.0   3   3   6.1e-26   3.4e-23   83.3   0.0   187   371   488   673   481   691 0.86 -
ID=PSME_00013759     -            610 26794at3193          -            608   1.5e-48  167.1   0.0   1   2   1.9e-26   1.1e-23   85.0   0.1    15   139   152   284   138   290 0.90 -
ID=PSME_00013759     -            610 26794at3193          -            608   1.5e-48  167.1   0.0   2   2     4e-25   2.2e-22   80.6   0.0   169   350   289   473   280   488 0.90 -
ID=PSME_00041551     -            330 26794at3193          -            608   1.2e-47  164.1   1.3   1   1   2.8e-50   1.5e-47  163.7   1.3    79   363    35   322    30   327 0.94 -
ID=PSME_00042380     -            288 26794at3193          -            608   4.3e-47  162.2   1.0   1   1   9.3e-50   5.1e-47  162.0   1.0    88   363     2   280     1   285 0.94 -
ID=PSME_00039979     -            347 26794at3193          -            608   7.3e-46  158.2   0.5   1   1   1.5e-48   8.5e-46  158.0   0.5    41   343     1   312     1   336 0.90 -
ID=PSME_00043843     -            307 26794at3193          -            608   1.9e-42  146.9   0.0   1   1   4.1e-45   2.3e-42  146.6   0.0     7   185    52   242    47   305 0.84 -
ID=PSME_00055275     -            274 26794at3193          -            608   1.1e-41  144.4   0.6   1   1   2.4e-44   1.3e-41  144.1   0.6   119   363    19   266     5   271 0.92 -
ID=PSME_00028267     -            194 26794at3193          -            608   5.7e-41  142.0   0.1   1   1   1.2e-43   6.8e-41  141.8   0.1    18   195     4   187     1   192 0.91 -
ID=PSME_00017117     -            639 26794at3193          -            608   1.4e-38  134.1   6.2   1   2   2.8e-26   1.5e-23   84.5   0.0    13   169   201   373   190   378 0.85 -
ID=PSME_00017117     -            639 26794at3193          -            608   1.4e-38  134.1   6.2   2   2   2.2e-15   1.2e-12   48.4   0.1   232   341   489   598   391   612 0.68 -
ID=PSME_00032141     -            428 26794at3193          -            608   4.7e-37  129.1   0.0   1   1   1.7e-39   9.2e-37  128.1   0.0    68   320   108   383   102   387 0.82 -
ID=PSME_00013820     -            716 26794at3193          -            608   7.1e-36  125.2   0.0   1   1   1.9e-38   1.1e-35  124.6   0.0    17   360   117   469   106   503 0.83 -
ID=PSME_00037049     -            308 26794at3193          -            608   5.5e-34  118.9   0.0   1   1   1.2e-36   6.4e-34  118.7   0.0   143   347     2   219     1   236 0.87 -
ID=PSME_00024625     -            235 26794at3193          -            608     2e-29  103.9   0.3   1   3   4.1e-12   2.3e-09   37.6   0.0    67   143     2    77     1    89 0.88 -
ID=PSME_00024625     -            235 26794at3193          -            608     2e-29  103.9   0.3   2   3      0.85   4.7e+02    0.3   0.0   171   198    85   112    74   121 0.80 -
ID=PSME_00024625     -            235 26794at3193          -            608     2e-29  103.9   0.3   3   3   1.1e-19   5.9e-17   62.7   0.0   248   364   122   228   117   232 0.95 -
ID=PSME_00041256     -            266 26794at3193          -            608   9.2e-29  101.7   0.1   1   2   7.7e-21   4.3e-18   66.5   0.0    70   163    15   107     6   109 0.96 -
ID=PSME_00041256     -            266 26794at3193          -            608   9.2e-29  101.7   0.1   2   2   8.1e-11   4.5e-08   33.4   0.0   240   350   112   223   109   242 0.78 -
ID=PSME_00055514     -            174 26794at3193          -            608   1.6e-27   97.6   0.3   1   2   3.6e-08     2e-05   24.6   0.0    88   162     2    75     1    77 0.93 -
ID=PSME_00055514     -            174 26794at3193          -            608   1.6e-27   97.6   0.3   2   2   1.3e-23   7.4e-21   75.6   0.0   268   363    71   166    69   171 0.94 -
ID=PSME_00045197     -            225 26794at3193          -            608   5.7e-27   95.8   0.0   1   1   1.2e-29   6.8e-27   95.5   0.0    14   181    49   223    38   225 0.90 -
ID=PSME_00027093     -            219 26794at3193          -            608   1.2e-25   91.4   0.2   1   2   9.8e-06    0.0054   16.6   0.0    95   162    54   120    38   122 0.85 -
ID=PSME_00027093     -            219 26794at3193          -            608   1.2e-25   91.4   0.2   2   2   5.2e-24   2.9e-21   76.9   0.0   269   363   117   211   114   216 0.94 -
ID=PSME_00043222     -            470 26794at3193          -            608     4e-25   89.7   0.1   1   2   9.9e-11   5.5e-08   33.1   0.0   100   246    29   179    24   189 0.78 -
ID=PSME_00043222     -            470 26794at3193          -            608     4e-25   89.7   0.1   2   2   2.9e-17   1.6e-14   54.7   0.0   281   354   213   286   195   295 0.94 -
ID=PSME_00049494     -            220 26794at3193          -            608   5.9e-25   89.1   0.0   1   1   1.3e-27   7.3e-25   88.8   0.0     7   162    30   191    25   194 0.92 -
ID=PSME_00050148     -            238 26794at3193          -            608   2.3e-24   87.2   0.0   1   1   5.4e-27     3e-24   86.8   0.0   239   350    78   189    72   198 0.96 -
ID=PSME_00018498     -            348 26794at3193          -            608   1.2e-23   84.8   0.2   1   1   3.2e-26   1.8e-23   84.2   0.2   119   352    10   251     6   282 0.79 -
ID=PSME_00052722     -            200 26794at3193          -            608   2.7e-23   83.6   0.0   1   1   5.7e-26   3.1e-23   83.4   0.0     8   162    40   200    35   200 0.91 -
ID=PSME_00017686     -            235 26794at3193          -            608   6.4e-23   82.4   0.0   1   2   5.2e-07   0.00029   20.8   0.0     8    66    81   142    76   146 0.87 -
ID=PSME_00017686     -            235 26794at3193          -            608   6.4e-23   82.4   0.0   2   2   6.5e-19   3.6e-16   60.1   0.0   285   363   149   227   140   232 0.91 -
ID=PSME_00048644     -            249 26794at3193          -            608   7.3e-23   82.2   0.4   1   2   1.4e-05    0.0076   16.1   0.1    84   162    73   150    63   151 0.91 -
ID=PSME_00048644     -            249 26794at3193          -            608   7.3e-23   82.2   0.4   2   2   2.8e-21   1.6e-18   67.9   0.0   270   363   148   241   145   246 0.94 -
ID=PSME_00043842     -            117 26794at3193          -            608   1.1e-22   81.6   0.0   1   1   2.4e-25   1.3e-22   81.3   0.0   250   342    19   111    13   115 0.94 -
ID=PSME_00047178     -            423 26794at3193          -            608   6.4e-20   72.5   0.0   1   2   1.5e-12   8.4e-10   39.1   0.0    88   201    95   213    87   239 0.84 -
ID=PSME_00047178     -            423 26794at3193          -            608   6.4e-20   72.5   0.0   2   2   3.4e-10   1.9e-07   31.3   0.0   295   364   246   314   231   335 0.85 -
ID=PSME_00017596     -            281 26794at3193          -            608   9.2e-20   72.0   0.0   1   1   1.9e-22   1.1e-19   71.7   0.0   256   346     5    95     1   124 0.91 -
ID=PSME_00002746     -            234 26794at3193          -            608     1e-19   71.8   0.1   1   1   2.2e-22   1.2e-19   71.6   0.1   171   344    13   196     3   229 0.81 -
ID=PSME_00049962     -            144 26794at3193          -            608   2.1e-19   70.8   0.0   1   1   4.2e-22   2.3e-19   70.6   0.0   232   346    23   140     9   143 0.87 -
ID=PSME_00049369     -            166 26794at3193          -            608   7.2e-19   69.0   0.0   1   1   1.5e-21   8.3e-19   68.8   0.0    66   198    15   152     8   162 0.90 -
ID=PSME_00014730     -            155 26794at3193          -            608   6.5e-18   65.9   0.0   1   1   1.3e-20   7.4e-18   65.7   0.0    74   200     2   133     1   148 0.88 -
ID=PSME_00036350     -            213 26794at3193          -            608   1.9e-17   64.3   0.0   1   1   4.6e-20   2.5e-17   63.9   0.0   221   347    58   192    54   200 0.85 -
ID=PSME_00036962     -            389 26794at3193          -            608   3.3e-15   56.9   0.4   1   2   5.9e-18   3.3e-15   56.9   0.4   168   341    95   276    62   291 0.78 -
ID=PSME_00036962     -            389 26794at3193          -            608   3.3e-15   56.9   0.4   2   2      0.96   5.3e+02    0.1   0.1   169   260   294   387   276   388 0.60 -
ID=PSME_00027092     -            134 26794at3193          -            608   1.4e-14   54.9   0.0   1   1   2.9e-17   1.6e-14   54.7   0.0    16   125    12   125     5   132 0.88 -
ID=PSME_00014729     -            167 26794at3193          -            608   2.4e-13   50.8   0.0   1   1   4.7e-16   2.6e-13   50.7   0.0   267   351    16    99     3   139 0.86 -
ID=PSME_00043874     -            113 26794at3193          -            608   4.4e-10   40.0   0.0   1   1   8.7e-13   4.8e-10   39.9   0.0    65   142     9    83     4   107 0.86 -
ID=PSME_00018597     -            247 26794at3193          -            608   5.7e-10   39.6   0.1   1   1   1.2e-12   6.8e-10   39.4   0.1   237   344   125   235    25   244 0.80 -
ID=PSME_00018596     -            233 26794at3193          -            608   2.9e-09   37.3   0.1   1   1   6.5e-12   3.6e-09   37.0   0.1   237   345   111   222    92   231 0.86 -
ID=PSME_00011616     -            112 26794at3193          -            608   8.2e-09   35.8   0.0   1   1   1.5e-11   8.3e-09   35.8   0.0   266   323    45   102     4   107 0.90 -
ID=PSME_00036351     -            134 26794at3193          -            608   2.9e-08   34.0   0.0   1   1   6.1e-11   3.4e-08   33.8   0.0    97   182    12   100     5   111 0.84 -
ID=PSME_00021600     -            149 26794at3193          -            608   6.5e-08   32.8   0.1   1   2       6.2   3.4e+03   -2.6   0.0   532   549    54    71    49    78 0.80 -
ID=PSME_00021600     -            149 26794at3193          -            608   6.5e-08   32.8   0.1   2   2   2.4e-10   1.3e-07   31.8   0.0   311   349    85   123    77   134 0.89 -
ID=PSME_00049912     -            458 26794at3193          -            608   3.1e-07   30.6   0.1   1   1   8.2e-10   4.5e-07   30.1   0.1   275   329   331   385   321   390 0.91 -
ID=PSME_00028651     -            123 26794at3193          -            608   3.5e-07   30.4   0.0   1   1     8e-10   4.4e-07   30.1   0.0    50   139     2   108     1   117 0.75 -
ID=PSME_00010415     -            436 26794at3193          -            608   7.6e-07   29.3   0.0   1   1     2e-09   1.1e-06   28.8   0.0   275   330    80   135    68   142 0.91 -
ID=PSME_00049025     -            189 26794at3193          -            608     1e-06   28.9   0.0   1   1   2.7e-09   1.5e-06   28.3   0.0   238   342    78   185    64   187 0.88 -
ID=PSME_00050161     -            434 26794at3193          -            608   1.4e-06   28.4   0.0   1   1   3.6e-09     2e-06   27.9   0.0   275   329   307   361   297   367 0.91 -
ID=PSME_00009840     -            353 26794at3193          -            608   3.5e-06   27.1   4.1   1   2   1.2e-08   6.9e-06   26.1   0.0   304   348    40    86    25   123 0.79 -
ID=PSME_00009840     -            353 26794at3193          -            608   3.5e-06   27.1   4.1   2   2      0.97   5.4e+02    0.1   3.1   370   452   137   219   121   242 0.73 -
ID=PSME_00050090     -            269 26794at3193          -            608   3.9e-06   27.0   0.0   1   1   9.9e-09   5.5e-06   26.5   0.0   275   329   142   196   129   202 0.91 -
ID=PSME_00048066     -            454 26794at3193          -            608   4.2e-06   26.9   0.0   1   1   1.1e-08     6e-06   26.4   0.0   275   327   327   379   317   383 0.90 -
ID=PSME_00045843     -            329 26794at3193          -            608   5.8e-06   26.4   0.1   1   1   1.5e-08   8.1e-06   25.9   0.1   280   329   207   256   196   261 0.90 -
ID=PSME_00048514     -            458 26794at3193          -            608   9.5e-06   25.7   0.0   1   1   2.6e-08   1.4e-05   25.1   0.0   275   329   331   385   321   391 0.91 -
ID=PSME_00051106     -            329 26794at3193          -            608   1.2e-05   25.3   0.0   1   1   3.1e-08   1.7e-05   24.9   0.0   275   327   202   254   192   258 0.92 -
ID=PSME_00044513     -            390 26794at3193          -            608   1.2e-05   25.3   0.0   1   1   3.1e-08   1.7e-05   24.9   0.0   280   327   207   254   196   258 0.90 -
ID=PSME_00010460     -           1691 26794at3193          -            608   1.8e-05   24.8   0.1   1   2     0.011         6    6.5   0.0    43   155    99   218    84   238 0.75 -
ID=PSME_00010460     -           1691 26794at3193          -            608   1.8e-05   24.8   0.1   2   2     2e-05     0.011   15.5   0.1   278   329   487   538   386   544 0.75 -
ID=PSME_00006013     -           1155 26794at3193          -            608   2.2e-05   24.5   2.1   1   2       3.3   1.8e+03   -1.7   0.1   449   515    70   135    26   149 0.74 -
ID=PSME_00006013     -           1155 26794at3193          -            608   2.2e-05   24.5   2.1   2   2   1.5e-07     8e-05   22.6   0.3    33   343   618   943   607   956 0.66 -
ID=PSME_00052442     -             75 26794at3193          -            608     3e-05   24.0   0.0   1   1   5.6e-08   3.1e-05   24.0   0.0    64   128     8    72     2    74 0.88 -
ID=PSME_00043919     -             95 26794at3193          -            608   3.9e-05   23.7   0.0   1   1     7e-08   3.9e-05   23.7   0.0   258   344     4    93     1    94 0.76 -
ID=PSME_00030804     -            574 26794at3193          -            608   7.5e-05   22.7   0.0   1   1   1.9e-07    0.0001   22.3   0.0    18   102   267   359   258   363 0.84 -
ID=PSME_00021159     -            329 26794at3193          -            608   0.00017   21.6   0.0   1   1   4.2e-07   0.00023   21.1   0.0   272   327   199   254   192   260 0.91 -
ID=PSME_00040391     -            195 26794at3193          -            608   0.00086   19.2   0.0   1   1   2.1e-06    0.0012   18.8   0.0   279   333    25    79    20    89 0.89 -
ID=PSME_00036183     -            344 26794at3193          -            608     0.011   15.6   0.0   1   1   2.6e-05     0.014   15.2   0.0    20   157   198   331   193   336 0.78 -
ID=PSME_00035120     -            369 26794at3193          -            608     0.012   15.4   0.0   1   1   2.7e-05     0.015   15.1   0.0   225   326   164   268   112   290 0.69 -
ID=PSME_00035640     -            443 26794at3193          -            608     0.022   14.6   0.0   1   2    0.0001     0.057   13.2   0.0   267   302   104   139    95   155 0.89 -
ID=PSME_00035640     -            443 26794at3193          -            608     0.022   14.6   0.0   2   2       5.9   3.3e+03   -2.5   0.0    89   134   251   294   247   308 0.77 -
ID=PSME_00043875     -             76 26794at3193          -            608     0.028   14.2   0.0   1   1     5e-05     0.028   14.2   0.0   307   328    40    61    18    72 0.87 -
ID=PSME_00000065     -            830 26794at3193          -            608      0.13   12.0   0.0   1   1   0.00041      0.23   11.2   0.0   233   343   601   716   584   729 0.85 -
ID=PSME_00043737     -            436 26794at3193          -            608      0.15   11.8   0.1   1   1   0.00039      0.21   11.3   0.1   469   508    59    98    52   113 0.81 -
ID=PSME_00013680     -            411 26794at3193          -            608      0.16   11.7   0.0   1   1   0.00041      0.23   11.2   0.0   273   309    95   131    39   138 0.76 -
ID=PSME_00051440     -            299 26794at3193          -            608      0.18   11.6   0.0   1   1   0.00053       0.3   10.8   0.0   120   167     7    53     2    57 0.87 -
ID=PSME_00048282     -            239 26794at3193          -            608      0.19   11.5   0.1   1   1   0.00045      0.25   11.1   0.1   293   329   146   182   142   188 0.94 -
ID=PSME_00021462     -            449 26794at3193          -            608      0.23   11.2   0.2   1   3    0.0016       0.9    9.2   0.1   161   206   140   182   132   186 0.76 -
ID=PSME_00021462     -            449 26794at3193          -            608      0.23   11.2   0.2   2   3       1.5   8.5e+02   -0.6   0.0   346   366   174   195   165   204 0.79 -
ID=PSME_00021462     -            449 26794at3193          -            608      0.23   11.2   0.2   3   3       7.2     4e+03   -2.8   0.0   555   604   339   392   334   393 0.64 -
ID=PSME_00013807     -            211 26794at3193          -            608      0.32   10.7   0.3   1   2    0.0022       1.2    8.8   0.0   170   201    69   100     8   126 0.86 -
ID=PSME_00013807     -            211 26794at3193          -            608      0.32   10.7   0.3   2   2       2.1   1.1e+03   -1.0   0.0   222   257   154   192   141   198 0.79 -
ID=PSME_00030499     -            401 26794at3193          -            608      0.66    9.7   0.0   1   1    0.0017      0.93    9.2   0.0   231   294   291   356   288   367 0.82 -
#
# Program:         hmmsearch
# Version:         3.2.1 (June 2018)
# Pipeline mode:   SEARCH
# Query file:      /isg/shared/databases/BUSCO/odb10/embryophyta_odb10/hmms/26794at3193.hmm
# Target file:     /labs/Wegrzyn/ConiferGenomes/Psme/analysis/SURF_annotation/analyze_orig_maker/gfacs/filtered/maker_genes.fasta.faa
# Option settings: /usr/local/bin/hmmsearch --domtblout /labs/Wegrzyn/ConiferGenomes/Psme/analysis/SURF_annotation/analyze_orig_maker/busco/maker/run_embryophyta_odb10/hmmer_output/26794at3193.out --cpu 1 /isg/shared/databases/BUSCO/odb10/embryophyta_odb10/hmms/26794at3193.hmm /labs/Wegrzyn/ConiferGenomes/Psme/analysis/SURF_annotation/analyze_orig_maker/gfacs/filtered/maker_genes.fasta.faa 
# Current dir:     /labs/Wegrzyn/ConiferGenomes/Psme/analysis/SURF_annotation/analyze_orig_maker/busco
# Date:            Fri Jul 10 13:47:03 2020
# [ok]
