#                                                                            --- full sequence --- -------------- this domain -------------   hmm coord   ali coord   env coord
# target name        accession   tlen query name           accession   qlen   E-value  score  bias   #  of  c-Evalue  i-Evalue  score  bias  from    to  from    to  from    to  acc description of target
#------------------- ---------- ----- -------------------- ---------- ----- --------- ------ ----- --- --- --------- --------- ------ ----- ----- ----- ----- ----- ----- ----- ---- ---------------------
ID=PSME_00013756     -            826 26860at3193          -            508   8.9e-49  167.9   1.4   1   3   7.3e-36   1.4e-32  114.5   0.1    10   166    44   210    39   219 0.85 -
ID=PSME_00013756     -            826 26860at3193          -            508   8.9e-49  167.9   1.4   2   3   2.4e-13   4.4e-10   40.3   0.0   224   322   250   342   225   356 0.88 -
ID=PSME_00013756     -            826 26860at3193          -            508   8.9e-49  167.9   1.4   3   3   0.00025      0.47   10.5   0.0   444   491   647   696   638   707 0.79 -
ID=PSME_00001342     -            848 26860at3193          -            508   5.6e-47  162.0   0.9   1   3     2e-36   3.8e-33  116.4   0.1     9   155    41   192    36   215 0.85 -
ID=PSME_00001342     -            848 26860at3193          -            508   5.6e-47  162.0   0.9   2   3   2.9e-13   5.5e-10   40.0   0.0   225   323   249   341   223   368 0.84 -
ID=PSME_00001342     -            848 26860at3193          -            508   5.6e-47  162.0   0.9   3   3     0.072   1.4e+02    2.4   0.0   444   467   653   676   641   682 0.87 -
ID=PSME_00017488     -            925 26860at3193          -            508   2.3e-45  156.7   1.2   1   4   7.8e-13   1.5e-09   38.6   0.0     9    66    35    92    29   112 0.89 -
ID=PSME_00017488     -            925 26860at3193          -            508   2.3e-45  156.7   1.2   2   4   5.5e-23     1e-19   72.1   0.0    57   152   133   229   126   244 0.90 -
ID=PSME_00017488     -            925 26860at3193          -            508   2.3e-45  156.7   1.2   3   4   6.4e-11   1.2e-07   32.2   0.1   226   321   290   379   276   387 0.88 -
ID=PSME_00017488     -            925 26860at3193          -            508   2.3e-45  156.7   1.2   4   4   0.00061       1.2    9.2   0.0   444   468   719   743   663   749 0.89 -
ID=PSME_00008386     -            640 26860at3193          -            508     5e-45  155.6   0.1   1   2   2.9e-37   5.5e-34  119.2   0.0     9   154    20   170    14   193 0.86 -
ID=PSME_00008386     -            640 26860at3193          -            508     5e-45  155.6   0.1   2   2   1.9e-11   3.6e-08   34.0   0.0   225   322   228   319   202   330 0.85 -
ID=PSME_00000674     -            865 26860at3193          -            508   5.6e-45  155.4   1.1   1   3   6.4e-38   1.2e-34  121.3   0.3    10   168    39   207    34   214 0.86 -
ID=PSME_00000674     -            865 26860at3193          -            508   5.6e-45  155.4   1.1   2   3   6.5e-10   1.2e-06   28.9   0.0   221   322   243   341   219   370 0.80 -
ID=PSME_00000674     -            865 26860at3193          -            508   5.6e-45  155.4   1.1   3   3      0.11     2e+02    1.8   0.0   444   467   657   680   648   687 0.86 -
ID=PSME_00001343     -            875 26860at3193          -            508   6.2e-45  155.3   1.1   1   3   7.2e-37   1.4e-33  117.9   0.2     9   165    41   207    36   217 0.85 -
ID=PSME_00001343     -            875 26860at3193          -            508   6.2e-45  155.3   1.1   2   3   7.3e-11   1.4e-07   32.1   0.0   225   313   249   331   223   374 0.83 -
ID=PSME_00001343     -            875 26860at3193          -            508   6.2e-45  155.3   1.1   3   3     0.074   1.4e+02    2.3   0.0   444   467   680   703   668   709 0.87 -
ID=PSME_00012046     -            827 26860at3193          -            508   2.7e-42  146.6   4.9   1   4   3.6e-34   6.9e-31  108.9   0.1     9   156    18   170    12   190 0.89 -
ID=PSME_00012046     -            827 26860at3193          -            508   2.7e-42  146.6   4.9   2   4   1.1e-09   2.2e-06   28.1   0.1   225   320   227   315   221   325 0.87 -
ID=PSME_00012046     -            827 26860at3193          -            508   2.7e-42  146.6   4.9   3   4    0.0008       1.5    8.8   0.1   444   467   619   642   600   649 0.86 -
ID=PSME_00012046     -            827 26860at3193          -            508   2.7e-42  146.6   4.9   4   4       1.4   2.6e+03   -1.8   0.0   473   499   675   703   668   709 0.76 -
ID=PSME_00012919     -            336 26860at3193          -            508   4.6e-38  132.6   1.9   1   4   1.4e-30   2.6e-27   97.1   0.5   237   301     1    67     1    76 0.94 -
ID=PSME_00012919     -            336 26860at3193          -            508   4.6e-38  132.6   1.9   2   4      0.74   1.4e+03   -1.0   0.0   325   343   152   170   118   176 0.71 -
ID=PSME_00012919     -            336 26860at3193          -            508   4.6e-38  132.6   1.9   3   4   2.8e-06    0.0053   16.9   0.0   325   365   187   240   184   244 0.72 -
ID=PSME_00012919     -            336 26860at3193          -            508   4.6e-38  132.6   1.9   4   4   1.2e-05     0.023   14.8   0.0   401   418   254   271   247   276 0.87 -
ID=PSME_00010317     -            478 26860at3193          -            508   1.1e-25   91.8   2.6   1   2   2.1e-18     4e-15   56.9   0.3    24   152   143   252   131   275 0.78 -
ID=PSME_00010317     -            478 26860at3193          -            508   1.1e-25   91.8   2.6   2   2   6.8e-11   1.3e-07   32.2   0.1   223   321   298   390   269   399 0.85 -
ID=PSME_00039229     -            303 26860at3193          -            508   7.2e-11   42.9   0.2   1   2    0.0034       6.4    6.8   0.0   134   152    17    35     6    42 0.84 -
ID=PSME_00039229     -            303 26860at3193          -            508   7.2e-11   42.9   0.2   2   2   1.6e-11     3e-08   34.2   0.1   226   321    84   173    51   181 0.87 -
ID=PSME_00049352     -            110 26860at3193          -            508   4.2e-07   30.5   0.1   1   1   2.7e-10   5.2e-07   30.2   0.1   227   308    22    97    12   105 0.86 -
ID=PSME_00010900     -            209 26860at3193          -            508     5e-06   26.9   0.0   1   1   3.4e-09   6.5e-06   26.5   0.0    30    86    47   107    39   113 0.87 -
ID=PSME_00000669     -            432 26860at3193          -            508   4.3e-05   23.8   0.0   1   1   5.7e-08   0.00011   22.5   0.0   266   323    46    96    42   123 0.81 -
ID=PSME_00005883     -            410 26860at3193          -            508   9.3e-05   22.7   0.0   1   1   7.6e-08   0.00014   22.1   0.0   234   321    74   155    49   163 0.78 -
ID=PSME_00047463     -            142 26860at3193          -            508   0.00037   20.8   0.6   1   1   2.4e-07   0.00045   20.5   0.6   226   308    55   131    30   134 0.87 -
ID=PSME_00016254     -            138 26860at3193          -            508   0.00039   20.7   0.6   1   2       1.3   2.5e+03   -1.8   0.0    95   116     3    23     1    58 0.75 -
ID=PSME_00016254     -            138 26860at3193          -            508   0.00039   20.7   0.6   2   2   3.5e-07   0.00067   19.9   0.3   253   309    78   128    59   131 0.77 -
ID=PSME_00006000     -            202 26860at3193          -            508    0.0005   20.3   0.0   1   1   3.4e-07   0.00065   19.9   0.0   444   497    16    74    10    88 0.81 -
ID=PSME_00020979     -            350 26860at3193          -            508     0.001   19.3   0.2   1   1   8.8e-07    0.0017   18.6   0.2   227   321    56   144    43   152 0.86 -
ID=PSME_00046199     -            231 26860at3193          -            508    0.0015   18.7   0.0   1   1     1e-06    0.0019   18.4   0.0   281   351    98   177    69   188 0.67 -
ID=PSME_00020875     -            157 26860at3193          -            508    0.0016   18.7   0.4   1   1   1.1e-06    0.0021   18.2   0.4   226   309    70   147    60   149 0.87 -
ID=PSME_00015354     -            186 26860at3193          -            508    0.0019   18.4   0.5   1   1   1.6e-06     0.003   17.8   0.5   226   308    99   175    83   178 0.80 -
ID=PSME_00020493     -            156 26860at3193          -            508    0.0026   18.0   0.6   1   1   1.8e-06    0.0034   17.6   0.6   226   308    69   145    59   148 0.85 -
ID=PSME_00045383     -            186 26860at3193          -            508    0.0026   18.0   0.4   1   1   1.9e-06    0.0035   17.5   0.4   226   308    99   175    88   178 0.86 -
ID=PSME_00036562     -            153 26860at3193          -            508     0.006   16.8   0.3   1   1   4.1e-06    0.0077   16.4   0.3   254   308    94   142    76   145 0.80 -
ID=PSME_00008387     -            311 26860at3193          -            508    0.0082   16.3   0.0   1   1   7.3e-06     0.014   15.6   0.0   444   468    34    58    21    66 0.88 -
ID=PSME_00045429     -            161 26860at3193          -            508     0.011   15.9   0.4   1   1   7.5e-06     0.014   15.5   0.4   226   306    74   148    62   152 0.82 -
ID=PSME_00020228     -             80 26860at3193          -            508     0.061   13.4   0.0   1   1   3.4e-05     0.064   13.4   0.0   261   308    26    67     6    74 0.67 -
ID=PSME_00014037     -            131 26860at3193          -            508     0.087   12.9   0.0   1   1   6.1e-05      0.12   12.5   0.0   273   322     4    46     1    55 0.76 -
ID=PSME_00050419     -             91 26860at3193          -            508      0.14   12.2   0.1   1   1     9e-05      0.17   12.0   0.1   260   308    39    80    25    83 0.83 -
#
# Program:         hmmsearch
# Version:         3.2.1 (June 2018)
# Pipeline mode:   SEARCH
# Query file:      /isg/shared/databases/BUSCO/odb10/embryophyta_odb10/hmms/26860at3193.hmm
# Target file:     /labs/Wegrzyn/ConiferGenomes/Psme/analysis/SURF_annotation/analyze_orig_maker/gfacs/filtered/maker_genes.fasta.faa
# Option settings: /usr/local/bin/hmmsearch --domtblout /labs/Wegrzyn/ConiferGenomes/Psme/analysis/SURF_annotation/analyze_orig_maker/busco/maker/run_embryophyta_odb10/hmmer_output/26860at3193.out --cpu 1 /isg/shared/databases/BUSCO/odb10/embryophyta_odb10/hmms/26860at3193.hmm /labs/Wegrzyn/ConiferGenomes/Psme/analysis/SURF_annotation/analyze_orig_maker/gfacs/filtered/maker_genes.fasta.faa 
# Current dir:     /labs/Wegrzyn/ConiferGenomes/Psme/analysis/SURF_annotation/analyze_orig_maker/busco
# Date:            Fri Jul 10 13:47:03 2020
# [ok]
