#                                                                            --- full sequence --- -------------- this domain -------------   hmm coord   ali coord   env coord
# target name        accession   tlen query name           accession   qlen   E-value  score  bias   #  of  c-Evalue  i-Evalue  score  bias  from    to  from    to  from    to  acc description of target
#------------------- ---------- ----- -------------------- ---------- ----- --------- ------ ----- --- --- --------- --------- ------ ----- ----- ----- ----- ----- ----- ----- ---- ---------------------
ID=PSME_00018906     -            861 27663at3193          -            556  2.1e-221  738.0   2.6   1   3  1.4e-159  2.5e-155  519.9   0.4     6   355    83   431    79   437 0.98 -
ID=PSME_00018906     -            861 27663at3193          -            556  2.1e-221  738.0   2.6   2   3   2.4e-10   4.4e-06   27.2   0.0   348   385   446   484   434   490 0.86 -
ID=PSME_00018906     -            861 27663at3193          -            556  2.1e-221  738.0   2.6   3   3   1.7e-59   3.2e-55  189.4   0.1   426   555   691   824   631   825 0.87 -
ID=PSME_00037518     -            565 27663at3193          -            556   1.7e-37  130.9   2.5   1   3   2.3e-11   4.1e-07   30.6   0.2   172   319    11   145     6   186 0.75 -
ID=PSME_00037518     -            565 27663at3193          -            556   1.7e-37  130.9   2.5   2   3    0.0037        67    3.5   0.0   349   374   215   240   190   251 0.82 -
ID=PSME_00037518     -            565 27663at3193          -            556   1.7e-37  130.9   2.5   3   3   1.4e-29   2.5e-25   90.8   0.1   432   555   436   560   428   561 0.92 -
ID=PSME_00037517     -            296 27663at3193          -            556   4.5e-19   70.1   0.0   1   1   3.2e-23   5.8e-19   69.7   0.0     7   162    85   245    81   259 0.85 -
#
# Program:         hmmsearch
# Version:         3.2.1 (June 2018)
# Pipeline mode:   SEARCH
# Query file:      /isg/shared/databases/BUSCO/odb10/embryophyta_odb10/hmms/27663at3193.hmm
# Target file:     /labs/Wegrzyn/ConiferGenomes/Psme/analysis/SURF_annotation/analyze_orig_maker/gfacs/filtered/maker_genes.fasta.faa
# Option settings: /usr/local/bin/hmmsearch --domtblout /labs/Wegrzyn/ConiferGenomes/Psme/analysis/SURF_annotation/analyze_orig_maker/busco/maker/run_embryophyta_odb10/hmmer_output/27663at3193.out --cpu 1 /isg/shared/databases/BUSCO/odb10/embryophyta_odb10/hmms/27663at3193.hmm /labs/Wegrzyn/ConiferGenomes/Psme/analysis/SURF_annotation/analyze_orig_maker/gfacs/filtered/maker_genes.fasta.faa 
# Current dir:     /labs/Wegrzyn/ConiferGenomes/Psme/analysis/SURF_annotation/analyze_orig_maker/busco
# Date:            Fri Jul 10 13:47:04 2020
# [ok]
