#                                                                            --- full sequence --- -------------- this domain -------------   hmm coord   ali coord   env coord
# target name        accession   tlen query name           accession   qlen   E-value  score  bias   #  of  c-Evalue  i-Evalue  score  bias  from    to  from    to  from    to  acc description of target
#------------------- ---------- ----- -------------------- ---------- ----- --------- ------ ----- --- --- --------- --------- ------ ----- ----- ----- ----- ----- ----- ----- ---- ---------------------
ID=PSME_00037518     -            565 28171at3193          -            543    4e-165  551.9   8.1   1   3  8.7e-126  1.6e-121  408.0   0.0   160   417     1   297     1   299 0.89 -
ID=PSME_00037518     -            565 28171at3193          -            543    4e-165  551.9   8.1   2   3   3.5e-07    0.0064   16.6   0.1   412   442   380   410   374   419 0.87 -
ID=PSME_00037518     -            565 28171at3193          -            543    4e-165  551.9   8.1   3   3   2.1e-40   3.8e-36  126.2   2.2   444   543   434   562   428   562 0.86 -
ID=PSME_00037517     -            296 28171at3193          -            543   1.6e-71  243.0   0.0   1   1   1.1e-75   1.9e-71  242.7   0.0     1   159    82   245    82   247 0.96 -
ID=PSME_00018906     -            861 28171at3193          -            543   1.9e-45  156.9   0.6   1   2     4e-37   7.3e-33  115.4   0.0     3   373    83   475    81   489 0.80 -
ID=PSME_00018906     -            861 28171at3193          -            543   1.9e-45  156.9   0.6   2   2   3.6e-14   6.5e-10   39.6   0.1   445   527   696   789   683   797 0.84 -
#
# Program:         hmmsearch
# Version:         3.2.1 (June 2018)
# Pipeline mode:   SEARCH
# Query file:      /isg/shared/databases/BUSCO/odb10/embryophyta_odb10/hmms/28171at3193.hmm
# Target file:     /labs/Wegrzyn/ConiferGenomes/Psme/analysis/SURF_annotation/analyze_orig_maker/gfacs/filtered/maker_genes.fasta.faa
# Option settings: /usr/local/bin/hmmsearch --domtblout /labs/Wegrzyn/ConiferGenomes/Psme/analysis/SURF_annotation/analyze_orig_maker/busco/maker/run_embryophyta_odb10/hmmer_output/28171at3193.out --cpu 1 /isg/shared/databases/BUSCO/odb10/embryophyta_odb10/hmms/28171at3193.hmm /labs/Wegrzyn/ConiferGenomes/Psme/analysis/SURF_annotation/analyze_orig_maker/gfacs/filtered/maker_genes.fasta.faa 
# Current dir:     /labs/Wegrzyn/ConiferGenomes/Psme/analysis/SURF_annotation/analyze_orig_maker/busco
# Date:            Fri Jul 10 13:47:06 2020
# [ok]
