#                                                                            --- full sequence --- -------------- this domain -------------   hmm coord   ali coord   env coord
# target name        accession   tlen query name           accession   qlen   E-value  score  bias   #  of  c-Evalue  i-Evalue  score  bias  from    to  from    to  from    to  acc description of target
#------------------- ---------- ----- -------------------- ---------- ----- --------- ------ ----- --- --- --------- --------- ------ ----- ----- ----- ----- ----- ----- ----- ---- ---------------------
ID=PSME_00023179     -            505 30814at3193          -            551  5.7e-156  522.1  10.2   1   2      0.13   2.7e+02    1.6   0.0     1    15    13    27    13    35 0.88 -
ID=PSME_00023179     -            505 30814at3193          -            551  5.7e-156  522.1  10.2   2   2  7.2e-157  1.5e-153  514.2   9.1    16   398    51   505    46   505 0.88 -
ID=PSME_00011668     -            193 30814at3193          -            551   1.4e-41  144.5   1.6   1   1   1.9e-44   3.9e-41  143.1   1.6   406   551    13   192     9   192 0.81 -
ID=PSME_00038544     -            200 30814at3193          -            551   8.2e-36  125.5   0.8   1   1   1.3e-38   2.7e-35  123.8   0.8   417   551    34   199    16   199 0.79 -
ID=PSME_00029910     -            200 30814at3193          -            551   4.1e-35  123.2   1.3   1   1   8.6e-38   1.8e-34  121.1   1.3   417   551    34   199    16   199 0.80 -
ID=PSME_00015160     -            383 30814at3193          -            551   6.2e-32  112.7   5.5   1   3       2.2   4.4e+03   -2.4   0.0   399   423    68    92    66   103 0.81 -
ID=PSME_00015160     -            383 30814at3193          -            551   6.2e-32  112.7   5.5   2   3   5.6e-19   1.1e-15   59.0   2.2   455   528   105   190    99   204 0.84 -
ID=PSME_00015160     -            383 30814at3193          -            551   6.2e-32  112.7   5.5   3   3   2.7e-17   5.4e-14   53.5   0.0   478   551   303   382   290   382 0.88 -
ID=PSME_00035177     -            198 30814at3193          -            551   2.7e-30  107.2   0.9   1   1   4.5e-33   9.1e-30  105.5   0.9   417   549    34   197    16   197 0.78 -
ID=PSME_00034686     -            280 30814at3193          -            551   5.9e-30  106.2   1.6   1   1   6.8e-33   1.4e-29  104.9   1.6   400   551   106   279    99   279 0.77 -
ID=PSME_00048837     -            142 30814at3193          -            551   7.8e-29  102.5   2.4   1   1   1.1e-31   2.2e-28  101.0   2.4   449   551    21   141     3   141 0.86 -
ID=PSME_00007630     -            203 30814at3193          -            551     1e-28  102.0   1.6   1   1   1.3e-31   2.7e-28  100.7   1.6   417   545    27   180     9   183 0.80 -
ID=PSME_00040366     -            142 30814at3193          -            551   1.6e-27   98.1   2.5   1   1   1.9e-30   3.9e-27   96.8   2.5   449   551    21   141     3   141 0.85 -
ID=PSME_00026493     -            183 30814at3193          -            551   1.7e-24   88.1   3.6   1   1   6.5e-27   1.3e-23   85.2   3.6   426   551    40   169    12   169 0.78 -
ID=PSME_00050054     -            164 30814at3193          -            551   6.6e-22   79.6   1.2   1   1   1.6e-23   3.3e-20   74.0   1.2   413   551    34   163     8   163 0.75 -
ID=PSME_00042330     -            290 30814at3193          -            551   8.7e-22   79.2   1.1   1   2       6.3   1.3e+04   -3.9   0.1   400   417    69    86    67    91 0.85 -
ID=PSME_00042330     -            290 30814at3193          -            551   8.7e-22   79.2   1.1   2   2   4.3e-25   8.7e-22   79.2   1.1   455   549   105   217   101   219 0.84 -
ID=PSME_00009831     -            148 30814at3193          -            551   1.3e-18   68.7   4.3   1   1     1e-20   2.1e-17   64.7   4.3   417   528    27   140     9   142 0.77 -
ID=PSME_00039579     -            110 30814at3193          -            551   5.6e-17   63.3   0.1   1   1     3e-20   6.1e-17   63.2   0.1   478   551    30   109    11   109 0.85 -
ID=PSME_00007942     -            187 30814at3193          -            551   1.4e-16   62.0   0.3   1   1     9e-20   1.8e-16   61.6   0.3   454   528     3    76     2    95 0.91 -
ID=PSME_00015455     -            184 30814at3193          -            551   1.7e-16   61.7   0.2   1   1     1e-19     2e-16   61.5   0.2   479   551   105   183    67   183 0.89 -
ID=PSME_00016127     -            139 30814at3193          -            551   2.6e-16   61.1   0.5   1   2      0.57   1.2e+03   -0.4   0.1   400   424     1    25     1    64 0.51 -
ID=PSME_00016127     -            139 30814at3193          -            551   2.6e-16   61.1   0.5   2   2   1.9e-19   3.9e-16   60.5   0.2   478   551    59   138    41   138 0.86 -
ID=PSME_00054794     -            116 30814at3193          -            551     7e-16   59.7   0.0   1   2       1.6   3.3e+03   -1.9   0.0   400   419     1    20     1    38 0.81 -
ID=PSME_00054794     -            116 30814at3193          -            551     7e-16   59.7   0.0   2   2   4.9e-19   9.9e-16   59.2   0.0   479   550    37   114    11   115 0.89 -
ID=PSME_00043830     -            430 30814at3193          -            551   1.3e-15   58.8   0.4   1   1   1.6e-18   3.3e-15   57.4   0.4   480   551   352   429   288   429 0.92 -
ID=PSME_00028742     -            106 30814at3193          -            551   3.7e-15   57.3   0.3   1   1   2.1e-18   4.2e-15   57.1   0.3   478   551    26   105    12   105 0.85 -
ID=PSME_00037285     -            575 30814at3193          -            551   1.7e-14   55.1   0.4   1   1   1.3e-17   2.6e-14   54.5   0.4   463   549   482   574   460   574 0.81 -
ID=PSME_00009832     -            151 30814at3193          -            551   5.3e-13   50.2   0.9   1   1   1.2e-15   2.4e-12   48.0   0.9   454   527     3    88     2    91 0.86 -
ID=PSME_00007563     -            179 30814at3193          -            551   1.1e-08   35.9   0.1   1   1   7.4e-12   1.5e-08   35.5   0.1   477   528     2    53     1    69 0.89 -
ID=PSME_00024363     -            201 30814at3193          -            551   1.6e-08   35.4   0.1   1   1   1.1e-11   2.2e-08   34.9   0.1   475   528    19    72     5    85 0.92 -
ID=PSME_00009833     -            171 30814at3193          -            551   5.3e-08   33.7   0.2   1   1   3.4e-11   6.9e-08   33.3   0.2   478   529   103   154    88   166 0.87 -
ID=PSME_00007564     -            185 30814at3193          -            551   5.8e-08   33.6   0.3   1   1   3.5e-11   7.1e-08   33.3   0.3   479   528     4    53     1    67 0.90 -
#
# Program:         hmmsearch
# Version:         3.2.1 (June 2018)
# Pipeline mode:   SEARCH
# Query file:      /isg/shared/databases/BUSCO/odb10/embryophyta_odb10/hmms/30814at3193.hmm
# Target file:     /labs/Wegrzyn/ConiferGenomes/Psme/analysis/SURF_annotation/analyze_orig_maker/gfacs/filtered/maker_genes.fasta.faa
# Option settings: /usr/local/bin/hmmsearch --domtblout /labs/Wegrzyn/ConiferGenomes/Psme/analysis/SURF_annotation/analyze_orig_maker/busco/maker/run_embryophyta_odb10/hmmer_output/30814at3193.out --cpu 1 /isg/shared/databases/BUSCO/odb10/embryophyta_odb10/hmms/30814at3193.hmm /labs/Wegrzyn/ConiferGenomes/Psme/analysis/SURF_annotation/analyze_orig_maker/gfacs/filtered/maker_genes.fasta.faa 
# Current dir:     /labs/Wegrzyn/ConiferGenomes/Psme/analysis/SURF_annotation/analyze_orig_maker/busco
# Date:            Fri Jul 10 13:47:15 2020
# [ok]
