#                                                                            --- full sequence --- -------------- this domain -------------   hmm coord   ali coord   env coord
# target name        accession   tlen query name           accession   qlen   E-value  score  bias   #  of  c-Evalue  i-Evalue  score  bias  from    to  from    to  from    to  acc description of target
#------------------- ---------- ----- -------------------- ---------- ----- --------- ------ ----- --- --- --------- --------- ------ ----- ----- ----- ----- ----- ----- ----- ---- ---------------------
ID=PSME_00045274     -            923 3082at3193           -            925  1.4e-163  547.4  55.0   1   5   4.2e-52   6.8e-49  167.9   6.6   425   545    74   216    60   220 0.83 -
ID=PSME_00045274     -            923 3082at3193           -            925  1.4e-163  547.4  55.0   2   5   7.1e-26   1.1e-22   81.1  14.4   544   618   263   355   249   413 0.77 -
ID=PSME_00045274     -            923 3082at3193           -            925  1.4e-163  547.4  55.0   3   5   1.2e-48   1.9e-45  156.5   3.0   631   776   479   658   433   679 0.83 -
ID=PSME_00045274     -            923 3082at3193           -            925  1.4e-163  547.4  55.0   4   5   9.5e-43   1.5e-39  137.0   8.5   767   901   680   855   676   862 0.79 -
ID=PSME_00045274     -            923 3082at3193           -            925  1.4e-163  547.4  55.0   5   5    0.0015       2.4    7.3   0.0   882   925   876   920   866   920 0.87 -
ID=PSME_00027994     -            516 3082at3193           -            925  3.1e-135  453.7  16.3   1   2  3.2e-121  5.2e-118  396.6   0.9   170   405    61   306    51   345 0.91 -
ID=PSME_00027994     -            516 3082at3193           -            925  3.1e-135  453.7  16.3   2   2   1.2e-17   1.9e-14   53.9   8.5   425   490   428   515   412   515 0.75 -
ID=PSME_00038422     -            397 3082at3193           -            925    2e-128  431.1   1.5   1   2   2.7e-14   4.3e-11   42.8   0.0   122   166    18    64    12    70 0.89 -
ID=PSME_00038422     -            397 3082at3193           -            925    2e-128  431.1   1.5   2   2  2.7e-118  4.3e-115  387.0   0.7   166   395   148   385   136   391 0.90 -
ID=PSME_00025336     -            346 3082at3193           -            925  2.6e-116  391.0   3.0   1   2   8.4e-30   1.3e-26   94.1   0.0    81   151     1    71     1    92 0.86 -
ID=PSME_00025336     -            346 3082at3193           -            925  2.6e-116  391.0   3.0   2   2   4.4e-89     7e-86  290.3   4.0   171   379   135   339   124   343 0.89 -
ID=PSME_00037627     -            321 3082at3193           -            925  5.9e-109  366.7   1.6   1   2     6e-18   9.7e-15   54.9   0.0   119   167    15    65    11    73 0.91 -
ID=PSME_00037627     -            321 3082at3193           -            925  5.9e-109  366.7   1.6   2   2   2.6e-95   4.2e-92  310.9   0.5   171   339   147   321   136   321 0.92 -
ID=PSME_00043037     -            312 3082at3193           -            925  1.7e-105  355.2   0.6   1   1  1.5e-108  2.4e-105  354.7   0.6   171   382    52   287    40   296 0.87 -
ID=PSME_00052898     -            298 3082at3193           -            925  8.2e-104  349.7   1.0   1   2   1.8e-09   2.9e-06   26.8   0.0   136   167     4    37     1    42 0.83 -
ID=PSME_00052898     -            298 3082at3193           -            925  8.2e-104  349.7   1.0   2   2   1.5e-98   2.5e-95  321.6   0.2   171   335   119   289   109   296 0.91 -
ID=PSME_00006266     -            308 3082at3193           -            925  1.1e-102  345.9   1.1   1   2   2.1e-09   3.3e-06   26.6   0.0   135   167    15    47     8    54 0.83 -
ID=PSME_00006266     -            308 3082at3193           -            925  1.1e-102  345.9   1.1   2   2   1.8e-97   2.9e-94  318.0   0.2   171   335   129   299   118   306 0.91 -
ID=PSME_00002266     -            334 3082at3193           -            925  9.5e-102  342.8   0.3   1   2   1.9e-08     3e-05   23.5   0.0   136   166     8    40     4    45 0.83 -
ID=PSME_00002266     -            334 3082at3193           -            925  9.5e-102  342.8   0.3   2   2   2.7e-97   4.4e-94  317.5   0.1   171   335   123   293   110   309 0.91 -
ID=PSME_00035433     -            313 3082at3193           -            925  1.4e-100  339.0   1.0   1   2   3.4e-09   5.5e-06   25.9   0.0   136   167    14    47     8    54 0.83 -
ID=PSME_00035433     -            313 3082at3193           -            925  1.4e-100  339.0   1.0   2   2   1.5e-95   2.5e-92  311.7   0.3   170   335   128   299   116   310 0.92 -
ID=PSME_00015643     -            297 3082at3193           -            925   6.6e-98  330.1   1.1   1   2     3e-06    0.0048   16.2   0.1   147   167    16    36     2    44 0.76 -
ID=PSME_00015643     -            297 3082at3193           -            925   6.6e-98  330.1   1.1   2   2   6.7e-96   1.1e-92  312.9   0.1   172   338   119   291   107   295 0.91 -
ID=PSME_00047972     -            264 3082at3193           -            925   1.9e-94  318.6   0.5   1   1   1.6e-97   2.5e-94  318.3   0.5   171   334    91   260    79   264 0.92 -
ID=PSME_00012988     -            302 3082at3193           -            925   3.2e-89  301.4   2.6   1   2     1e-09   1.7e-06   27.6   0.1   136   167    14    47     7    54 0.83 -
ID=PSME_00012988     -            302 3082at3193           -            925   3.2e-89  301.4   2.6   2   2   3.9e-84   6.3e-81  273.9   0.3   172   334   130   298   118   302 0.91 -
ID=PSME_00016906     -            401 3082at3193           -            925   8.1e-84  283.5   0.1   1   2   3.7e-17     6e-14   52.3   0.0   119   167    15    65    10    72 0.92 -
ID=PSME_00016906     -            401 3082at3193           -            925   8.1e-84  283.5   0.1   2   2   1.3e-70   2.1e-67  229.2   0.0   171   301   147   279   136   285 0.90 -
ID=PSME_00021679     -            842 3082at3193           -            925   8.1e-83  280.2   1.6   1   2     3e-11   4.8e-08   32.7   0.1   136   166    14    46     8    55 0.82 -
ID=PSME_00021679     -            842 3082at3193           -            925   8.1e-83  280.2   1.6   2   2   7.6e-76   1.2e-72  246.5   0.2   170   301   128   265   116   270 0.92 -
ID=PSME_00040344     -            397 3082at3193           -            925   9.1e-80  270.1   2.4   1   1   7.6e-83   1.2e-79  269.7   2.4   193   321   144   272   126   286 0.94 -
ID=PSME_00050945     -            321 3082at3193           -            925   2.3e-79  268.7   0.5   1   2   4.9e-19   7.8e-16   58.5   0.0   119   167    15    65    11    72 0.91 -
ID=PSME_00050945     -            321 3082at3193           -            925   2.3e-79  268.7   0.5   2   2   2.3e-64   3.7e-61  208.5   0.1   166   287   148   269   139   284 0.90 -
ID=PSME_00039091     -            283 3082at3193           -            925   1.4e-78  266.1   1.9   1   2   1.2e-10   1.9e-07   30.8   0.1   136   167    14    47     8    54 0.83 -
ID=PSME_00039091     -            283 3082at3193           -            925   1.4e-78  266.1   1.9   2   2   3.8e-72   6.1e-69  234.3   0.3   170   308   128   272   118   277 0.89 -
ID=PSME_00023629     -            321 3082at3193           -            925   5.1e-74  251.1   0.2   1   2   1.5e-13   2.4e-10   40.4   0.0   119   158    15    56    10    69 0.87 -
ID=PSME_00023629     -            321 3082at3193           -            925   5.1e-74  251.1   0.2   2   2   1.8e-64   2.9e-61  208.8   0.1   171   287   147   269   132   284 0.88 -
ID=PSME_00013927     -            416 3082at3193           -            925   1.1e-73  250.0   1.4   1   1   1.3e-74   2.2e-71  242.4   1.4   171   336   135   286   124   299 0.90 -
ID=PSME_00010894     -            364 3082at3193           -            925   4.4e-73  248.0   0.3   1   1   3.9e-76   6.4e-73  247.4   0.3   179   304    77   202    56   209 0.92 -
ID=PSME_00007518     -            437 3082at3193           -            925   1.2e-72  246.5   1.6   1   2      0.76   1.2e+03   -1.7   0.1   154   166     2    14     1    18 0.88 -
ID=PSME_00007518     -            437 3082at3193           -            925   1.2e-72  246.5   1.6   2   2   8.1e-76   1.3e-72  246.4   0.2   176   302   102   234    86   239 0.90 -
ID=PSME_00020422     -            278 3082at3193           -            925   4.7e-70  237.9   1.4   1   2   9.7e-17   1.6e-13   50.9   0.1   123   167     4    50     1    57 0.92 -
ID=PSME_00020422     -            278 3082at3193           -            925   4.7e-70  237.9   1.4   2   2   1.2e-57     2e-54  186.2   0.2   213   301    69   157    64   163 0.97 -
ID=PSME_00025359     -            322 3082at3193           -            925   2.4e-69  235.6   1.1   1   2   1.1e-15   1.8e-12   47.4   0.0   119   167    15    65     8    75 0.90 -
ID=PSME_00025359     -            322 3082at3193           -            925   2.4e-69  235.6   1.1   2   2   7.3e-58   1.2e-54  187.0   0.3   170   279   146   261   133   264 0.88 -
ID=PSME_00017601     -            120 3082at3193           -            925   4.2e-55  188.5   0.2   1   1   2.8e-58   4.5e-55  188.4   0.2   236   323     2    89     1   109 0.95 -
ID=PSME_00028036     -            281 3082at3193           -            925   4.3e-35  122.2   0.1   1   1   3.6e-38   5.7e-35  121.8   0.1   241   302     1    62     1    69 0.97 -
ID=PSME_00046303     -            214 3082at3193           -            925   9.9e-35  121.0   0.1   1   1   6.1e-38   9.9e-35  121.0   0.1   241   301     1    61     1   129 0.93 -
ID=PSME_00040810     -            274 3082at3193           -            925   1.7e-33  117.0   0.5   1   2   1.1e-09   1.8e-06   27.5   0.0   136   166    14    46     8    54 0.83 -
ID=PSME_00040810     -            274 3082at3193           -            925   1.7e-33  117.0   0.5   2   2   7.2e-28   1.2e-24   87.7   0.1   171   270   129   237   118   241 0.73 -
ID=PSME_00042782     -            213 3082at3193           -            925   9.3e-33  114.5   5.9   1   3   2.1e-10   3.4e-07   29.9   0.1   136   167     8    41     4    48 0.83 -
ID=PSME_00042782     -            213 3082at3193           -            925   9.3e-33  114.5   5.9   2   3   4.6e-27   7.4e-24   85.1   1.6   171   237   123   195   112   199 0.82 -
ID=PSME_00042782     -            213 3082at3193           -            925   9.3e-33  114.5   5.9   3   3     0.082   1.3e+02    1.5   0.0   321   334   195   208   194   209 0.93 -
ID=PSME_00033417     -            457 3082at3193           -            925   3.1e-29  102.9   0.0   1   1   3.1e-32   5.1e-29  102.2   0.0    63   123   157   217   145   237 0.95 -
ID=PSME_00023326     -            288 3082at3193           -            925   4.4e-24   85.8   0.0   1   1   3.4e-27   5.5e-24   85.5   0.0   237   287     1    51     1    66 0.93 -
ID=PSME_00017696     -            341 3082at3193           -            925   3.4e-23   82.9   3.3   1   3      0.13     2e+02    0.9   0.1   151   167    84   100    66   107 0.83 -
ID=PSME_00017696     -            341 3082at3193           -            925   3.4e-23   82.9   3.3   2   3   3.4e-26   5.4e-23   82.2   0.2   218   265   118   165   112   169 0.96 -
ID=PSME_00017696     -            341 3082at3193           -            925   3.4e-23   82.9   3.3   3   3       3.8   6.2e+03   -4.0   0.0   438   455   299   316   280   319 0.74 -
ID=PSME_00045275     -            127 3082at3193           -            925   4.2e-11   42.9   1.0   1   2   8.3e-08   0.00013   21.3   0.0     2    28    26    53    25    66 0.86 -
ID=PSME_00045275     -            127 3082at3193           -            925   4.2e-11   42.9   1.0   2   2   1.2e-07   0.00019   20.9   0.3    34    56    86   108    58   119 0.85 -
ID=PSME_00037767     -             77 3082at3193           -            925   0.00026   20.4   0.3   1   1   1.8e-07   0.00029   20.2   0.3   236   253     2    19     1    27 0.91 -
#
# Program:         hmmsearch
# Version:         3.2.1 (June 2018)
# Pipeline mode:   SEARCH
# Query file:      /isg/shared/databases/BUSCO/odb10/embryophyta_odb10/hmms/3082at3193.hmm
# Target file:     /labs/Wegrzyn/ConiferGenomes/Psme/analysis/SURF_annotation/analyze_orig_maker/gfacs/filtered/maker_genes.fasta.faa
# Option settings: /usr/local/bin/hmmsearch --domtblout /labs/Wegrzyn/ConiferGenomes/Psme/analysis/SURF_annotation/analyze_orig_maker/busco/maker/run_embryophyta_odb10/hmmer_output/3082at3193.out --cpu 1 /isg/shared/databases/BUSCO/odb10/embryophyta_odb10/hmms/3082at3193.hmm /labs/Wegrzyn/ConiferGenomes/Psme/analysis/SURF_annotation/analyze_orig_maker/gfacs/filtered/maker_genes.fasta.faa 
# Current dir:     /labs/Wegrzyn/ConiferGenomes/Psme/analysis/SURF_annotation/analyze_orig_maker/busco
# Date:            Fri Jul 10 13:50:29 2020
# [ok]
