#                                                                            --- full sequence --- -------------- this domain -------------   hmm coord   ali coord   env coord
# target name        accession   tlen query name           accession   qlen   E-value  score  bias   #  of  c-Evalue  i-Evalue  score  bias  from    to  from    to  from    to  acc description of target
#------------------- ---------- ----- -------------------- ---------- ----- --------- ------ ----- --- --- --------- --------- ------ ----- ----- ----- ----- ----- ----- ----- ---- ---------------------
ID=PSME_00017155     -            408 32854at3193          -            626   1.2e-96  326.1   5.9   1   5   4.7e-13   1.2e-10   42.1   0.1    81   116     2    37     1    42 0.94 -
ID=PSME_00017155     -            408 32854at3193          -            626   1.2e-96  326.1   5.9   2   5   1.4e-63   3.6e-61  209.0   0.0   117   234    88   215    82   221 0.91 -
ID=PSME_00017155     -            408 32854at3193          -            626   1.2e-96  326.1   5.9   3   5     5e-10   1.3e-07   32.1   0.0   232   269   250   287   246   297 0.87 -
ID=PSME_00017155     -            408 32854at3193          -            626   1.2e-96  326.1   5.9   4   5       6.7   1.7e+03   -1.4   0.0   265   281   310   326   303   328 0.85 -
ID=PSME_00017155     -            408 32854at3193          -            626   1.2e-96  326.1   5.9   5   5   4.6e-13   1.2e-10   42.1   0.1   268   322   343   397   332   403 0.87 -
ID=PSME_00017156     -            512 32854at3193          -            626   6.4e-96  323.8   0.1   1   3   9.9e-40   2.5e-37  130.2   0.0   338   466     6   154     3   164 0.81 -
ID=PSME_00017156     -            512 32854at3193          -            626   6.4e-96  323.8   0.1   2   3   1.6e-16   4.1e-14   53.5   0.0   454   500   189   235   168   241 0.92 -
ID=PSME_00017156     -            512 32854at3193          -            626   6.4e-96  323.8   0.1   3   3   1.6e-41   4.1e-39  136.1   0.0   500   614   258   381   255   386 0.92 -
ID=PSME_00008459     -            378 32854at3193          -            626   1.5e-55  190.4   0.3   1   3     9e-41   2.3e-38  133.7   0.0   354   456     5   120     1   130 0.88 -
ID=PSME_00008459     -            378 32854at3193          -            626   1.5e-55  190.4   0.3   2   3   6.9e-16   1.8e-13   51.5   0.0   450   500   164   214   151   229 0.90 -
ID=PSME_00008459     -            378 32854at3193          -            626   1.5e-55  190.4   0.3   3   3      0.73   1.9e+02    1.8   0.0   500   513   237   250   232   254 0.91 -
ID=PSME_00008460     -            488 32854at3193          -            626   3.1e-52  179.5   0.5   1   2   1.4e-05    0.0036   17.4   0.0    87   118   158   194   129   202 0.71 -
ID=PSME_00008460     -            488 32854at3193          -            626   3.1e-52  179.5   0.5   2   2   8.2e-49   2.1e-46  160.2   0.1   117   209   230   326   221   344 0.89 -
ID=PSME_00021564     -           1850 32854at3193          -            626   2.2e-38  133.7   0.0   1   3   1.3e-12   3.3e-10   40.6   0.0   136   224   102   187    87   199 0.85 -
ID=PSME_00021564     -           1850 32854at3193          -            626   2.2e-38  133.7   0.0   2   3   2.4e-14   6.2e-12   46.3   0.0   136   224   690   775   661   787 0.86 -
ID=PSME_00021564     -           1850 32854at3193          -            626   2.2e-38  133.7   0.0   3   3   3.4e-13   8.6e-11   42.6   0.0   136   224  1502  1587  1488  1599 0.85 -
ID=PSME_00013321     -           1615 32854at3193          -            626   1.7e-36  127.5   0.0   1   3   1.3e-11   3.3e-09   37.3   0.0   135   228    90   179    46   273 0.70 -
ID=PSME_00013321     -           1615 32854at3193          -            626   1.7e-36  127.5   0.0   2   3   3.4e-13   8.8e-11   42.5   0.0   135   224   727   813   683   865 0.81 -
ID=PSME_00013321     -           1615 32854at3193          -            626   1.7e-36  127.5   0.0   3   3     2e-13     5e-11   43.3   0.0   136   224  1333  1418  1290  1424 0.85 -
ID=PSME_00025243     -           1587 32854at3193          -            626   8.6e-36  125.1   0.3   1   3   3.4e-14   8.6e-12   45.9   0.0   135   223   138   223    98   229 0.86 -
ID=PSME_00025243     -           1587 32854at3193          -            626   8.6e-36  125.1   0.3   2   3   3.2e-14   8.3e-12   45.9   0.0   136   224   615   698   545   706 0.89 -
ID=PSME_00025243     -           1587 32854at3193          -            626   8.6e-36  125.1   0.3   3   3   4.2e-09   1.1e-06   29.0   0.0   154   224  1103  1169  1101  1244 0.91 -
ID=PSME_00008461     -            141 32854at3193          -            626   1.9e-33  117.4   0.3   1   1   8.5e-36   2.2e-33  117.2   0.3     7    77    53   123    41   126 0.90 -
ID=PSME_00029945     -            208 32854at3193          -            626   7.1e-32  112.2   1.7   1   2   2.2e-06   0.00056   20.1   0.0    91   116     2    27     1    32 0.91 -
ID=PSME_00029945     -            208 32854at3193          -            626   7.1e-32  112.2   1.7   2   2   5.3e-28   1.4e-25   91.5   0.4   116   174    64   122    57   128 0.93 -
ID=PSME_00042066     -           1216 32854at3193          -            626   2.9e-27   97.0   0.3   1   3   2.4e-14   6.2e-12   46.3   0.0   135   223   109   194    69   200 0.86 -
ID=PSME_00042066     -           1216 32854at3193          -            626   2.9e-27   97.0   0.3   2   3   2.7e-14   6.8e-12   46.2   0.0   135   224   699   783   656   791 0.83 -
ID=PSME_00042066     -           1216 32854at3193          -            626   2.9e-27   97.0   0.3   3   3         2   5.1e+02    0.4   0.0   332   481   887  1033   878  1037 0.77 -
ID=PSME_00046982     -            808 32854at3193          -            626   1.1e-23   85.2   0.0   1   2   5.5e-13   1.4e-10   41.9   0.0   135   224   112   198    63   241 0.79 -
ID=PSME_00046982     -            808 32854at3193          -            626   1.1e-23   85.2   0.0   2   2   9.4e-13   2.4e-10   41.1   0.0   141   224   348   427   335   471 0.82 -
ID=PSME_00031144     -            483 32854at3193          -            626   9.8e-14   52.3   0.0   1   1   7.9e-16     2e-13   51.3   0.0   136   223     2    85     1    89 0.91 -
ID=PSME_00039390     -            623 32854at3193          -            626   2.6e-13   50.9   0.0   1   1   2.5e-15   6.4e-13   49.6   0.0   134   224   111   198    63   206 0.75 -
ID=PSME_00017580     -            593 32854at3193          -            626   5.7e-13   49.8   0.0   1   1   3.5e-15   8.9e-13   49.1   0.0    76   224    32   192    26   200 0.73 -
ID=PSME_00028358     -            683 32854at3193          -            626     1e-12   49.0   0.1   1   1   7.3e-15   1.9e-12   48.1   0.1   136   225   166   250   123   504 0.74 -
ID=PSME_00010078     -            355 32854at3193          -            626   1.4e-12   48.4   0.0   1   1   7.9e-15     2e-12   48.0   0.0   136   223   114   198    85   203 0.88 -
ID=PSME_00019854     -            557 32854at3193          -            626   1.5e-12   48.4   0.0   1   1   8.6e-15   2.2e-12   47.8   0.0   101   223   164   289   136   301 0.83 -
ID=PSME_00056434     -            149 32854at3193          -            626   1.6e-12   48.3   0.0   1   1   7.4e-15   1.9e-12   48.0   0.0   135   223     5    90     1    97 0.87 -
ID=PSME_00016589     -            351 32854at3193          -            626   1.9e-12   48.0   0.0   1   1   9.9e-15   2.5e-12   47.6   0.0   136   223   108   192    70   197 0.87 -
ID=PSME_00010076     -           1170 32854at3193          -            626   1.9e-12   48.0   0.0   1   1   1.2e-14   3.1e-12   47.3   0.0   136   224   625   710   581   722 0.86 -
ID=PSME_00009814     -            648 32854at3193          -            626     3e-12   47.4   0.0   1   1   1.8e-14   4.7e-12   46.7   0.0   135   224   136   222    90   229 0.76 -
ID=PSME_00039071     -            164 32854at3193          -            626   3.7e-12   47.1   0.0   1   1   1.8e-14   4.7e-12   46.8   0.0   133   223     3    90     1    97 0.83 -
ID=PSME_00022802     -            474 32854at3193          -            626   4.6e-12   46.8   0.0   1   1   2.6e-14   6.7e-12   46.2   0.0   136   224   110   195    78   204 0.86 -
ID=PSME_00036385     -            451 32854at3193          -            626   5.4e-12   46.5   0.0   1   1   3.6e-14   9.2e-12   45.8   0.0   101   223    69   194    41   201 0.82 -
ID=PSME_00036386     -            479 32854at3193          -            626     6e-12   46.4   0.0   1   1     4e-14     1e-11   45.6   0.0   101   223    69   194    41   201 0.82 -
ID=PSME_00019694     -            342 32854at3193          -            626   8.2e-12   45.9   0.0   1   1   4.7e-14   1.2e-11   45.4   0.0   137   224    87   171    81   178 0.82 -
ID=PSME_00017577     -            628 32854at3193          -            626   9.4e-12   45.7   0.0   1   1   5.4e-14   1.4e-11   45.2   0.0   135   224   120   206    65   217 0.83 -
ID=PSME_00004851     -            624 32854at3193          -            626   1.3e-11   45.3   0.0   1   1   9.3e-14   2.4e-11   44.4   0.0   135   224   113   199    67   205 0.77 -
ID=PSME_00031893     -            618 32854at3193          -            626   1.7e-11   44.9   0.0   1   1     1e-13   2.6e-11   44.3   0.0   136   223   110   194    81   199 0.87 -
ID=PSME_00016586     -            565 32854at3193          -            626   2.1e-11   44.6   0.0   1   1   1.4e-13   3.5e-11   43.9   0.0   141   223   121   199    90   204 0.86 -
ID=PSME_00048973     -            617 32854at3193          -            626   2.3e-11   44.5   0.0   1   1   1.6e-13   4.2e-11   43.6   0.0   136   224   108   193    86   199 0.86 -
ID=PSME_00013324     -            618 32854at3193          -            626   2.8e-11   44.2   0.0   1   1   1.7e-13   4.3e-11   43.6   0.0   136   224   110   195    69   202 0.88 -
ID=PSME_00017076     -            264 32854at3193          -            626   3.1e-11   44.0   0.0   1   1   1.9e-13   4.8e-11   43.4   0.0   147   223    31   103    23   109 0.91 -
ID=PSME_00017578     -            619 32854at3193          -            626   3.2e-11   44.0   0.0   1   1     2e-13     5e-11   43.3   0.0   136   224   112   197    68   206 0.85 -
ID=PSME_00003541     -            626 32854at3193          -            626   3.8e-11   43.7   0.0   1   1   2.2e-13   5.6e-11   43.2   0.0   141   223   117   195    91   200 0.88 -
ID=PSME_00003544     -            621 32854at3193          -            626   4.6e-11   43.5   0.0   1   1   2.7e-13     7e-11   42.9   0.0   141   223   117   195    91   200 0.89 -
ID=PSME_00036060     -            149 32854at3193          -            626   5.9e-11   43.1   0.0   1   1   2.7e-13     7e-11   42.9   0.0   134   223     4    90     1    97 0.83 -
ID=PSME_00017116     -            587 32854at3193          -            626   6.7e-11   42.9   0.0   1   1   3.5e-13     9e-11   42.5   0.0   111   225   102   220    81   231 0.79 -
ID=PSME_00050692     -            383 32854at3193          -            626   8.8e-11   42.5   0.0   1   1   5.1e-13   1.3e-10   42.0   0.0   141   223   113   191    97   197 0.84 -
ID=PSME_00056328     -             83 32854at3193          -            626   1.1e-10   42.2   0.0   1   1   4.7e-13   1.2e-10   42.1   0.0   134   209    10    82     5    82 0.83 -
ID=PSME_00039391     -            618 32854at3193          -            626   1.2e-10   42.0   0.0   1   1     9e-13   2.3e-10   41.2   0.0   136   223   112   196    92   205 0.85 -
ID=PSME_00048418     -            619 32854at3193          -            626   1.3e-10   42.0   0.0   1   1     8e-13     2e-10   41.3   0.0   135   223   111   196    66   202 0.81 -
ID=PSME_00031010     -            406 32854at3193          -            626   1.3e-10   42.0   0.0   1   1   6.8e-13   1.7e-10   41.6   0.0   135   223   134   219    97   227 0.89 -
ID=PSME_00040265     -            178 32854at3193          -            626   1.6e-10   41.7   0.0   1   1   8.4e-13   2.1e-10   41.3   0.0   135   223     8    93     4    98 0.84 -
ID=PSME_00037904     -            338 32854at3193          -            626   1.9e-10   41.5   0.0   1   1   1.1e-12   2.8e-10   40.9   0.0   147   224   116   189   102   196 0.89 -
ID=PSME_00046405     -            540 32854at3193          -            626   2.1e-10   41.3   0.0   1   1   1.3e-12   3.5e-10   40.6   0.0   114   223   104   217    92   224 0.85 -
ID=PSME_00050006     -            352 32854at3193          -            626   3.1e-10   40.7   0.0   1   1   1.7e-12   4.5e-10   40.2   0.0   134   223    54   140    44   146 0.88 -
ID=PSME_00049013     -            375 32854at3193          -            626   3.5e-10   40.6   0.0   1   1   1.9e-12     5e-10   40.0   0.0   133   225    45   136    26   139 0.84 -
ID=PSME_00033222     -            373 32854at3193          -            626   3.7e-10   40.5   0.0   1   1   1.9e-12   4.9e-10   40.1   0.0   135   223   111   196    67   202 0.85 -
ID=PSME_00056000     -            298 32854at3193          -            626   3.7e-10   40.5   0.0   1   1   1.9e-12   4.9e-10   40.1   0.0   135   223    68   153    16   159 0.80 -
ID=PSME_00050773     -            382 32854at3193          -            626   3.8e-10   40.4   0.0   1   1     2e-12   5.1e-10   40.0   0.0   135   223   111   196    68   202 0.85 -
ID=PSME_00035244     -            620 32854at3193          -            626   4.1e-10   40.3   0.0   1   1   2.5e-12   6.4e-10   39.7   0.0   100   223    97   221    87   229 0.74 -
ID=PSME_00054237     -            381 32854at3193          -            626   4.3e-10   40.3   0.0   1   1   2.2e-12   5.6e-10   39.9   0.0   135   223   109   194    66   200 0.85 -
ID=PSME_00028377     -            624 32854at3193          -            626   4.7e-10   40.1   0.0   1   1   2.8e-12   7.3e-10   39.5   0.0   135   223   116   201    72   207 0.84 -
ID=PSME_00037067     -            408 32854at3193          -            626   4.9e-10   40.1   0.0   1   1   2.7e-12   6.8e-10   39.6   0.0   135   223   111   196    78   202 0.89 -
ID=PSME_00038365     -            339 32854at3193          -            626   5.2e-10   40.0   0.0   1   1   2.8e-12   7.2e-10   39.5   0.0   135   223   109   194    81   200 0.87 -
ID=PSME_00050085     -            355 32854at3193          -            626   5.5e-10   39.9   0.0   1   1   3.2e-12   8.1e-10   39.4   0.0   135   223    32   117    21   123 0.85 -
ID=PSME_00039434     -            353 32854at3193          -            626   5.8e-10   39.8   0.0   1   1     3e-12   7.6e-10   39.4   0.0   135   223    59   144    16   150 0.85 -
ID=PSME_00016196     -            370 32854at3193          -            626   5.9e-10   39.8   0.0   1   1   3.1e-12   7.9e-10   39.4   0.0   135   223   111   196    63   202 0.85 -
ID=PSME_00049141     -            357 32854at3193          -            626   7.2e-10   39.5   0.0   1   1   4.1e-12     1e-09   39.0   0.0   136   223   128   212   123   218 0.85 -
ID=PSME_00054919     -            338 32854at3193          -            626   7.3e-10   39.5   0.0   1   1   3.9e-12     1e-09   39.0   0.0   135   223   109   194    67   200 0.87 -
ID=PSME_00046408     -            383 32854at3193          -            626   7.5e-10   39.5   0.0   1   1   3.9e-12     1e-09   39.0   0.0   135   223    95   180    58   187 0.87 -
ID=PSME_00013323     -            610 32854at3193          -            626   7.8e-10   39.4   0.0   1   1   4.6e-12   1.2e-09   38.8   0.0   135   224   110   206    73   214 0.83 -
ID=PSME_00014382     -            192 32854at3193          -            626   7.9e-10   39.4   0.0   1   1   4.1e-12   1.1e-09   39.0   0.0   139   223    13   103     7   108 0.85 -
ID=PSME_00006285     -            304 32854at3193          -            626   8.1e-10   39.3   0.0   1   1     4e-12     1e-09   39.0   0.0   135   223   135   220    93   226 0.86 -
ID=PSME_00014388     -            408 32854at3193          -            626   8.4e-10   39.3   0.0   1   1   4.4e-12   1.1e-09   38.9   0.0   135   223   111   196    71   203 0.87 -
ID=PSME_00025242     -            413 32854at3193          -            626   8.7e-10   39.2   0.0   1   1   4.6e-12   1.2e-09   38.8   0.0   135   223   115   200    70   206 0.83 -
ID=PSME_00028376     -            504 32854at3193          -            626   8.8e-10   39.2   0.0   1   1   4.8e-12   1.2e-09   38.8   0.0   135   223   111   196    68   202 0.84 -
ID=PSME_00016587     -            608 32854at3193          -            626   9.6e-10   39.1   0.0   1   1   5.8e-12   1.5e-09   38.5   0.0   136   223   101   185    79   190 0.88 -
ID=PSME_00017766     -            388 32854at3193          -            626   1.1e-09   39.0   0.0   1   1   5.6e-12   1.4e-09   38.5   0.0   135   223   104   189    61   196 0.86 -
ID=PSME_00004282     -            389 32854at3193          -            626   1.2e-09   38.7   0.0   1   1   6.4e-12   1.7e-09   38.3   0.0   135   223   138   223    96   229 0.87 -
ID=PSME_00045962     -            411 32854at3193          -            626   1.3e-09   38.7   0.0   1   1     7e-12   1.8e-09   38.2   0.0   101   223    71   196    60   202 0.74 -
ID=PSME_00048219     -            391 32854at3193          -            626   1.6e-09   38.3   0.0   1   1   8.7e-12   2.2e-09   37.9   0.0   135   223    69   154    26   160 0.85 -
ID=PSME_00043501     -            149 32854at3193          -            626   1.7e-09   38.3   0.0   1   1   8.1e-12   2.1e-09   38.0   0.0   134   223     4    90     1    97 0.83 -
ID=PSME_00049804     -            447 32854at3193          -            626   1.8e-09   38.2   0.0   1   1     1e-11   2.6e-09   37.7   0.0   135   223   134   219   108   225 0.87 -
ID=PSME_00010079     -            615 32854at3193          -            626   1.9e-09   38.2   0.0   1   1   9.5e-12   2.4e-09   37.8   0.0   135   228   109   198    32   309 0.76 -
ID=PSME_00011081     -            366 32854at3193          -            626     2e-09   38.0   0.1   1   1   1.1e-11   2.9e-09   37.5   0.1   141   223    12   100     4   105 0.87 -
ID=PSME_00017579     -            650 32854at3193          -            626   2.1e-09   38.0   0.0   1   1   1.2e-11   3.1e-09   37.4   0.0   141   223   157   245    71   250 0.86 -
ID=PSME_00046388     -            635 32854at3193          -            626   2.2e-09   37.9   0.0   1   1   1.2e-11   3.1e-09   37.4   0.0   135   225   130   217    84   309 0.74 -
ID=PSME_00019936     -            298 32854at3193          -            626   2.5e-09   37.7   0.0   1   1   1.4e-11   3.5e-09   37.3   0.0   137   223     3    86     1    92 0.85 -
ID=PSME_00048452     -            286 32854at3193          -            626   2.6e-09   37.7   0.0   1   1   1.3e-11   3.2e-09   37.4   0.0   135   223   111   196    67   202 0.84 -
ID=PSME_00009813     -            678 32854at3193          -            626   2.8e-09   37.6   0.0   1   1   1.6e-11   4.1e-09   37.0   0.0   146   224   200   274   111   280 0.82 -
ID=PSME_00034975     -            675 32854at3193          -            626     3e-09   37.5   0.0   1   1   1.8e-11   4.5e-09   36.9   0.0   139   223   200   283   172   288 0.89 -
ID=PSME_00011206     -            331 32854at3193          -            626   3.1e-09   37.4   0.0   1   1   1.6e-11     4e-09   37.1   0.0   135   223   109   194    66   200 0.85 -
ID=PSME_00003800     -            338 32854at3193          -            626   3.6e-09   37.2   0.0   1   1   1.8e-11   4.6e-09   36.9   0.0   135   228   104   197    32   202 0.86 -
ID=PSME_00008896     -            143 32854at3193          -            626   5.4e-09   36.6   0.0   1   1   2.6e-11   6.7e-09   36.3   0.0   134   223    10    96     6   104 0.85 -
ID=PSME_00035487     -            294 32854at3193          -            626   5.5e-09   36.6   0.1   1   1   3.5e-11     9e-09   35.9   0.1   141   223    38   126    32   130 0.87 -
ID=PSME_00052912     -            382 32854at3193          -            626   5.9e-09   36.5   0.0   1   1   3.2e-11   8.1e-09   36.1   0.0   135   223   111   196    67   202 0.85 -
ID=PSME_00054488     -            410 32854at3193          -            626     6e-09   36.5   0.0   1   1   3.2e-11   8.2e-09   36.0   0.0   135   223   138   223    99   229 0.86 -
ID=PSME_00016738     -            401 32854at3193          -            626   6.5e-09   36.4   0.0   1   1   3.8e-11   9.7e-09   35.8   0.0   135   223   111   196    70   202 0.87 -
ID=PSME_00019296     -            337 32854at3193          -            626   8.2e-09   36.0   0.0   1   1   4.1e-11     1e-08   35.7   0.0   135   223   107   192    64   198 0.85 -
ID=PSME_00046241     -            455 32854at3193          -            626   9.3e-09   35.8   0.0   1   1   5.5e-11   1.4e-08   35.3   0.0   135   223   104   189    93   195 0.86 -
ID=PSME_00044214     -            392 32854at3193          -            626   9.6e-09   35.8   0.0   1   1     5e-11   1.3e-08   35.4   0.0   135   223   111   196    68   202 0.85 -
ID=PSME_00045875     -            427 32854at3193          -            626     1e-08   35.8   0.0   1   1     5e-11   1.3e-08   35.4   0.0   135   223   130   215    88   224 0.87 -
ID=PSME_00046145     -            371 32854at3193          -            626   1.3e-08   35.4   0.0   1   1   6.9e-11   1.8e-08   34.9   0.0   135   223   104   191    68   197 0.84 -
ID=PSME_00030667     -            419 32854at3193          -            626   1.3e-08   35.3   0.0   1   1   7.3e-11   1.9e-08   34.9   0.0   135   222   111   195    68   202 0.83 -
ID=PSME_00017119     -            417 32854at3193          -            626     2e-08   34.8   0.0   1   1   1.1e-10   2.8e-08   34.3   0.0   140   224   124   207    88   220 0.84 -
ID=PSME_00009811     -            607 32854at3193          -            626     2e-08   34.7   0.0   1   1   1.2e-10     3e-08   34.2   0.0   121   224   105   205    39   214 0.69 -
ID=PSME_00051135     -            405 32854at3193          -            626   2.1e-08   34.7   0.0   1   1   1.1e-10   2.9e-08   34.2   0.0   135   223   109   194    66   200 0.85 -
ID=PSME_00045985     -            507 32854at3193          -            626   2.4e-08   34.5   0.0   1   1   1.4e-10   3.5e-08   33.9   0.0   135   223   111   196    63   202 0.81 -
ID=PSME_00003546     -            580 32854at3193          -            626   2.6e-08   34.4   0.0   1   1   1.5e-10     4e-08   33.8   0.0   136   206   112   179    93   197 0.86 -
ID=PSME_00053867     -            411 32854at3193          -            626   4.3e-08   33.6   0.0   1   1   2.3e-10   5.8e-08   33.2   0.0   135   223   138   223    95   229 0.84 -
ID=PSME_00028666     -            465 32854at3193          -            626   4.8e-08   33.5   0.0   1   1   2.7e-10   6.9e-08   33.0   0.0   142   223   188   268   162   277 0.87 -
ID=PSME_00009169     -            469 32854at3193          -            626   5.6e-08   33.3   0.0   1   1   3.1e-10     8e-08   32.8   0.0   140   222   283   366   274   377 0.79 -
ID=PSME_00045925     -            303 32854at3193          -            626   6.2e-08   33.1   0.0   1   1   3.1e-10   8.1e-08   32.8   0.0   134   215   202   282   154   290 0.79 -
ID=PSME_00041829     -            375 32854at3193          -            626   6.8e-08   33.0   0.0   1   1   3.9e-10   9.9e-08   32.5   0.0   142   223    93   170    74   176 0.87 -
ID=PSME_00002263     -            401 32854at3193          -            626   7.5e-08   32.9   0.0   1   1   4.4e-10   1.1e-07   32.3   0.0   152   223    49   119    22   125 0.86 -
ID=PSME_00045837     -            446 32854at3193          -            626     9e-08   32.6   0.0   1   1   5.4e-10   1.4e-07   32.0   0.0   133   223   107   194    59   200 0.76 -
ID=PSME_00048818     -            379 32854at3193          -            626   9.6e-08   32.5   0.0   1   1   5.4e-10   1.4e-07   32.0   0.0   133   223    47   135    29   141 0.83 -
ID=PSME_00016840     -            349 32854at3193          -            626   1.1e-07   32.3   0.0   1   1   5.6e-10   1.4e-07   31.9   0.0   135   209   249   322   211   329 0.84 -
ID=PSME_00045660     -            362 32854at3193          -            626   1.2e-07   32.2   0.0   1   1   6.7e-10   1.7e-07   31.7   0.0   143   211    69   134    55   145 0.81 -
ID=PSME_00035488     -            219 32854at3193          -            626   1.5e-07   31.9   0.1   1   1   9.3e-10   2.4e-07   31.2   0.1   142   223    16   103     9   108 0.85 -
ID=PSME_00005477     -            205 32854at3193          -            626   2.8e-07   31.0   0.0   1   1   1.2e-09   3.1e-07   30.8   0.0   116   233    77   191    20   196 0.72 -
ID=PSME_00001173     -            502 32854at3193          -            626   2.9e-07   30.9   0.0   1   1   1.6e-09     4e-07   30.4   0.0   140   222   298   381   289   395 0.76 -
ID=PSME_00009170     -            645 32854at3193          -            626   2.9e-07   30.9   0.0   1   1   1.7e-09   4.3e-07   30.4   0.0   140   222   273   356   267   367 0.83 -
ID=PSME_00049489     -            294 32854at3193          -            626   4.2e-07   30.4   0.0   1   2       3.3   8.4e+02   -0.3   0.0    88   173    27   113    22   117 0.72 -
ID=PSME_00049489     -            294 32854at3193          -            626   4.2e-07   30.4   0.0   2   2   4.1e-09     1e-06   29.1   0.0   140   222   115   198    62   212 0.75 -
ID=PSME_00030360     -            202 32854at3193          -            626   8.6e-07   29.3   0.0   1   1   4.2e-09   1.1e-06   29.0   0.0   140   222    89   172    82   183 0.82 -
ID=PSME_00009171     -            688 32854at3193          -            626   8.8e-07   29.3   0.0   1   1     5e-09   1.3e-06   28.8   0.0   140   222   267   350   261   361 0.85 -
ID=PSME_00023404     -            276 32854at3193          -            626   1.1e-06   29.1   0.0   1   1   5.7e-09   1.5e-06   28.6   0.0   143   210   195   261   190   269 0.86 -
ID=PSME_00009807     -            505 32854at3193          -            626   2.3e-06   27.9   0.0   1   1   1.3e-08   3.4e-06   27.4   0.0   139   209   409   478   382   484 0.86 -
ID=PSME_00000351     -            177 32854at3193          -            626     3e-06   27.6   0.0   1   1   1.5e-08   3.7e-06   27.3   0.0   136   209    58   124    33   138 0.84 -
ID=PSME_00048732     -            404 32854at3193          -            626   3.1e-06   27.5   0.0   1   1   1.8e-08   4.6e-06   27.0   0.0   140   225   121   206    93   211 0.86 -
ID=PSME_00032624     -            109 32854at3193          -            626   3.4e-06   27.4   0.0   1   1   1.4e-08   3.7e-06   27.3   0.0   139   211     9    80     1    90 0.85 -
ID=PSME_00026393     -            227 32854at3193          -            626   3.5e-06   27.3   0.0   1   1   1.9e-08     5e-06   26.8   0.0   136   209    63   129    53   140 0.84 -
ID=PSME_00032186     -             72 32854at3193          -            626   4.7e-06   26.9   0.0   1   1     2e-08   5.1e-06   26.8   0.0   139   206     4    70     2    71 0.88 -
ID=PSME_00050880     -            721 32854at3193          -            626   5.3e-06   26.7   0.0   1   2   0.00025     0.065   13.2   0.0   136   204   325   401   310   424 0.79 -
ID=PSME_00050880     -            721 32854at3193          -            626   5.3e-06   26.7   0.0   2   2   0.00099      0.25   11.3   0.0   136   204   623   699   608   705 0.76 -
ID=PSME_00021864     -            367 32854at3193          -            626   5.4e-06   26.7   0.0   1   1   3.1e-08   7.8e-06   26.2   0.0   138   223   118   202   111   209 0.86 -
ID=PSME_00013655     -            408 32854at3193          -            626   5.8e-06   26.6   0.0   1   1   3.1e-08     8e-06   26.2   0.0   133   196   109   169    58   174 0.73 -
ID=PSME_00047168     -            475 32854at3193          -            626   6.2e-06   26.5   0.0   1   1   3.4e-08   8.7e-06   26.0   0.0   136   223   188   274   164   288 0.85 -
ID=PSME_00038745     -            235 32854at3193          -            626   6.6e-06   26.4   0.0   1   1   3.6e-08   9.3e-06   25.9   0.0   148   223     1    75     1    83 0.87 -
ID=PSME_00001997     -             95 32854at3193          -            626   8.7e-06   26.0   0.0   1   1   3.9e-08   9.9e-06   25.8   0.0    99   192     4    94     2    94 0.79 -
ID=PSME_00005766     -            327 32854at3193          -            626     9e-06   26.0   0.0   1   1   3.8e-08   9.7e-06   25.9   0.0   117   222   140   244    45   280 0.69 -
ID=PSME_00014394     -            232 32854at3193          -            626   1.3e-05   25.5   0.0   1   1     7e-08   1.8e-05   25.0   0.0   155   223     1    68     1    78 0.91 -
ID=PSME_00009305     -            178 32854at3193          -            626   1.7e-05   25.1   0.2   1   1     9e-08   2.3e-05   24.6   0.2   151   209    88   143    83   159 0.83 -
ID=PSME_00006667     -            503 32854at3193          -            626   1.7e-05   25.0   0.0   1   1   9.3e-08   2.4e-05   24.6   0.0   142   222   299   380   288   392 0.76 -
ID=PSME_00009168     -            533 32854at3193          -            626   1.8e-05   25.0   0.0   1   1   9.9e-08   2.5e-05   24.5   0.0   140   222   334   417   322   430 0.75 -
ID=PSME_00002880     -            583 32854at3193          -            626   2.2e-05   24.7   0.0   1   1   1.2e-07   3.1e-05   24.2   0.0   133   221   356   444   338   448 0.73 -
ID=PSME_00036320     -            104 32854at3193          -            626   2.3e-05   24.7   0.0   1   1   1.1e-07   2.7e-05   24.4   0.0   143   209     8    73     3    79 0.86 -
ID=PSME_00050016     -            424 32854at3193          -            626   2.6e-05   24.4   0.0   1   1   1.4e-07   3.7e-05   24.0   0.0   144   222   311   390   300   403 0.75 -
ID=PSME_00025084     -            345 32854at3193          -            626   3.3e-05   24.1   0.0   1   1   1.7e-07   4.5e-05   23.7   0.0   136   209   242   314   204   320 0.83 -
ID=PSME_00057109     -            513 32854at3193          -            626   3.7e-05   24.0   0.0   1   1     2e-07     5e-05   23.5   0.0   128   205   279   364   253   383 0.74 -
ID=PSME_00044279     -            157 32854at3193          -            626   3.8e-05   23.9   0.0   1   1   1.9e-07     5e-05   23.5   0.0   155   223     1    68     1    77 0.88 -
ID=PSME_00051630     -            253 32854at3193          -            626   4.2e-05   23.8   0.0   1   1   2.5e-07   6.5e-05   23.2   0.0   139   209     4    73     2    78 0.86 -
ID=PSME_00056917     -            523 32854at3193          -            626   5.2e-05   23.5   0.0   1   1     3e-07   7.6e-05   22.9   0.0   135   205   291   369   276   388 0.76 -
ID=PSME_00027904     -            513 32854at3193          -            626   5.4e-05   23.4   0.0   1   1   2.9e-07   7.4e-05   23.0   0.0   135   205   286   364   270   383 0.77 -
ID=PSME_00032097     -            290 32854at3193          -            626   7.1e-05   23.0   0.0   1   1   3.8e-07   9.8e-05   22.6   0.0   154   223   107   172    96   178 0.85 -
ID=PSME_00026784     -             86 32854at3193          -            626   7.7e-05   22.9   0.0   1   1   3.1e-07   7.9e-05   22.9   0.0   155   227     1    73     1    83 0.84 -
ID=PSME_00043166     -            538 32854at3193          -            626   9.8e-05   22.6   0.0   1   1   5.3e-07   0.00014   22.1   0.0   136   206   285   363   272   393 0.72 -
ID=PSME_00039633     -            151 32854at3193          -            626   0.00011   22.4   0.0   1   1   5.2e-07   0.00013   22.1   0.0   139   195    93   148    81   150 0.85 -
ID=PSME_00056592     -            401 32854at3193          -            626   0.00014   22.1   0.0   1   1   7.7e-07    0.0002   21.6   0.0   135   199   229   297   220   324 0.77 -
ID=PSME_00008435     -            298 32854at3193          -            626   0.00014   22.1   0.0   1   1   7.1e-07   0.00018   21.7   0.0   134   204   139   213   127   229 0.83 -
ID=PSME_00057176     -            522 32854at3193          -            626   0.00019   21.6   0.0   1   1   1.1e-06   0.00027   21.1   0.0   135   205   290   368   275   387 0.76 -
ID=PSME_00023907     -            598 32854at3193          -            626   0.00025   21.2   0.0   1   1   1.4e-06   0.00037   20.7   0.0   156   223   528   592   521   596 0.86 -
ID=PSME_00043164     -            559 32854at3193          -            626    0.0003   20.9   0.0   1   1   1.6e-06   0.00041   20.5   0.0   135   209   306   388   293   416 0.69 -
ID=PSME_00056550     -            424 32854at3193          -            626   0.00032   20.9   0.0   1   1   1.7e-06   0.00043   20.5   0.0   146   199   262   316   235   339 0.77 -
ID=PSME_00056768     -            464 32854at3193          -            626   0.00039   20.6   0.0   1   1   2.1e-06   0.00053   20.2   0.0   122   205   229   316   200   337 0.72 -
ID=PSME_00016725     -            217 32854at3193          -            626   0.00041   20.5   0.0   1   1   2.1e-06   0.00053   20.1   0.0   136   206   112   179   104   190 0.77 -
ID=PSME_00052255     -            438 32854at3193          -            626    0.0005   20.2   0.0   1   1   2.7e-06   0.00069   19.8   0.0   145   204   274   334   248   352 0.77 -
ID=PSME_00007368     -            386 32854at3193          -            626   0.00073   19.7   0.0   1   1     4e-06     0.001   19.2   0.0   144   202   193   254   180   271 0.79 -
ID=PSME_00007369     -            423 32854at3193          -            626   0.00081   19.5   0.0   1   1   4.2e-06    0.0011   19.1   0.0   138   202   225   292   202   309 0.82 -
ID=PSME_00057171     -            375 32854at3193          -            626   0.00093   19.3   0.0   1   1     5e-06    0.0013   18.9   0.0   136   199   292   363   274   371 0.75 -
ID=PSME_00054288     -            431 32854at3193          -            626    0.0012   19.0   0.0   1   1   5.9e-06    0.0015   18.6   0.0   102   203   160   265   151   286 0.75 -
ID=PSME_00056842     -            423 32854at3193          -            626    0.0015   18.7   0.0   1   1   7.9e-06     0.002   18.2   0.0   122   198   213   286   199   292 0.80 -
ID=PSME_00056318     -            549 32854at3193          -            626    0.0015   18.7   0.0   1   1   7.6e-06     0.002   18.3   0.0   145   203   313   376   291   409 0.71 -
ID=PSME_00056996     -            118 32854at3193          -            626    0.0016   18.6   0.0   1   1   6.9e-06    0.0018   18.4   0.0   174   223    10    59     1    67 0.86 -
ID=PSME_00006262     -            287 32854at3193          -            626    0.0017   18.5   0.0   1   2       1.8   4.5e+02    0.6   0.0   331   424   114   210   107   217 0.73 -
ID=PSME_00006262     -            287 32854at3193          -            626    0.0017   18.5   0.0   2   2   4.4e-05     0.011   15.7   0.0   148   196   235   284   220   286 0.88 -
ID=PSME_00052254     -            407 32854at3193          -            626    0.0019   18.3   0.0   1   1     1e-05    0.0027   17.8   0.0   136   200   259   327   244   346 0.79 -
ID=PSME_00045754     -            489 32854at3193          -            626    0.0019   18.3   0.0   1   1     1e-05    0.0026   17.8   0.0   136   199   287   357   267   364 0.81 -
ID=PSME_00030104     -            222 32854at3193          -            626     0.002   18.2   0.0   1   1     1e-05    0.0026   17.8   0.0   146   200   167   217   156   221 0.80 -
ID=PSME_00007319     -            393 32854at3193          -            626    0.0021   18.2   0.0   1   1   1.1e-05    0.0028   17.7   0.0   135   198   244   311   230   332 0.79 -
ID=PSME_00020789     -            413 32854at3193          -            626    0.0021   18.2   0.0   1   1   1.1e-05    0.0029   17.7   0.0   135   211   290   373   277   402 0.67 -
ID=PSME_00005301     -            467 32854at3193          -            626    0.0022   18.1   0.0   1   1   1.2e-05    0.0031   17.6   0.0   136   204   295   370   282   388 0.79 -
ID=PSME_00043872     -            430 32854at3193          -            626    0.0023   18.0   0.0   1   1   1.2e-05    0.0031   17.6   0.0   126   198   222   291   207   312 0.81 -
ID=PSME_00015357     -            392 32854at3193          -            626    0.0023   18.0   0.0   1   1   1.3e-05    0.0034   17.5   0.0   133   196   323   385   289   390 0.78 -
ID=PSME_00027299     -            564 32854at3193          -            626    0.0023   18.0   0.0   1   1   1.3e-05    0.0032   17.6   0.0   138   200   352   414   337   465 0.84 -
ID=PSME_00017583     -            426 32854at3193          -            626    0.0026   17.8   0.0   1   1   1.4e-05    0.0037   17.4   0.0   136   200   256   324   242   345 0.76 -
ID=PSME_00056731     -            427 32854at3193          -            626    0.0029   17.7   0.0   1   1   1.7e-05    0.0043   17.1   0.0   136   198   257   323   247   345 0.76 -
ID=PSME_00052577     -            265 32854at3193          -            626    0.0032   17.6   0.0   1   1   1.6e-05    0.0042   17.2   0.0   157   227     3    73     1    83 0.78 -
ID=PSME_00007370     -            418 32854at3193          -            626    0.0032   17.5   0.0   1   1   1.7e-05    0.0044   17.1   0.0   136   202   220   287   201   304 0.81 -
ID=PSME_00038387     -            295 32854at3193          -            626    0.0037   17.3   0.0   1   1   2.1e-05    0.0053   16.8   0.0   135   197   146   212   131   226 0.80 -
ID=PSME_00018652     -            423 32854at3193          -            626    0.0039   17.3   0.0   1   1   2.1e-05    0.0054   16.8   0.0   144   203   237   295   227   307 0.76 -
ID=PSME_00050034     -            549 32854at3193          -            626    0.0053   16.8   0.0   1   1   3.2e-05    0.0082   16.2   0.0   137   198   329   395   322   406 0.80 -
ID=PSME_00056884     -            539 32854at3193          -            626    0.0054   16.8   0.0   1   1     3e-05    0.0078   16.3   0.0   139   204   331   395   299   412 0.81 -
ID=PSME_00016032     -            460 32854at3193          -            626     0.008   16.2   0.0   1   1   4.2e-05     0.011   15.8   0.0   129   202   232   310   220   329 0.78 -
ID=PSME_00041390     -            251 32854at3193          -            626    0.0081   16.2   0.0   1   1   4.2e-05     0.011   15.8   0.0   139   202    68   130    49   140 0.85 -
ID=PSME_00042979     -            309 32854at3193          -            626    0.0084   16.2   0.0   1   1   4.3e-05     0.011   15.8   0.0   142   205   131   193   120   225 0.76 -
ID=PSME_00029464     -           1048 32854at3193          -            626     0.013   15.6   0.0   1   1   7.6e-05     0.019   15.0   0.0   119   232   758   874   740   880 0.71 -
ID=PSME_00044572     -            955 32854at3193          -            626     0.014   15.4   0.0   1   1   8.3e-05     0.021   14.9   0.0   117   232   586   704   566   710 0.72 -
ID=PSME_00056633     -            431 32854at3193          -            626     0.018   15.1   0.0   1   1   9.6e-05     0.025   14.6   0.0   143   202   233   295   215   313 0.81 -
ID=PSME_00024461     -            285 32854at3193          -            626      0.02   15.0   0.0   1   1    0.0001     0.027   14.5   0.0   478   556    23   109    18   130 0.76 -
ID=PSME_00017841     -            555 32854at3193          -            626      0.02   14.9   0.0   1   1   0.00011     0.028   14.4   0.0   135   211   298   385   285   411 0.68 -
ID=PSME_00020858     -            194 32854at3193          -            626     0.021   14.9   0.0   1   1   8.9e-05     0.023   14.7   0.0   477   619    21   171     7   178 0.65 -
ID=PSME_00003006     -            682 32854at3193          -            626     0.023   14.7   0.0   1   1   0.00012     0.032   14.3   0.0   119   187   224   291   178   347 0.75 -
ID=PSME_00039412     -            779 32854at3193          -            626     0.024   14.7   0.5   1   3       0.1        27    4.6   0.0   277   332   330   389   300   447 0.82 -
ID=PSME_00039412     -            779 32854at3193          -            626     0.024   14.7   0.5   2   3     0.031         8    6.3   0.0   278   331   469   526   453   530 0.87 -
ID=PSME_00039412     -            779 32854at3193          -            626     0.024   14.7   0.5   3   3         5   1.3e+03   -0.9   0.0   285   397   568   683   536   692 0.60 -
ID=PSME_00043411     -            226 32854at3193          -            626     0.025   14.6   0.0   1   1   0.00011     0.027   14.5   0.0    64   168    71   175    32   208 0.70 -
ID=PSME_00006644     -            367 32854at3193          -            626     0.037   14.1   0.0   1   1   0.00018     0.047   13.7   0.0   138   195   308   364   260   366 0.80 -
ID=PSME_00025992     -            424 32854at3193          -            626     0.042   13.9   0.0   1   1   0.00025     0.065   13.2   0.0   182   223   118   159    97   166 0.90 -
ID=PSME_00039369     -            453 32854at3193          -            626     0.052   13.6   0.0   1   1   0.00031     0.078   13.0   0.0   138   204   294   367   283   383 0.75 -
ID=PSME_00050159     -            245 32854at3193          -            626     0.054   13.5   0.0   1   1   0.00029     0.074   13.1   0.0   145   196    76   122    67   142 0.78 -
ID=PSME_00050248     -            228 32854at3193          -            626     0.055   13.5   0.0   1   1   0.00023     0.058   13.4   0.0   475   582    32   146     5   188 0.72 -
ID=PSME_00009230     -            470 32854at3193          -            626      0.06   13.3   0.0   1   1   0.00029     0.075   13.0   0.0   134   195   407   467   328   469 0.80 -
ID=PSME_00026027     -            383 32854at3193          -            626     0.061   13.3   0.0   1   1   0.00039       0.1   12.6   0.0   130   168   313   351   273   361 0.76 -
ID=PSME_00039460     -            266 32854at3193          -            626     0.074   13.0   0.0   1   1    0.0005      0.13   12.3   0.0   140   163   226   249   189   259 0.89 -
ID=PSME_00026169     -            474 32854at3193          -            626     0.094   12.7   0.0   1   1   0.00051      0.13   12.2   0.0   136   204   268   343   259   368 0.77 -
ID=PSME_00043249     -            274 32854at3193          -            626      0.12   12.4   0.0   1   1   0.00062      0.16   12.0   0.0   136   225   161   252   156   264 0.74 -
ID=PSME_00041361     -            493 32854at3193          -            626      0.14   12.2   0.0   1   1    0.0014      0.36   10.8   0.0   127   195   295   366   261   375 0.78 -
ID=PSME_00001992     -            122 32854at3193          -            626      0.23   11.4   0.0   1   1   0.00094      0.24   11.4   0.0   476   526    51   100    22   114 0.78 -
ID=PSME_00001189     -            457 32854at3193          -            626      0.23   11.4   0.0   1   1    0.0012      0.31   11.0   0.0   135   168   421   454   383   456 0.81 -
ID=PSME_00004497     -            140 32854at3193          -            626      0.31   11.0   0.0   1   1    0.0012      0.31   11.0   0.0   115   165    80   134    15   137 0.75 -
ID=PSME_00011175     -            126 32854at3193          -            626      0.39   10.7   0.0   1   1    0.0017      0.44   10.5   0.0   467   520     5    60     2    77 0.79 -
ID=PSME_00055800     -            573 32854at3193          -            626      0.46   10.4   0.0   1   1    0.0026      0.66    9.9   0.0   138   201   365   435   353   443 0.77 -
ID=PSME_00024159     -            554 32854at3193          -            626       0.5   10.3   0.0   1   1     0.003      0.77    9.7   0.0   478   568    23   114    14   119 0.89 -
ID=PSME_00011581     -            306 32854at3193          -            626       0.6   10.1   0.0   1   1    0.0028      0.72    9.8   0.0   477   529    88   142    81   202 0.85 -
ID=PSME_00047278     -            431 32854at3193          -            626      0.63   10.0   0.0   1   1     0.004         1    9.3   0.0   140   223   178   252   176   260 0.85 -
#
# Program:         hmmsearch
# Version:         3.2.1 (June 2018)
# Pipeline mode:   SEARCH
# Query file:      /isg/shared/databases/BUSCO/odb10/embryophyta_odb10/hmms/32854at3193.hmm
# Target file:     /labs/Wegrzyn/ConiferGenomes/Psme/analysis/SURF_annotation/analyze_orig_maker/gfacs/filtered/maker_genes.fasta.faa
# Option settings: /usr/local/bin/hmmsearch --domtblout /labs/Wegrzyn/ConiferGenomes/Psme/analysis/SURF_annotation/analyze_orig_maker/busco/maker/run_embryophyta_odb10/hmmer_output/32854at3193.out --cpu 1 /isg/shared/databases/BUSCO/odb10/embryophyta_odb10/hmms/32854at3193.hmm /labs/Wegrzyn/ConiferGenomes/Psme/analysis/SURF_annotation/analyze_orig_maker/gfacs/filtered/maker_genes.fasta.faa 
# Current dir:     /labs/Wegrzyn/ConiferGenomes/Psme/analysis/SURF_annotation/analyze_orig_maker/busco
# Date:            Fri Jul 10 13:50:33 2020
# [ok]
