#                                                                            --- full sequence --- -------------- this domain -------------   hmm coord   ali coord   env coord
# target name        accession   tlen query name           accession   qlen   E-value  score  bias   #  of  c-Evalue  i-Evalue  score  bias  from    to  from    to  from    to  acc description of target
#------------------- ---------- ----- -------------------- ---------- ----- --------- ------ ----- --- --- --------- --------- ------ ----- ----- ----- ----- ----- ----- ----- ---- ---------------------
ID=PSME_00001042     -            241 36488at3193          -            487     2e-62  212.9   5.0   1   3    0.0099   1.8e+02    2.0   0.1     5    26    34    53    29    57 0.78 -
ID=PSME_00001042     -            241 36488at3193          -            487     2e-62  212.9   5.0   2   3   5.3e-32   9.7e-28   98.5   0.1   120   176    58   117    52   123 0.93 -
ID=PSME_00001042     -            241 36488at3193          -            487     2e-62  212.9   5.0   3   3   9.7e-37   1.8e-32  114.1   0.2   378   443   124   201   115   219 0.88 -
ID=PSME_00001623     -            128 36488at3193          -            487   1.7e-21   77.9   0.0   1   1   9.4e-26   1.7e-21   77.9   0.0   245   315    57   121    13   124 0.89 -
ID=PSME_00018073     -            404 36488at3193          -            487   7.8e-05   23.0   0.0   1   1   6.1e-09   0.00011   22.4   0.0   184   292    48   154    38   171 0.83 -
#
# Program:         hmmsearch
# Version:         3.2.1 (June 2018)
# Pipeline mode:   SEARCH
# Query file:      /isg/shared/databases/BUSCO/odb10/embryophyta_odb10/hmms/36488at3193.hmm
# Target file:     /labs/Wegrzyn/ConiferGenomes/Psme/analysis/SURF_annotation/analyze_orig_maker/gfacs/filtered/maker_genes.fasta.faa
# Option settings: /usr/local/bin/hmmsearch --domtblout /labs/Wegrzyn/ConiferGenomes/Psme/analysis/SURF_annotation/analyze_orig_maker/busco/maker/run_embryophyta_odb10/hmmer_output/36488at3193.out --cpu 1 /isg/shared/databases/BUSCO/odb10/embryophyta_odb10/hmms/36488at3193.hmm /labs/Wegrzyn/ConiferGenomes/Psme/analysis/SURF_annotation/analyze_orig_maker/gfacs/filtered/maker_genes.fasta.faa 
# Current dir:     /labs/Wegrzyn/ConiferGenomes/Psme/analysis/SURF_annotation/analyze_orig_maker/busco
# Date:            Fri Jul 10 13:50:28 2020
# [ok]
