#                                                                            --- full sequence --- -------------- this domain -------------   hmm coord   ali coord   env coord
# target name        accession   tlen query name           accession   qlen   E-value  score  bias   #  of  c-Evalue  i-Evalue  score  bias  from    to  from    to  from    to  acc description of target
#------------------- ---------- ----- -------------------- ---------- ----- --------- ------ ----- --- --- --------- --------- ------ ----- ----- ----- ----- ----- ----- ----- ---- ---------------------
ID=PSME_00014415     -           1215 3662at3193           -           1036         0 1180.4  40.0   1   5   1.8e-34   1.9e-30  106.9   0.6    30   112    21   104     8   106 0.92 -
ID=PSME_00014415     -           1215 3662at3193           -           1036         0 1180.4  40.0   2   5   2.8e-92   3.1e-88  298.3   3.9   114   353   135   425   130   445 0.85 -
ID=PSME_00014415     -           1215 3662at3193           -           1036         0 1180.4  40.0   3   5   2.6e-17   2.9e-13   50.0   0.7   349   464   455   624   447   626 0.76 -
ID=PSME_00014415     -           1215 3662at3193           -           1036         0 1180.4  40.0   4   5   2.1e-60   2.3e-56  192.7   0.4   465   578   661   774   649   778 0.97 -
ID=PSME_00014415     -           1215 3662at3193           -           1036         0 1180.4  40.0   5   5  8.3e-168  9.1e-164  548.3   7.5   577   934   821  1206   816  1212 0.93 -
ID=PSME_00055537     -            200 3662at3193           -           1036   4.4e-15   56.0   3.0   1   2     2e-18   2.2e-14   53.7   0.9   187   262    31   115    28   123 0.84 -
ID=PSME_00055537     -            200 3662at3193           -           1036   4.4e-15   56.0   3.0   2   2     0.006        66    2.5   0.0   106   146   134   175   120   186 0.78 -
ID=PSME_00010075     -            841 3662at3193           -           1036      0.15   11.2   0.0   1   1   2.1e-05      0.23   10.6   0.0    41   111   185   255   174   260 0.78 -
ID=PSME_00001437     -            362 3662at3193           -           1036      0.25   10.5   0.0   1   1     3e-05      0.33   10.1   0.0   356   410   202   256   177   261 0.86 -
ID=PSME_00020195     -            462 3662at3193           -           1036      0.49    9.6   0.0   1   1   7.6e-05      0.83    8.8   0.0   113   170   221   283   212   291 0.82 -
#
# Program:         hmmsearch
# Version:         3.2.1 (June 2018)
# Pipeline mode:   SEARCH
# Query file:      /isg/shared/databases/BUSCO/odb10/embryophyta_odb10/hmms/3662at3193.hmm
# Target file:     /labs/Wegrzyn/ConiferGenomes/Psme/analysis/SURF_annotation/analyze_orig_maker/gfacs/filtered/maker_genes.fasta.faa
# Option settings: /usr/local/bin/hmmsearch --domtblout /labs/Wegrzyn/ConiferGenomes/Psme/analysis/SURF_annotation/analyze_orig_maker/busco/maker/run_embryophyta_odb10/hmmer_output/3662at3193.out --cpu 1 /isg/shared/databases/BUSCO/odb10/embryophyta_odb10/hmms/3662at3193.hmm /labs/Wegrzyn/ConiferGenomes/Psme/analysis/SURF_annotation/analyze_orig_maker/gfacs/filtered/maker_genes.fasta.faa 
# Current dir:     /labs/Wegrzyn/ConiferGenomes/Psme/analysis/SURF_annotation/analyze_orig_maker/busco
# Date:            Fri Jul 10 13:50:30 2020
# [ok]
