#                                                                            --- full sequence --- -------------- this domain -------------   hmm coord   ali coord   env coord
# target name        accession   tlen query name           accession   qlen   E-value  score  bias   #  of  c-Evalue  i-Evalue  score  bias  from    to  from    to  from    to  acc description of target
#------------------- ---------- ----- -------------------- ---------- ----- --------- ------ ----- --- --- --------- --------- ------ ----- ----- ----- ----- ----- ----- ----- ---- ---------------------
ID=PSME_00017532     -            670 37412at3193          -            596  4.3e-231  769.8  15.3   1   1  9.7e-232    8e-229  762.3  15.3    86   596    46   661    46   661 0.88 -
ID=PSME_00040446     -            739 37412at3193          -            596   1.8e-83  282.3   0.0   1   4   4.2e-29   3.5e-26   93.1   0.0     5   214     6   229     3   237 0.82 -
ID=PSME_00040446     -            739 37412at3193          -            596   1.8e-83  282.3   0.0   2   4   2.8e-14   2.4e-11   44.2   0.0   487   583   250   358   239   362 0.83 -
ID=PSME_00040446     -            739 37412at3193          -            596   1.8e-83  282.3   0.0   3   4   1.1e-28   8.9e-26   91.8   0.0     5   214   371   594   367   606 0.84 -
ID=PSME_00040446     -            739 37412at3193          -            596   1.8e-83  282.3   0.0   4   4   1.8e-15   1.5e-12   48.1   0.0   487   594   610   734   603   736 0.79 -
ID=PSME_00002140     -            498 37412at3193          -            596   6.8e-49  168.1   0.0   1   2   2.6e-33   2.2e-30  107.0   0.0     4   219     5   234     2   246 0.87 -
ID=PSME_00002140     -            498 37412at3193          -            596   6.8e-49  168.1   0.0   2   2   6.6e-19   5.5e-16   59.5   0.0   486   594   249   373   237   375 0.80 -
ID=PSME_00005334     -            414 37412at3193          -            596   1.7e-48  166.8   0.0   1   2   2.8e-33   2.3e-30  107.0   0.0     4   222    41   273    38   282 0.86 -
ID=PSME_00005334     -            414 37412at3193          -            596   1.7e-48  166.8   0.0   2   2   1.6e-18   1.3e-15   58.2   0.0   487   595   286   410   275   411 0.81 -
ID=PSME_00002139     -            499 37412at3193          -            596   2.1e-48  166.5   0.0   1   2   8.1e-33   6.8e-30  105.4   0.0     4   219     6   235     3   247 0.87 -
ID=PSME_00002139     -            499 37412at3193          -            596   2.1e-48  166.5   0.0   2   2   6.6e-19   5.5e-16   59.5   0.0   486   594   250   374   238   376 0.80 -
ID=PSME_00011991     -            497 37412at3193          -            596   4.2e-48  165.5   0.0   1   2   1.5e-32   1.2e-29  104.5   0.0     4   217     5   232     2   246 0.87 -
ID=PSME_00011991     -            497 37412at3193          -            596   4.2e-48  165.5   0.0   2   2   7.3e-19   6.1e-16   59.3   0.0   487   594   250   373   239   375 0.81 -
ID=PSME_00051304     -            384 37412at3193          -            596     8e-48  164.6   0.0   1   2     2e-33   1.6e-30  107.4   0.0     5   217    12   238     9   248 0.88 -
ID=PSME_00051304     -            384 37412at3193          -            596     8e-48  164.6   0.0   2   2   1.1e-17   9.4e-15   55.4   0.0   487   595   256   380   242   381 0.81 -
ID=PSME_00025231     -            449 37412at3193          -            596   1.4e-47  163.8   0.0   1   2   6.9e-33   5.7e-30  105.6   0.0     3   219     3   233     1   244 0.87 -
ID=PSME_00025231     -            449 37412at3193          -            596   1.4e-47  163.8   0.0   2   2   5.7e-18   4.8e-15   56.4   0.0   487   594   249   372   243   374 0.80 -
ID=PSME_00049737     -            378 37412at3193          -            596   1.9e-47  163.3   0.0   1   2   5.4e-34   4.5e-31  109.3   0.0     4   221     5   236     2   244 0.87 -
ID=PSME_00049737     -            378 37412at3193          -            596   1.9e-47  163.3   0.0   2   2   1.1e-16   9.5e-14   52.1   0.0   487   593   250   372   245   375 0.80 -
ID=PSME_00049626     -            410 37412at3193          -            596   3.1e-47  162.7   0.0   1   2   8.8e-32   7.3e-29  102.0   0.0     4   222    37   269    34   277 0.86 -
ID=PSME_00049626     -            410 37412at3193          -            596   3.1e-47  162.7   0.0   2   2     1e-18   8.7e-16   58.8   0.0   487   594   282   405   276   407 0.81 -
ID=PSME_00015081     -            379 37412at3193          -            596   9.5e-47  161.1   0.0   1   2   1.9e-33   1.6e-30  107.5   0.0     4   219     5   234     2   245 0.86 -
ID=PSME_00015081     -            379 37412at3193          -            596   9.5e-47  161.1   0.0   2   2   1.5e-16   1.2e-13   51.7   0.0   486   595   250   375   245   376 0.83 -
ID=PSME_00051503     -            396 37412at3193          -            596   6.8e-45  154.9   0.0   1   2   1.1e-32   9.3e-30  104.9   0.0     4   222    39   271    36   279 0.86 -
ID=PSME_00051503     -            396 37412at3193          -            596   6.8e-45  154.9   0.0   2   2   1.7e-15   1.4e-12   48.2   0.0   487   582   284   390   274   392 0.84 -
ID=PSME_00028316     -            464 37412at3193          -            596     7e-45  154.9   0.0   1   2     1e-31   8.6e-29  101.8   0.0     4   222    96   323    93   331 0.87 -
ID=PSME_00028316     -            464 37412at3193          -            596     7e-45  154.9   0.0   2   2     2e-16   1.7e-13   51.3   0.0   487   595   336   460   327   461 0.80 -
ID=PSME_00005475     -            378 37412at3193          -            596   1.9e-44  153.4   0.0   1   2   2.4e-31     2e-28  100.5   0.0     7   220     8   235     3   245 0.84 -
ID=PSME_00005475     -            378 37412at3193          -            596   1.9e-44  153.4   0.0   2   2   2.4e-16     2e-13   51.0   0.0   487   593   250   372   244   375 0.79 -
ID=PSME_00047956     -            410 37412at3193          -            596   4.9e-44  152.1   0.0   1   2   1.4e-32   1.1e-29  104.7   0.0     4   222    37   269    34   277 0.87 -
ID=PSME_00047956     -            410 37412at3193          -            596   4.9e-44  152.1   0.0   2   2     1e-14   8.5e-12   45.6   0.0   487   595   282   406   275   407 0.81 -
ID=PSME_00050983     -            379 37412at3193          -            596   1.4e-42  147.3   0.0   1   2   3.9e-29   3.2e-26   93.3   0.0     6   221     7   236     3   245 0.81 -
ID=PSME_00050983     -            379 37412at3193          -            596   1.4e-42  147.3   0.0   2   2     1e-16   8.3e-14   52.3   0.0   487   582   250   356   239   359 0.87 -
ID=PSME_00011258     -            379 37412at3193          -            596   2.4e-42  146.5   0.0   1   2   6.1e-28   5.1e-25   89.3   0.0    18   220    20   236     8   246 0.87 -
ID=PSME_00011258     -            379 37412at3193          -            596   2.4e-42  146.5   0.0   2   2   1.1e-17   8.9e-15   55.5   0.0   487   594   251   374   241   376 0.80 -
ID=PSME_00042800     -            463 37412at3193          -            596   8.3e-38  131.5   0.1   1   2   1.1e-28   9.3e-26   91.7   0.0    18   222    93   311    85   319 0.86 -
ID=PSME_00042800     -            463 37412at3193          -            596   8.3e-38  131.5   0.1   2   2   2.3e-12   1.9e-09   37.8   0.1   485   559   322   407   315   412 0.81 -
ID=PSME_00048122     -            400 37412at3193          -            596   1.3e-37  130.9   0.0   1   2   6.1e-25   5.1e-22   79.4   0.0    18   220    21   237     6   248 0.86 -
ID=PSME_00048122     -            400 37412at3193          -            596   1.3e-37  130.9   0.0   2   2   5.8e-16   4.8e-13   49.8   0.0   487   588   252   364   242   371 0.82 -
ID=PSME_00047522     -            349 37412at3193          -            596   5.8e-36  125.4   0.1   1   2   3.5e-26   2.9e-23   83.5   0.0    18   218    20   226     5   237 0.85 -
ID=PSME_00047522     -            349 37412at3193          -            596   5.8e-36  125.4   0.1   2   2   4.9e-13   4.1e-10   40.1   0.0   486   559   242   326   232   335 0.81 -
ID=PSME_00049598     -            352 37412at3193          -            596   3.7e-35  122.8   0.0   1   2   9.8e-24   8.1e-21   75.4   0.0    19   220    21   231     6   241 0.82 -
ID=PSME_00049598     -            352 37412at3193          -            596   3.7e-35  122.8   0.0   2   2   1.1e-14   9.1e-12   45.5   0.0   487   581   246   351   240   352 0.83 -
ID=PSME_00020885     -            356 37412at3193          -            596   4.9e-35  122.4   0.0   1   2   2.1e-22   1.8e-19   71.0   0.0    18   220    18   214     4   225 0.86 -
ID=PSME_00020885     -            356 37412at3193          -            596   4.9e-35  122.4   0.0   2   2   7.3e-16     6e-13   49.4   0.0   487   594   229   352   219   354 0.81 -
ID=PSME_00045427     -            350 37412at3193          -            596   7.7e-34  118.4   0.0   1   2   3.9e-21   3.2e-18   66.8   0.0    18   209    20   221     5   230 0.85 -
ID=PSME_00045427     -            350 37412at3193          -            596   7.7e-34  118.4   0.0   2   2   5.2e-16   4.3e-13   49.9   0.0   487   583   232   339   222   345 0.85 -
ID=PSME_00037962     -            357 37412at3193          -            596   2.4e-33  116.8   0.0   1   2   1.5e-26   1.2e-23   84.8   0.0    18   221    20   237     7   249 0.87 -
ID=PSME_00037962     -            357 37412at3193          -            596   2.4e-33  116.8   0.0   2   2   4.4e-10   3.6e-07   30.3   0.0   487   580   251   355   245   357 0.80 -
ID=PSME_00006554     -            359 37412at3193          -            596   2.3e-31  110.2   0.0   1   2   1.7e-25   1.4e-22   81.2   0.0    19   218    21   234    14   245 0.87 -
ID=PSME_00006554     -            359 37412at3193          -            596   2.3e-31  110.2   0.0   2   2   4.3e-09   3.6e-06   27.1   0.0   487   573   251   344   240   348 0.78 -
ID=PSME_00020741     -            351 37412at3193          -            596   4.3e-29  102.7   0.0   1   2   4.4e-23   3.6e-20   73.3   0.0    17   219    19   229     3   243 0.85 -
ID=PSME_00020741     -            351 37412at3193          -            596   4.3e-29  102.7   0.0   2   2   2.6e-09   2.1e-06   27.8   0.0   487   558   245   327   241   351 0.70 -
ID=PSME_00016866     -            257 37412at3193          -            596   9.7e-25   88.4   0.5   1   2   2.4e-23     2e-20   74.1   0.0    21   222     2   206     1   215 0.79 -
ID=PSME_00016866     -            257 37412at3193          -            596   9.7e-25   88.4   0.5   2   2   0.00026      0.22   11.3   0.1   487   507   219   240   213   243 0.82 -
ID=PSME_00003105     -            287 37412at3193          -            596   2.1e-24   87.3   0.1   1   2   5.8e-20   4.9e-17   62.9   0.0    18   220    20   212     5   223 0.83 -
ID=PSME_00003105     -            287 37412at3193          -            596   2.1e-24   87.3   0.1   2   2   3.2e-07   0.00026   20.9   0.0   487   522   227   263   216   270 0.87 -
ID=PSME_00046420     -            277 37412at3193          -            596   2.2e-24   87.2   1.8   1   4    0.0061       5.1    6.7   0.0    21    48     2    28     1    36 0.82 -
ID=PSME_00046420     -            277 37412at3193          -            596   2.2e-24   87.2   1.8   2   4   1.1e-05    0.0087   15.9   0.3   105   166    37   102    34   134 0.77 -
ID=PSME_00046420     -            277 37412at3193          -            596   2.2e-24   87.2   1.8   3   4     0.078        65    3.1   0.1   195   220   109   134    99   144 0.77 -
ID=PSME_00046420     -            277 37412at3193          -            596   2.2e-24   87.2   1.8   4   4   5.9e-19   4.9e-16   59.6   0.0   487   594   149   272   140   274 0.81 -
ID=PSME_00044002     -            232 37412at3193          -            596   4.4e-23   82.9   0.0   1   1   6.7e-26   5.6e-23   82.6   0.0     4   164    37   199    34   208 0.90 -
ID=PSME_00049145     -            231 37412at3193          -            596   1.2e-22   81.5   0.0   1   1   1.8e-25   1.5e-22   81.1   0.0     4   163    58   224    55   229 0.89 -
ID=PSME_00054730     -            225 37412at3193          -            596   6.3e-22   79.1   0.1   1   2   4.6e-07   0.00038   20.4   0.0   153   220     8    82     6    91 0.83 -
ID=PSME_00054730     -            225 37412at3193          -            596   6.3e-22   79.1   0.1   2   2   3.7e-18     3e-15   57.0   0.0   487   594    97   220    87   222 0.80 -
ID=PSME_00053519     -            210 37412at3193          -            596   7.5e-22   78.8   0.0   1   1   1.1e-24   9.4e-22   78.5   0.0     4   163    37   203    34   208 0.89 -
ID=PSME_00046927     -            335 37412at3193          -            596   2.3e-21   77.2   0.0   1   2   4.7e-17   3.9e-14   53.4   0.0    18   220    15   221     6   238 0.78 -
ID=PSME_00046927     -            335 37412at3193          -            596   2.3e-21   77.2   0.0   2   2   1.9e-07   0.00016   21.6   0.0   525   586   266   328   255   333 0.89 -
ID=PSME_00036690     -            269 37412at3193          -            596   2.8e-21   76.9   0.9   1   3   3.7e-07   0.00031   20.7   0.0     4    48     5    48     2    63 0.85 -
ID=PSME_00036690     -            269 37412at3193          -            596   2.8e-21   76.9   0.9   2   3     0.054        45    3.6   0.1   193   222    67    96    60   104 0.80 -
ID=PSME_00036690     -            269 37412at3193          -            596   2.8e-21   76.9   0.9   3   3   4.3e-16   3.6e-13   50.2   0.0   487   581   109   214    99   216 0.84 -
ID=PSME_00050663     -            307 37412at3193          -            596   5.9e-21   75.9   0.0   1   1     9e-24   7.4e-21   75.5   0.0     4   184    51   240    48   249 0.88 -
ID=PSME_00048568     -            173 37412at3193          -            596   7.1e-21   75.6   0.0   1   1     1e-23   8.5e-21   75.4   0.0     4   142    10   151     7   163 0.88 -
ID=PSME_00051837     -            226 37412at3193          -            596   5.7e-20   72.6   0.1   1   2   1.8e-06    0.0015   18.4   0.0   153   222     9    85     7    94 0.78 -
ID=PSME_00051837     -            226 37412at3193          -            596   5.7e-20   72.6   0.1   2   2     9e-17   7.5e-14   52.4   0.0   487   595    98   222    92   223 0.80 -
ID=PSME_00051940     -            156 37412at3193          -            596   7.8e-18   65.6   0.0   1   1   1.5e-20   1.2e-17   64.9   0.0    98   221     1   129     1   139 0.86 -
ID=PSME_00035578     -            131 37412at3193          -            596   1.1e-17   65.1   0.0   1   1   1.4e-19   1.1e-16   61.7   0.0     4   130    10   124     7   126 0.89 -
ID=PSME_00038097     -            191 37412at3193          -            596   1.1e-17   65.1   0.0   1   1   1.6e-20   1.3e-17   64.8   0.0    22   164     3   152     1   161 0.88 -
ID=PSME_00051760     -            215 37412at3193          -            596   6.6e-17   62.5   0.0   1   2   6.8e-07   0.00057   19.8   0.0   154   222     4    79     2    87 0.81 -
ID=PSME_00051760     -            215 37412at3193          -            596   6.6e-17   62.5   0.0   2   2   2.6e-13   2.2e-10   41.0   0.0   487   595    92   212    85   213 0.80 -
ID=PSME_00020958     -            171 37412at3193          -            596   7.8e-17   62.3   0.0   1   1   1.1e-19     9e-17   62.1   0.0     4   130     5   134     2   149 0.89 -
ID=PSME_00051753     -            144 37412at3193          -            596   5.6e-16   59.4   0.0   1   1   7.6e-19   6.3e-16   59.3   0.0    18   140     2   127     1   139 0.88 -
ID=PSME_00045600     -            169 37412at3193          -            596   5.5e-14   52.9   0.1   1   2   0.00048       0.4   10.4   0.0    18    48     2    31     1    48 0.81 -
ID=PSME_00045600     -            169 37412at3193          -            596   5.5e-14   52.9   0.1   2   2   2.7e-13   2.3e-10   40.9   0.0    98   164    49   119    42   127 0.91 -
ID=PSME_00047267     -            193 37412at3193          -            596     2e-13   51.0   0.1   1   2      0.75   6.3e+02   -0.2   0.0   202   220    18    36     4    45 0.77 -
ID=PSME_00047267     -            193 37412at3193          -            596     2e-13   51.0   0.1   2   2   1.2e-15   9.9e-13   48.7   0.0   486   583    50   158    41   164 0.84 -
ID=PSME_00055188     -            149 37412at3193          -            596   3.3e-13   50.3   0.0   1   1   4.5e-16   3.7e-13   50.1   0.0   487   593    22   144    10   147 0.80 -
ID=PSME_00047916     -            184 37412at3193          -            596   7.9e-13   49.0   0.1   1   2   0.00021      0.17   11.6   0.0   153   220     9    78     7    87 0.75 -
ID=PSME_00047916     -            184 37412at3193          -            596   7.9e-13   49.0   0.1   2   2     1e-11   8.4e-09   35.7   0.0   487   557    93   174    81   181 0.81 -
ID=PSME_00048321     -            162 37412at3193          -            596   4.9e-12   46.4   0.1   1   2   6.3e-07   0.00052   19.9   0.0   153   220    12    86     9    96 0.82 -
ID=PSME_00048321     -            162 37412at3193          -            596   4.9e-12   46.4   0.1   2   2   2.1e-08   1.8e-05   24.8   0.0   487   522   101   137    93   142 0.88 -
ID=PSME_00034528     -            391 37412at3193          -            596   1.8e-11   44.6   0.0   1   3   1.4e-09   1.1e-06   28.7   0.0     9   224     9   241     5   251 0.75 -
ID=PSME_00034528     -            391 37412at3193          -            596   1.8e-11   44.6   0.0   2   3      0.11        94    2.6   0.1   464   504   289   329   251   339 0.73 -
ID=PSME_00034528     -            391 37412at3193          -            596   1.8e-11   44.6   0.0   3   3    0.0053       4.4    6.9   0.0   556   594   342   385   332   387 0.77 -
ID=PSME_00007446     -            369 37412at3193          -            596   3.1e-11   43.8   0.0   1   1   4.8e-14     4e-11   43.4   0.0    18   140    20   145     5   167 0.87 -
ID=PSME_00022849     -            467 37412at3193          -            596   6.9e-10   39.3   0.0   1   1   1.1e-12   9.3e-10   38.9   0.0   150   191   421   466   414   466 0.86 -
ID=PSME_00050961     -            324 37412at3193          -            596   2.9e-08   34.0   0.0   1   1   2.7e-10   2.2e-07   31.0   0.0     9   224    30   262    24   271 0.74 -
ID=PSME_00043510     -             88 37412at3193          -            596   3.8e-08   33.6   0.0   1   1   4.9e-11     4e-08   33.5   0.0    83   149     1    70     1    79 0.88 -
ID=PSME_00054521     -             81 37412at3193          -            596   5.9e-06   26.4   0.0   1   1   7.3e-09   6.1e-06   26.3   0.0     4    48     5    48     2    66 0.84 -
ID=PSME_00048989     -            247 37412at3193          -            596   7.5e-06   26.0   0.0   1   1   7.2e-08     6e-05   23.0   0.0     9   216     9   233     5   238 0.71 -
ID=PSME_00001038     -            310 37412at3193          -            596   0.00013   21.9   0.0   1   1   2.1e-07   0.00017   21.5   0.0    89   183    91   198    66   206 0.75 -
ID=PSME_00055989     -             59 37412at3193          -            596    0.0047   16.8   0.1   1   1     6e-06     0.005   16.7   0.1   116   164     1    53     1    58 0.87 -
ID=PSME_00043511     -            230 37412at3193          -            596      0.01   15.6   0.0   1   1   1.7e-05     0.014   15.2   0.0     4    43   154   193   152   213 0.82 -
ID=PSME_00043056     -            160 37412at3193          -            596     0.018   14.8   0.0   1   1   3.3e-05     0.027   14.2   0.0    72   126    94   151    75   157 0.82 -
ID=PSME_00030683     -            249 37412at3193          -            596     0.086   12.6   0.6   1   1   0.00012     0.096   12.4   0.6   199   290    84   176    64   212 0.73 -
ID=PSME_00017356     -            226 37412at3193          -            596      0.15   11.8   0.0   1   1   0.00023      0.19   11.5   0.0   520   593   120   197    95   199 0.72 -
ID=PSME_00001039     -            343 37412at3193          -            596      0.25   11.1   0.0   1   2       2.5     2e+03   -1.9   0.0   194   231    15    49    12    52 0.75 -
ID=PSME_00001039     -            343 37412at3193          -            596      0.25   11.1   0.0   2   2   0.00073      0.61    9.8   0.0   478   549    53   136    48   201 0.79 -
ID=PSME_00036790     -            163 37412at3193          -            596      0.31   10.7   3.4   1   1   0.00042      0.35   10.6   3.4   346   417    88   160    56   162 0.70 -
ID=PSME_00047186     -            129 37412at3193          -            596      0.51   10.0   0.2   1   1   0.00078      0.64    9.7   0.2   218   247    62    90    51    98 0.88 -
ID=PSME_00008250     -             87 37412at3193          -            596       2.9    7.5   8.6   1   1    0.0041       3.4    7.3   8.6   350   404    17    70    11    79 0.72 -
#
# Program:         hmmsearch
# Version:         3.2.1 (June 2018)
# Pipeline mode:   SEARCH
# Query file:      /isg/shared/databases/BUSCO/odb10/embryophyta_odb10/hmms/37412at3193.hmm
# Target file:     /labs/Wegrzyn/ConiferGenomes/Psme/analysis/SURF_annotation/analyze_orig_maker/gfacs/filtered/maker_genes.fasta.faa
# Option settings: /usr/local/bin/hmmsearch --domtblout /labs/Wegrzyn/ConiferGenomes/Psme/analysis/SURF_annotation/analyze_orig_maker/busco/maker/run_embryophyta_odb10/hmmer_output/37412at3193.out --cpu 1 /isg/shared/databases/BUSCO/odb10/embryophyta_odb10/hmms/37412at3193.hmm /labs/Wegrzyn/ConiferGenomes/Psme/analysis/SURF_annotation/analyze_orig_maker/gfacs/filtered/maker_genes.fasta.faa 
# Current dir:     /labs/Wegrzyn/ConiferGenomes/Psme/analysis/SURF_annotation/analyze_orig_maker/busco
# Date:            Fri Jul 10 13:50:32 2020
# [ok]
