#                                                                            --- full sequence --- -------------- this domain -------------   hmm coord   ali coord   env coord
# target name        accession   tlen query name           accession   qlen   E-value  score  bias   #  of  c-Evalue  i-Evalue  score  bias  from    to  from    to  from    to  acc description of target
#------------------- ---------- ----- -------------------- ---------- ----- --------- ------ ----- --- --- --------- --------- ------ ----- ----- ----- ----- ----- ----- ----- ---- ---------------------
ID=PSME_00002409     -            889 4349at3193           -            940         0 1339.8   8.5   1   3   2.9e-60     4e-56  192.0   0.0   124   240     3   136     1   143 0.90 -
ID=PSME_00002409     -            889 4349at3193           -            940         0 1339.8   8.5   2   3  4.5e-297  6.2e-293  975.8   4.3   233   761   153   738   137   747 0.91 -
ID=PSME_00002409     -            889 4349at3193           -            940         0 1339.8   8.5   3   3     6e-50   8.2e-46  157.9   0.0   760   850   775   865   765   883 0.93 -
ID=PSME_00003272     -            592 4349at3193           -            940   1.2e-34  121.0   0.1   1   1   3.6e-38     5e-34  118.9   0.1    17   391    44   422    35   559 0.85 -
ID=PSME_00002408     -            213 4349at3193           -            940   1.9e-12   47.5   2.0   1   2   0.00022         3    7.1   0.1     1    17   100   116   100   133 0.89 -
ID=PSME_00002408     -            213 4349at3193           -            940   1.9e-12   47.5   2.0   2   2   2.3e-14   3.2e-10   40.1   0.3    16    47   143   174   131   178 0.92 -
ID=PSME_00032129     -            272 4349at3193           -            940   8.1e-06   25.6   0.0   1   1   7.8e-10   1.1e-05   25.2   0.0    17   148    70   203    59   212 0.83 -
#
# Program:         hmmsearch
# Version:         3.2.1 (June 2018)
# Pipeline mode:   SEARCH
# Query file:      /isg/shared/databases/BUSCO/odb10/embryophyta_odb10/hmms/4349at3193.hmm
# Target file:     /labs/Wegrzyn/ConiferGenomes/Psme/analysis/SURF_annotation/analyze_orig_maker/gfacs/filtered/maker_genes.fasta.faa
# Option settings: /usr/local/bin/hmmsearch --domtblout /labs/Wegrzyn/ConiferGenomes/Psme/analysis/SURF_annotation/analyze_orig_maker/busco/maker/run_embryophyta_odb10/hmmer_output/4349at3193.out --cpu 1 /isg/shared/databases/BUSCO/odb10/embryophyta_odb10/hmms/4349at3193.hmm /labs/Wegrzyn/ConiferGenomes/Psme/analysis/SURF_annotation/analyze_orig_maker/gfacs/filtered/maker_genes.fasta.faa 
# Current dir:     /labs/Wegrzyn/ConiferGenomes/Psme/analysis/SURF_annotation/analyze_orig_maker/busco
# Date:            Fri Jul 10 13:50:44 2020
# [ok]
