#                                                                            --- full sequence --- -------------- this domain -------------   hmm coord   ali coord   env coord
# target name        accession   tlen query name           accession   qlen   E-value  score  bias   #  of  c-Evalue  i-Evalue  score  bias  from    to  from    to  from    to  acc description of target
#------------------- ---------- ----- -------------------- ---------- ----- --------- ------ ----- --- --- --------- --------- ------ ----- ----- ----- ----- ----- ----- ----- ---- ---------------------
ID=PSME_00000094     -           1195 43535at3193          -            516    9e-134  448.2   8.0   1   4   2.9e-06     0.013   15.4   0.1    18   109   261   349   252   368 0.82 -
ID=PSME_00000094     -           1195 43535at3193          -            516    9e-134  448.2   8.0   2   4   1.1e-77   5.1e-74  251.0   0.0   100   403   369   681   349   686 0.90 -
ID=PSME_00000094     -           1195 43535at3193          -            516    9e-134  448.2   8.0   3   4   2.8e-45   1.3e-41  144.2   0.1   259   403   753   901   750   910 0.93 -
ID=PSME_00000094     -           1195 43535at3193          -            516    9e-134  448.2   8.0   4   4   1.4e-13   6.5e-10   39.5   0.2   394   499   934  1039   927  1051 0.85 -
ID=PSME_00000243     -            696 43535at3193          -            516   4.8e-72  244.5   5.8   1   3   4.6e-05      0.21   11.5   0.1    43    94   120   171   100   177 0.89 -
ID=PSME_00000243     -            696 43535at3193          -            516   4.8e-72  244.5   5.8   2   3   2.2e-08    0.0001   22.4   0.1    94   149   200   257   190   266 0.84 -
ID=PSME_00000243     -            696 43535at3193          -            516   4.8e-72  244.5   5.8   3   3   6.7e-66     3e-62  212.2   0.2   201   402   340   546   324   565 0.92 -
ID=PSME_00002158     -            792 43535at3193          -            516   1.2e-69  236.7   0.7   1   3      0.34   1.6e+03   -1.3   0.0    58    94   216   252   179   263 0.72 -
ID=PSME_00002158     -            792 43535at3193          -            516   1.2e-69  236.7   0.7   2   3   9.5e-08   0.00044   20.3   0.0    93   176   282   368   263   383 0.78 -
ID=PSME_00002158     -            792 43535at3193          -            516   1.2e-69  236.7   0.7   3   3   7.2e-65   3.3e-61  208.8   0.1   200   461   418   708   400   724 0.86 -
ID=PSME_00002107     -            869 43535at3193          -            516   1.1e-50  174.1   6.3   1   3   1.3e-36   5.9e-33  115.6   0.2   100   299   189   393   181   399 0.90 -
ID=PSME_00002107     -            869 43535at3193          -            516   1.1e-50  174.1   6.3   2   3   1.5e-06    0.0067   16.4   0.1   366   402   402   438   393   444 0.88 -
ID=PSME_00002107     -            869 43535at3193          -            516   1.1e-50  174.1   6.3   3   3   4.5e-15   2.1e-11   44.5   0.2   396   478   494   581   467   594 0.83 -
ID=PSME_00027897     -            172 43535at3193          -            516   1.3e-43  150.8   1.0   1   1   2.4e-46   1.1e-42  147.7   1.0   403   515     3    99     1   100 0.98 -
ID=PSME_00016514     -            670 43535at3193          -            516   5.6e-43  148.6   8.4   1   4     0.055   2.5e+02    1.3   0.1    45    94   127   176   120   179 0.88 -
ID=PSME_00016514     -            670 43535at3193          -            516   5.6e-43  148.6   8.4   2   4   6.5e-37     3e-33  116.6   0.0   101   313   220   442   211   445 0.89 -
ID=PSME_00016514     -            670 43535at3193          -            516   5.6e-43  148.6   8.4   3   4   3.8e-05      0.17   11.7   0.3   367   402   440   475   439   481 0.91 -
ID=PSME_00016514     -            670 43535at3193          -            516   5.6e-43  148.6   8.4   4   4   2.2e-08   9.9e-05   22.4   0.4   393   475   488   578   480   602 0.71 -
ID=PSME_00006615     -            669 43535at3193          -            516   8.6e-38  131.5   2.1   1   4   0.00017      0.77    9.6   0.1    50   102   151   204   136   209 0.86 -
ID=PSME_00006615     -            669 43535at3193          -            516   8.6e-38  131.5   2.1   2   4   7.9e-28   3.6e-24   86.6   0.0   102   288   236   427   228   432 0.89 -
ID=PSME_00006615     -            669 43535at3193          -            516   8.6e-38  131.5   2.1   3   4   3.2e-05      0.15   12.0   0.0   354   402   435   484   428   491 0.86 -
ID=PSME_00006615     -            669 43535at3193          -            516   8.6e-38  131.5   2.1   4   4   1.9e-07   0.00085   19.4   0.4   398   475   501   580   497   590 0.81 -
ID=PSME_00014613     -            487 43535at3193          -            516   1.6e-34  120.7   0.2   1   3    0.0088        40    3.9   0.0    58   101   134   177   119   190 0.83 -
ID=PSME_00014613     -            487 43535at3193          -            516   1.6e-34  120.7   0.2   2   3   1.8e-11   8.3e-08   32.6   0.0    96   148   202   254   188   261 0.91 -
ID=PSME_00014613     -            487 43535at3193          -            516   1.6e-34  120.7   0.2   3   3   5.1e-26   2.3e-22   80.6   0.0   196   295   352   453   339   455 0.91 -
ID=PSME_00043419     -            210 43535at3193          -            516   6.3e-06   26.4   0.2   1   1   1.6e-09   7.4e-06   26.2   0.2   409   483    16    92     1   118 0.82 -
ID=PSME_00031843     -            401 43535at3193          -            516     0.029   14.3   0.1   1   1     9e-06     0.041   13.8   0.1   397   475   268   348   250   359 0.82 -
ID=PSME_00043876     -            348 43535at3193          -            516      0.19   11.6   0.2   1   2      0.42   1.9e+03   -1.6   0.0   313   347    72   106    68   111 0.87 -
ID=PSME_00043876     -            348 43535at3193          -            516      0.19   11.6   0.2   2   2   0.00013      0.57   10.0   0.1   139   198   279   334   270   344 0.80 -
ID=PSME_00018339     -            186 43535at3193          -            516      0.43   10.5   0.3   1   1   0.00012      0.54   10.1   0.3   232   277    22    67    18    79 0.86 -
#
# Program:         hmmsearch
# Version:         3.2.1 (June 2018)
# Pipeline mode:   SEARCH
# Query file:      /isg/shared/databases/BUSCO/odb10/embryophyta_odb10/hmms/43535at3193.hmm
# Target file:     /labs/Wegrzyn/ConiferGenomes/Psme/analysis/SURF_annotation/analyze_orig_maker/gfacs/filtered/maker_genes.fasta.faa
# Option settings: /usr/local/bin/hmmsearch --domtblout /labs/Wegrzyn/ConiferGenomes/Psme/analysis/SURF_annotation/analyze_orig_maker/busco/maker/run_embryophyta_odb10/hmmer_output/43535at3193.out --cpu 1 /isg/shared/databases/BUSCO/odb10/embryophyta_odb10/hmms/43535at3193.hmm /labs/Wegrzyn/ConiferGenomes/Psme/analysis/SURF_annotation/analyze_orig_maker/gfacs/filtered/maker_genes.fasta.faa 
# Current dir:     /labs/Wegrzyn/ConiferGenomes/Psme/analysis/SURF_annotation/analyze_orig_maker/busco
# Date:            Fri Jul 10 13:50:43 2020
# [ok]
