#                                                                            --- full sequence --- -------------- this domain -------------   hmm coord   ali coord   env coord
# target name        accession   tlen query name           accession   qlen   E-value  score  bias   #  of  c-Evalue  i-Evalue  score  bias  from    to  from    to  from    to  acc description of target
#------------------- ---------- ----- -------------------- ---------- ----- --------- ------ ----- --- --- --------- --------- ------ ----- ----- ----- ----- ----- ----- ----- ---- ---------------------
ID=PSME_00034246     -            389 44473at3193          -            434   7.7e-50  171.2   0.1   1   2     5e-36   1.5e-32  114.3   0.0     1   110    81   226    81   230 0.77 -
ID=PSME_00034246     -            389 44473at3193          -            434   7.7e-50  171.2   0.1   2   2   5.9e-17   1.8e-13   51.4   0.0   111   156   264   313   238   319 0.85 -
ID=PSME_00034248     -            777 44473at3193          -            434   3.8e-38  132.7   0.5   1   1   2.1e-41   6.5e-38  132.0   0.5   206   285   575   654   566   660 0.93 -
ID=PSME_00051034     -            224 44473at3193          -            434   8.4e-10   39.3   0.1   1   1   3.7e-13   1.1e-09   38.9   0.1   316   389    45   117    32   126 0.83 -
ID=PSME_00017976     -            882 44473at3193          -            434   7.5e-07   29.6   0.1   1   1   1.1e-09   3.5e-06   27.4   0.1   153   276   191   309   184   321 0.81 -
ID=PSME_00049363     -            223 44473at3193          -            434   8.1e-07   29.5   0.0   1   1   4.2e-10   1.3e-06   28.8   0.0     7    56   131   180   128   193 0.92 -
ID=PSME_00044702     -            927 44473at3193          -            434   1.9e-06   28.3   0.1   1   1     2e-09   6.1e-06   26.6   0.1   152   276   222   341   214   353 0.86 -
ID=PSME_00047370     -            221 44473at3193          -            434    0.0013   18.9   0.0   1   1   7.4e-07    0.0023   18.1   0.0   195   271    98   173    89   188 0.87 -
ID=PSME_00015027     -            198 44473at3193          -            434     0.008   16.3   0.1   1   1     3e-06    0.0092   16.1   0.1   352   388     2    39     1    76 0.78 -
ID=PSME_00046946     -            639 44473at3193          -            434      0.01   16.0   0.0   1   1   5.1e-06     0.016   15.4   0.0   154   278   431   553   416   564 0.79 -
ID=PSME_00024118     -            300 44473at3193          -            434     0.082   13.0   0.0   1   1   3.7e-05      0.11   12.5   0.0    11    52   141   181   137   190 0.87 -
ID=PSME_00043210     -            365 44473at3193          -            434      0.14   12.2   0.0   1   1   5.8e-05      0.18   11.9   0.0   237   279   238   280   156   296 0.88 -
ID=PSME_00042845     -            415 44473at3193          -            434      0.14   12.2   0.0   1   1   8.9e-05      0.27   11.3   0.0   238   282   289   334   284   346 0.85 -
ID=PSME_00043507     -            400 44473at3193          -            434      0.22   11.6   0.0   1   1   0.00011      0.32   11.0   0.0   150   280   187   316   175   335 0.80 -
ID=PSME_00044055     -            130 44473at3193          -            434      0.32   11.0   0.0   1   1   0.00013      0.39   10.7   0.0    10    43    15    48    11    69 0.94 -
ID=PSME_00014710     -           1008 44473at3193          -            434      0.38   10.8   0.0   1   1    0.0002       0.6   10.1   0.0   237   280   881   924   788   941 0.78 -
ID=PSME_00018782     -            974 44473at3193          -            434      0.39   10.8   0.0   1   1    0.0002      0.62   10.1   0.0   237   280   847   890   759   908 0.81 -
ID=PSME_00006919     -            381 44473at3193          -            434      0.51   10.4   0.0   1   1   0.00025      0.76    9.8   0.0   238   299   158   215   140   226 0.78 -
ID=PSME_00045945     -            398 44473at3193          -            434      0.52   10.4   0.0   1   1   0.00023       0.7    9.9   0.0   237   280   272   315   181   335 0.82 -
#
# Program:         hmmsearch
# Version:         3.2.1 (June 2018)
# Pipeline mode:   SEARCH
# Query file:      /isg/shared/databases/BUSCO/odb10/embryophyta_odb10/hmms/44473at3193.hmm
# Target file:     /labs/Wegrzyn/ConiferGenomes/Psme/analysis/SURF_annotation/analyze_orig_maker/gfacs/filtered/maker_genes.fasta.faa
# Option settings: /usr/local/bin/hmmsearch --domtblout /labs/Wegrzyn/ConiferGenomes/Psme/analysis/SURF_annotation/analyze_orig_maker/busco/maker/run_embryophyta_odb10/hmmer_output/44473at3193.out --cpu 1 /isg/shared/databases/BUSCO/odb10/embryophyta_odb10/hmms/44473at3193.hmm /labs/Wegrzyn/ConiferGenomes/Psme/analysis/SURF_annotation/analyze_orig_maker/gfacs/filtered/maker_genes.fasta.faa 
# Current dir:     /labs/Wegrzyn/ConiferGenomes/Psme/analysis/SURF_annotation/analyze_orig_maker/busco
# Date:            Fri Jul 10 13:50:45 2020
# [ok]
