#                                                                            --- full sequence --- -------------- this domain -------------   hmm coord   ali coord   env coord
# target name        accession   tlen query name           accession   qlen   E-value  score  bias   #  of  c-Evalue  i-Evalue  score  bias  from    to  from    to  from    to  acc description of target
#------------------- ---------- ----- -------------------- ---------- ----- --------- ------ ----- --- --- --------- --------- ------ ----- ----- ----- ----- ----- ----- ----- ---- ---------------------
ID=PSME_00001784     -            267 44486at3193          -            413   9.6e-77  260.2   2.0   1   2   0.00089       3.1    8.2   0.1   232   252    67    90    59    95 0.83 -
ID=PSME_00001784     -            267 44486at3193          -            413   9.6e-77  260.2   2.0   2   2   2.4e-76   8.3e-73  247.2   0.3   237   413    98   266    88   266 0.93 -
ID=PSME_00045732     -            194 44486at3193          -            413   3.1e-71  242.0   0.3   1   1   6.2e-73   2.1e-69  236.0   0.3   232   413    20   193     2   193 0.90 -
ID=PSME_00013018     -            619 44486at3193          -            413   8.4e-71  240.6   0.4   1   1   5.3e-73   1.8e-69  236.2   0.4   239   413   452   618   448   618 0.95 -
ID=PSME_00002793     -            513 44486at3193          -            413   6.4e-69  234.4   2.4   1   2    0.0017       5.8    7.2   0.1   232   252   313   336   295   343 0.81 -
ID=PSME_00002793     -            513 44486at3193          -            413   6.4e-69  234.4   2.4   2   2   5.6e-69   1.9e-65  222.9   0.7   238   413   345   512   335   512 0.94 -
ID=PSME_00043465     -            270 44486at3193          -            413   4.2e-68  231.7   0.0   1   2     0.029     1e+02    3.2   0.0   231   252     2    26     1    44 0.81 -
ID=PSME_00043465     -            270 44486at3193          -            413   4.2e-68  231.7   0.0   2   2   3.5e-70   1.2e-66  226.9   0.0   249   412    47   224    37   225 0.93 -
ID=PSME_00009881     -            242 44486at3193          -            413     1e-56  194.2   0.0   1   1   6.9e-60   2.4e-56  193.0   0.0   212   401     2   214     1   228 0.90 -
ID=PSME_00009882     -            301 44486at3193          -            413   3.2e-54  186.0   0.1   1   1   8.2e-57   2.8e-53  182.9   0.1     2   218    32   286    31   291 0.84 -
ID=PSME_00045313     -            149 44486at3193          -            413   9.1e-45  154.8   0.1   1   2   5.8e-20     2e-16   61.5   0.0   238   284    26    72     3    74 0.81 -
ID=PSME_00045313     -            149 44486at3193          -            413   9.1e-45  154.8   0.1   2   2   1.3e-30   4.3e-27   96.6   0.0   341   413    68   148    68   148 0.93 -
ID=PSME_00043221     -            309 44486at3193          -            413   1.7e-44  153.9   0.1   1   2   3.2e-19   1.1e-15   59.0   0.0   236   282   184   230   155   231 0.86 -
ID=PSME_00043221     -            309 44486at3193          -            413   1.7e-44  153.9   0.1   2   2     1e-30   3.5e-27   96.9   0.0   341   413   228   308   227   308 0.93 -
ID=PSME_00020845     -            211 44486at3193          -            413     2e-28  101.0   0.1   1   1   8.1e-32   2.8e-28  100.5   0.1   343   413   132   210   123   210 0.92 -
ID=PSME_00006802     -            208 44486at3193          -            413   7.8e-28   99.1   0.1   1   1   3.5e-31   1.2e-27   98.5   0.1   343   413   129   207   122   207 0.92 -
ID=PSME_00049582     -            212 44486at3193          -            413   1.7e-27   97.9   0.1   1   1   6.8e-31   2.3e-27   97.5   0.1   343   413   133   211   126   211 0.93 -
ID=PSME_00049515     -            212 44486at3193          -            413     1e-25   92.1   0.2   1   1     4e-29   1.4e-25   91.7   0.2   343   413   133   211   123   211 0.91 -
ID=PSME_00041690     -            345 44486at3193          -            413   3.6e-24   87.0   0.1   1   1   1.5e-27   5.1e-24   86.5   0.1   343   413   266   344   259   344 0.92 -
ID=PSME_00045257     -            346 44486at3193          -            413     5e-19   70.0   0.2   1   1   2.2e-22   7.4e-19   69.5   0.2   343   390   231   278   223   296 0.89 -
ID=PSME_00032848     -            423 44486at3193          -            413     0.058   13.8   0.0   1   1   2.4e-05     0.083   13.3   0.0   323   360   272   310   259   327 0.87 -
#
# Program:         hmmsearch
# Version:         3.2.1 (June 2018)
# Pipeline mode:   SEARCH
# Query file:      /isg/shared/databases/BUSCO/odb10/embryophyta_odb10/hmms/44486at3193.hmm
# Target file:     /labs/Wegrzyn/ConiferGenomes/Psme/analysis/SURF_annotation/analyze_orig_maker/gfacs/filtered/maker_genes.fasta.faa
# Option settings: /usr/local/bin/hmmsearch --domtblout /labs/Wegrzyn/ConiferGenomes/Psme/analysis/SURF_annotation/analyze_orig_maker/busco/maker/run_embryophyta_odb10/hmmer_output/44486at3193.out --cpu 1 /isg/shared/databases/BUSCO/odb10/embryophyta_odb10/hmms/44486at3193.hmm /labs/Wegrzyn/ConiferGenomes/Psme/analysis/SURF_annotation/analyze_orig_maker/gfacs/filtered/maker_genes.fasta.faa 
# Current dir:     /labs/Wegrzyn/ConiferGenomes/Psme/analysis/SURF_annotation/analyze_orig_maker/busco
# Date:            Fri Jul 10 13:50:45 2020
# [ok]
