#                                                                            --- full sequence --- -------------- this domain -------------   hmm coord   ali coord   env coord
# target name        accession   tlen query name           accession   qlen   E-value  score  bias   #  of  c-Evalue  i-Evalue  score  bias  from    to  from    to  from    to  acc description of target
#------------------- ---------- ----- -------------------- ---------- ----- --------- ------ ----- --- --- --------- --------- ------ ----- ----- ----- ----- ----- ----- ----- ---- ---------------------
ID=PSME_00017320     -           1074 4482at3193           -           1242         0 1037.4  10.2   1   5   1.8e-42   1.3e-39  137.2   0.0   175   294     5   133     2   148 0.88 -
ID=PSME_00017320     -           1074 4482at3193           -           1242         0 1037.4  10.2   2   5   1.8e-15   1.3e-12   47.8   0.0   298   342   174   222   161   226 0.85 -
ID=PSME_00017320     -           1074 4482at3193           -           1242         0 1037.4  10.2   3   5  1.3e-218  9.3e-216  720.7   1.1   343   744   271   715   248   716 0.90 -
ID=PSME_00017320     -           1074 4482at3193           -           1242         0 1037.4  10.2   4   5   2.4e-07   0.00018   20.8   0.0   759   799   797   840   766   843 0.89 -
ID=PSME_00017320     -           1074 4482at3193           -           1242         0 1037.4  10.2   5   5   2.1e-33   1.5e-30  107.1   0.6   791   948   852  1059   849  1064 0.76 -
ID=PSME_00026331     -            459 4482at3193           -           1242    5e-115  387.0   6.1   1   4   7.8e-35   5.7e-32  111.9   0.4   946  1024     1    79     1    89 0.92 -
ID=PSME_00026331     -            459 4482at3193           -           1242    5e-115  387.0   6.1   2   4   4.1e-17     3e-14   53.2   0.0  1005  1060    89   142    77   149 0.87 -
ID=PSME_00026331     -            459 4482at3193           -           1242    5e-115  387.0   6.1   3   4   8.2e-61     6e-58  197.9   0.0  1043  1192   169   336   157   362 0.86 -
ID=PSME_00026331     -            459 4482at3193           -           1242    5e-115  387.0   6.1   4   4   1.2e-08   8.6e-06   25.2   0.0  1192  1238   370   417   348   421 0.81 -
ID=PSME_00016646     -            363 4482at3193           -           1242   7.9e-10   38.5   0.0   1   3   0.00096       0.7    8.9   0.0   177   213    65   101    56   106 0.90 -
ID=PSME_00016646     -            363 4482at3193           -           1242   7.9e-10   38.5   0.0   2   3   6.2e-07   0.00045   19.5   0.0   178   258   107   186   101   221 0.79 -
ID=PSME_00016646     -            363 4482at3193           -           1242   7.9e-10   38.5   0.0   3   3    0.0042       3.1    6.8   0.0   184   225   289   330   258   360 0.88 -
ID=PSME_00027590     -            318 4482at3193           -           1242   1.9e-08   34.0   0.3   1   4      0.67   4.9e+02   -0.5   0.0   183   224    21    62     5    95 0.80 -
ID=PSME_00027590     -            318 4482at3193           -           1242   1.9e-08   34.0   0.3   2   4   6.9e-06     0.005   16.0   0.0   185   231   111   156    80   156 0.87 -
ID=PSME_00027590     -            318 4482at3193           -           1242   1.9e-08   34.0   0.3   3   4   4.4e-05     0.032   13.3   0.0   185   241   153   209   151   227 0.88 -
ID=PSME_00027590     -            318 4482at3193           -           1242   1.9e-08   34.0   0.3   4   4      0.14     1e+02    1.8   0.1   188   232   244   287   226   300 0.74 -
ID=PSME_00005685     -            234 4482at3193           -           1242   2.2e-08   33.8   0.0   1   3    0.0057       4.2    6.3   0.0   174   242    14    81     1    92 0.79 -
ID=PSME_00005685     -            234 4482at3193           -           1242   2.2e-08   33.8   0.0   2   3   7.6e-05     0.055   12.5   0.0   186   229   110   152   103   155 0.86 -
ID=PSME_00005685     -            234 4482at3193           -           1242   2.2e-08   33.8   0.0   3   3   7.2e-05     0.053   12.6   0.0   185   240   151   206   148   228 0.87 -
ID=PSME_00049142     -            504 4482at3193           -           1242   2.5e-08   33.6   0.1   1   3   4.3e-06    0.0031   16.7   0.0   189   229    27    68    21    70 0.85 -
ID=PSME_00049142     -            504 4482at3193           -           1242   2.5e-08   33.6   0.1   2   3    0.0012      0.87    8.6   0.0   183   223    65   105    61   115 0.82 -
ID=PSME_00049142     -            504 4482at3193           -           1242   2.5e-08   33.6   0.1   3   3    0.0031       2.3    7.2   0.0   188   224   176   212   142   238 0.80 -
ID=PSME_00014903     -            490 4482at3193           -           1242     2e-07   30.6   0.1   1   3   5.5e-05      0.04   13.0   0.0   189   226    23    60    17    65 0.84 -
ID=PSME_00014903     -            490 4482at3193           -           1242     2e-07   30.6   0.1   2   3   0.00066      0.48    9.4   0.0   184   229    62   107    56   112 0.87 -
ID=PSME_00014903     -            490 4482at3193           -           1242     2e-07   30.6   0.1   3   3    0.0093       6.8    5.6   0.0   189   224   173   208   143   234 0.83 -
ID=PSME_00010333     -            611 4482at3193           -           1242   7.1e-07   28.7   0.2   1   3   3.5e-05     0.026   13.6   0.0   189   230   136   178   128   179 0.81 -
ID=PSME_00010333     -            611 4482at3193           -           1242   7.1e-07   28.7   0.2   2   3    0.0014      0.99    8.4   0.0   183   226   174   217   168   225 0.84 -
ID=PSME_00010333     -            611 4482at3193           -           1242   7.1e-07   28.7   0.2   3   3     0.011       8.1    5.4   0.0   189   224   286   321   272   348 0.82 -
ID=PSME_00009687     -            655 4482at3193           -           1242   1.1e-06   28.1   1.8   1   5     0.039        29    3.5   0.0   201   227    74   100    67   105 0.83 -
ID=PSME_00009687     -            655 4482at3193           -           1242   1.1e-06   28.1   1.8   2   5   0.00048      0.35    9.9   0.0   185   248   100   162    94   168 0.86 -
ID=PSME_00009687     -            655 4482at3193           -           1242   1.1e-06   28.1   1.8   3   5     0.051        38    3.2   0.0   185   229   142   186   132   189 0.89 -
ID=PSME_00009687     -            655 4482at3193           -           1242   1.1e-06   28.1   1.8   4   5   0.00024      0.18   10.9   0.1   171   243   385   454   342   465 0.84 -
ID=PSME_00009687     -            655 4482at3193           -           1242   1.1e-06   28.1   1.8   5   5      0.45   3.3e+02    0.0   0.0   172   214   468   510   461   524 0.84 -
ID=PSME_00018904     -            656 4482at3193           -           1242   2.2e-06   27.1   0.0   1   2   7.8e-07   0.00057   19.1   0.0   188   256    61   132    53   150 0.71 -
ID=PSME_00018904     -            656 4482at3193           -           1242   2.2e-06   27.1   0.0   2   2    0.0091       6.7    5.6   0.0   182   222   205   245   182   273 0.82 -
ID=PSME_00004313     -            429 4482at3193           -           1242   2.8e-06   26.8   0.2   1   3     0.061        45    2.9   0.0   180   213    62    95    51   100 0.85 -
ID=PSME_00004313     -            429 4482at3193           -           1242   2.8e-06   26.8   0.2   2   3   1.8e-05     0.013   14.6   0.0   178   256   101   178    95   191 0.83 -
ID=PSME_00004313     -            429 4482at3193           -           1242   2.8e-06   26.8   0.2   3   3    0.0087       6.4    5.7   0.0   184   225   258   299   232   326 0.90 -
ID=PSME_00016647     -            283 4482at3193           -           1242   5.6e-05   22.5   0.1   1   2      0.03        22    3.9   0.0   180   213    84   117    73   121 0.87 -
ID=PSME_00016647     -            283 4482at3193           -           1242   5.6e-05   22.5   0.1   2   2   5.9e-06    0.0043   16.2   0.0   178   255   123   199   117   246 0.81 -
ID=PSME_00054687     -            317 4482at3193           -           1242   0.00011   21.5   0.0   1   3    0.0068         5    6.1   0.0   188   246    66   124    58   135 0.76 -
ID=PSME_00054687     -            317 4482at3193           -           1242   0.00011   21.5   0.0   2   3      0.41     3e+02    0.2   0.0   347   370   167   190   156   195 0.87 -
ID=PSME_00054687     -            317 4482at3193           -           1242   0.00011   21.5   0.0   3   3   0.00026      0.19   10.8   0.0   183   214   281   313   262   315 0.86 -
ID=PSME_00012180     -            596 4482at3193           -           1242   0.00022   20.5   0.8   1   3   0.00018      0.13   11.3   0.1   184   233   261   312   230   337 0.79 -
ID=PSME_00012180     -            596 4482at3193           -           1242   0.00022   20.5   0.8   2   3     0.013       9.3    5.2   0.0   178   242   386   449   335   456 0.56 -
ID=PSME_00012180     -            596 4482at3193           -           1242   0.00022   20.5   0.8   3   3    0.0041         3    6.8   0.1   180   254   388   461   377   483 0.77 -
ID=PSME_00019641     -            306 4482at3193           -           1242   0.00083   18.6   0.0   1   1   2.2e-06    0.0016   17.6   0.0   184   214   228   258   214   268 0.87 -
ID=PSME_00007745     -            817 4482at3193           -           1242   0.00084   18.6   0.2   1   2   1.3e-05    0.0095   15.1   0.0   183   231    74   122     8   128 0.77 -
ID=PSME_00007745     -            817 4482at3193           -           1242   0.00084   18.6   0.2   2   2     0.096        70    2.3   0.0   190   258   123   191   118   219 0.67 -
ID=PSME_00055135     -            377 4482at3193           -           1242    0.0011   18.2   0.1   1   3   0.00071      0.52    9.3   0.0   182   224    11    53     2    63 0.82 -
ID=PSME_00055135     -            377 4482at3193           -           1242    0.0011   18.2   0.1   2   3    0.0058       4.2    6.3   0.0   189   224   124   159   112   188 0.81 -
ID=PSME_00055135     -            377 4482at3193           -           1242    0.0011   18.2   0.1   3   3       4.3   3.1e+03   -3.2   0.0   373   402   285   315   268   328 0.76 -
ID=PSME_00003170     -            812 4482at3193           -           1242    0.0017   17.5   0.1   1   2   2.2e-05     0.016   14.3   0.0   177   231    54   106    14   120 0.77 -
ID=PSME_00003170     -            812 4482at3193           -           1242    0.0017   17.5   0.1   2   2       0.1        76    2.2   0.0   188   257   105   174   101   206 0.75 -
ID=PSME_00031008     -            598 4482at3193           -           1242    0.0023   17.1   0.0   1   2      0.93   6.8e+02   -1.0   0.0   179   246    12    80     4    92 0.79 -
ID=PSME_00031008     -            598 4482at3193           -           1242    0.0023   17.1   0.0   2   2   1.4e-05      0.01   15.0   0.0   181   259   100   178    94   196 0.84 -
ID=PSME_00022796     -            424 4482at3193           -           1242    0.0031   16.7   0.5   1   3    0.0063       4.6    6.2   0.1   184   231   120   166    89   201 0.76 -
ID=PSME_00022796     -            424 4482at3193           -           1242    0.0031   16.7   0.5   2   3     0.087        63    2.4   0.0   186   231   205   252   181   261 0.79 -
ID=PSME_00022796     -            424 4482at3193           -           1242    0.0031   16.7   0.5   3   3     0.013       9.6    5.1   0.0   179   235   287   344   278   361 0.84 -
ID=PSME_00048532     -            614 4482at3193           -           1242    0.0034   16.5   0.2   1   3       0.1        76    2.2   0.0   202   227   169   194   160   197 0.85 -
ID=PSME_00048532     -            614 4482at3193           -           1242    0.0034   16.5   0.2   2   3   9.8e-05     0.072   12.2   0.0   186   249   195   257   189   275 0.86 -
ID=PSME_00048532     -            614 4482at3193           -           1242    0.0034   16.5   0.2   3   3       2.6   1.9e+03   -2.5   0.0   201   231   551   580   545   598 0.86 -
ID=PSME_00025923     -            426 4482at3193           -           1242    0.0064   15.6   4.9   1   2   0.00072      0.53    9.3   0.1  1139  1174   105   143    52   181 0.69 -
ID=PSME_00025923     -            426 4482at3193           -           1242    0.0064   15.6   4.9   2   2    0.0016       1.2    8.2   1.1  1140  1182   345   397   297   414 0.68 -
ID=PSME_00035897     -            319 4482at3193           -           1242    0.0069   15.5   0.7   1   3    0.0013      0.96    8.4   0.2   180   232    84   135    72   158 0.81 -
ID=PSME_00035897     -            319 4482at3193           -           1242    0.0069   15.5   0.7   2   3       0.3   2.2e+02    0.6   0.0   184   217   177   211   161   221 0.84 -
ID=PSME_00035897     -            319 4482at3193           -           1242    0.0069   15.5   0.7   3   3     0.052        38    3.1   0.0   189   217   228   256   213   303 0.79 -
ID=PSME_00024307     -           1014 4482at3193           -           1242    0.0072   15.5   0.0   1   2       0.7   5.1e+02   -0.6   0.0   179   246   200   268   187   280 0.80 -
ID=PSME_00024307     -           1014 4482at3193           -           1242    0.0072   15.5   0.0   2   2   5.3e-05     0.039   13.1   0.0   179   259   286   366   281   384 0.85 -
ID=PSME_00020195     -            462 4482at3193           -           1242    0.0083   15.3   0.0   1   2         3   2.2e+03   -2.7   0.0   179   242    32    96    22   110 0.77 -
ID=PSME_00020195     -            462 4482at3193           -           1242    0.0083   15.3   0.0   2   2   2.5e-05     0.019   14.1   0.0   179   259   118   198   114   216 0.86 -
ID=PSME_00034105     -            325 4482at3193           -           1242     0.012   14.8   0.8   1   3     0.047        34    3.3   0.1   201   227     4    30     2    34 0.85 -
ID=PSME_00034105     -            325 4482at3193           -           1242     0.012   14.8   0.8   2   3   0.00037      0.27   10.3   0.0   187   251    32    95    27   104 0.87 -
ID=PSME_00034105     -            325 4482at3193           -           1242     0.012   14.8   0.8   3   3       9.1   6.7e+03   -4.3   0.0   201   228   262   288   261   292 0.84 -
ID=PSME_00044301     -            442 4482at3193           -           1242     0.013   14.6   0.0   1   1   3.2e-05     0.023   13.8   0.0   181   259     9    87     4   108 0.85 -
ID=PSME_00012603     -            332 4482at3193           -           1242     0.013   14.6   0.1   1   2     0.018        14    4.6   0.0   201   227    96   122    88   126 0.83 -
ID=PSME_00012603     -            332 4482at3193           -           1242     0.013   14.6   0.1   2   2   0.00072      0.53    9.3   0.0   185   249   122   185   114   206 0.84 -
ID=PSME_00009596     -            675 4482at3193           -           1242     0.015   14.5   0.0   1   1   3.6e-05     0.027   13.6   0.0   179   259     7    87     4   106 0.85 -
ID=PSME_00001102     -            981 4482at3193           -           1242     0.015   14.4   0.1   1   3       2.7     2e+03   -2.6   0.0   179   242    28    92    18   108 0.79 -
ID=PSME_00001102     -            981 4482at3193           -           1242     0.015   14.4   0.1   2   3   7.9e-05     0.058   12.5   0.0   179   257   114   192   109   211 0.85 -
ID=PSME_00001102     -            981 4482at3193           -           1242     0.015   14.4   0.1   3   3       2.7   1.9e+03   -2.5   0.0   325   379   247   304   223   323 0.54 -
ID=PSME_00041762     -            498 4482at3193           -           1242     0.018   14.2   0.4   1   1     3e-05     0.022   13.9   0.4  1137  1202   421   496   403   497 0.81 -
ID=PSME_00017811     -            456 4482at3193           -           1242     0.027   13.6   0.1   1   2   7.8e-05     0.057   12.5   0.0   164   257   160   250   147   275 0.77 -
ID=PSME_00017811     -            456 4482at3193           -           1242     0.027   13.6   0.1   2   2         3   2.2e+03   -2.7   0.0   183   235   353   406   348   417 0.80 -
ID=PSME_00014349     -            701 4482at3193           -           1242     0.029   13.5   0.0   1   2       1.6   1.1e+03   -1.7   0.0   179   238   100   159    87   179 0.79 -
ID=PSME_00014349     -            701 4482at3193           -           1242     0.029   13.5   0.0   2   2   0.00011      0.08   12.0   0.0   185   260   192   267   168   288 0.86 -
ID=PSME_00011774     -            522 4482at3193           -           1242     0.033   13.3   0.0   1   3     0.012       8.9    5.2   0.0   111   225    23   133     9   139 0.74 -
ID=PSME_00011774     -            522 4482at3193           -           1242     0.033   13.3   0.0   2   3    0.0073       5.3    6.0   0.0   187   226   137   177   133   192 0.80 -
ID=PSME_00011774     -            522 4482at3193           -           1242     0.033   13.3   0.0   3   3       7.3   5.3e+03   -4.0   0.0   192   231   313   352   311   357 0.87 -
ID=PSME_00020217     -            541 4482at3193           -           1242     0.035   13.2   0.0   1   2       1.2   9.1e+02   -1.4   0.0   199   221    39    61     4    65 0.83 -
ID=PSME_00020217     -            541 4482at3193           -           1242     0.035   13.2   0.0   2   2    0.0002      0.15   11.2   0.0   174   224    86   137    74   152 0.82 -
ID=PSME_00039843     -            340 4482at3193           -           1242     0.042   12.9   0.1   1   1   7.8e-05     0.057   12.5   0.1   127   241   126   234   112   253 0.77 -
ID=PSME_00001515     -            286 4482at3193           -           1242     0.045   12.8   0.0   1   1     9e-05     0.066   12.3   0.0   186   271   160   249   123   259 0.79 -
ID=PSME_00003075     -            548 4482at3193           -           1242     0.061   12.4   0.1   1   2     0.027        20    4.1   0.0   184   253   281   352   267   365 0.77 -
ID=PSME_00003075     -            548 4482at3193           -           1242     0.061   12.4   0.1   2   2     0.006       4.4    6.2   0.0   185   257   367   440   358   479 0.87 -
ID=PSME_00051512     -           1207 4482at3193           -           1242     0.063   12.3   0.8   1   4      0.51   3.7e+02   -0.1   0.0   171   212    37    78     3   110 0.59 -
ID=PSME_00051512     -           1207 4482at3193           -           1242     0.063   12.3   0.8   2   4       1.3   9.7e+02   -1.5   0.0   185   215   135   165   121   175 0.84 -
ID=PSME_00051512     -           1207 4482at3193           -           1242     0.063   12.3   0.8   3   4    0.0027       1.9    7.4   0.0   185   232   248   295   233   318 0.83 -
ID=PSME_00051512     -           1207 4482at3193           -           1242     0.063   12.3   0.8   4   4         1   7.6e+02   -1.2   0.0   158   238   419   503   412   530 0.65 -
ID=PSME_00014505     -            274 4482at3193           -           1242      0.07   12.2   0.9   1   2      0.27   1.9e+02    0.8   0.2   196   258    29    93    18   126 0.71 -
ID=PSME_00014505     -            274 4482at3193           -           1242      0.07   12.2   0.9   2   2   0.00044      0.32   10.0   0.0   186   257   159   230   149   245 0.86 -
ID=PSME_00041381     -            794 4482at3193           -           1242     0.073   12.1   0.4   1   3     0.044        32    3.4   0.0   187   235   481   530   469   565 0.78 -
ID=PSME_00041381     -            794 4482at3193           -           1242     0.073   12.1   0.4   2   3      0.03        22    3.9   0.1   196   261   578   643   551   650 0.81 -
ID=PSME_00041381     -            794 4482at3193           -           1242     0.073   12.1   0.4   3   3       0.3   2.2e+02    0.6   0.0   190   254   704   769   686   786 0.82 -
ID=PSME_00016635     -            729 4482at3193           -           1242     0.074   12.1   0.0   1   2    0.0003      0.22   10.6   0.0   179   259   182   262   176   283 0.79 -
ID=PSME_00016635     -            729 4482at3193           -           1242     0.074   12.1   0.0   2   2       1.7   1.2e+03   -1.9   0.0   163   217   302   355   291   380 0.76 -
ID=PSME_00020279     -            350 4482at3193           -           1242     0.083   12.0   0.2   1   2   0.00025      0.19   10.8   0.0   164   228    54   117    42   121 0.87 -
ID=PSME_00020279     -            350 4482at3193           -           1242     0.083   12.0   0.2   2   2       2.7     2e+03   -2.5   0.0   183   235   247   300   242   319 0.78 -
ID=PSME_00030870     -            310 4482at3193           -           1242      0.09   11.8   0.2   1   1   0.00016      0.11   11.5   0.2  1146  1186   113   164    95   174 0.76 -
ID=PSME_00014343     -            203 4482at3193           -           1242       0.1   11.7   1.1   1   1   0.00018      0.13   11.3   1.1  1134  1187    93   150    79   156 0.72 -
ID=PSME_00054559     -            361 4482at3193           -           1242       0.1   11.6   0.0   1   1   0.00018      0.13   11.3   0.0   184   217   107   140    26   148 0.92 -
ID=PSME_00044539     -            487 4482at3193           -           1242      0.11   11.6   0.2   1   3     0.023        17    4.3   0.0   202   228    27    53    13    62 0.83 -
ID=PSME_00044539     -            487 4482at3193           -           1242      0.11   11.6   0.2   2   3     0.029        21    4.0   0.0   185   249    52   115    46   122 0.85 -
ID=PSME_00044539     -            487 4482at3193           -           1242      0.11   11.6   0.2   3   3     0.022        16    4.4   0.0   185   229    94   138    84   172 0.85 -
ID=PSME_00014235     -            413 4482at3193           -           1242      0.11   11.6   0.5   1   4      0.21   1.5e+02    1.1   0.0   202   236    17    50    12    66 0.75 -
ID=PSME_00014235     -            413 4482at3193           -           1242      0.11   11.6   0.5   2   4    0.0024       1.8    7.6   0.0   185   248    42   104    35   110 0.86 -
ID=PSME_00014235     -            413 4482at3193           -           1242      0.11   11.6   0.5   3   4     0.024        18    4.3   0.0   185   229    84   128    73   134 0.89 -
ID=PSME_00014235     -            413 4482at3193           -           1242      0.11   11.6   0.5   4   4      0.82     6e+02   -0.8   0.0   200   231   330   360   320   384 0.83 -
ID=PSME_00043699     -            245 4482at3193           -           1242      0.13   11.3   0.1   1   1   0.00019      0.14   11.2   0.1  1134  1185   137   187    95   226 0.79 -
ID=PSME_00014595     -            316 4482at3193           -           1242      0.14   11.2   0.1   1   1   0.00024      0.17   10.9   0.1   117   224   145   246   132   273 0.73 -
ID=PSME_00037056     -            492 4482at3193           -           1242      0.15   11.1   0.1   1   1   0.00029      0.21   10.6   0.1   187   223    60    96    46   124 0.84 -
ID=PSME_00009187     -            674 4482at3193           -           1242      0.16   11.0   0.0   1   1   0.00033      0.24   10.4   0.0   179   259    96   176    92   197 0.83 -
ID=PSME_00007486     -            456 4482at3193           -           1242      0.19   10.7   0.0   1   2      0.12        89    1.9   0.0   184   219    16    51     4    99 0.76 -
ID=PSME_00007486     -            456 4482at3193           -           1242      0.19   10.7   0.0   2   2    0.0044       3.2    6.7   0.0   175   234   188   247   178   268 0.78 -
ID=PSME_00008005     -            554 4482at3193           -           1242      0.21   10.6   0.2   1   3     0.045        33    3.4   0.0   202   227    26    51    19    55 0.85 -
ID=PSME_00008005     -            554 4482at3193           -           1242      0.21   10.6   0.2   2   3     0.013       9.4    5.1   0.0   186   214    52    80    46   101 0.86 -
ID=PSME_00008005     -            554 4482at3193           -           1242      0.21   10.6   0.2   3   3       1.2     9e+02   -1.4   0.0   201   233   275   306   266   332 0.80 -
ID=PSME_00005357     -            440 4482at3193           -           1242      0.22   10.5   0.3   1   3      0.14     1e+02    1.7   0.1   203   256   145   197   133   228 0.68 -
ID=PSME_00005357     -            440 4482at3193           -           1242      0.22   10.5   0.3   2   3      0.18   1.3e+02    1.3   0.0   166   220   191   245   163   263 0.65 -
ID=PSME_00005357     -            440 4482at3193           -           1242      0.22   10.5   0.3   3   3    0.0086       6.3    5.7   0.0   195   269   260   337   254   356 0.81 -
ID=PSME_00013038     -            683 4482at3193           -           1242      0.23   10.5   0.0   1   3         5   3.7e+03   -3.4   0.0   186   256    58   130    52   131 0.74 -
ID=PSME_00013038     -            683 4482at3193           -           1242      0.23   10.5   0.0   2   3       4.6   3.4e+03   -3.3   0.0   330   387   239   308   232   318 0.60 -
ID=PSME_00013038     -            683 4482at3193           -           1242      0.23   10.5   0.0   3   3    0.0009      0.66    9.0   0.0   181   273   497   590   478   607 0.86 -
ID=PSME_00011743     -            275 4482at3193           -           1242      0.24   10.4   0.1   1   3     0.061        45    2.9   0.0   186   236    38    87    26   116 0.82 -
ID=PSME_00011743     -            275 4482at3193           -           1242      0.24   10.4   0.1   2   3     0.017        12    4.7   0.0   188   256   124   192   116   196 0.73 -
ID=PSME_00011743     -            275 4482at3193           -           1242      0.24   10.4   0.1   3   3      0.14     1e+02    1.7   0.0   188   231   166   208   161   216 0.79 -
ID=PSME_00040435     -            391 4482at3193           -           1242      0.25   10.4   0.1   1   1   0.00053      0.39    9.7   0.0   185   266   240   322   189   369 0.75 -
ID=PSME_00012656     -            228 4482at3193           -           1242      0.27   10.2   0.0   1   1   0.00048      0.35    9.9   0.0   181   299    28   151    23   162 0.76 -
ID=PSME_00030094     -            492 4482at3193           -           1242      0.28   10.2   0.1   1   2       1.6   1.2e+03   -1.8   0.1   209   258   226   276   207   313 0.70 -
ID=PSME_00030094     -            492 4482at3193           -           1242      0.28   10.2   0.1   2   2    0.0011      0.77    8.7   0.0   199   302   343   451   326   456 0.73 -
ID=PSME_00024193     -           1216 4482at3193           -           1242      0.29   10.2   0.4   1   3      0.62   4.5e+02   -0.4   0.0   185   237     9    60     2    92 0.70 -
ID=PSME_00024193     -           1216 4482at3193           -           1242      0.29   10.2   0.4   2   3       3.8   2.8e+03   -3.0   0.0   186   215   136   165   116   172 0.83 -
ID=PSME_00024193     -           1216 4482at3193           -           1242      0.29   10.2   0.4   3   3    0.0031       2.3    7.2   0.0   185   230   248   293   233   318 0.85 -
ID=PSME_00027109     -            288 4482at3193           -           1242      0.33   10.0   2.2   1   1   0.00058      0.43    9.6   2.2  1139  1195   155   222   144   227 0.77 -
ID=PSME_00004465     -            525 4482at3193           -           1242      0.38    9.8   0.6   1   3     0.033        24    3.8   0.0   200   228    37    65    23    86 0.79 -
ID=PSME_00004465     -            525 4482at3193           -           1242      0.38    9.8   0.6   2   3     0.033        24    3.8   0.0   184   229    84   129    71   134 0.88 -
ID=PSME_00004465     -            525 4482at3193           -           1242      0.38    9.8   0.6   3   3       4.3   3.2e+03   -3.2   0.0   200   227   399   425   392   450 0.84 -
ID=PSME_00012692     -            418 4482at3193           -           1242      0.39    9.7   0.0   1   2     0.068        49    2.8   0.0   177   225    78   126    72   132 0.83 -
ID=PSME_00012692     -            418 4482at3193           -           1242      0.39    9.7   0.0   2   2     0.011       7.8    5.4   0.0   187   220   130   164   123   180 0.80 -
ID=PSME_00031480     -            676 4482at3193           -           1242      0.42    9.6   0.0   1   2     0.076        56    2.6   0.0   173   215   357   399   337   405 0.83 -
ID=PSME_00031480     -            676 4482at3193           -           1242      0.42    9.6   0.0   2   2     0.017        12    4.8   0.0   186   218   416   448   408   461 0.87 -
ID=PSME_00024966     -            476 4482at3193           -           1242      0.45    9.5   5.6   1   1   0.00079      0.58    9.2   5.6  1143  1180   349   384   322   395 0.85 -
ID=PSME_00015328     -            220 4482at3193           -           1242      0.49    9.4   0.0   1   1    0.0012      0.88    8.6   0.0   188   254   145   213   136   218 0.77 -
ID=PSME_00030527     -            205 4482at3193           -           1242      0.51    9.3   0.0   1   1   0.00085      0.62    9.1   0.0   181   280    52   157    46   184 0.74 -
ID=PSME_00046898     -            114 4482at3193           -           1242      0.56    9.2   0.6   1   1   0.00087      0.63    9.0   0.6  1145  1188    25    79    15    91 0.69 -
ID=PSME_00015259     -            323 4482at3193           -           1242      0.65    9.0   0.0   1   1    0.0011      0.83    8.6   0.0   181   249     5    73     1    80 0.84 -
ID=PSME_00024965     -            275 4482at3193           -           1242       1.3    8.0  14.6   1   2    0.0001     0.075   12.1   5.0  1143  1184    66   106    56   114 0.87 -
ID=PSME_00024965     -            275 4482at3193           -           1242       1.3    8.0  14.6   2   2      0.17   1.3e+02    1.4   2.1  1147  1182   174   208   166   216 0.73 -
ID=PSME_00052759     -            156 4482at3193           -           1242       2.1    7.3   2.1   1   1    0.0033       2.4    7.1   2.1  1145  1186    62   114    53   130 0.70 -
ID=PSME_00052758     -            174 4482at3193           -           1242       3.6    6.5   2.8   1   1    0.0061       4.4    6.2   2.8  1149  1185    84   131    74   148 0.67 -
ID=PSME_00047308     -            190 4482at3193           -           1242       4.5    6.2   4.9   1   1    0.0079       5.8    5.9   4.9  1145  1186    92   144    82   155 0.65 -
ID=PSME_00034376     -            364 4482at3193           -           1242       4.7    6.1   3.4   1   1    0.0091       6.6    5.7   3.4  1144  1184   313   355   306   361 0.80 -
#
# Program:         hmmsearch
# Version:         3.2.1 (June 2018)
# Pipeline mode:   SEARCH
# Query file:      /isg/shared/databases/BUSCO/odb10/embryophyta_odb10/hmms/4482at3193.hmm
# Target file:     /labs/Wegrzyn/ConiferGenomes/Psme/analysis/SURF_annotation/analyze_orig_maker/gfacs/filtered/maker_genes.fasta.faa
# Option settings: /usr/local/bin/hmmsearch --domtblout /labs/Wegrzyn/ConiferGenomes/Psme/analysis/SURF_annotation/analyze_orig_maker/busco/maker/run_embryophyta_odb10/hmmer_output/4482at3193.out --cpu 1 /isg/shared/databases/BUSCO/odb10/embryophyta_odb10/hmms/4482at3193.hmm /labs/Wegrzyn/ConiferGenomes/Psme/analysis/SURF_annotation/analyze_orig_maker/gfacs/filtered/maker_genes.fasta.faa 
# Current dir:     /labs/Wegrzyn/ConiferGenomes/Psme/analysis/SURF_annotation/analyze_orig_maker/busco
# Date:            Fri Jul 10 13:50:51 2020
# [ok]
