#                                                                            --- full sequence --- -------------- this domain -------------   hmm coord   ali coord   env coord
# target name        accession   tlen query name           accession   qlen   E-value  score  bias   #  of  c-Evalue  i-Evalue  score  bias  from    to  from    to  from    to  acc description of target
#------------------- ---------- ----- -------------------- ---------- ----- --------- ------ ----- --- --- --------- --------- ------ ----- ----- ----- ----- ----- ----- ----- ---- ---------------------
ID=PSME_00009959     -            412 46320at3193          -            493  4.4e-139  465.8   0.0   1   2    9e-118    4e-115  386.8   0.0   177   412     2   261     1   288 0.90 -
ID=PSME_00009959     -            412 46320at3193          -            493  4.4e-139  465.8   0.0   2   2   8.7e-24   3.9e-21   76.8   0.0   422   493   316   408   304   408 0.79 -
ID=PSME_00012961     -            453 46320at3193          -            493     2e-06   28.3   0.0   1   2    0.0001     0.046   13.9   0.0   137   188   173   224   166   236 0.89 -
ID=PSME_00012961     -            453 46320at3193          -            493     2e-06   28.3   0.0   2   2   0.00037      0.16   12.1   0.0   268   296   329   357   325   359 0.94 -
ID=PSME_00005226     -            428 46320at3193          -            493   2.6e-06   27.9   0.0   1   2    0.0026       1.1    9.3   0.0   138   174   211   247   207   253 0.88 -
ID=PSME_00005226     -            428 46320at3193          -            493   2.6e-06   27.9   0.0   2   2   1.9e-05    0.0083   16.3   0.0   248   298   362   412   348   418 0.87 -
ID=PSME_00018047     -            314 46320at3193          -            493   3.2e-06   27.6   0.0   1   2   0.00029      0.13   12.4   0.0   139   188   123   172   115   185 0.86 -
ID=PSME_00018047     -            314 46320at3193          -            493   3.2e-06   27.6   0.0   2   2    0.0002      0.09   12.9   0.0   268   296   277   305   273   307 0.94 -
ID=PSME_00017102     -            665 46320at3193          -            493   5.1e-06   26.9   6.0   1   3   6.8e-06     0.003   17.8   0.2   138   189   134   185   129   198 0.91 -
ID=PSME_00017102     -            665 46320at3193          -            493   5.1e-06   26.9   6.0   2   3     0.032        14    5.7   0.4   143   188   197   242   194   253 0.81 -
ID=PSME_00017102     -            665 46320at3193          -            493   5.1e-06   26.9   6.0   3   3     0.051        23    5.0   0.0   141   189   604   652   598   659 0.85 -
ID=PSME_00003871     -            333 46320at3193          -            493   6.2e-06   26.7   0.0   1   2    0.0002     0.089   12.9   0.0   140   188   143   191   140   204 0.87 -
ID=PSME_00003871     -            333 46320at3193          -            493   6.2e-06   26.7   0.0   2   2   0.00059      0.26   11.4   0.0   268   296   296   324   292   326 0.93 -
ID=PSME_00014212     -            206 46320at3193          -            493   9.4e-06   26.1   0.1   1   2   3.9e-07   0.00017   21.9   0.1   136   190   110   164    99   175 0.90 -
ID=PSME_00014212     -            206 46320at3193          -            493   9.4e-06   26.1   0.1   2   2      0.35   1.6e+02    2.2   0.0   277   296   175   194   169   203 0.87 -
ID=PSME_00011689     -            240 46320at3193          -            493   1.1e-05   25.8   0.0   1   2   0.00046       0.2   11.8   0.0   135   181    45    91    27   103 0.83 -
ID=PSME_00011689     -            240 46320at3193          -            493   1.1e-05   25.8   0.0   2   2   0.00042      0.19   11.9   0.0   269   296   204   231   199   233 0.93 -
ID=PSME_00038011     -            364 46320at3193          -            493   1.8e-05   25.1   0.0   1   2    0.0002      0.09   12.9   0.0   137   188   111   162   102   170 0.89 -
ID=PSME_00038011     -            364 46320at3193          -            493   1.8e-05   25.1   0.0   2   2    0.0018      0.79    9.8   0.0   268   296   267   295   253   297 0.93 -
ID=PSME_00000956     -            569 46320at3193          -            493   2.1e-05   24.9   0.2   1   3    0.0026       1.2    9.3   0.1   137   170   271   304   268   313 0.86 -
ID=PSME_00000956     -            569 46320at3193          -            493   2.1e-05   24.9   0.2   2   3       4.7   2.1e+03   -1.5   0.0   436   492   323   382   307   383 0.63 -
ID=PSME_00000956     -            569 46320at3193          -            493   2.1e-05   24.9   0.2   3   3   0.00026      0.12   12.6   0.0   260   296   524   560   501   564 0.89 -
ID=PSME_00038977     -            371 46320at3193          -            493   2.2e-05   24.8   0.4   1   2     0.002      0.88    9.7   0.1   140   184   130   173   123   190 0.83 -
ID=PSME_00038977     -            371 46320at3193          -            493   2.2e-05   24.8   0.4   2   2   0.00017     0.078   13.1   0.0   266   297   285   316   209   323 0.85 -
ID=PSME_00011690     -            302 46320at3193          -            493     3e-05   24.4   0.0   1   2    0.0012      0.52   10.4   0.0   142   179   114   151   109   164 0.80 -
ID=PSME_00011690     -            302 46320at3193          -            493     3e-05   24.4   0.0   2   2   0.00056      0.25   11.5   0.0   269   296   266   293   260   295 0.93 -
ID=PSME_00024296     -            304 46320at3193          -            493     4e-05   24.0   0.0   1   2     0.002      0.87    9.7   0.0   137   188   111   162   104   175 0.88 -
ID=PSME_00024296     -            304 46320at3193          -            493     4e-05   24.0   0.0   2   2   0.00046      0.21   11.7   0.0   266   296   265   295   191   297 0.73 -
ID=PSME_00031304     -            754 46320at3193          -            493   4.4e-05   23.8   0.3   1   4   0.00017     0.075   13.2   0.0   138   211   112   180   104   190 0.79 -
ID=PSME_00031304     -            754 46320at3193          -            493   4.4e-05   23.8   0.3   2   4       4.3   1.9e+03   -1.4   0.0   277   296   250   269   244   275 0.84 -
ID=PSME_00031304     -            754 46320at3193          -            493   4.4e-05   23.8   0.3   3   4     0.018       7.9    6.5   0.1   138   172   544   578   536   603 0.81 -
ID=PSME_00031304     -            754 46320at3193          -            493   4.4e-05   23.8   0.3   4   4       7.4   3.3e+03   -2.1   0.0   280   296   605   621   597   626 0.87 -
ID=PSME_00000955     -            604 46320at3193          -            493   5.6e-05   23.5   0.0   1   2    0.0093       4.1    7.4   0.0   138   171   235   268   232   282 0.87 -
ID=PSME_00000955     -            604 46320at3193          -            493   5.6e-05   23.5   0.0   2   2   0.00012     0.055   13.6   0.0   249   296   416   463   402   468 0.86 -
ID=PSME_00009306     -            489 46320at3193          -            493   8.4e-05   22.9   0.0   1   2    0.0027       1.2    9.2   0.0   137   178   226   266   223   283 0.86 -
ID=PSME_00009306     -            489 46320at3193          -            493   8.4e-05   22.9   0.0   2   2   0.00054      0.24   11.5   0.0   256   296   434   474   411   482 0.86 -
ID=PSME_00034385     -            303 46320at3193          -            493   0.00011   22.6   0.0   1   2   0.00014     0.061   13.5   0.0   138   188   111   161   108   167 0.90 -
ID=PSME_00034385     -            303 46320at3193          -            493   0.00011   22.6   0.0   2   2     0.018       7.9    6.5   0.0   268   295   266   293   260   296 0.92 -
ID=PSME_00035401     -            405 46320at3193          -            493   0.00012   22.4   0.0   1   2    0.0013      0.57   10.3   0.0   137   183   149   195   142   203 0.88 -
ID=PSME_00035401     -            405 46320at3193          -            493   0.00012   22.4   0.0   2   2    0.0019      0.84    9.7   0.0   268   296   305   333   297   335 0.93 -
ID=PSME_00024072     -            192 46320at3193          -            493   0.00017   21.9   0.0   1   1   4.6e-07   0.00021   21.6   0.0   252   297    37    82     5   110 0.83 -
ID=PSME_00000958     -            484 46320at3193          -            493   0.00022   21.5   0.0   1   2    0.0055       2.5    8.2   0.0   138   172   231   265   227   285 0.87 -
ID=PSME_00000958     -            484 46320at3193          -            493   0.00022   21.5   0.0   2   2   0.00078      0.35   11.0   0.0   253   298   412   457   399   461 0.87 -
ID=PSME_00051362     -            369 46320at3193          -            493   0.00023   21.5   0.1   1   2   1.8e-05     0.008   16.4   0.0   138   198    71   129    66   143 0.88 -
ID=PSME_00051362     -            369 46320at3193          -            493   0.00023   21.5   0.1   2   2      0.23     1e+02    2.8   0.0   277   297   209   229   202   247 0.77 -
ID=PSME_00018149     -            305 46320at3193          -            493    0.0003   21.1   0.0   1   2    0.0025       1.1    9.3   0.0   138   183   112   158   102   170 0.81 -
ID=PSME_00018149     -            305 46320at3193          -            493    0.0003   21.1   0.0   2   2    0.0029       1.3    9.1   0.0   268   296   268   296   260   298 0.93 -
ID=PSME_00041632     -            226 46320at3193          -            493   0.00031   21.1   0.0   1   2     0.017       7.6    6.6   0.0   136   190    32    86    26   100 0.86 -
ID=PSME_00041632     -            226 46320at3193          -            493   0.00031   21.1   0.0   2   2   0.00033      0.15   12.2   0.0   268   296   189   217   184   219 0.93 -
ID=PSME_00035978     -            307 46320at3193          -            493   0.00046   20.5   0.0   1   2   0.00025      0.11   12.6   0.0   138   193   115   170   108   177 0.88 -
ID=PSME_00035978     -            307 46320at3193          -            493   0.00046   20.5   0.0   2   2     0.038        17    5.4   0.0   268   296   270   298   261   301 0.93 -
ID=PSME_00054675     -            456 46320at3193          -            493   0.00079   19.7   0.0   1   2    0.0022      0.96    9.5   0.0   140   172   193   225   188   245 0.88 -
ID=PSME_00054675     -            456 46320at3193          -            493   0.00079   19.7   0.0   2   2    0.0069       3.1    7.9   0.0   269   298   365   394   338   413 0.83 -
ID=PSME_00027798     -            363 46320at3193          -            493     0.001   19.4   0.0   1   2   0.00069      0.31   11.2   0.1   139   171    20    52    13    74 0.80 -
ID=PSME_00027798     -            363 46320at3193          -            493     0.001   19.4   0.0   2   2      0.03        13    5.8   0.0   269   295   194   220   170   228 0.83 -
ID=PSME_00031454     -            175 46320at3193          -            493    0.0016   18.7   0.4   1   1     5e-06    0.0022   18.2   0.4   138   183   111   156   105   166 0.86 -
ID=PSME_00020920     -            414 46320at3193          -            493    0.0016   18.7   0.3   1   2    0.0013       0.6   10.2   0.2   139   174   160   195    74   216 0.82 -
ID=PSME_00020920     -            414 46320at3193          -            493    0.0016   18.7   0.3   2   2     0.019       8.3    6.4   0.0   270   297   327   354   319   365 0.86 -
ID=PSME_00043069     -            414 46320at3193          -            493    0.0021   18.3   0.1   1   2    0.0018      0.82    9.8   0.1   139   174   160   195   125   216 0.84 -
ID=PSME_00043069     -            414 46320at3193          -            493    0.0021   18.3   0.1   2   2     0.019       8.3    6.4   0.0   270   297   327   354   319   365 0.86 -
ID=PSME_00006282     -            210 46320at3193          -            493    0.0021   18.3   0.1   1   1   6.4e-06    0.0028   17.9   0.1   132   184    57   107    47   117 0.86 -
ID=PSME_00000957     -            493 46320at3193          -            493    0.0022   18.3   0.0   1   2     0.016         7    6.7   0.0   138   172   243   277   238   295 0.87 -
ID=PSME_00000957     -            493 46320at3193          -            493    0.0022   18.3   0.0   2   2    0.0027       1.2    9.2   0.0   249   296   417   464   393   469 0.87 -
ID=PSME_00021685     -            616 46320at3193          -            493    0.0023   18.2   0.1   1   1   1.1e-05    0.0048   17.1   0.1   138   172   112   146   106   170 0.84 -
ID=PSME_00012519     -            270 46320at3193          -            493    0.0023   18.2   0.0   1   1   8.3e-06    0.0037   17.5   0.0   129   188    94   153    75   158 0.91 -
ID=PSME_00009082     -            366 46320at3193          -            493    0.0031   17.8   0.0   1   2     0.015       6.9    6.7   0.0   138   188   112   162   104   174 0.86 -
ID=PSME_00009082     -            366 46320at3193          -            493    0.0031   17.8   0.0   2   2     0.004       1.8    8.7   0.0   268   296   267   295   253   297 0.93 -
ID=PSME_00021684     -            555 46320at3193          -            493    0.0033   17.7   0.1   1   1   1.6e-05    0.0071   16.6   0.1   137   172   105   140    99   164 0.84 -
ID=PSME_00056991     -            247 46320at3193          -            493    0.0035   17.6   0.1   1   2    0.0049       2.2    8.4   0.0   140   193    82   133    75   148 0.85 -
ID=PSME_00056991     -            247 46320at3193          -            493    0.0035   17.6   0.1   2   2      0.01       4.5    7.3   0.1   270   296   211   237   207   244 0.92 -
ID=PSME_00054971     -            450 46320at3193          -            493    0.0042   17.3   0.1   1   1   1.9e-05    0.0083   16.3   0.0   138   197   106   163    93   183 0.86 -
ID=PSME_00013919     -            175 46320at3193          -            493    0.0045   17.2   0.3   1   1   1.4e-05    0.0061   16.8   0.3   138   183   111   156   107   166 0.85 -
ID=PSME_00048171     -            414 46320at3193          -            493    0.0046   17.2   0.1   1   1     3e-05     0.013   15.7   0.0   138   217   137   215   127   220 0.89 -
ID=PSME_00048489     -            108 46320at3193          -            493    0.0047   17.2   0.2   1   1   1.2e-05    0.0053   17.0   0.2   142   183     2    43     1    56 0.89 -
ID=PSME_00011858     -            237 46320at3193          -            493    0.0052   17.0   0.0   1   1   1.6e-05    0.0071   16.6   0.0   248   296   184   232   170   234 0.88 -
ID=PSME_00036437     -            551 46320at3193          -            493    0.0055   16.9   0.0   1   2     0.024        11    6.1   0.0   142   188   182   230   167   236 0.80 -
ID=PSME_00036437     -            551 46320at3193          -            493    0.0055   16.9   0.0   2   2    0.0041       1.8    8.6   0.0   270   308   310   348   296   363 0.83 -
ID=PSME_00032498     -            471 46320at3193          -            493    0.0066   16.7   0.0   1   1   2.4e-05     0.011   16.0   0.0   138   191   246   298   234   310 0.86 -
ID=PSME_00045540     -            395 46320at3193          -            493     0.007   16.6   0.0   1   2   0.00033      0.15   12.2   0.0   139   189   177   227   169   248 0.88 -
ID=PSME_00045540     -            395 46320at3193          -            493     0.007   16.6   0.0   2   2       0.4   1.8e+02    2.0   0.0   268   292   331   355   326   360 0.89 -
ID=PSME_00013918     -            284 46320at3193          -            493    0.0071   16.6   0.2   1   1   2.3e-05      0.01   16.1   0.2   138   183   111   156   106   171 0.84 -
ID=PSME_00038411     -            888 46320at3193          -            493    0.0075   16.5   0.0   1   2     0.026        12    6.0   0.0   139   172   474   507   469   540 0.80 -
ID=PSME_00038411     -            888 46320at3193          -            493    0.0075   16.5   0.0   2   2    0.0062       2.7    8.0   0.0   267   295   635   663   545   668 0.90 -
ID=PSME_00017130     -            388 46320at3193          -            493    0.0076   16.5   0.1   1   2     6e-05     0.027   14.7   0.1   138   192   111   163   105   186 0.83 -
ID=PSME_00017130     -            388 46320at3193          -            493    0.0076   16.5   0.1   2   2       4.1   1.8e+03   -1.3   0.0   277   297   249   269   243   286 0.83 -
ID=PSME_00019556     -            282 46320at3193          -            493    0.0078   16.4   0.1   1   2     5e-05     0.022   14.9   0.0   138   198   106   164    99   184 0.83 -
ID=PSME_00019556     -            282 46320at3193          -            493    0.0078   16.4   0.1   2   2         6   2.7e+03   -1.8   0.0   277   296   244   263   237   267 0.83 -
ID=PSME_00031911     -            495 46320at3193          -            493    0.0085   16.3   0.0   1   1   2.9e-05     0.013   15.7   0.0   138   195   112   167   105   190 0.83 -
ID=PSME_00034820     -            376 46320at3193          -            493    0.0088   16.2   0.1   1   2   6.1e-05     0.027   14.6   0.0   138   198   107   165   100   185 0.83 -
ID=PSME_00034820     -            376 46320at3193          -            493    0.0088   16.2   0.1   2   2         5   2.2e+03   -1.6   0.0   276   296   244   264   238   270 0.84 -
ID=PSME_00034816     -            376 46320at3193          -            493    0.0092   16.2   0.1   1   2   6.6e-05      0.03   14.5   0.0   138   198   107   165   100   185 0.83 -
ID=PSME_00034816     -            376 46320at3193          -            493    0.0092   16.2   0.1   2   2       4.6   2.1e+03   -1.5   0.0   276   296   244   264   238   271 0.84 -
ID=PSME_00038176     -            381 46320at3193          -            493    0.0097   16.1   0.0   1   2   8.7e-05     0.039   14.1   0.0   138   216   106   179   100   185 0.82 -
ID=PSME_00038176     -            381 46320at3193          -            493    0.0097   16.1   0.0   2   2       3.4   1.5e+03   -1.0   0.0   273   296   240   263   236   270 0.85 -
ID=PSME_00000224     -            922 46320at3193          -            493      0.01   16.0   0.1   1   1   3.8e-05     0.017   15.3   0.1   135   192   160   219   127   226 0.89 -
ID=PSME_00044076     -            148 46320at3193          -            493     0.012   15.8   0.3   1   1   3.4e-05     0.015   15.5   0.3   142   183    13    54     5    65 0.85 -
ID=PSME_00031908     -            440 46320at3193          -            493     0.012   15.8   0.0   1   1   4.2e-05     0.019   15.2   0.0   138   191   117   168   110   194 0.85 -
ID=PSME_00000016     -            761 46320at3193          -            493     0.014   15.6   1.4   1   3       8.4   3.7e+03   -2.3   0.1   447   481   456   493   429   502 0.73 -
ID=PSME_00000016     -            761 46320at3193          -            493     0.014   15.6   1.4   2   3     0.068        30    4.6   0.2   139   188   515   563   507   620 0.79 -
ID=PSME_00000016     -            761 46320at3193          -            493     0.014   15.6   1.4   3   3    0.0068         3    7.9   0.0   267   295   676   704   672   709 0.93 -
ID=PSME_00052002     -            558 46320at3193          -            493     0.014   15.6   0.1   1   2   8.7e-05     0.039   14.1   0.0   138   185   112   157   106   187 0.81 -
ID=PSME_00052002     -            558 46320at3193          -            493     0.014   15.6   0.1   2   2       6.1   2.7e+03   -1.9   0.0   277   296   250   269   244   277 0.82 -
ID=PSME_00056570     -            525 46320at3193          -            493     0.014   15.6   0.0   1   1   6.1e-05     0.027   14.6   0.0   138   186   105   151    99   177 0.84 -
ID=PSME_00043090     -            194 46320at3193          -            493     0.016   15.4   0.2   1   1   5.4e-05     0.024   14.8   0.2   142   183    83   124    77   135 0.87 -
ID=PSME_00031909     -            513 46320at3193          -            493     0.017   15.3   0.0   1   1   6.1e-05     0.027   14.6   0.0   138   191   106   157    99   183 0.85 -
ID=PSME_00024671     -            374 46320at3193          -            493     0.017   15.3   0.1   1   1   6.4e-05     0.028   14.6   0.1   138   189   154   204   149   212 0.88 -
ID=PSME_00019555     -            378 46320at3193          -            493     0.018   15.2   0.0   1   1   7.7e-05     0.034   14.3   0.0   138   198   106   164    99   184 0.83 -
ID=PSME_00006103     -            888 46320at3193          -            493     0.019   15.2   0.3   1   1   6.4e-05     0.029   14.6   0.3   136   193   127   186   118   193 0.88 -
ID=PSME_00006249     -           1495 46320at3193          -            493      0.02   15.1   0.2   1   2     0.015       6.7    6.8   0.0   141   182   565   606   558   644 0.81 -
ID=PSME_00006249     -           1495 46320at3193          -            493      0.02   15.1   0.2   2   2     0.032        14    5.7   0.1   141   177  1267  1303  1260  1318 0.80 -
ID=PSME_00017131     -            504 46320at3193          -            493     0.024   14.8   0.3   1   2   0.00013      0.06   13.5   0.1   138   191   111   162   105   185 0.86 -
ID=PSME_00017131     -            504 46320at3193          -            493     0.024   14.8   0.3   2   2       6.3   2.8e+03   -1.9   0.0   277   296   249   268   243   274 0.84 -
ID=PSME_00038769     -           1083 46320at3193          -            493     0.026   14.7   0.3   1   1     9e-05      0.04   14.1   0.3   135   193   150   210   115   217 0.87 -
ID=PSME_00043070     -            258 46320at3193          -            493     0.028   14.6   0.0   1   2     0.041        18    5.3   0.0   143   174     1    32     1    54 0.81 -
ID=PSME_00043070     -            258 46320at3193          -            493     0.028   14.6   0.0   2   2     0.011       4.9    7.2   0.0   271   297   172   198   163   210 0.86 -
ID=PSME_00055313     -            242 46320at3193          -            493     0.028   14.6   0.9   1   2    0.0082       3.7    7.6   0.1   138   163   112   137   107   147 0.87 -
ID=PSME_00055313     -            242 46320at3193          -            493     0.028   14.6   0.9   2   2     0.036        16    5.5   0.1   277   296   213   232   207   238 0.86 -
ID=PSME_00034819     -            195 46320at3193          -            493     0.032   14.4   0.0   1   1   9.4e-05     0.042   14.0   0.0   138   193   138   191   130   194 0.86 -
ID=PSME_00012899     -            235 46320at3193          -            493     0.038   14.2   0.2   1   1   0.00012     0.054   13.7   0.2   136   183   174   220   166   229 0.82 -
ID=PSME_00056997     -            552 46320at3193          -            493     0.039   14.1   0.0   1   1   0.00021     0.093   12.9   0.0   138   190   112   162   105   192 0.82 -
ID=PSME_00031302     -            882 46320at3193          -            493     0.041   14.0   0.0   1   2   0.00037      0.16   12.1   0.0   139   210   339   405   333   416 0.79 -
ID=PSME_00031302     -            882 46320at3193          -            493     0.041   14.0   0.0   2   2       5.4   2.4e+03   -1.7   0.0   277   296   476   495   470   501 0.84 -
ID=PSME_00029763     -           1067 46320at3193          -            493     0.043   14.0   0.4   1   1   0.00016      0.07   13.3   0.4   136   191   136   193   129   201 0.87 -
ID=PSME_00001840     -            249 46320at3193          -            493     0.044   14.0   0.0   1   1   0.00015     0.069   13.3   0.0   268   296   212   240   207   242 0.93 -
ID=PSME_00025814     -            333 46320at3193          -            493     0.048   13.8   0.3   1   1   0.00014     0.063   13.4   0.3    84   183    91   199    75   213 0.64 -
ID=PSME_00027139     -            639 46320at3193          -            493      0.05   13.8   0.0   1   1   0.00019     0.083   13.0   0.0   138   197   104   161    97   180 0.86 -
ID=PSME_00018728     -            289 46320at3193          -            493     0.063   13.4   0.3   1   1   0.00018     0.081   13.1   0.3   135   190   123   180    63   189 0.89 -
ID=PSME_00018729     -            290 46320at3193          -            493     0.066   13.4   0.4   1   1   0.00019     0.086   13.0   0.4   135   190   123   180    64   189 0.90 -
ID=PSME_00050097     -            282 46320at3193          -            493      0.07   13.3   0.0   1   2      0.07        31    4.6   0.0   143   182    55    93    51   111 0.77 -
ID=PSME_00050097     -            282 46320at3193          -            493      0.07   13.3   0.0   2   2     0.017       7.4    6.6   0.0   268   297   206   235   198   240 0.90 -
ID=PSME_00055180     -            256 46320at3193          -            493     0.078   13.1   0.1   1   2    0.0014      0.64   10.1   0.1   133   171    17    55    13    74 0.91 -
ID=PSME_00055180     -            256 46320at3193          -            493     0.078   13.1   0.1   2   2      0.94   4.2e+02    0.8   0.0   270   302   183   219   161   225 0.78 -
ID=PSME_00005007     -           1252 46320at3193          -            493      0.08   13.1   0.0   1   2     0.029        13    5.8   0.0   130   186   995  1051   987  1064 0.90 -
ID=PSME_00005007     -           1252 46320at3193          -            493      0.08   13.1   0.0   2   2     0.054        24    4.9   0.0   271   299  1186  1214  1180  1222 0.89 -
ID=PSME_00045921     -            299 46320at3193          -            493     0.085   13.0   0.0   1   2   0.00096      0.43   10.7   0.0   138   198   107   165   100   185 0.83 -
ID=PSME_00045921     -            299 46320at3193          -            493     0.085   13.0   0.0   2   2       2.2   9.8e+02   -0.4   0.0   277   296   245   264   238   272 0.84 -
ID=PSME_00028219     -            249 46320at3193          -            493     0.085   13.0   0.0   1   1   0.00046       0.2   11.8   0.0   268   296   212   240   209   242 0.94 -
ID=PSME_00007120     -            206 46320at3193          -            493     0.087   13.0   0.1   1   3     0.036        16    5.5   0.0   149   184    11    47     3    56 0.83 -
ID=PSME_00007120     -            206 46320at3193          -            493     0.087   13.0   0.1   2   3       8.2   3.6e+03   -2.3   0.0   312   368    82   139    77   159 0.67 -
ID=PSME_00007120     -            206 46320at3193          -            493     0.087   13.0   0.1   3   3     0.055        25    4.9   0.0   271   300   171   200   163   205 0.88 -
ID=PSME_00011116     -            463 46320at3193          -            493       0.1   12.8   0.0   1   2     0.074        33    4.5   0.0   146   183   109   144   101   154 0.77 -
ID=PSME_00011116     -            463 46320at3193          -            493       0.1   12.8   0.0   2   2     0.027        12    5.9   0.0   269   297   256   284   230   297 0.88 -
ID=PSME_00052616     -             89 46320at3193          -            493      0.12   12.6   0.0   1   1   0.00032      0.14   12.3   0.0   268   296    46    74    40    79 0.92 -
ID=PSME_00027505     -            386 46320at3193          -            493      0.12   12.5   0.0   1   2      0.02       9.1    6.3   0.0   143   192   159   207   150   220 0.84 -
ID=PSME_00027505     -            386 46320at3193          -            493      0.12   12.5   0.0   2   2      0.12        52    3.8   0.0   271   297   313   339   307   343 0.92 -
ID=PSME_00031910     -            487 46320at3193          -            493      0.12   12.5   0.0   1   1   0.00046       0.2   11.8   0.0   138   195   112   167   105   187 0.86 -
ID=PSME_00044543     -            295 46320at3193          -            493      0.12   12.5   0.0   1   1    0.0005      0.22   11.6   0.0   268   296   258   286   254   288 0.93 -
ID=PSME_00009083     -            174 46320at3193          -            493      0.13   12.4   0.0   1   1   0.00039      0.17   12.0   0.0   262   296   131   165    56   169 0.65 -
ID=PSME_00049605     -            102 46320at3193          -            493      0.15   12.2   0.0   1   1   0.00042      0.19   11.9   0.0   268   296    59    87    53    92 0.92 -
ID=PSME_00031783     -            346 46320at3193          -            493      0.16   12.1   0.0   1   2     0.066        30    4.6   0.0   143   179   122   157   113   176 0.80 -
ID=PSME_00031783     -            346 46320at3193          -            493      0.16   12.1   0.0   2   2     0.043        19    5.2   0.0   274   297   279   302   273   310 0.88 -
ID=PSME_00011490     -            488 46320at3193          -            493      0.16   12.1   0.0   1   2     0.057        25    4.8   0.0   146   186   118   156   110   162 0.80 -
ID=PSME_00011490     -            488 46320at3193          -            493      0.16   12.1   0.0   2   2     0.052        23    5.0   0.0   270   297   266   293   250   308 0.85 -
ID=PSME_00024423     -            295 46320at3193          -            493      0.16   12.1   0.0   1   1   0.00046      0.21   11.7   0.0   329   401   128   205   126   255 0.77 -
ID=PSME_00002242     -            954 46320at3193          -            493      0.17   12.0   0.1   1   2    0.0011      0.51   10.5   0.1   140   172   660   692   611   709 0.86 -
ID=PSME_00002242     -            954 46320at3193          -            493      0.17   12.0   0.1   2   2       9.2   4.1e+03   -2.4   0.0   271   297   791   817   788   824 0.85 -
ID=PSME_00052977     -            144 46320at3193          -            493      0.17   12.0   0.6   1   2     0.043        19    5.3   0.1    30    79    55   106    49   112 0.83 -
ID=PSME_00052977     -            144 46320at3193          -            493      0.17   12.0   0.6   2   2      0.04        18    5.3   0.0   272   296   111   135   107   137 0.90 -
ID=PSME_00021689     -            573 46320at3193          -            493      0.18   11.9   0.0   1   1   0.00067       0.3   11.2   0.0   138   192   114   166   108   182 0.85 -
ID=PSME_00003904     -            134 46320at3193          -            493      0.19   11.8   0.0   1   1    0.0008      0.36   11.0   0.0   267   296    95   124    88   128 0.93 -
ID=PSME_00053074     -             65 46320at3193          -            493       0.2   11.8   0.1   1   1   0.00044       0.2   11.8   0.1   141   190     3    53     1    63 0.77 -
ID=PSME_00034817     -            378 46320at3193          -            493       0.2   11.8   0.1   1   2    0.0011       0.5   10.5   0.0   138   196   106   162    99   183 0.78 -
ID=PSME_00034817     -            378 46320at3193          -            493       0.2   11.8   0.1   2   2       9.2   4.1e+03   -2.4   0.0   277   296   244   263   238   267 0.84 -
ID=PSME_00004159     -            134 46320at3193          -            493       0.2   11.8   0.0   1   1   0.00082      0.37   10.9   0.0   267   296    95   124    85   128 0.93 -
ID=PSME_00019552     -            526 46320at3193          -            493      0.21   11.7   1.0   1   1    0.0018       0.8    9.8   0.2   148   211   135   193   107   203 0.80 -
ID=PSME_00052627     -            192 46320at3193          -            493      0.23   11.6   0.2   1   1   0.00074      0.33   11.1   0.2   144   188     9    55     4    63 0.89 -
ID=PSME_00055582     -            495 46320at3193          -            493      0.23   11.6   0.3   1   2    0.0076       3.4    7.7   0.1   136   178   208   249   136   256 0.91 -
ID=PSME_00055582     -            495 46320at3193          -            493      0.23   11.6   0.3   2   2      0.49   2.2e+02    1.8   0.0   264   304   408   452   376   456 0.82 -
ID=PSME_00019502     -            422 46320at3193          -            493      0.24   11.5   0.0   1   1   0.00078      0.35   11.0   0.0   246   296   341   391   297   393 0.90 -
ID=PSME_00038174     -            615 46320at3193          -            493      0.25   11.5   0.0   1   1    0.0011       0.5   10.5   0.0   138   193   105   158   101   179 0.86 -
ID=PSME_00020583     -            431 46320at3193          -            493      0.25   11.4   0.0   1   1    0.0009       0.4   10.8   0.0   144   183   129   167   122   199 0.81 -
ID=PSME_00025586     -            126 46320at3193          -            493       0.3   11.2   0.0   1   1   0.00093      0.42   10.7   0.0   135   174    53    90    32   105 0.82 -
ID=PSME_00025840     -            469 46320at3193          -            493      0.34   11.0   0.0   1   1    0.0011      0.48   10.5   0.0   143   183   165   204   105   237 0.87 -
ID=PSME_00001215     -            438 46320at3193          -            493      0.35   11.0   0.4   1   2       1.3   5.7e+02    0.4   0.0    23    64   177   215   161   222 0.76 -
ID=PSME_00001215     -            438 46320at3193          -            493      0.35   11.0   0.4   2   2    0.0058       2.6    8.1   0.1   139   179   259   299   256   318 0.85 -
ID=PSME_00022962     -            849 46320at3193          -            493      0.39   10.8   0.4   1   2    0.0048       2.1    8.4   0.1   145   187   112   153   105   163 0.84 -
ID=PSME_00022962     -            849 46320at3193          -            493      0.39   10.8   0.4   2   2         2   8.7e+02   -0.2   0.0   272   296   234   258   226   273 0.86 -
ID=PSME_00021688     -            645 46320at3193          -            493       0.4   10.8   0.0   1   1     0.002      0.87    9.7   0.0   138   172   112   146   106   180 0.83 -
ID=PSME_00015756     -            359 46320at3193          -            493       0.4   10.8   0.1   1   2    0.0031       1.4    9.0   0.0   145   188   146   189    54   199 0.87 -
ID=PSME_00015756     -            359 46320at3193          -            493       0.4   10.8   0.1   2   2       3.1   1.4e+03   -0.9   0.0   271   296   297   322   289   328 0.91 -
ID=PSME_00033542     -            574 46320at3193          -            493      0.44   10.6   0.0   1   1    0.0025       1.1    9.3   0.0   129   200   259   332   241   353 0.80 -
ID=PSME_00052001     -            558 46320at3193          -            493      0.51   10.5   0.0   1   1    0.0022      0.98    9.5   0.0   138   185   112   157   106   187 0.81 -
ID=PSME_00056326     -            407 46320at3193          -            493      0.52   10.4   0.1   1   2      0.11        51    3.8   0.0   142   172   115   145   108   165 0.82 -
ID=PSME_00056326     -            407 46320at3193          -            493      0.52   10.4   0.1   2   2     0.087        39    4.2   0.0   261   296   266   301   226   305 0.86 -
ID=PSME_00038288     -            134 46320at3193          -            493      0.53   10.4   0.0   1   2       5.5   2.5e+03   -1.7   0.0    60   106    33    83    28    94 0.65 -
ID=PSME_00038288     -            134 46320at3193          -            493      0.53   10.4   0.0   2   2    0.0028       1.2    9.2   0.0   267   296    95   124    90   128 0.93 -
ID=PSME_00031907     -            433 46320at3193          -            493      0.55   10.3   0.0   1   2    0.0042       1.9    8.6   0.0   138   191   109   160   103   177 0.83 -
ID=PSME_00031907     -            433 46320at3193          -            493      0.55   10.3   0.0   2   2       6.1   2.7e+03   -1.8   0.0   280   297   250   267   242   309 0.65 -
ID=PSME_00037779     -           1580 46320at3193          -            493      0.58   10.3   0.1   1   1     0.002      0.88    9.7   0.1   132   183  1319  1368  1309  1378 0.83 -
ID=PSME_00019799     -            508 46320at3193          -            493      0.59   10.2   0.1   1   2     0.013       5.9    6.9   0.0   139   188   140   188   125   202 0.80 -
ID=PSME_00019799     -            508 46320at3193          -            493      0.59   10.2   0.1   2   2      0.95   4.2e+02    0.8   0.0   271   294   299   322   290   335 0.83 -
ID=PSME_00051956     -            105 46320at3193          -            493      0.61   10.2   0.0   1   1    0.0017      0.77    9.9   0.0   268   296    62    90    57    95 0.91 -
ID=PSME_00048002     -            202 46320at3193          -            493      0.63   10.1   0.0   1   1     0.002      0.87    9.7   0.0   140   185    66   112    48   123 0.81 -
ID=PSME_00022390     -            336 46320at3193          -            493      0.63   10.1   0.0   1   1    0.0024       1.1    9.4   0.0   268   296   299   327   295   329 0.93 -
#
# Program:         hmmsearch
# Version:         3.2.1 (June 2018)
# Pipeline mode:   SEARCH
# Query file:      /isg/shared/databases/BUSCO/odb10/embryophyta_odb10/hmms/46320at3193.hmm
# Target file:     /labs/Wegrzyn/ConiferGenomes/Psme/analysis/SURF_annotation/analyze_orig_maker/gfacs/filtered/maker_genes.fasta.faa
# Option settings: /usr/local/bin/hmmsearch --domtblout /labs/Wegrzyn/ConiferGenomes/Psme/analysis/SURF_annotation/analyze_orig_maker/busco/maker/run_embryophyta_odb10/hmmer_output/46320at3193.out --cpu 1 /isg/shared/databases/BUSCO/odb10/embryophyta_odb10/hmms/46320at3193.hmm /labs/Wegrzyn/ConiferGenomes/Psme/analysis/SURF_annotation/analyze_orig_maker/gfacs/filtered/maker_genes.fasta.faa 
# Current dir:     /labs/Wegrzyn/ConiferGenomes/Psme/analysis/SURF_annotation/analyze_orig_maker/busco
# Date:            Fri Jul 10 13:50:52 2020
# [ok]
