#                                                                            --- full sequence --- -------------- this domain -------------   hmm coord   ali coord   env coord
# target name        accession   tlen query name           accession   qlen   E-value  score  bias   #  of  c-Evalue  i-Evalue  score  bias  from    to  from    to  from    to  acc description of target
#------------------- ---------- ----- -------------------- ---------- ----- --------- ------ ----- --- --- --------- --------- ------ ----- ----- ----- ----- ----- ----- ----- ---- ---------------------
ID=PSME_00000434     -            379 46642at3193          -            431   2.2e-63  215.9  11.1   1   4   7.3e-09    0.0001   22.6   0.0   158   191   120   157   112   165 0.84 -
ID=PSME_00000434     -            379 46642at3193          -            431   2.2e-63  215.9  11.1   2   4   7.8e-10   1.1e-05   25.8   0.3   185   210   174   199   164   207 0.91 -
ID=PSME_00000434     -            379 46642at3193          -            431   2.2e-63  215.9  11.1   3   4   1.1e-44   1.4e-40  140.7   0.6   277   352   231   306   228   307 0.98 -
ID=PSME_00000434     -            379 46642at3193          -            431   2.2e-63  215.9  11.1   4   4   5.5e-13   7.5e-09   36.2   0.2   387   425   304   343   303   351 0.86 -
ID=PSME_00039871     -            320 46642at3193          -            431     1e-27   98.4   1.9   1   2   8.5e-24   1.2e-19   71.8   0.1   310   351    71   112    46   113 0.88 -
ID=PSME_00039871     -            320 46642at3193          -            431     1e-27   98.4   1.9   2   2   2.7e-11   3.7e-07   30.6   0.2   386   418   110   143   109   149 0.91 -
ID=PSME_00042022     -            569 46642at3193          -            431     0.007   16.6   3.9   1   2   1.4e-05      0.19   11.8   0.3    34   110   115   191    90   203 0.86 -
ID=PSME_00042022     -            569 46642at3193          -            431     0.007   16.6   3.9   2   2    0.0012        17    5.4   0.3    43   110   411   478   379   488 0.83 -
ID=PSME_00040963     -            570 46642at3193          -            431     0.017   15.3   4.4   1   2   2.8e-05      0.38   10.9   0.4    34   110   114   190    93   203 0.86 -
ID=PSME_00040963     -            570 46642at3193          -            431     0.017   15.3   4.4   2   2   0.00091        12    5.9   0.3    36   110   400   477   364   486 0.81 -
#
# Program:         hmmsearch
# Version:         3.2.1 (June 2018)
# Pipeline mode:   SEARCH
# Query file:      /isg/shared/databases/BUSCO/odb10/embryophyta_odb10/hmms/46642at3193.hmm
# Target file:     /labs/Wegrzyn/ConiferGenomes/Psme/analysis/SURF_annotation/analyze_orig_maker/gfacs/filtered/maker_genes.fasta.faa
# Option settings: /usr/local/bin/hmmsearch --domtblout /labs/Wegrzyn/ConiferGenomes/Psme/analysis/SURF_annotation/analyze_orig_maker/busco/maker/run_embryophyta_odb10/hmmer_output/46642at3193.out --cpu 1 /isg/shared/databases/BUSCO/odb10/embryophyta_odb10/hmms/46642at3193.hmm /labs/Wegrzyn/ConiferGenomes/Psme/analysis/SURF_annotation/analyze_orig_maker/gfacs/filtered/maker_genes.fasta.faa 
# Current dir:     /labs/Wegrzyn/ConiferGenomes/Psme/analysis/SURF_annotation/analyze_orig_maker/busco
# Date:            Fri Jul 10 13:50:51 2020
# [ok]
