#                                                                            --- full sequence --- -------------- this domain -------------   hmm coord   ali coord   env coord
# target name        accession   tlen query name           accession   qlen   E-value  score  bias   #  of  c-Evalue  i-Evalue  score  bias  from    to  from    to  from    to  acc description of target
#------------------- ---------- ----- -------------------- ---------- ----- --------- ------ ----- --- --- --------- --------- ------ ----- ----- ----- ----- ----- ----- ----- ---- ---------------------
ID=PSME_00036395     -            464 48546at3193          -            464   3.1e-12   47.7   0.0   1   1   1.5e-15     4e-12   47.3   0.0    34   317    61   358    37   385 0.75 -
ID=PSME_00034672     -            525 48546at3193          -            464   2.8e-11   44.5   0.0   1   1   1.5e-14   3.9e-11   44.0   0.0    18   398    63   460    49   476 0.78 -
ID=PSME_00008299     -            540 48546at3193          -            464     9e-11   42.8   0.0   1   1   4.7e-14   1.2e-10   42.4   0.0    94   398   124   436    29   451 0.71 -
ID=PSME_00045242     -            105 48546at3193          -            464   1.2e-10   42.5   0.0   1   1   5.5e-14   1.4e-10   42.2   0.0    16    55    42    85    30    92 0.83 -
ID=PSME_00002710     -            518 48546at3193          -            464   3.1e-09   37.8   0.0   1   1   1.5e-12   3.9e-09   37.5   0.0   101   401   148   456    54   481 0.77 -
ID=PSME_00000126     -            517 48546at3193          -            464   6.6e-09   36.7   0.0   1   1   3.3e-12   8.5e-09   36.3   0.0   120   383   202   477   152   507 0.77 -
ID=PSME_00019730     -            370 48546at3193          -            464   1.4e-08   35.7   0.1   1   1     7e-12   1.8e-08   35.2   0.1   123   397    19   304     6   320 0.76 -
ID=PSME_00010809     -            502 48546at3193          -            464   5.1e-08   33.8   0.0   1   1   2.4e-11   6.4e-08   33.5   0.0    96   397   132   436    34   469 0.77 -
ID=PSME_00035677     -            455 48546at3193          -            464     6e-08   33.5   0.0   1   2   1.5e-10   3.9e-07   30.9   0.0    18   295    39   326    25   333 0.77 -
ID=PSME_00035677     -            455 48546at3193          -            464     6e-08   33.5   0.0   2   2      0.31   8.2e+02    0.1   0.0   356   399   347   391   340   406 0.71 -
ID=PSME_00015755     -            538 48546at3193          -            464   1.8e-07   32.0   0.0   1   2   4.2e-10   1.1e-06   29.4   0.0    19   295    40   326    25   336 0.78 -
ID=PSME_00015755     -            538 48546at3193          -            464   1.8e-07   32.0   0.0   2   2      0.28   7.4e+02    0.3   0.0   355   398   346   390   332   404 0.73 -
ID=PSME_00036266     -            565 48546at3193          -            464   3.4e-07   31.0   0.0   1   2   0.00015      0.39   11.1   0.0    18   169    63   220    49   242 0.73 -
ID=PSME_00036266     -            565 48546at3193          -            464   3.4e-07   31.0   0.0   2   2   1.3e-06    0.0033   17.9   0.0   208   398   300   500   254   516 0.67 -
ID=PSME_00019729     -            552 48546at3193          -            464   5.7e-07   30.3   0.0   1   2   0.00015      0.39   11.1   0.0    18   168    50   206    36   228 0.78 -
ID=PSME_00019729     -            552 48546at3193          -            464   5.7e-07   30.3   0.0   2   2   2.1e-06    0.0054   17.2   0.0   208   398   287   487   241   503 0.68 -
ID=PSME_00009243     -            545 48546at3193          -            464   1.8e-06   28.7   0.0   1   1   1.1e-09   2.9e-06   28.0   0.0   129   411   136   426   119   435 0.80 -
ID=PSME_00046737     -            207 48546at3193          -            464   1.3e-05   25.8   0.0   1   2   1.3e-07   0.00034   21.2   0.0    63   199    14   148     3   159 0.76 -
ID=PSME_00046737     -            207 48546at3193          -            464   1.3e-05   25.8   0.0   2   2     0.043   1.1e+02    3.0   0.0   266   297   161   191   152   199 0.70 -
ID=PSME_00009575     -            268 48546at3193          -            464    0.0037   17.7   0.0   1   1   1.9e-06     0.005   17.3   0.0   123   218   151   247   141   266 0.80 -
ID=PSME_00023777     -            468 48546at3193          -            464    0.0058   17.1   0.0   1   1   3.2e-06    0.0083   16.6   0.0    19   224     8   220     2   256 0.78 -
ID=PSME_00031225     -            238 48546at3193          -            464     0.021   15.2   0.0   1   1   9.5e-06     0.025   15.0   0.0    60   182   110   232    50   235 0.73 -
ID=PSME_00026199     -             63 48546at3193          -            464      0.12   12.8   0.0   1   1   4.7e-05      0.12   12.8   0.0   356   402     2    49     1    61 0.81 -
ID=PSME_00006472     -            215 48546at3193          -            464      0.25   11.7   0.0   1   1   0.00014      0.36   11.2   0.0     7    47    34    74    30   101 0.85 -
ID=PSME_00048741     -            237 48546at3193          -            464      0.27   11.6   0.0   1   1   0.00014      0.37   11.2   0.0   320   375    32    88    15   136 0.77 -
ID=PSME_00014658     -            162 48546at3193          -            464      0.47   10.8   0.0   1   1   0.00021      0.56   10.6   0.0    88   165    75   153    59   159 0.76 -
#
# Program:         hmmsearch
# Version:         3.2.1 (June 2018)
# Pipeline mode:   SEARCH
# Query file:      /isg/shared/databases/BUSCO/odb10/embryophyta_odb10/hmms/48546at3193.hmm
# Target file:     /labs/Wegrzyn/ConiferGenomes/Psme/analysis/SURF_annotation/analyze_orig_maker/gfacs/filtered/maker_genes.fasta.faa
# Option settings: /usr/local/bin/hmmsearch --domtblout /labs/Wegrzyn/ConiferGenomes/Psme/analysis/SURF_annotation/analyze_orig_maker/busco/maker/run_embryophyta_odb10/hmmer_output/48546at3193.out --cpu 1 /isg/shared/databases/BUSCO/odb10/embryophyta_odb10/hmms/48546at3193.hmm /labs/Wegrzyn/ConiferGenomes/Psme/analysis/SURF_annotation/analyze_orig_maker/gfacs/filtered/maker_genes.fasta.faa 
# Current dir:     /labs/Wegrzyn/ConiferGenomes/Psme/analysis/SURF_annotation/analyze_orig_maker/busco
# Date:            Fri Jul 10 13:51:04 2020
# [ok]
