#                                                                            --- full sequence --- -------------- this domain -------------   hmm coord   ali coord   env coord
# target name        accession   tlen query name           accession   qlen   E-value  score  bias   #  of  c-Evalue  i-Evalue  score  bias  from    to  from    to  from    to  acc description of target
#------------------- ---------- ----- -------------------- ---------- ----- --------- ------ ----- --- --- --------- --------- ------ ----- ----- ----- ----- ----- ----- ----- ---- ---------------------
ID=PSME_00049122     -            760 4892at3193           -            913  2.1e-129  434.6  20.1   1   5   2.8e-29   3.8e-26   92.9   2.5    55   201    42   244    11   262 0.68 -
ID=PSME_00049122     -            760 4892at3193           -            913  2.1e-129  434.6  20.1   2   5   7.7e-21     1e-17   65.0   0.1   202   298   277   393   268   400 0.77 -
ID=PSME_00049122     -            760 4892at3193           -            913  2.1e-129  434.6  20.1   3   5   4.5e-18   6.1e-15   55.8   2.3   285   364   423   527   415   541 0.73 -
ID=PSME_00049122     -            760 4892at3193           -            913  2.1e-129  434.6  20.1   4   5      0.62   8.3e+02   -0.9   0.0   355   380   552   577   536   587 0.82 -
ID=PSME_00049122     -            760 4892at3193           -            913  2.1e-129  434.6  20.1   5   5     9e-68   1.2e-64  220.3   0.0   370   516   589   758   579   759 0.87 -
ID=PSME_00007799     -            878 4892at3193           -            913  2.5e-129  434.3   0.1   1   3       2.1   2.9e+03   -2.7   0.1   325   358   181   217   177   232 0.76 -
ID=PSME_00007799     -            878 4892at3193           -            913  2.5e-129  434.3   0.1   2   3   1.7e-08   2.2e-05   24.2   0.0   402   442   244   284   234   297 0.89 -
ID=PSME_00007799     -            878 4892at3193           -            913  2.5e-129  434.3   0.1   3   3  2.4e-124  3.2e-121  407.5   0.0   455   913   326   769   315   769 0.93 -
ID=PSME_00056119     -           1047 4892at3193           -            913  1.6e-128  431.6  13.0   1   4   2.6e-07   0.00035   20.2   2.9     1    60     9    68     9    76 0.92 -
ID=PSME_00056119     -           1047 4892at3193           -            913  1.6e-128  431.6  13.0   2   4       4.4   5.8e+03   -3.7   0.1   274   315   192   233   189   236 0.90 -
ID=PSME_00056119     -           1047 4892at3193           -            913  1.6e-128  431.6  13.0   3   4     5e-09   6.6e-06   25.9   0.1   391   444   507   560   446   567 0.83 -
ID=PSME_00056119     -           1047 4892at3193           -            913  1.6e-128  431.6  13.0   4   4  2.6e-119  3.5e-116  390.8   0.0   459   913   603  1046   593  1046 0.90 -
ID=PSME_00048270     -            380 4892at3193           -            913   4.7e-85  287.8   0.8   1   1   4.4e-88   5.9e-85  287.5   0.8   503   845    13   355     3   364 0.93 -
ID=PSME_00024428     -           3537 4892at3193           -            913   7.1e-61  207.8   0.1   1   1   8.9e-64   1.2e-60  207.1   0.1   537   904  3173  3526  3143  3535 0.83 -
ID=PSME_00006284     -           3859 4892at3193           -            913   2.1e-52  179.7   0.1   1   2     1e-49   1.4e-46  160.5   0.2   507   823  3489  3796  3474  3802 0.84 -
ID=PSME_00006284     -           3859 4892at3193           -            913   2.1e-52  179.7   0.1   2   2   2.7e-06    0.0036   16.9   0.0   873   908  3817  3852  3810  3857 0.90 -
ID=PSME_00011541     -           1049 4892at3193           -            913     2e-39  136.8   0.0   1   1   2.2e-42   2.9e-39  136.3   0.0   536   901   679  1034   663  1045 0.90 -
ID=PSME_00000237     -           1861 4892at3193           -            913   5.2e-30  105.7   0.0   1   2      0.73   9.8e+02   -1.1   0.0   507   583  1377  1466  1346  1505 0.63 -
ID=PSME_00000237     -           1861 4892at3193           -            913   5.2e-30  105.7   0.0   2   2   1.5e-31     2e-28  100.4   0.0   632   912  1557  1859  1547  1860 0.86 -
ID=PSME_00047296     -            877 4892at3193           -            913   2.1e-29  103.6   0.0   1   1   2.4e-32   3.2e-29  103.0   0.0   538   820   582   865   564   870 0.90 -
ID=PSME_00021195     -           1768 4892at3193           -            913   4.3e-28   99.3   0.0   1   2       3.3   4.4e+03   -3.3   0.0   546   582  1336  1372  1280  1397 0.68 -
ID=PSME_00021195     -           1768 4892at3193           -            913   4.3e-28   99.3   0.0   2   2   1.1e-29   1.5e-26   94.2   0.0   639   912  1472  1766  1430  1767 0.82 -
ID=PSME_00054695     -            225 4892at3193           -            913   7.8e-28   98.5   0.5   1   1   4.2e-30   5.7e-27   95.6   0.5   389   607    22   223    13   224 0.88 -
ID=PSME_00002631     -           1901 4892at3193           -            913     2e-27   97.1   0.0   1   2       3.2   4.3e+03   -3.3   0.0   506   582  1415  1504  1404  1545 0.51 -
ID=PSME_00002631     -           1901 4892at3193           -            913     2e-27   97.1   0.0   2   2   4.5e-29   6.1e-26   92.2   0.0   635   913  1598  1900  1585  1900 0.80 -
ID=PSME_00006610     -            709 4892at3193           -            913   7.4e-26   91.9   0.1   1   1   8.1e-29   1.1e-25   91.4   0.1   538   707   490   653   459   684 0.81 -
ID=PSME_00006660     -            284 4892at3193           -            913   8.2e-25   88.5   0.0   1   2   9.3e-15   1.2e-11   44.9   0.0   503   591    36   122    25   125 0.88 -
ID=PSME_00006660     -            284 4892at3193           -            913   8.2e-25   88.5   0.0   2   2   7.4e-14   9.9e-11   41.9   0.0   657   729   124   196   123   201 0.96 -
ID=PSME_00017447     -            725 4892at3193           -            913   1.8e-24   87.4   0.1   1   1     2e-27   2.7e-24   86.7   0.1   523   719   526   705   501   718 0.83 -
ID=PSME_00043168     -            154 4892at3193           -            913   2.6e-23   83.5   0.0   1   1   2.7e-26   3.6e-23   83.0   0.0   745   912     2   152     1   153 0.93 -
ID=PSME_00025831     -            643 4892at3193           -            913   8.9e-23   81.7   0.1   1   1   9.8e-26   1.3e-22   81.2   0.1   538   703   458   616   429   633 0.87 -
ID=PSME_00013029     -            673 4892at3193           -            913   3.4e-20   73.2   0.2   1   1   3.8e-23     5e-20   72.6   0.2   529   703   483   644   434   664 0.85 -
ID=PSME_00052249     -            183 4892at3193           -            913     1e-18   68.3   0.3   1   1     9e-22   1.2e-18   68.1   0.3   584   711    17   140     4   162 0.87 -
ID=PSME_00018785     -            171 4892at3193           -            913   2.8e-17   63.5   0.2   1   1   1.4e-19   1.9e-16   60.8   0.2   412   593     5   169     2   170 0.83 -
ID=PSME_00039081     -            205 4892at3193           -            913   1.2e-16   61.5   4.3   1   3     0.001       1.4    8.3   0.1   412   443     1    32     1    41 0.86 -
ID=PSME_00039081     -            205 4892at3193           -            913   1.2e-16   61.5   4.3   2   3   4.6e-15   6.2e-12   45.8   0.0   503   594    78   167    65   172 0.88 -
ID=PSME_00039081     -            205 4892at3193           -            913   1.2e-16   61.5   4.3   3   3   0.00011      0.15   11.5   0.2   803   837   164   198   163   201 0.95 -
ID=PSME_00025273     -            148 4892at3193           -            913     8e-15   55.4   0.0   1   1   6.2e-18   8.3e-15   55.4   0.0   501   591    39   127     1   136 0.78 -
ID=PSME_00017296     -           1128 4892at3193           -            913   3.4e-12   46.7   0.0   1   1   1.9e-14   2.5e-11   43.8   0.0   695   905   933  1125   922  1127 0.88 -
ID=PSME_00004935     -            797 4892at3193           -            913   1.3e-11   44.8   0.0   1   1   1.7e-14   2.3e-11   44.0   0.0   769   907   652   794   645   796 0.88 -
ID=PSME_00001822     -            137 4892at3193           -            913   1.4e-10   41.4   0.2   1   2     0.012        16    4.8   0.0   742   796     5    60     1    75 0.83 -
ID=PSME_00001822     -            137 4892at3193           -            913   1.4e-10   41.4   0.2   2   2   7.3e-12   9.8e-09   35.3   0.0   868   912    92   136    67   137 0.93 -
ID=PSME_00044837     -            100 4892at3193           -            913   3.2e-10   40.2   0.1   1   1   2.7e-13   3.6e-10   40.0   0.1   584   678     5    95     2    99 0.86 -
ID=PSME_00042973     -            580 4892at3193           -            913   4.3e-10   39.8   0.7   1   2   7.2e-07   0.00096   18.7   0.0   538   605   409   472   380   472 0.83 -
ID=PSME_00042973     -            580 4892at3193           -            913   4.3e-10   39.8   0.7   2   2   1.5e-07   0.00021   21.0   0.2   646   703   471   526   467   553 0.83 -
ID=PSME_00027424     -            659 4892at3193           -            913   3.4e-08   33.5   0.0   1   1   3.8e-11   5.1e-08   32.9   0.0   546   658   497   604   471   611 0.85 -
ID=PSME_00018032     -            106 4892at3193           -            913   6.2e-08   32.6   0.0   1   1   5.6e-11   7.5e-08   32.3   0.0   817   909     5   101     2   104 0.83 -
ID=PSME_00026423     -            433 4892at3193           -            913   1.1e-07   31.8   0.0   1   2   2.7e-05     0.036   13.5   0.0   696   786   231   316   203   321 0.88 -
ID=PSME_00026423     -            433 4892at3193           -            913   1.1e-07   31.8   0.0   2   2   1.2e-05     0.017   14.7   0.0   822   909   322   428   318   431 0.68 -
ID=PSME_00007798     -            208 4892at3193           -            913   5.9e-06   26.1   0.8   1   1   4.4e-09   5.9e-06   26.1   0.8     2    63    10    71     9   148 0.91 -
ID=PSME_00039495     -            378 4892at3193           -            913   6.9e-06   25.8   0.0   1   2   1.7e-06    0.0023   17.5   0.0   687   785   113   203    73   208 0.81 -
ID=PSME_00039495     -            378 4892at3193           -            913   6.9e-06   25.8   0.0   2   2     0.003         4    6.8   0.0   815   861   210   257   203   288 0.85 -
ID=PSME_00021923     -           1150 4892at3193           -            913   8.1e-06   25.6   0.0   1   2    0.0012       1.6    8.0   0.0   694   766   987  1054   959  1057 0.83 -
ID=PSME_00021923     -           1150 4892at3193           -            913   8.1e-06   25.6   0.0   2   2   4.7e-06    0.0063   16.0   0.0   817   905  1055  1147  1051  1149 0.81 -
ID=PSME_00048759     -             96 4892at3193           -            913   8.6e-06   25.5   0.2   1   1   7.3e-09   9.7e-06   25.3   0.2   646   703     3    58     2    79 0.85 -
ID=PSME_00021654     -            154 4892at3193           -            913   1.2e-05   25.0   0.3   1   1     1e-08   1.4e-05   24.8   0.3   646   703    45   100    29   127 0.84 -
ID=PSME_00003078     -            187 4892at3193           -            913   1.3e-05   24.9   0.9   1   1   1.3e-08   1.7e-05   24.5   0.9   646   711    78   140    69   161 0.85 -
ID=PSME_00015338     -            572 4892at3193           -            913    0.0015   18.1   0.0   1   1   1.6e-06    0.0021   17.6   0.0   696   786   426   511   420   521 0.92 -
ID=PSME_00044504     -            242 4892at3193           -            913     0.002   17.7   0.0   1   2   5.4e-06    0.0072   15.8   0.0   666   809    22   157     2   161 0.81 -
ID=PSME_00044504     -            242 4892at3193           -            913     0.002   17.7   0.0   2   2      0.54   7.2e+02   -0.7   0.0   875   896   183   205   173   214 0.73 -
ID=PSME_00028285     -            686 4892at3193           -            913    0.0044   16.6   0.0   1   2       1.2   1.6e+03   -1.9   0.0   670   708   510   545   502   547 0.66 -
ID=PSME_00028285     -            686 4892at3193           -            913    0.0044   16.6   0.0   2   2     1e-05     0.013   15.0   0.0   812   905   586   683   581   685 0.79 -
ID=PSME_00018167     -            707 4892at3193           -            913     0.017   14.6   0.1   1   2     4e-05     0.054   13.0   0.0   542   587   596   642   589   656 0.85 -
ID=PSME_00018167     -            707 4892at3193           -            913     0.017   14.6   0.1   2   2      0.54   7.3e+02   -0.7   0.0   615   683   646   705   639   706 0.79 -
ID=PSME_00008110     -            725 4892at3193           -            913     0.057   12.9   3.3   1   2   8.1e-05      0.11   12.0   1.9   633   686   397   450   385   498 0.90 -
ID=PSME_00008110     -            725 4892at3193           -            913     0.057   12.9   3.3   2   2       1.4   1.9e+03   -2.1   0.0   875   893   561   579   555   591 0.80 -
#
# Program:         hmmsearch
# Version:         3.2.1 (June 2018)
# Pipeline mode:   SEARCH
# Query file:      /isg/shared/databases/BUSCO/odb10/embryophyta_odb10/hmms/4892at3193.hmm
# Target file:     /labs/Wegrzyn/ConiferGenomes/Psme/analysis/SURF_annotation/analyze_orig_maker/gfacs/filtered/maker_genes.fasta.faa
# Option settings: /usr/local/bin/hmmsearch --domtblout /labs/Wegrzyn/ConiferGenomes/Psme/analysis/SURF_annotation/analyze_orig_maker/busco/maker/run_embryophyta_odb10/hmmer_output/4892at3193.out --cpu 1 /isg/shared/databases/BUSCO/odb10/embryophyta_odb10/hmms/4892at3193.hmm /labs/Wegrzyn/ConiferGenomes/Psme/analysis/SURF_annotation/analyze_orig_maker/gfacs/filtered/maker_genes.fasta.faa 
# Current dir:     /labs/Wegrzyn/ConiferGenomes/Psme/analysis/SURF_annotation/analyze_orig_maker/busco
# Date:            Fri Jul 10 13:51:07 2020
# [ok]
