#                                                                            --- full sequence --- -------------- this domain -------------   hmm coord   ali coord   env coord
# target name        accession   tlen query name           accession   qlen   E-value  score  bias   #  of  c-Evalue  i-Evalue  score  bias  from    to  from    to  from    to  acc description of target
#------------------- ---------- ----- -------------------- ---------- ----- --------- ------ ----- --- --- --------- --------- ------ ----- ----- ----- ----- ----- ----- ----- ---- ---------------------
ID=PSME_00030264     -            717 50679at3193          -            534  5.4e-175  584.5   7.0   1   5     0.016   1.1e+02    2.7   0.0     3    21     6    24     4    28 0.87 -
ID=PSME_00030264     -            717 50679at3193          -            534  5.4e-175  584.5   7.0   2   5   2.9e-15     2e-11   44.7   0.4    68   155    24   126    10   137 0.77 -
ID=PSME_00030264     -            717 50679at3193          -            534  5.4e-175  584.5   7.0   3   5   3.6e-52   2.4e-48  166.5   0.2   142   253   168   281   134   296 0.86 -
ID=PSME_00030264     -            717 50679at3193          -            534  5.4e-175  584.5   7.0   4   5     2e-27   1.4e-23   84.8   0.0   258   311   328   381   316   396 0.87 -
ID=PSME_00030264     -            717 50679at3193          -            534  5.4e-175  584.5   7.0   5   5   5.4e-88   3.7e-84  284.7   0.1   316   526   450   685   440   693 0.85 -
ID=PSME_00032305     -            463 50679at3193          -            534   2.2e-08   34.6   0.0   1   1   2.1e-11   1.5e-07   32.0   0.0    33   153   162   294   158   305 0.73 -
ID=PSME_00001919     -            137 50679at3193          -            534   1.4e-06   28.7   0.2   1   1   2.1e-10   1.4e-06   28.7   0.2   382   466     2    86     1   115 0.81 -
ID=PSME_00048026     -            165 50679at3193          -            534   1.6e-05   25.2   0.1   1   1   2.6e-09   1.8e-05   25.1   0.1   406   465    16    73     8   101 0.83 -
ID=PSME_00010872     -            616 50679at3193          -            534    0.0002   21.6   0.1   1   1   4.2e-08   0.00029   21.1   0.1   313   451   194   333   186   355 0.73 -
ID=PSME_00000401     -             60 50679at3193          -            534   0.00083   19.6   0.2   1   1   1.2e-07   0.00083   19.6   0.2   406   440    17    51     3    57 0.88 -
ID=PSME_00017676     -            148 50679at3193          -            534     0.017   15.3   0.1   1   2    0.0092        63    3.5   0.0   274   298    37    60    21    63 0.81 -
ID=PSME_00017676     -            148 50679at3193          -            534     0.017   15.3   0.1   2   2   9.4e-05      0.65   10.0   0.0   347   422    65   142    61   144 0.84 -
ID=PSME_00006219     -            468 50679at3193          -            534     0.088   12.9   0.0   1   1   1.9e-05      0.13   12.3   0.0   152   192    73   112    36   120 0.74 -
#
# Program:         hmmsearch
# Version:         3.2.1 (June 2018)
# Pipeline mode:   SEARCH
# Query file:      /isg/shared/databases/BUSCO/odb10/embryophyta_odb10/hmms/50679at3193.hmm
# Target file:     /labs/Wegrzyn/ConiferGenomes/Psme/analysis/SURF_annotation/analyze_orig_maker/gfacs/filtered/maker_genes.fasta.faa
# Option settings: /usr/local/bin/hmmsearch --domtblout /labs/Wegrzyn/ConiferGenomes/Psme/analysis/SURF_annotation/analyze_orig_maker/busco/maker/run_embryophyta_odb10/hmmer_output/50679at3193.out --cpu 1 /isg/shared/databases/BUSCO/odb10/embryophyta_odb10/hmms/50679at3193.hmm /labs/Wegrzyn/ConiferGenomes/Psme/analysis/SURF_annotation/analyze_orig_maker/gfacs/filtered/maker_genes.fasta.faa 
# Current dir:     /labs/Wegrzyn/ConiferGenomes/Psme/analysis/SURF_annotation/analyze_orig_maker/busco
# Date:            Fri Jul 10 13:51:17 2020
# [ok]
