#                                                                            --- full sequence --- -------------- this domain -------------   hmm coord   ali coord   env coord
# target name        accession   tlen query name           accession   qlen   E-value  score  bias   #  of  c-Evalue  i-Evalue  score  bias  from    to  from    to  from    to  acc description of target
#------------------- ---------- ----- -------------------- ---------- ----- --------- ------ ----- --- --- --------- --------- ------ ----- ----- ----- ----- ----- ----- ----- ---- ---------------------
ID=PSME_00008326     -            125 51155at3193          -            480     3e-57  195.9   5.4   1   1     6e-61   3.3e-57  195.8   5.4   357   478     1   123     1   124 0.97 -
ID=PSME_00023831     -            423 51155at3193          -            480   1.8e-17   64.7   1.1   1   1   4.5e-21   2.4e-17   64.3   1.1   127   397    83   371    70   392 0.84 -
ID=PSME_00002833     -           1041 51155at3193          -            480   7.8e-15   56.0  10.0   1   4   3.8e-09   2.1e-05   24.9   0.0   322   439   122   240   112   249 0.89 -
ID=PSME_00002833     -           1041 51155at3193          -            480   7.8e-15   56.0  10.0   2   4   3.3e-09   1.8e-05   25.2   0.4   304   434   198   337   196   348 0.82 -
ID=PSME_00002833     -           1041 51155at3193          -            480   7.8e-15   56.0  10.0   3   4   3.3e-10   1.8e-06   28.4   1.3   264   437   257   442   246   459 0.87 -
ID=PSME_00002833     -           1041 51155at3193          -            480   7.8e-15   56.0  10.0   4   4      0.12   6.7e+02    0.2   0.0   343   378   483   518   457   537 0.80 -
ID=PSME_00001060     -            983 51155at3193          -            480   1.6e-12   48.4   5.1   1   3   5.3e-07    0.0029   17.9   0.0   322   438   110   227   100   239 0.88 -
ID=PSME_00001060     -            983 51155at3193          -            480   1.6e-12   48.4   5.1   2   3   9.3e-10   5.1e-06   26.9   1.6   264   437   245   430   231   445 0.85 -
ID=PSME_00001060     -            983 51155at3193          -            480   1.6e-12   48.4   5.1   3   3     0.025   1.4e+02    2.4   0.0   343   378   471   506   447   525 0.82 -
ID=PSME_00018525     -            302 51155at3193          -            480   5.1e-06   26.9   0.0   1   2     2e-09   1.1e-05   25.9   0.0   167   354    48   244    15   267 0.75 -
ID=PSME_00018525     -            302 51155at3193          -            480   5.1e-06   26.9   0.0   2   2    0.0014       7.9    6.5   0.0   269   361   189   290   177   297 0.69 -
ID=PSME_00009529     -            452 51155at3193          -            480   0.00048   20.4   0.5   1   2      0.11   5.9e+02    0.4   0.0   336   391   205   267   196   276 0.79 -
ID=PSME_00009529     -            452 51155at3193          -            480   0.00048   20.4   0.5   2   2   7.3e-07     0.004   17.4   0.1   156   216   328   388   269   397 0.87 -
ID=PSME_00008309     -            223 51155at3193          -            480    0.0022   18.3   0.2   1   1   5.1e-07    0.0028   17.9   0.2   157   231    97   171    78   185 0.88 -
ID=PSME_00007810     -            221 51155at3193          -            480     0.027   14.7   0.1   1   2      0.45   2.5e+03   -1.7   0.0   266   297    81   112    72   119 0.74 -
ID=PSME_00007810     -            221 51155at3193          -            480     0.027   14.7   0.1   2   2   1.3e-05     0.072   13.3   0.0   411   448   182   219   173   220 0.94 -
ID=PSME_00007811     -            221 51155at3193          -            480     0.034   14.3   0.1   1   2      0.13   7.1e+02    0.1   0.0   266   299    81   114    68   122 0.81 -
ID=PSME_00007811     -            221 51155at3193          -            480     0.034   14.3   0.1   2   2   3.3e-05      0.18   11.9   0.0   411   448   182   219   174   220 0.94 -
ID=PSME_00008064     -            862 51155at3193          -            480     0.039   14.1   0.0   1   2     3e-05      0.17   12.1   0.0   347   396   667   716   662   724 0.90 -
ID=PSME_00008064     -            862 51155at3193          -            480     0.039   14.1   0.0   2   2      0.42   2.3e+03   -1.6   0.0   345   361   815   831   790   838 0.82 -
#
# Program:         hmmsearch
# Version:         3.2.1 (June 2018)
# Pipeline mode:   SEARCH
# Query file:      /isg/shared/databases/BUSCO/odb10/embryophyta_odb10/hmms/51155at3193.hmm
# Target file:     /labs/Wegrzyn/ConiferGenomes/Psme/analysis/SURF_annotation/analyze_orig_maker/gfacs/filtered/maker_genes.fasta.faa
# Option settings: /usr/local/bin/hmmsearch --domtblout /labs/Wegrzyn/ConiferGenomes/Psme/analysis/SURF_annotation/analyze_orig_maker/busco/maker/run_embryophyta_odb10/hmmer_output/51155at3193.out --cpu 1 /isg/shared/databases/BUSCO/odb10/embryophyta_odb10/hmms/51155at3193.hmm /labs/Wegrzyn/ConiferGenomes/Psme/analysis/SURF_annotation/analyze_orig_maker/gfacs/filtered/maker_genes.fasta.faa 
# Current dir:     /labs/Wegrzyn/ConiferGenomes/Psme/analysis/SURF_annotation/analyze_orig_maker/busco
# Date:            Fri Jul 10 13:51:30 2020
# [ok]
