#                                                                            --- full sequence --- -------------- this domain -------------   hmm coord   ali coord   env coord
# target name        accession   tlen query name           accession   qlen   E-value  score  bias   #  of  c-Evalue  i-Evalue  score  bias  from    to  from    to  from    to  acc description of target
#------------------- ---------- ----- -------------------- ---------- ----- --------- ------ ----- --- --- --------- --------- ------ ----- ----- ----- ----- ----- ----- ----- ---- ---------------------
ID=PSME_00001953     -            448 51750at3193          -            346     8e-06   26.5   0.4   1   1   6.9e-10   1.3e-05   25.9   0.4   159   243   311   401   289   415 0.77 -
ID=PSME_00002524     -           1493 51750at3193          -            346     0.047   14.1   0.5   1   2      0.85   1.6e+04   -4.0   0.0    20    51   691   721   683   727 0.76 -
ID=PSME_00002524     -           1493 51750at3193          -            346     0.047   14.1   0.5   2   2   4.5e-06     0.083   13.3   0.1   200   253  1238  1290  1203  1321 0.73 -
ID=PSME_00000725     -            421 51750at3193          -            346     0.052   14.0   0.0   1   1   4.6e-06     0.083   13.3   0.0   202   253   322   372   297   408 0.74 -
#
# Program:         hmmsearch
# Version:         3.2.1 (June 2018)
# Pipeline mode:   SEARCH
# Query file:      /isg/shared/databases/BUSCO/odb10/embryophyta_odb10/hmms/51750at3193.hmm
# Target file:     /labs/Wegrzyn/ConiferGenomes/Psme/analysis/SURF_annotation/analyze_orig_maker/gfacs/filtered/maker_genes.fasta.faa
# Option settings: /usr/local/bin/hmmsearch --domtblout /labs/Wegrzyn/ConiferGenomes/Psme/analysis/SURF_annotation/analyze_orig_maker/busco/maker/run_embryophyta_odb10/hmmer_output/51750at3193.out --cpu 1 /isg/shared/databases/BUSCO/odb10/embryophyta_odb10/hmms/51750at3193.hmm /labs/Wegrzyn/ConiferGenomes/Psme/analysis/SURF_annotation/analyze_orig_maker/gfacs/filtered/maker_genes.fasta.faa 
# Current dir:     /labs/Wegrzyn/ConiferGenomes/Psme/analysis/SURF_annotation/analyze_orig_maker/busco
# Date:            Fri Jul 10 13:51:39 2020
# [ok]
