#                                                                            --- full sequence --- -------------- this domain -------------   hmm coord   ali coord   env coord
# target name        accession   tlen query name           accession   qlen   E-value  score  bias   #  of  c-Evalue  i-Evalue  score  bias  from    to  from    to  from    to  acc description of target
#------------------- ---------- ----- -------------------- ---------- ----- --------- ------ ----- --- --- --------- --------- ------ ----- ----- ----- ----- ----- ----- ----- ---- ---------------------
ID=PSME_00012041     -           1304 5232at3193           -           1036         0 1592.0  10.9   1   4  1.1e-104    7e-102  343.2   0.0    20   300   115   438   103   457 0.85 -
ID=PSME_00012041     -           1304 5232at3193           -           1036         0 1592.0  10.9   2   4      0.21   1.3e+02    1.2   0.0   293   316   517   540   508   548 0.87 -
ID=PSME_00012041     -           1304 5232at3193           -           1036         0 1592.0  10.9   3   4  6.6e-306  4.1e-303 1009.4   2.6   301   849   576  1153   563  1154 0.94 -
ID=PSME_00012041     -           1304 5232at3193           -           1036         0 1592.0  10.9   4   4   3.5e-74   2.2e-71  242.2   0.4   897  1034  1153  1301  1152  1303 0.92 -
ID=PSME_00017433     -           1049 5232at3193           -           1036   1.2e-63  216.6  11.7   1   3     1e-10   6.5e-08   32.1   0.0   183   267   374   466   358   477 0.81 -
ID=PSME_00017433     -           1049 5232at3193           -           1036   1.2e-63  216.6  11.7   2   3   5.8e-31   3.7e-28   99.1   0.1   467   660   500   688   487   724 0.83 -
ID=PSME_00017433     -           1049 5232at3193           -           1036   1.2e-63  216.6  11.7   3   3   2.5e-25   1.6e-22   80.5   8.8   774  1002   811  1023   791  1042 0.83 -
ID=PSME_00008176     -            820 5232at3193           -           1036   4.4e-44  151.8   9.1   1   3   2.1e-11   1.3e-08   34.4   0.0   181   264   223   304   210   315 0.86 -
ID=PSME_00008176     -            820 5232at3193           -           1036   4.4e-44  151.8   9.1   2   3   2.8e-28   1.8e-25   90.2   0.0   482   662   383   554   381   583 0.90 -
ID=PSME_00008176     -            820 5232at3193           -           1036   4.4e-44  151.8   9.1   3   3   3.9e-08   2.5e-05   23.5   6.2   786   927   675   801   649   812 0.72 -
ID=PSME_00018507     -           1289 5232at3193           -           1036   8.1e-36  124.4  14.3   1   6         2   1.2e+03   -2.0   0.0   184   204   524   544   521   547 0.84 -
ID=PSME_00018507     -           1289 5232at3193           -           1036   8.1e-36  124.4  14.3   2   6   0.00025      0.16   10.9   0.0   241   278   546   586   539   610 0.77 -
ID=PSME_00018507     -           1289 5232at3193           -           1036   8.1e-36  124.4  14.3   3   6     7e-06    0.0044   16.1   0.1   481   544   636   700   627   705 0.83 -
ID=PSME_00018507     -           1289 5232at3193           -           1036   8.1e-36  124.4  14.3   4   6   2.3e-08   1.5e-05   24.3   0.0   550   658   755   856   746   893 0.84 -
ID=PSME_00018507     -           1289 5232at3193           -           1036   8.1e-36  124.4  14.3   5   6       0.2   1.3e+02    1.3   4.4   774   817   968  1016   952  1033 0.79 -
ID=PSME_00018507     -           1289 5232at3193           -           1036   8.1e-36  124.4  14.3   6   6   3.2e-23     2e-20   73.5   0.1   872  1003  1127  1259  1123  1274 0.93 -
ID=PSME_00024364     -            147 5232at3193           -           1036   6.5e-32  111.5   2.0   1   2   3.1e-29   1.9e-26   93.4   0.2   804   879     2    77     1    82 0.96 -
ID=PSME_00024364     -            147 5232at3193           -           1036   6.5e-32  111.5   2.0   2   2   1.7e-06    0.0011   18.1   0.1   879   898   127   146   120   146 0.89 -
ID=PSME_00023196     -            180 5232at3193           -           1036   1.2e-25   90.8   3.8   1   3      0.42   2.7e+02    0.2   0.0   536   553     3    20     2    21 0.92 -
ID=PSME_00023196     -            180 5232at3193           -           1036   1.2e-25   90.8   3.8   2   3   2.6e-08   1.6e-05   24.1   0.1   848   875    19    46    14    47 0.91 -
ID=PSME_00023196     -            180 5232at3193           -           1036   1.2e-25   90.8   3.8   3   3   9.5e-22     6e-19   68.6   0.4   898   950    44    96    43   103 0.95 -
ID=PSME_00005283     -           1957 5232at3193           -           1036   6.7e-25   88.3   1.4   1   3      0.19   1.2e+02    1.4   0.0   243   262  1377  1396  1369  1413 0.82 -
ID=PSME_00005283     -           1957 5232at3193           -           1036   6.7e-25   88.3   1.4   2   3     1e-10   6.4e-08   32.1   0.0   484   623  1415  1545  1392  1565 0.84 -
ID=PSME_00005283     -           1957 5232at3193           -           1036   6.7e-25   88.3   1.4   3   3     1e-16   6.3e-14   52.0   0.1   876  1018  1735  1882  1728  1896 0.83 -
ID=PSME_00023417     -            396 5232at3193           -           1036   3.1e-24   86.1   0.1   1   1   6.6e-27   4.2e-24   85.7   0.1   875  1001   170   297   150   307 0.93 -
ID=PSME_00042407     -            238 5232at3193           -           1036   4.7e-24   85.5   0.2   1   1   9.4e-27     6e-24   85.2   0.2   875   996    13   135     6   140 0.94 -
ID=PSME_00015528     -           1201 5232at3193           -           1036     4e-23   82.4   6.4   1   3     0.088        55    2.5   0.0   244   262   453   471   444   478 0.89 -
ID=PSME_00015528     -           1201 5232at3193           -           1036     4e-23   82.4   6.4   2   3   3.9e-09   2.5e-06   26.8   0.7   529   672   538   676   480   701 0.68 -
ID=PSME_00015528     -           1201 5232at3193           -           1036     4e-23   82.4   6.4   3   3   1.7e-17   1.1e-14   54.5   0.1   859  1009  1002  1153   994  1164 0.92 -
ID=PSME_00007867     -            317 5232at3193           -           1036   7.2e-23   81.6   0.1   1   1   1.5e-25   9.6e-23   81.2   0.1   875  1001    92   219    77   229 0.92 -
ID=PSME_00013965     -           1573 5232at3193           -           1036   2.3e-22   79.9   7.9   1   3      0.24   1.5e+02    1.0   0.0   243   262   687   706   679   715 0.87 -
ID=PSME_00013965     -           1573 5232at3193           -           1036   2.3e-22   79.9   7.9   2   3   4.4e-08   2.8e-05   23.4   1.5   485   663   720   900   717   939 0.70 -
ID=PSME_00013965     -           1573 5232at3193           -           1036   2.3e-22   79.9   7.9   3   3     2e-18   1.3e-15   57.6   0.1   859  1012  1233  1387  1224  1403 0.92 -
ID=PSME_00030964     -            238 5232at3193           -           1036   7.7e-22   78.2   0.1   1   1   1.6e-24     1e-21   77.8   0.1   875  1001    13   140     7   150 0.93 -
ID=PSME_00028859     -            265 5232at3193           -           1036   2.2e-21   76.7   0.1   1   1   4.5e-24   2.9e-21   76.3   0.1   875   995    40   161    28   162 0.93 -
ID=PSME_00005765     -           1227 5232at3193           -           1036   3.4e-20   72.7   1.4   1   3      0.29   1.8e+02    0.8   0.1   243   262   225   244   220   252 0.91 -
ID=PSME_00005765     -           1227 5232at3193           -           1036   3.4e-20   72.7   1.4   2   3   2.8e-08   1.7e-05   24.0   0.1   485   666   258   431   253   454 0.76 -
ID=PSME_00005765     -           1227 5232at3193           -           1036   3.4e-20   72.7   1.4   3   3   1.3e-14   8.3e-12   45.0   0.0   858  1009   502   655   496   680 0.84 -
ID=PSME_00006567     -           2632 5232at3193           -           1036   3.5e-20   72.7   3.1   1   3       1.6     1e+03   -1.7   0.0   245   263   950   968   944   984 0.81 -
ID=PSME_00006567     -           2632 5232at3193           -           1036   3.5e-20   72.7   3.1   2   3   1.3e-08   8.3e-06   25.1   0.1   509   695  1018  1191  1005  1207 0.76 -
ID=PSME_00006567     -           2632 5232at3193           -           1036   3.5e-20   72.7   3.1   3   3   3.6e-15   2.3e-12   46.8   0.1   857  1009  1238  1393  1225  1405 0.88 -
ID=PSME_00028395     -            231 5232at3193           -           1036   5.2e-20   72.1   0.1   1   1   1.1e-22   6.8e-20   71.7   0.1   875  1000    13   132     7   141 0.92 -
ID=PSME_00039397     -            253 5232at3193           -           1036   1.4e-19   70.7   0.1   1   1   2.8e-22   1.8e-19   70.4   0.1   875  1001    28   155    21   164 0.92 -
ID=PSME_00011000     -            249 5232at3193           -           1036   3.4e-19   69.4   0.1   1   1   6.8e-22   4.3e-19   69.1   0.1   876  1001    25   151    17   161 0.91 -
ID=PSME_00005826     -            238 5232at3193           -           1036   4.8e-19   68.9   0.0   1   1   9.2e-22   5.8e-19   68.6   0.0   875  1001    13   140     6   160 0.90 -
ID=PSME_00042454     -            238 5232at3193           -           1036   5.4e-19   68.8   0.2   1   1   1.1e-21   6.7e-19   68.5   0.2   875  1000    13   139     6   143 0.92 -
ID=PSME_00007025     -            238 5232at3193           -           1036   1.7e-18   67.1   0.1   1   1   3.5e-21   2.2e-18   66.7   0.1   875  1001    13   140     7   151 0.93 -
ID=PSME_00027464     -            253 5232at3193           -           1036   2.3e-18   66.6   0.2   1   1   4.8e-21     3e-18   66.3   0.2   875  1001    28   155    22   164 0.93 -
ID=PSME_00040297     -            182 5232at3193           -           1036   2.9e-18   66.3   0.2   1   1   5.7e-21   3.6e-18   66.0   0.2   875  1001    28   155    22   160 0.89 -
ID=PSME_00001935     -            354 5232at3193           -           1036   4.8e-18   65.6   0.1   1   1     1e-20   6.5e-18   65.2   0.1   875  1001   130   257   124   266 0.93 -
ID=PSME_00037191     -            208 5232at3193           -           1036   7.6e-18   64.9   0.0   1   1   1.4e-20   8.9e-18   64.7   0.0   897  1001     5   110     1   121 0.93 -
ID=PSME_00000065     -            830 5232at3193           -           1036   1.3e-17   64.2   5.1   1   3      0.26   1.7e+02    0.9   0.1   243   268   286   311   278   317 0.84 -
ID=PSME_00000065     -            830 5232at3193           -           1036   1.3e-17   64.2   5.1   2   3     1e-05    0.0063   15.6   0.1   485   623   318   451   314   484 0.75 -
ID=PSME_00000065     -            830 5232at3193           -           1036   1.3e-17   64.2   5.1   3   3   1.7e-15   1.1e-12   47.9   0.1   866  1008   592   736   565   767 0.85 -
ID=PSME_00012491     -            867 5232at3193           -           1036   4.4e-17   62.4   5.1   1   4   1.5e-05    0.0097   14.9   0.0   239   267   230   258   224   275 0.88 -
ID=PSME_00012491     -            867 5232at3193           -           1036   4.4e-17   62.4   5.1   2   4   1.5e-06   0.00094   18.3   0.0   481   546   289   354   278   366 0.89 -
ID=PSME_00012491     -            867 5232at3193           -           1036   4.4e-17   62.4   5.1   3   4   9.2e-08   5.8e-05   22.3   0.0   545   615   493   557   479   566 0.84 -
ID=PSME_00012491     -            867 5232at3193           -           1036   4.4e-17   62.4   5.1   4   4     0.013       8.3    5.2   1.1   775   812   735   772   723   795 0.75 -
ID=PSME_00030499     -            401 5232at3193           -           1036   7.4e-17   61.7  10.4   1   3   2.2e-07   0.00014   21.0   0.0   529   597    33   111     1   133 0.74 -
ID=PSME_00030499     -            401 5232at3193           -           1036   7.4e-17   61.7  10.4   2   3     0.016        10    5.0   8.2   773   801   249   277   240   293 0.80 -
ID=PSME_00030499     -            401 5232at3193           -           1036   7.4e-17   61.7  10.4   3   3   2.3e-11   1.5e-08   34.2   0.0   878   982   296   390   293   398 0.90 -
ID=PSME_00001767     -            832 5232at3193           -           1036   9.9e-17   61.3   3.5   1   3      0.28   1.8e+02    0.8   0.1   243   268   273   298   262   304 0.85 -
ID=PSME_00001767     -            832 5232at3193           -           1036   9.9e-17   61.3   3.5   2   3   0.00032       0.2   10.6   0.1   485   620   305   435   302   512 0.70 -
ID=PSME_00001767     -            832 5232at3193           -           1036   9.9e-17   61.3   3.5   3   3   7.6e-16   4.8e-13   49.1   0.0   867  1024   580   739   571   752 0.86 -
ID=PSME_00000156     -           2299 5232at3193           -           1036   2.1e-15   56.8   8.5   1   3      0.34   2.1e+02    0.6   0.1   243   262   667   686   660   695 0.88 -
ID=PSME_00000156     -           2299 5232at3193           -           1036   2.1e-15   56.8   8.5   2   3   5.8e-06    0.0037   16.3   3.8   485   688   700   902   694   912 0.76 -
ID=PSME_00000156     -           2299 5232at3193           -           1036   2.1e-15   56.8   8.5   3   3   3.1e-13   1.9e-10   40.4   0.0   867  1007  1193  1334  1184  1349 0.89 -
ID=PSME_00033879     -            252 5232at3193           -           1036   3.7e-15   56.1   0.0   1   1   7.5e-18   4.7e-15   55.7   0.0   896  1001    49   155    36   166 0.91 -
ID=PSME_00035138     -            211 5232at3193           -           1036   1.6e-14   54.0   1.1   1   2   2.7e-17   1.7e-14   53.9   0.0   899  1001    16   119     9   133 0.92 -
ID=PSME_00035138     -            211 5232at3193           -           1036   1.6e-14   54.0   1.1   2   2       3.4   2.1e+03   -2.7   0.5   785   799   175   189   155   202 0.72 -
ID=PSME_00015826     -            739 5232at3193           -           1036   7.3e-14   51.8   0.0   1   1   1.7e-16   1.1e-13   51.2   0.0   861  1001   294   436   288   459 0.88 -
ID=PSME_00004575     -            308 5232at3193           -           1036     1e-13   51.3  15.4   1   2   2.4e-08   1.5e-05   24.2   8.2   773   929    93   232    72   234 0.83 -
ID=PSME_00004575     -            308 5232at3193           -           1036     1e-13   51.3  15.4   2   2   1.4e-09   8.6e-07   28.4   0.7   954  1013   234   295   232   303 0.81 -
ID=PSME_00006150     -            310 5232at3193           -           1036   1.5e-13   50.7   0.1   1   1   3.2e-16     2e-13   50.3   0.1   875  1001    85   212    77   223 0.90 -
ID=PSME_00039596     -            181 5232at3193           -           1036   1.9e-13   50.4   0.0   1   1   3.3e-16   2.1e-13   50.3   0.0   897   980     5    89     1   109 0.91 -
ID=PSME_00018940     -            222 5232at3193           -           1036   2.9e-12   46.5   0.2   1   2      0.21   1.3e+02    1.2   0.1   875   898    28    51    22    63 0.82 -
ID=PSME_00018940     -            222 5232at3193           -           1036   2.9e-12   46.5   0.2   2   2   3.7e-14   2.3e-11   43.5   0.0   939  1001    62   124    49   132 0.88 -
ID=PSME_00020626     -            198 5232at3193           -           1036   4.5e-10   39.2   0.0   1   1   9.1e-13   5.8e-10   38.9   0.0   923  1001    21   100    16   110 0.82 -
ID=PSME_00035168     -             87 5232at3193           -           1036   1.5e-07   30.9   0.0   1   1   2.6e-10   1.6e-07   30.7   0.0   950  1001    26    77    14    82 0.91 -
ID=PSME_00000429     -            957 5232at3193           -           1036   2.5e-07   30.1   0.0   1   1   5.6e-10   3.6e-07   29.6   0.0   868   995    49   178    41   211 0.87 -
ID=PSME_00003045     -            194 5232at3193           -           1036   2.5e-07   30.1   0.0   1   1   5.1e-10   3.2e-07   29.8   0.0   950  1001    45    96    38   108 0.91 -
ID=PSME_00027418     -            709 5232at3193           -           1036     3e-07   29.9   0.0   1   2      0.12        77    2.0   0.0   214   261   113   162    95   171 0.81 -
ID=PSME_00027418     -            709 5232at3193           -           1036     3e-07   29.9   0.0   2   2     1e-08   6.4e-06   25.5   0.0   870   993   511   641   500   656 0.74 -
ID=PSME_00032937     -            195 5232at3193           -           1036   1.3e-06   27.8   0.1   1   2      0.19   1.2e+02    1.4   0.0   875   898    28    51    22    55 0.81 -
ID=PSME_00032937     -            195 5232at3193           -           1036   1.3e-06   27.8   0.1   2   2   1.8e-08   1.1e-05   24.6   0.0   941   980    64   103    45   123 0.83 -
ID=PSME_00019250     -            143 5232at3193           -           1036   3.3e-06   26.4   0.1   1   2      0.11        72    2.1   0.0   875   898    55    78    48    83 0.82 -
ID=PSME_00019250     -            143 5232at3193           -           1036   3.3e-06   26.4   0.1   2   2   6.6e-08   4.2e-05   22.8   0.0   940   980    90   130    73   139 0.82 -
ID=PSME_00018693     -            135 5232at3193           -           1036   3.6e-06   26.3   0.0   1   1   6.7e-09   4.2e-06   26.1   0.0   485   596    22   131    11   133 0.77 -
ID=PSME_00018228     -            245 5232at3193           -           1036   7.7e-06   25.2   0.1   1   1   1.6e-08   9.9e-06   24.8   0.1   875   934    40    99    27   105 0.91 -
ID=PSME_00014499     -           1167 5232at3193           -           1036   8.3e-06   25.1   0.1   1   2      0.19   1.2e+02    1.4   0.0   244   265   876   897   867   914 0.74 -
ID=PSME_00014499     -           1167 5232at3193           -           1036   8.3e-06   25.1   0.1   2   2   7.5e-08   4.7e-05   22.6   0.1   481   615   904  1034   887  1092 0.73 -
ID=PSME_00026615     -            336 5232at3193           -           1036   3.1e-05   23.2   1.2   1   1   6.5e-08   4.1e-05   22.8   1.2   320   366     5    53     2    75 0.80 -
ID=PSME_00024744     -            383 5232at3193           -           1036   3.3e-05   23.1   0.0   1   1   7.6e-08   4.8e-05   22.6   0.0   938   980    49    91    26    94 0.87 -
ID=PSME_00046222     -            855 5232at3193           -           1036     4e-05   22.8   0.0   1   1   9.2e-08   5.8e-05   22.3   0.0   862   980   494   610   490   620 0.91 -
ID=PSME_00008566     -            769 5232at3193           -           1036   6.7e-05   22.1   0.1   1   3       1.1     7e+02   -1.1   0.0   251   288     1    37     1    41 0.85 -
ID=PSME_00008566     -            769 5232at3193           -           1036   6.7e-05   22.1   0.1   2   3      0.24   1.5e+02    1.1   0.1   483   572    44   127    34   155 0.65 -
ID=PSME_00008566     -            769 5232at3193           -           1036   6.7e-05   22.1   0.1   3   3   2.6e-06    0.0017   17.5   0.0   855   993   467   607   431   625 0.82 -
ID=PSME_00013853     -            687 5232at3193           -           1036   9.1e-05   21.7   0.0   1   3      0.34   2.1e+02    0.6   0.0   217   262   163   206   156   213 0.72 -
ID=PSME_00013853     -            687 5232at3193           -           1036   9.1e-05   21.7   0.0   2   3     0.041        26    3.6   0.0   471   519   210   257   201   320 0.78 -
ID=PSME_00013853     -            687 5232at3193           -           1036   9.1e-05   21.7   0.0   3   3   3.7e-05     0.023   13.7   0.0   916  1011   565   660   556   676 0.86 -
ID=PSME_00013337     -           1811 5232at3193           -           1036   9.9e-05   21.5   1.3   1   1   2.4e-07   0.00015   20.9   1.3   318   367   533   588   516   619 0.80 -
ID=PSME_00003202     -             79 5232at3193           -           1036   9.9e-05   21.5   0.0   1   1   1.7e-07   0.00011   21.4   0.0   939   995     4    60     2    73 0.92 -
ID=PSME_00010371     -            190 5232at3193           -           1036   0.00015   20.9   0.0   1   1   3.2e-07    0.0002   20.5   0.0   943  1001    36    92    30   100 0.88 -
ID=PSME_00020203     -            324 5232at3193           -           1036   0.00024   20.2   0.0   1   1     5e-07   0.00032   19.9   0.0   485   596   211   320   199   322 0.80 -
ID=PSME_00048073     -            191 5232at3193           -           1036   0.00028   20.0   0.0   1   1   5.6e-07   0.00035   19.7   0.0   485   596    78   187    68   189 0.79 -
ID=PSME_00001006     -            836 5232at3193           -           1036   0.00039   19.6   0.1   1   1   8.7e-07   0.00055   19.1   0.1   315   372   703   761   689   803 0.77 -
ID=PSME_00017987     -            124 5232at3193           -           1036   0.00049   19.2   0.0   1   1     9e-07   0.00057   19.0   0.0   940  1021    18    97    13   111 0.79 -
ID=PSME_00047179     -            123 5232at3193           -           1036   0.00072   18.7   0.0   1   1   1.2e-06   0.00076   18.6   0.0   940   996     5    61     2    96 0.88 -
ID=PSME_00029102     -           1708 5232at3193           -           1036   0.00094   18.3   0.3   1   1   2.2e-06    0.0014   17.7   0.3   317   383   732   802   721   840 0.76 -
ID=PSME_00032592     -           1226 5232at3193           -           1036    0.0012   18.0   0.5   1   1   2.6e-06    0.0017   17.5   0.5   320   375   695   755   689   770 0.71 -
ID=PSME_00012748     -            101 5232at3193           -           1036    0.0013   17.9   0.0   1   1   2.2e-06    0.0014   17.7   0.0   940  1002    18    80    13    98 0.85 -
ID=PSME_00036208     -            166 5232at3193           -           1036    0.0014   17.7   0.0   1   1   2.7e-06    0.0017   17.4   0.0   485   596    53   162    43   164 0.74 -
ID=PSME_00020829     -            108 5232at3193           -           1036    0.0024   16.9   0.0   1   1   4.1e-06    0.0026   16.9   0.0   941  1021     2    80     1    94 0.77 -
ID=PSME_00031123     -             79 5232at3193           -           1036    0.0028   16.7   0.0   1   1   4.6e-06    0.0029   16.7   0.0   941   995     6    60     2    73 0.91 -
ID=PSME_00009907     -            130 5232at3193           -           1036    0.0031   16.6   0.0   1   1   5.3e-06    0.0033   16.5   0.0   530   596    51   110    26   119 0.78 -
ID=PSME_00006845     -            146 5232at3193           -           1036     0.006   15.6   0.0   1   1   1.1e-05    0.0072   15.4   0.0   940  1008    29    97    22   109 0.87 -
ID=PSME_00030581     -            136 5232at3193           -           1036    0.0079   15.2   0.1   1   1   1.5e-05    0.0093   15.0   0.1   954   995    72   113    62   128 0.84 -
ID=PSME_00036296     -            111 5232at3193           -           1036     0.012   14.6   0.0   1   1   2.1e-05     0.013   14.5   0.0   941   995    34    88    25   102 0.91 -
ID=PSME_00024386     -            847 5232at3193           -           1036     0.013   14.5  10.7   1   2   0.00093      0.59    9.0   1.3   772   801   139   168   122   194 0.79 -
ID=PSME_00024386     -            847 5232at3193           -           1036     0.013   14.5  10.7   2   2   0.00041      0.26   10.2   2.5   764   800   515   551   508   554 0.92 -
ID=PSME_00020220     -            353 5232at3193           -           1036     0.013   14.5   0.6   1   1   2.9e-05     0.018   14.0   0.6   316   352   279   316   265   334 0.76 -
ID=PSME_00009696     -            240 5232at3193           -           1036     0.021   13.8   0.1   1   1     4e-05     0.025   13.6   0.1   968  1022     3    58     2    72 0.75 -
ID=PSME_00042232     -            318 5232at3193           -           1036     0.021   13.8   0.5   1   3         2   1.2e+03   -2.0   0.0   177   198   151   172   149   179 0.88 -
ID=PSME_00042232     -            318 5232at3193           -           1036     0.021   13.8   0.5   2   3    0.0048         3    6.7   0.2   239   263   180   204   163   216 0.85 -
ID=PSME_00042232     -            318 5232at3193           -           1036     0.021   13.8   0.5   3   3     0.019        12    4.7   0.0   483   514   219   250   212   260 0.91 -
ID=PSME_00020985     -            226 5232at3193           -           1036     0.031   13.3   0.0   1   1   6.1e-05     0.039   13.0   0.0   941   996    46   101    40   136 0.88 -
ID=PSME_00048441     -            112 5232at3193           -           1036     0.042   12.8   0.0   1   1   6.9e-05     0.043   12.8   0.0   941   995     6    60     2    82 0.87 -
ID=PSME_00035064     -            231 5232at3193           -           1036     0.064   12.2   2.2   1   1   0.00017      0.11   11.5   2.2   775   815   177   219   158   225 0.85 -
ID=PSME_00006833     -            124 5232at3193           -           1036      0.12   11.3   0.0   1   1   0.00022      0.14   11.1   0.0   876   908    87   119    60   122 0.79 -
ID=PSME_00050704     -            257 5232at3193           -           1036      0.14   11.1   0.1   1   1   0.00033      0.21   10.5   0.1   968  1016     3    52     1    71 0.71 -
ID=PSME_00007367     -            174 5232at3193           -           1036      0.22   10.5   1.8   1   1   0.00042      0.26   10.2   1.8   758   812   104   159    91   170 0.75 -
ID=PSME_00042175     -             62 5232at3193           -           1036      0.23   10.4   0.5   1   1   0.00037      0.23   10.4   0.5   299   333    22    56     5    59 0.76 -
ID=PSME_00022561     -            132 5232at3193           -           1036      0.31   10.0   0.0   1   1    0.0006      0.38    9.7   0.0   941   986    87   132    81   132 0.92 -
ID=PSME_00057075     -            213 5232at3193           -           1036      0.35    9.8   0.9   1   1    0.0006      0.38    9.7   0.9   775   800    26    51     1    76 0.82 -
ID=PSME_00051410     -            218 5232at3193           -           1036      0.37    9.7   0.2   1   1   0.00079       0.5    9.3   0.2   302   332   181   211   159   213 0.79 -
ID=PSME_00023407     -            562 5232at3193           -           1036      0.44    9.5   0.0   1   1    0.0012      0.77    8.6   0.0   941   999   233   291   221   303 0.87 -
ID=PSME_00045699     -            680 5232at3193           -           1036      0.49    9.3   0.0   1   1     0.001      0.66    8.9   0.0   133   174    14    58     3    65 0.83 -
#
# Program:         hmmsearch
# Version:         3.2.1 (June 2018)
# Pipeline mode:   SEARCH
# Query file:      /isg/shared/databases/BUSCO/odb10/embryophyta_odb10/hmms/5232at3193.hmm
# Target file:     /labs/Wegrzyn/ConiferGenomes/Psme/analysis/SURF_annotation/analyze_orig_maker/gfacs/filtered/maker_genes.fasta.faa
# Option settings: /usr/local/bin/hmmsearch --domtblout /labs/Wegrzyn/ConiferGenomes/Psme/analysis/SURF_annotation/analyze_orig_maker/busco/maker/run_embryophyta_odb10/hmmer_output/5232at3193.out --cpu 1 /isg/shared/databases/BUSCO/odb10/embryophyta_odb10/hmms/5232at3193.hmm /labs/Wegrzyn/ConiferGenomes/Psme/analysis/SURF_annotation/analyze_orig_maker/gfacs/filtered/maker_genes.fasta.faa 
# Current dir:     /labs/Wegrzyn/ConiferGenomes/Psme/analysis/SURF_annotation/analyze_orig_maker/busco
# Date:            Fri Jul 10 13:51:58 2020
# [ok]
