#                                                                            --- full sequence --- -------------- this domain -------------   hmm coord   ali coord   env coord
# target name        accession   tlen query name           accession   qlen   E-value  score  bias   #  of  c-Evalue  i-Evalue  score  bias  from    to  from    to  from    to  acc description of target
#------------------- ---------- ----- -------------------- ---------- ----- --------- ------ ----- --- --- --------- --------- ------ ----- ----- ----- ----- ----- ----- ----- ---- ---------------------
ID=PSME_00019081     -           1505 5261at3193           -            772  4.4e-191  638.4  24.1   1   5   1.3e-43   2.3e-39  136.6   1.1    19   173   115   307    75   327 0.80 -
ID=PSME_00019081     -           1505 5261at3193           -            772  4.4e-191  638.4  24.1   2   5   1.2e-11   2.2e-07   30.9   0.0   164   218   388   442   359   499 0.80 -
ID=PSME_00019081     -           1505 5261at3193           -            772  4.4e-191  638.4  24.1   3   5   0.00023       4.2    6.8   0.2   221   247   908   935   896   993 0.79 -
ID=PSME_00019081     -           1505 5261at3193           -            772  4.4e-191  638.4  24.1   4   5   4.7e-35   8.6e-31  108.3   0.1   277   373  1050  1155  1041  1163 0.85 -
ID=PSME_00019081     -           1505 5261at3193           -            772  4.4e-191  638.4  24.1   5   5  6.5e-112  1.2e-107  362.5   3.7   346   632  1164  1478  1157  1484 0.88 -
ID=PSME_00010924     -            305 5261at3193           -            772   6.5e-11   42.6   2.7   1   3     0.017   3.1e+02    0.6   0.1   643   664     2    23     1    46 0.90 -
ID=PSME_00010924     -            305 5261at3193           -            772   6.5e-11   42.6   2.7   2   3   3.3e-13   6.1e-09   36.0   0.1   682   734    72   124    68   128 0.95 -
ID=PSME_00010924     -            305 5261at3193           -            772   6.5e-11   42.6   2.7   3   3    0.0011        20    4.6   0.0   750   769   230   249   223   252 0.87 -
ID=PSME_00040679     -            274 5261at3193           -            772   0.00013   21.7   0.1   1   1   1.1e-08   0.00019   21.2   0.1   702   742    89   129    71   135 0.87 -
#
# Program:         hmmsearch
# Version:         3.2.1 (June 2018)
# Pipeline mode:   SEARCH
# Query file:      /isg/shared/databases/BUSCO/odb10/embryophyta_odb10/hmms/5261at3193.hmm
# Target file:     /labs/Wegrzyn/ConiferGenomes/Psme/analysis/SURF_annotation/analyze_orig_maker/gfacs/filtered/maker_genes.fasta.faa
# Option settings: /usr/local/bin/hmmsearch --domtblout /labs/Wegrzyn/ConiferGenomes/Psme/analysis/SURF_annotation/analyze_orig_maker/busco/maker/run_embryophyta_odb10/hmmer_output/5261at3193.out --cpu 1 /isg/shared/databases/BUSCO/odb10/embryophyta_odb10/hmms/5261at3193.hmm /labs/Wegrzyn/ConiferGenomes/Psme/analysis/SURF_annotation/analyze_orig_maker/gfacs/filtered/maker_genes.fasta.faa 
# Current dir:     /labs/Wegrzyn/ConiferGenomes/Psme/analysis/SURF_annotation/analyze_orig_maker/busco
# Date:            Fri Jul 10 13:52:33 2020
# [ok]
