#                                                                            --- full sequence --- -------------- this domain -------------   hmm coord   ali coord   env coord
# target name        accession   tlen query name           accession   qlen   E-value  score  bias   #  of  c-Evalue  i-Evalue  score  bias  from    to  from    to  from    to  acc description of target
#------------------- ---------- ----- -------------------- ---------- ----- --------- ------ ----- --- --- --------- --------- ------ ----- ----- ----- ----- ----- ----- ----- ---- ---------------------
ID=PSME_00025112     -            547 52804at3193          -            429  4.1e-198  660.5  41.5   1   2  1.1e-184  2.1e-180  602.2  31.9     1   377    36   444    36   447 0.93 -
ID=PSME_00025112     -            547 52804at3193          -            429  4.1e-198  660.5  41.5   2   2   7.7e-21   1.4e-16   62.4   2.1   375   428   490   543   481   544 0.94 -
ID=PSME_00018828     -            441 52804at3193          -            429   6.7e-13   50.3  24.9   1   3   5.2e-16   9.5e-12   46.5   9.3    66   223    51   227    40   236 0.74 -
ID=PSME_00018828     -            441 52804at3193          -            429   6.7e-13   50.3  24.9   2   3     3e-06     0.055   14.3   2.5   271   366   248   341   232   352 0.75 -
ID=PSME_00018828     -            441 52804at3193          -            429   6.7e-13   50.3  24.9   3   3      0.93   1.7e+04   -3.8   0.2   143   157   371   385   356   410 0.59 -
ID=PSME_00018827     -            128 52804at3193          -            429   8.3e-09   36.8   0.9   1   2      0.64   1.2e+04   -3.2   0.0   150   164    20    34    15    39 0.71 -
ID=PSME_00018827     -            128 52804at3193          -            429   8.3e-09   36.8   0.9   2   2     5e-13   9.2e-09   36.6   0.1    16    71    51   113    47   117 0.78 -
#
# Program:         hmmsearch
# Version:         3.2.1 (June 2018)
# Pipeline mode:   SEARCH
# Query file:      /isg/shared/databases/BUSCO/odb10/embryophyta_odb10/hmms/52804at3193.hmm
# Target file:     /labs/Wegrzyn/ConiferGenomes/Psme/analysis/SURF_annotation/analyze_orig_maker/gfacs/filtered/maker_genes.fasta.faa
# Option settings: /usr/local/bin/hmmsearch --domtblout /labs/Wegrzyn/ConiferGenomes/Psme/analysis/SURF_annotation/analyze_orig_maker/busco/maker/run_embryophyta_odb10/hmmer_output/52804at3193.out --cpu 1 /isg/shared/databases/BUSCO/odb10/embryophyta_odb10/hmms/52804at3193.hmm /labs/Wegrzyn/ConiferGenomes/Psme/analysis/SURF_annotation/analyze_orig_maker/gfacs/filtered/maker_genes.fasta.faa 
# Current dir:     /labs/Wegrzyn/ConiferGenomes/Psme/analysis/SURF_annotation/analyze_orig_maker/busco
# Date:            Fri Jul 10 13:52:37 2020
# [ok]
