#                                                                            --- full sequence --- -------------- this domain -------------   hmm coord   ali coord   env coord
# target name        accession   tlen query name           accession   qlen   E-value  score  bias   #  of  c-Evalue  i-Evalue  score  bias  from    to  from    to  from    to  acc description of target
#------------------- ---------- ----- -------------------- ---------- ----- --------- ------ ----- --- --- --------- --------- ------ ----- ----- ----- ----- ----- ----- ----- ---- ---------------------
ID=PSME_00046560     -             95 52837at3193          -            434   5.3e-19   69.6   0.0   1   1   7.7e-23   6.1e-19   69.4   0.0   358   398    44    84    28    91 0.87 -
ID=PSME_00045161     -            133 52837at3193          -            434   6.7e-16   59.4   0.0   1   1     1e-19   8.1e-16   59.1   0.0   303   378    10    87     5   102 0.85 -
ID=PSME_00009224     -            315 52837at3193          -            434     2e-09   38.0   0.0   1   2   2.6e-13     2e-09   38.0   0.0   326   430    75   181    61   185 0.85 -
ID=PSME_00009224     -            315 52837at3193          -            434     2e-09   38.0   0.0   2   2      0.76   5.9e+03   -3.1   0.8   252   281   233   262   213   281 0.50 -
ID=PSME_00040411     -            199 52837at3193          -            434    0.0023   18.1   0.0   1   1     4e-07    0.0031   17.6   0.0   337   375   106   144   100   162 0.89 -
ID=PSME_00013928     -            236 52837at3193          -            434    0.0034   17.5   0.0   1   1   6.8e-07    0.0053   16.9   0.0   341   373   108   140    99   147 0.88 -
ID=PSME_00049848     -            940 52837at3193          -            434     0.071   13.2   0.0   1   1   1.6e-05      0.13   12.3   0.0   307   399   161   259   150   269 0.75 -
ID=PSME_00028854     -            133 52837at3193          -            434      0.49   10.4   0.0   1   1   7.7e-05       0.6   10.1   0.0   143   197     6    67     2    81 0.75 -
#
# Program:         hmmsearch
# Version:         3.2.1 (June 2018)
# Pipeline mode:   SEARCH
# Query file:      /isg/shared/databases/BUSCO/odb10/embryophyta_odb10/hmms/52837at3193.hmm
# Target file:     /labs/Wegrzyn/ConiferGenomes/Psme/analysis/SURF_annotation/analyze_orig_maker/gfacs/filtered/maker_genes.fasta.faa
# Option settings: /usr/local/bin/hmmsearch --domtblout /labs/Wegrzyn/ConiferGenomes/Psme/analysis/SURF_annotation/analyze_orig_maker/busco/maker/run_embryophyta_odb10/hmmer_output/52837at3193.out --cpu 1 /isg/shared/databases/BUSCO/odb10/embryophyta_odb10/hmms/52837at3193.hmm /labs/Wegrzyn/ConiferGenomes/Psme/analysis/SURF_annotation/analyze_orig_maker/gfacs/filtered/maker_genes.fasta.faa 
# Current dir:     /labs/Wegrzyn/ConiferGenomes/Psme/analysis/SURF_annotation/analyze_orig_maker/busco
# Date:            Fri Jul 10 13:52:39 2020
# [ok]
