#                                                                            --- full sequence --- -------------- this domain -------------   hmm coord   ali coord   env coord
# target name        accession   tlen query name           accession   qlen   E-value  score  bias   #  of  c-Evalue  i-Evalue  score  bias  from    to  from    to  from    to  acc description of target
#------------------- ---------- ----- -------------------- ---------- ----- --------- ------ ----- --- --- --------- --------- ------ ----- ----- ----- ----- ----- ----- ----- ---- ---------------------
ID=PSME_00000107     -            543 52897at3193          -            582    3e-276  918.9  30.2   1   1    2e-276  3.8e-273  908.7  30.2    73   582     2   542     1   542 0.95 -
ID=PSME_00013307     -            786 52897at3193          -            582   1.9e-83  282.3   8.9   1   1   1.8e-86   3.5e-83  281.4   8.9    17   303   459   772   442   779 0.77 -
ID=PSME_00047439     -            373 52897at3193          -            582   1.7e-34  120.7   7.0   1   1   1.2e-37   2.2e-34  120.3   7.0   358   567    61   266    36   278 0.87 -
ID=PSME_00013306     -            357 52897at3193          -            582     3e-33  116.6   6.3   1   1     2e-36   3.9e-33  116.2   6.3   322   567     5   250     2   262 0.83 -
ID=PSME_00000979     -            369 52897at3193          -            582   8.6e-32  111.7   3.6   1   1   3.7e-34     7e-31  108.7   3.6   364   567    67   262     1   274 0.85 -
ID=PSME_00001028     -           1292 52897at3193          -            582   9.6e-32  111.6   0.0   1   2   3.6e-30   6.8e-27   95.6   0.0    83   202   847   982   833  1005 0.85 -
ID=PSME_00001028     -           1292 52897at3193          -            582   9.6e-32  111.6   0.0   2   2   5.8e-05      0.11   12.3   0.1   227   310  1039  1125  1014  1138 0.76 -
ID=PSME_00033896     -            292 52897at3193          -            582   4.6e-28   99.4   3.2   1   1   2.9e-31   5.5e-28   99.2   3.2   380   567     2   185     1   198 0.87 -
ID=PSME_00042538     -            295 52897at3193          -            582   1.8e-26   94.2   2.9   1   1   1.2e-29   2.2e-26   93.9   2.9   376   565     1   186     1   198 0.87 -
ID=PSME_00020691     -            607 52897at3193          -            582   9.9e-16   58.7   0.3   1   1   1.4e-18   2.7e-15   57.3   0.3    86   299     9   251     1   286 0.71 -
ID=PSME_00050180     -            247 52897at3193          -            582   7.8e-15   55.8   2.3   1   1     5e-18   9.5e-15   55.5   2.3   424   566     1   139     1   150 0.83 -
ID=PSME_00008602     -            491 52897at3193          -            582   1.2e-14   55.1   2.2   1   2   3.4e-17   6.3e-14   52.8   0.8    87   215    89   235    61   266 0.72 -
ID=PSME_00008602     -            491 52897at3193          -            582   1.2e-14   55.1   2.2   2   2      0.18   3.3e+02    0.8   0.0   274   307   313   347   278   366 0.89 -
ID=PSME_00015545     -            481 52897at3193          -            582   4.2e-13   50.0   1.6   1   1   5.9e-16   1.1e-12   48.6   1.6    93   297     8   240     2   247 0.70 -
ID=PSME_00006062     -            998 52897at3193          -            582   2.3e-11   44.3   2.1   1   2     0.083   1.6e+02    1.9   0.1    93   112   152   171   143   181 0.83 -
ID=PSME_00006062     -            998 52897at3193          -            582   2.3e-11   44.3   2.1   2   2   7.8e-14   1.5e-10   41.6   0.3   141   202   224   285   215   291 0.93 -
ID=PSME_00013895     -            578 52897at3193          -            582     7e-11   42.7   0.1   1   1   5.6e-14   1.1e-10   42.1   0.1   139   213   307   381   290   394 0.92 -
ID=PSME_00001737     -            224 52897at3193          -            582   5.5e-07   29.8   0.1   1   2   0.00019      0.36   10.6   0.2    92   118    20    47     1    56 0.68 -
ID=PSME_00001737     -            224 52897at3193          -            582   5.5e-07   29.8   0.1   2   2   1.7e-06    0.0033   17.4   0.0   139   201    99   161    85   186 0.92 -
ID=PSME_00008134     -            434 52897at3193          -            582     1e-06   29.0   0.1   1   1     8e-10   1.5e-06   28.4   0.1   154   297    18   168     7   178 0.70 -
ID=PSME_00043108     -            865 52897at3193          -            582     4e-06   27.0   0.8   1   2   0.00043      0.82    9.5   0.2    93   122    43    73    18    79 0.79 -
ID=PSME_00043108     -            865 52897at3193          -            582     4e-06   27.0   0.8   2   2   5.5e-06      0.01   15.7   0.0   139   201   121   183   114   190 0.95 -
ID=PSME_00027188     -            346 52897at3193          -            582   2.1e-05   24.6   4.5   1   2    0.0014       2.6    7.8   0.0   288   364    14    88     4    98 0.81 -
ID=PSME_00027188     -            346 52897at3193          -            582   2.1e-05   24.6   4.5   2   2   4.8e-06    0.0091   15.9   2.5   424   524   116   211    88   238 0.72 -
ID=PSME_00011285     -           1080 52897at3193          -            582   5.4e-05   23.3   0.5   1   1   9.5e-08   0.00018   21.5   0.5    93   202    22   149    15   156 0.80 -
ID=PSME_00037358     -           1080 52897at3193          -            582   5.9e-05   23.1   0.6   1   1     1e-07    0.0002   21.4   0.6    93   202    22   149    15   156 0.80 -
ID=PSME_00040480     -            205 52897at3193          -            582   8.4e-05   22.6   0.2   1   1   5.7e-08   0.00011   22.3   0.2    75   204     6   152     1   176 0.66 -
ID=PSME_00005860     -            673 52897at3193          -            582    0.0015   18.5   0.0   1   2       1.6     3e+03   -2.3   0.0    89   104   238   254   195   257 0.69 -
ID=PSME_00005860     -            673 52897at3193          -            582    0.0015   18.5   0.0   2   2   2.2e-06    0.0041   17.1   0.0   122   214   303   403   295   437 0.75 -
ID=PSME_00056021     -            816 52897at3193          -            582     0.005   16.8   0.0   1   1   4.3e-06    0.0081   16.1   0.0   139   201    72   134    58   141 0.93 -
ID=PSME_00020897     -            135 52897at3193          -            582    0.0095   15.9   0.9   1   1   5.8e-06     0.011   15.7   0.9   164   220     4    63     1    81 0.73 -
ID=PSME_00036143     -            412 52897at3193          -            582     0.016   15.1   0.1   1   1   1.2e-05     0.023   14.6   0.1   139   201    69   133    63   176 0.83 -
ID=PSME_00055340     -            143 52897at3193          -            582     0.019   14.9   0.0   1   1   1.3e-05     0.025   14.5   0.0   153   199    79   126    64   136 0.85 -
ID=PSME_00008135     -            143 52897at3193          -            582     0.029   14.2   0.2   1   1   2.2e-05     0.041   13.8   0.2    74   112    42    81    33   139 0.80 -
ID=PSME_00004149     -            610 52897at3193          -            582     0.034   14.0   0.0   1   2    0.0076        14    5.3   0.0   139   185   219   266   207   292 0.79 -
ID=PSME_00004149     -            610 52897at3193          -            582     0.034   14.0   0.0   2   2    0.0037       6.9    6.4   0.0   139   199   510   572   504   588 0.79 -
ID=PSME_00022738     -            325 52897at3193          -            582     0.042   13.7   0.1   1   1   3.1e-05     0.058   13.3   0.1   139   185   134   181   126   207 0.84 -
#
# Program:         hmmsearch
# Version:         3.2.1 (June 2018)
# Pipeline mode:   SEARCH
# Query file:      /isg/shared/databases/BUSCO/odb10/embryophyta_odb10/hmms/52897at3193.hmm
# Target file:     /labs/Wegrzyn/ConiferGenomes/Psme/analysis/SURF_annotation/analyze_orig_maker/gfacs/filtered/maker_genes.fasta.faa
# Option settings: /usr/local/bin/hmmsearch --domtblout /labs/Wegrzyn/ConiferGenomes/Psme/analysis/SURF_annotation/analyze_orig_maker/busco/maker/run_embryophyta_odb10/hmmer_output/52897at3193.out --cpu 1 /isg/shared/databases/BUSCO/odb10/embryophyta_odb10/hmms/52897at3193.hmm /labs/Wegrzyn/ConiferGenomes/Psme/analysis/SURF_annotation/analyze_orig_maker/gfacs/filtered/maker_genes.fasta.faa 
# Current dir:     /labs/Wegrzyn/ConiferGenomes/Psme/analysis/SURF_annotation/analyze_orig_maker/busco
# Date:            Fri Jul 10 13:52:44 2020
# [ok]
