#                                                                            --- full sequence --- -------------- this domain -------------   hmm coord   ali coord   env coord
# target name        accession   tlen query name           accession   qlen   E-value  score  bias   #  of  c-Evalue  i-Evalue  score  bias  from    to  from    to  from    to  acc description of target
#------------------- ---------- ----- -------------------- ---------- ----- --------- ------ ----- --- --- --------- --------- ------ ----- ----- ----- ----- ----- ----- ----- ---- ---------------------
ID=PSME_00002115     -            612 5306at3193           -            932  1.3e-192  643.7  18.2   1   1  1.9e-195  1.9e-192  643.2  18.2    96   588     1   550     1   558 0.91 -
ID=PSME_00002116     -            445 5306at3193           -            932   1.1e-77  263.4  27.7   1   1   3.3e-79   3.2e-76  258.6  27.7   632   931    44   439    26   440 0.76 -
ID=PSME_00001060     -            983 5306at3193           -            932   1.2e-17   64.7  10.7   1   3      0.32   3.1e+02    0.5   0.0   472   526    59   113    49   135 0.74 -
ID=PSME_00001060     -            983 5306at3193           -            932   1.2e-17   64.7  10.7   2   3   6.1e-14   5.9e-11   42.6   1.4    12   195   119   304   111   305 0.92 -
ID=PSME_00001060     -            983 5306at3193           -            932   1.2e-17   64.7  10.7   3   3   1.2e-08   1.1e-05   25.1   1.1    27   197   306   476   304   516 0.89 -
ID=PSME_00002833     -           1041 5306at3193           -            932   1.5e-16   61.1  10.1   1   4      0.27   2.6e+02    0.7   0.0   475   538    74   144    65   150 0.65 -
ID=PSME_00002833     -           1041 5306at3193           -            932   1.5e-16   61.1  10.1   2   4   2.3e-12   2.2e-09   37.4   0.5    33   195   154   316   147   317 0.97 -
ID=PSME_00002833     -           1041 5306at3193           -            932   1.5e-16   61.1  10.1   3   4   2.4e-08   2.3e-05   24.1   0.3    26   196   317   487   313   492 0.95 -
ID=PSME_00002833     -           1041 5306at3193           -            932   1.5e-16   61.1  10.1   4   4     0.052        50    3.1   0.0    34    62   495   520   488   523 0.86 -
ID=PSME_00013947     -            690 5306at3193           -            932   3.4e-13   50.0   0.7   1   3     3e-05     0.029   13.8   0.2   100   196    17   113     9   125 0.92 -
ID=PSME_00013947     -            690 5306at3193           -            932   3.4e-13   50.0   0.7   2   3   0.00026      0.25   10.7   0.0   128   187   253   311   243   332 0.83 -
ID=PSME_00013947     -            690 5306at3193           -            932   3.4e-13   50.0   0.7   3   3   9.2e-08   8.9e-05   22.1   0.0    97   192   394   489   389   501 0.93 -
ID=PSME_00023831     -            423 5306at3193           -            932   1.5e-09   37.9   0.9   1   3      0.22   2.1e+02    1.0   0.0   492   532    34    74    28    91 0.85 -
ID=PSME_00023831     -            423 5306at3193           -            932   1.5e-09   37.9   0.9   2   3   4.2e-05     0.041   13.3   0.0     2    53   225   278   213   291 0.57 -
ID=PSME_00023831     -            423 5306at3193           -            932   1.5e-09   37.9   0.9   3   3   2.9e-07   0.00028   20.5   0.1   116   187   307   380   295   407 0.89 -
ID=PSME_00008848     -            808 5306at3193           -            932   2.2e-09   37.3   5.2   1   3   0.00039      0.38   10.1   0.0   134   190   105   161    92   169 0.89 -
ID=PSME_00008848     -            808 5306at3193           -            932   2.2e-09   37.3   5.2   2   3   3.7e-08   3.6e-05   23.4   1.7     5   196   144   351   142   365 0.83 -
ID=PSME_00008848     -            808 5306at3193           -            932   2.2e-09   37.3   5.2   3   3   0.00063       0.6    9.4   0.1    18    92   376   451   361   454 0.76 -
ID=PSME_00018525     -            302 5306at3193           -            932   4.9e-08   32.9   0.0   1   1   7.2e-11   6.9e-08   32.4   0.0   120   202   134   216   127   247 0.92 -
ID=PSME_00056090     -            852 5306at3193           -            932   1.4e-07   31.4   0.5   1   2     0.013        12    5.1   0.0   139   184   281   326   269   336 0.90 -
ID=PSME_00056090     -            852 5306at3193           -            932   1.4e-07   31.4   0.5   2   2   2.4e-08   2.3e-05   24.1   0.5    75   202   361   488   339   510 0.87 -
ID=PSME_00034275     -            493 5306at3193           -            932   6.7e-06   25.8   1.2   1   3    0.0013       1.3    8.4   0.0   126   191    42   107    27   151 0.91 -
ID=PSME_00034275     -            493 5306at3193           -            932   6.7e-06   25.8   1.2   2   3     0.014        14    5.0   0.2    26    53   227   254   206   293 0.77 -
ID=PSME_00034275     -            493 5306at3193           -            932   6.7e-06   25.8   1.2   3   3   0.00064      0.61    9.4   0.0   125   189   308   372   291   388 0.88 -
ID=PSME_00002079     -            662 5306at3193           -            932   7.2e-06   25.7   0.1   1   2      0.41   3.9e+02    0.1   0.0   476   547   228   299   222   319 0.78 -
ID=PSME_00002079     -            662 5306at3193           -            932   7.2e-06   25.7   0.1   2   2   8.1e-08   7.8e-05   22.3   0.1    87   229   510   653   508   658 0.84 -
ID=PSME_00011990     -            827 5306at3193           -            932   2.4e-05   24.0   2.3   1   6       5.4   5.2e+03   -3.6   0.0   479   547   172   241   167   256 0.72 -
ID=PSME_00011990     -            827 5306at3193           -            932   2.4e-05   24.0   2.3   2   6      0.18   1.7e+02    1.3   0.0   477   527   379   430   375   451 0.79 -
ID=PSME_00011990     -            827 5306at3193           -            932   2.4e-05   24.0   2.3   3   6      0.43   4.1e+02    0.1   0.0   477   532   484   540   473   559 0.82 -
ID=PSME_00011990     -            827 5306at3193           -            932   2.4e-05   24.0   2.3   4   6       1.2   1.1e+03   -1.4   0.0   472   503   549   580   545   586 0.85 -
ID=PSME_00011990     -            827 5306at3193           -            932   2.4e-05   24.0   2.3   5   6   1.1e-05     0.011   15.2   0.0   477   569   589   682   583   726 0.81 -
ID=PSME_00011990     -            827 5306at3193           -            932   2.4e-05   24.0   2.3   6   6      0.16   1.5e+02    1.5   0.0   479   539   731   792   717   814 0.85 -
ID=PSME_00049230     -            393 5306at3193           -            932   9.4e-05   22.1   0.0   1   1   2.1e-07    0.0002   21.0   0.0    97   186   257   346   251   351 0.95 -
ID=PSME_00024578     -            324 5306at3193           -            932   0.00016   21.3   0.0   1   1   2.6e-07   0.00025   20.6   0.0    97   205    87   199    82   206 0.89 -
ID=PSME_00014571     -            632 5306at3193           -            932   0.00017   21.2   0.3   1   1   2.6e-07   0.00025   20.7   0.3    97   189    27   119    24   126 0.94 -
ID=PSME_00015962     -            724 5306at3193           -            932   0.00068   19.2   2.4   1   3       0.7   6.7e+02   -0.6   0.1    33   108   435   511   379   549 0.75 -
ID=PSME_00015962     -            724 5306at3193           -            932   0.00068   19.2   2.4   2   3   4.3e-05     0.041   13.3   0.0    87   161   580   654   577   666 0.94 -
ID=PSME_00015962     -            724 5306at3193           -            932   0.00068   19.2   2.4   3   3     0.028        27    4.0   0.1   336   373   671   708   665   717 0.89 -
ID=PSME_00056289     -            862 5306at3193           -            932   0.00072   19.1   7.7   1   4      0.92   8.8e+02   -1.0   0.1   762   850    94   186    85   209 0.54 -
ID=PSME_00056289     -            862 5306at3193           -            932   0.00072   19.1   7.7   2   4   5.3e-06    0.0051   16.3   0.5   482   599   239   356   230   415 0.81 -
ID=PSME_00056289     -            862 5306at3193           -            932   0.00072   19.1   7.7   3   4      0.79   7.6e+02   -0.8   0.0   477   503   646   672   606   717 0.58 -
ID=PSME_00056289     -            862 5306at3193           -            932   0.00072   19.1   7.7   4   4     0.015        14    4.9   0.1   475   548   714   784   671   814 0.61 -
ID=PSME_00024964     -            398 5306at3193           -            932   0.00091   18.8   0.2   1   3    0.0006      0.58    9.5   0.0   479   562     8    92     5   101 0.90 -
ID=PSME_00024964     -            398 5306at3193           -            932   0.00091   18.8   0.2   2   3      0.11   1.1e+02    2.0   0.0   480   537   219   277   207   309 0.79 -
ID=PSME_00024964     -            398 5306at3193           -            932   0.00091   18.8   0.2   3   3      0.11     1e+02    2.0   0.0   475   502   354   381   349   391 0.86 -
ID=PSME_00024961     -            763 5306at3193           -            932   0.00094   18.7   0.1   1   3     0.004       3.8    6.8   0.0   479   562   247   331   244   343 0.92 -
ID=PSME_00024961     -            763 5306at3193           -            932   0.00094   18.7   0.1   2   3     0.099        96    2.2   0.0   480   542   433   496   401   531 0.83 -
ID=PSME_00024961     -            763 5306at3193           -            932   0.00094   18.7   0.1   3   3     0.012        11    5.3   0.0   477   579   570   674   561   720 0.75 -
ID=PSME_00041900     -            102 5306at3193           -            932    0.0012   18.4   0.0   1   1   1.4e-06    0.0014   18.2   0.0   128   188    27    86    17    98 0.84 -
ID=PSME_00023588     -            328 5306at3193           -            932     0.002   17.7   0.1   1   1     3e-06    0.0029   17.1   0.1    90   189    90   193    83   197 0.88 -
ID=PSME_00038837     -            550 5306at3193           -            932    0.0024   17.4   0.9   1   3    0.0081       7.8    5.8   0.0   479   559    36   117    33   127 0.86 -
ID=PSME_00038837     -            550 5306at3193           -            932    0.0024   17.4   0.9   2   3     0.078        75    2.5   0.0   480   538   235   294   201   325 0.82 -
ID=PSME_00038837     -            550 5306at3193           -            932    0.0024   17.4   0.9   3   3    0.0094         9    5.6   0.0   476   546   474   545   438   550 0.81 -
ID=PSME_00057082     -           1109 5306at3193           -            932    0.0036   16.8   0.2   1   6      0.53   5.1e+02   -0.2   0.0   483   561   237   316   158   338 0.70 -
ID=PSME_00057082     -           1109 5306at3193           -            932    0.0036   16.8   0.2   2   6      0.12   1.2e+02    1.9   0.0   476   534   370   429   361   451 0.73 -
ID=PSME_00057082     -           1109 5306at3193           -            932    0.0036   16.8   0.2   3   6    0.0049       4.8    6.5   0.0   473   567   471   567   448   589 0.84 -
ID=PSME_00057082     -           1109 5306at3193           -            932    0.0036   16.8   0.2   4   6      0.68   6.6e+02   -0.6   0.0   471   501   750   780   722   811 0.84 -
ID=PSME_00057082     -           1109 5306at3193           -            932    0.0036   16.8   0.2   5   6      0.87   8.4e+02   -0.9   0.0   480   534   829   884   822   897 0.87 -
ID=PSME_00057082     -           1109 5306at3193           -            932    0.0036   16.8   0.2   6   6       2.1     2e+03   -2.2   0.0   477   522   966  1009   960  1054 0.79 -
ID=PSME_00031386     -           1026 5306at3193           -            932    0.0067   15.9   1.1   1   5     0.025        24    4.2   0.0   479   559    73   154    68   160 0.85 -
ID=PSME_00031386     -           1026 5306at3193           -            932    0.0067   15.9   1.1   2   5      0.91   8.7e+02   -1.0   0.0   480   527   316   364   306   375 0.87 -
ID=PSME_00031386     -           1026 5306at3193           -            932    0.0067   15.9   1.1   3   5      0.11     1e+02    2.1   0.0   477   535   521   580   512   593 0.74 -
ID=PSME_00031386     -           1026 5306at3193           -            932    0.0067   15.9   1.1   4   5      0.13   1.3e+02    1.8   0.0   477   546   591   661   585   680 0.81 -
ID=PSME_00031386     -           1026 5306at3193           -            932    0.0067   15.9   1.1   5   5      0.51   4.9e+02   -0.2   0.0   440   525   909   993   884  1014 0.71 -
ID=PSME_00004762     -            451 5306at3193           -            932    0.0071   15.8   0.0   1   1   1.1e-05      0.01   15.3   0.0   127   185   301   358   292   372 0.88 -
ID=PSME_00040824     -           1006 5306at3193           -            932     0.008   15.7   0.1   1   2   0.00037      0.35   10.2   0.1   132   201   548   617   539   629 0.92 -
ID=PSME_00040824     -           1006 5306at3193           -            932     0.008   15.7   0.1   2   2     0.057        54    3.0   0.0   131   190   782   841   774   891 0.93 -
ID=PSME_00035334     -            424 5306at3193           -            932     0.012   15.1   0.1   1   1   1.8e-05     0.017   14.5   0.1    90   189   186   289   179   293 0.87 -
ID=PSME_00041899     -            225 5306at3193           -            932     0.017   14.6   0.0   1   1   2.3e-05     0.022   14.2   0.0   128   194    76   141    67   173 0.85 -
ID=PSME_00027908     -            340 5306at3193           -            932     0.017   14.6   0.3   1   2   3.9e-05     0.037   13.4   0.3    34   118   157   242   132   261 0.70 -
ID=PSME_00027908     -            340 5306at3193           -            932     0.017   14.6   0.3   2   2      0.71   6.8e+02   -0.7   0.0   273   305   233   265   230   271 0.85 -
ID=PSME_00025720     -            916 5306at3193           -            932     0.018   14.5   0.1   1   4    0.0097       9.3    5.5   0.0   477   531   275   330   255   397 0.90 -
ID=PSME_00025720     -            916 5306at3193           -            932     0.018   14.5   0.1   2   4       2.6   2.5e+03   -2.5   0.0   476   502   519   545   450   592 0.65 -
ID=PSME_00025720     -            916 5306at3193           -            932     0.018   14.5   0.1   3   4     0.083        80    2.4   0.0   477   561   693   778   686   815 0.72 -
ID=PSME_00025720     -            916 5306at3193           -            932     0.018   14.5   0.1   4   4       0.1     1e+02    2.1   0.0   446   537   799   894   765   909 0.72 -
ID=PSME_00019121     -            591 5306at3193           -            932     0.019   14.4   0.0   1   3     0.088        84    2.3   0.0   480   542   192   255   183   291 0.79 -
ID=PSME_00019121     -            591 5306at3193           -            932     0.019   14.4   0.0   2   3      0.67   6.5e+02   -0.6   0.0   478   563   330   416   316   435 0.65 -
ID=PSME_00019121     -            591 5306at3193           -            932     0.019   14.4   0.0   3   3    0.0021         2    7.7   0.0   475   568   432   527   406   561 0.81 -
ID=PSME_00023340     -            217 5306at3193           -            932     0.022   14.2   0.0   1   1   2.9e-05     0.028   13.9   0.0   128   184    96   151    86   193 0.86 -
ID=PSME_00037319     -            354 5306at3193           -            932     0.023   14.1   0.0   1   2    0.0016       1.5    8.1   0.0   127   183   105   160    98   169 0.88 -
ID=PSME_00037319     -            354 5306at3193           -            932     0.023   14.1   0.0   2   2     0.032        30    3.8   0.0    97   151   230   284   228   300 0.95 -
ID=PSME_00012328     -            198 5306at3193           -            932     0.024   14.1   0.0   1   1   3.8e-05     0.037   13.5   0.0    97   179   105   187   103   195 0.94 -
ID=PSME_00040092     -            656 5306at3193           -            932     0.034   13.6   0.2   1   4      0.16   1.5e+02    1.5   0.0   479   561   150   233   145   243 0.87 -
ID=PSME_00040092     -            656 5306at3193           -            932     0.034   13.6   0.2   2   4      0.74   7.1e+02   -0.7   0.0   473   562   250   341   242   358 0.75 -
ID=PSME_00040092     -            656 5306at3193           -            932     0.034   13.6   0.2   3   4    0.0073       7.1    5.9   0.0   477   564   395   483   356   517 0.69 -
ID=PSME_00040092     -            656 5306at3193           -            932     0.034   13.6   0.2   4   4      0.53   5.1e+02   -0.2   0.0   477   548   535   607   526   627 0.79 -
ID=PSME_00049683     -            605 5306at3193           -            932     0.051   13.0   0.2   1   2       1.4   1.3e+03   -1.6   0.0   448   545   236   336   224   399 0.70 -
ID=PSME_00049683     -            605 5306at3193           -            932     0.051   13.0   0.2   2   2   0.00024      0.23   10.8   0.1   474   562   473   560   443   571 0.84 -
ID=PSME_00017679     -            388 5306at3193           -            932     0.062   12.7   0.1   1   1   0.00011      0.11   12.0   0.1    99   179    23   103    16   112 0.89 -
ID=PSME_00056228     -            591 5306at3193           -            932      0.07   12.5   0.0   1   4     0.073        71    2.6   0.0   478   531    93   147    77   163 0.83 -
ID=PSME_00056228     -            591 5306at3193           -            932      0.07   12.5   0.0   2   4       2.2   2.1e+03   -2.3   0.0   477   537   197   258   191   275 0.77 -
ID=PSME_00056228     -            591 5306at3193           -            932      0.07   12.5   0.0   3   4     0.014        13    5.0   0.0   477   563   407   494   393   535 0.63 -
ID=PSME_00056228     -            591 5306at3193           -            932      0.07   12.5   0.0   4   4      0.14   1.3e+02    1.7   0.0   477   542   477   543   469   583 0.63 -
ID=PSME_00056439     -            706 5306at3193           -            932     0.071   12.5   0.0   1   2     0.049        47    3.2   0.0   474   570    12   110     5   146 0.77 -
ID=PSME_00056439     -            706 5306at3193           -            932     0.071   12.5   0.0   2   2    0.0033       3.2    7.1   0.0   477   573   541   639   507   674 0.85 -
ID=PSME_00044027     -            350 5306at3193           -            932      0.08   12.4   0.1   1   3      0.15   1.5e+02    1.5   0.0   476   535    15    76     4   105 0.79 -
ID=PSME_00044027     -            350 5306at3193           -            932      0.08   12.4   0.1   2   3      0.99   9.6e+02   -1.1   0.0   476   522   117   161    91   178 0.68 -
ID=PSME_00044027     -            350 5306at3193           -            932      0.08   12.4   0.1   3   3    0.0027       2.6    7.4   0.0   482   563   237   319   226   337 0.83 -
ID=PSME_00042238     -            543 5306at3193           -            932     0.082   12.3   0.0   1   1   0.00012      0.12   11.8   0.0    98   187    18   114    15   122 0.85 -
ID=PSME_00012326     -            198 5306at3193           -            932     0.086   12.3   0.0   1   1   0.00014      0.14   11.6   0.0    97   179   105   187   103   195 0.94 -
ID=PSME_00055563     -            288 5306at3193           -            932     0.087   12.2   0.0   1   1   0.00012      0.11   11.9   0.0   132   225   155   255   144   266 0.77 -
ID=PSME_00035018     -            431 5306at3193           -            932     0.089   12.2   0.1   1   3      0.02        20    4.4   0.0   480   542   102   165    94   192 0.84 -
ID=PSME_00035018     -            431 5306at3193           -            932     0.089   12.2   0.1   2   3      0.48   4.7e+02   -0.1   0.0   480   538   207   266   171   309 0.78 -
ID=PSME_00035018     -            431 5306at3193           -            932     0.089   12.2   0.1   3   3     0.054        52    3.0   0.0   478   534   310   367   301   381 0.65 -
ID=PSME_00038222     -            326 5306at3193           -            932       0.1   12.0   0.2   1   1   0.00015      0.14   11.5   0.2   101   192    34   125    22   154 0.87 -
ID=PSME_00034212     -            595 5306at3193           -            932       0.1   12.0   0.0   1   2    0.0015       1.4    8.2   0.0   473   528   315   371   294   377 0.86 -
ID=PSME_00034212     -            595 5306at3193           -            932       0.1   12.0   0.0   2   2      0.18   1.7e+02    1.3   0.0   476   588   388   501   373   512 0.79 -
ID=PSME_00024132     -            790 5306at3193           -            932      0.11   11.8   0.1   1   4       2.2   2.2e+03   -2.3   0.0   474   502   371   399   349   445 0.76 -
ID=PSME_00024132     -            790 5306at3193           -            932      0.11   11.8   0.1   2   4         1   9.6e+02   -1.2   0.0   477   529   479   532   466   540 0.70 -
ID=PSME_00024132     -            790 5306at3193           -            932      0.11   11.8   0.1   3   4      0.28   2.7e+02    0.7   0.0   476   532   583   640   553   677 0.74 -
ID=PSME_00024132     -            790 5306at3193           -            932      0.11   11.8   0.1   4   4    0.0061       5.9    6.2   0.0   477   534   689   747   679   778 0.91 -
ID=PSME_00026664     -            292 5306at3193           -            932      0.12   11.7   0.0   1   2   0.00027      0.26   10.7   0.0   477   571   127   223    93   248 0.87 -
ID=PSME_00026664     -            292 5306at3193           -            932      0.12   11.7   0.0   2   2       2.1     2e+03   -2.2   0.0   477   509   232   265   223   288 0.68 -
ID=PSME_00056348     -            193 5306at3193           -            932      0.14   11.6   0.0   1   1   0.00023      0.22   10.9   0.0   128   181    72   124    60   151 0.80 -
ID=PSME_00056837     -            639 5306at3193           -            932      0.14   11.5   0.0   1   2    0.0034       3.2    7.0   0.0   477   564   200   288   137   328 0.77 -
ID=PSME_00056837     -            639 5306at3193           -            932      0.14   11.5   0.0   2   2      0.25   2.4e+02    0.8   0.0   481   531   414   465   409   498 0.85 -
ID=PSME_00002830     -            708 5306at3193           -            932      0.15   11.5   0.3   1   2    0.0053       5.1    6.4   0.1   446   534   426   518   415   531 0.69 -
ID=PSME_00002830     -            708 5306at3193           -            932      0.15   11.5   0.3   2   2      0.13   1.3e+02    1.8   0.0   477   534   530   588   523   605 0.75 -
ID=PSME_00010934     -            489 5306at3193           -            932      0.24   10.8   0.1   1   1   0.00042      0.41   10.0   0.1   265   303   320   358   312   370 0.80 -
ID=PSME_00045321     -            846 5306at3193           -            932      0.26   10.7   0.4   1   3      0.93   8.9e+02   -1.0   0.1   478   548   128   201   110   212 0.73 -
ID=PSME_00045321     -            846 5306at3193           -            932      0.26   10.7   0.4   2   3      0.66   6.3e+02   -0.5   0.0   480   503   271   294   264   331 0.69 -
ID=PSME_00045321     -            846 5306at3193           -            932      0.26   10.7   0.4   3   3    0.0038       3.7    6.9   0.0   477   595   338   457   313   474 0.70 -
ID=PSME_00011282     -           1950 5306at3193           -            932      0.29   10.5   0.5   1   2     0.068        65    2.7   0.1   156   200  1156  1200  1144  1207 0.89 -
ID=PSME_00011282     -           1950 5306at3193           -            932      0.29   10.5   0.5   2   2    0.0088       8.4    5.7   0.1   156   201  1738  1783  1726  1793 0.88 -
ID=PSME_00004763     -             82 5306at3193           -            932      0.54    9.6   0.0   1   1   0.00058      0.56    9.6   0.0   128   169    41    81    27    81 0.78 -
ID=PSME_00056137     -            399 5306at3193           -            932      0.65    9.4   0.0   1   3      0.14   1.3e+02    1.7   0.0   480   537    70   128    61   160 0.73 -
ID=PSME_00056137     -            399 5306at3193           -            932      0.65    9.4   0.0   2   3      0.36   3.4e+02    0.3   0.0   479   540   174   236   138   268 0.78 -
ID=PSME_00056137     -            399 5306at3193           -            932      0.65    9.4   0.0   3   3     0.073        70    2.6   0.0   480   535   280   336   270   353 0.63 -
ID=PSME_00055258     -            825 5306at3193           -            932       1.2    8.5   3.7   1   3      0.21     2e+02    1.1   0.1   733   812   397   472   338   480 0.57 -
ID=PSME_00055258     -            825 5306at3193           -            932       1.2    8.5   3.7   2   3       3.3   3.2e+03   -2.9   0.0   444   471   494   521   481   523 0.82 -
ID=PSME_00055258     -            825 5306at3193           -            932       1.2    8.5   3.7   3   3    0.0028       2.7    7.3   0.3   157   223   661   728   616   733 0.76 -
#
# Program:         hmmsearch
# Version:         3.2.1 (June 2018)
# Pipeline mode:   SEARCH
# Query file:      /isg/shared/databases/BUSCO/odb10/embryophyta_odb10/hmms/5306at3193.hmm
# Target file:     /labs/Wegrzyn/ConiferGenomes/Psme/analysis/SURF_annotation/analyze_orig_maker/gfacs/filtered/maker_genes.fasta.faa
# Option settings: /usr/local/bin/hmmsearch --domtblout /labs/Wegrzyn/ConiferGenomes/Psme/analysis/SURF_annotation/analyze_orig_maker/busco/maker/run_embryophyta_odb10/hmmer_output/5306at3193.out --cpu 1 /isg/shared/databases/BUSCO/odb10/embryophyta_odb10/hmms/5306at3193.hmm /labs/Wegrzyn/ConiferGenomes/Psme/analysis/SURF_annotation/analyze_orig_maker/gfacs/filtered/maker_genes.fasta.faa 
# Current dir:     /labs/Wegrzyn/ConiferGenomes/Psme/analysis/SURF_annotation/analyze_orig_maker/busco
# Date:            Fri Jul 10 13:52:54 2020
# [ok]
