#                                                                            --- full sequence --- -------------- this domain -------------   hmm coord   ali coord   env coord
# target name        accession   tlen query name           accession   qlen   E-value  score  bias   #  of  c-Evalue  i-Evalue  score  bias  from    to  from    to  from    to  acc description of target
#------------------- ---------- ----- -------------------- ---------- ----- --------- ------ ----- --- --- --------- --------- ------ ----- ----- ----- ----- ----- ----- ----- ---- ---------------------
ID=PSME_00017110     -            599 54177at3193          -            523  3.9e-231  769.8   0.0   1   1  4.4e-235  4.8e-231  769.5   0.0   152   523   124   495    98   495 0.99 -
ID=PSME_00025505     -             83 54177at3193          -            523   3.8e-10   40.6   0.1   1   1   3.8e-14   4.2e-10   40.5   0.1   252   331     6    83     2    83 0.93 -
ID=PSME_00014204     -            264 54177at3193          -            523   8.3e-08   32.9   0.0   1   1     1e-11   1.1e-07   32.5   0.0   261   453     4   192     2   202 0.81 -
ID=PSME_00005878     -            455 54177at3193          -            523      0.22   11.7   2.3   1   3     0.012   1.3e+02    2.5   0.0    59    78   175   194   156   203 0.82 -
ID=PSME_00005878     -            455 54177at3193          -            523      0.22   11.7   2.3   2   3     0.015   1.7e+02    2.2   0.2    58    75   249   266   226   274 0.80 -
ID=PSME_00005878     -            455 54177at3193          -            523      0.22   11.7   2.3   3   3    0.0021        24    5.0   0.0    49    79   310   337   300   350 0.75 -
ID=PSME_00031639     -            337 54177at3193          -            523      0.99    9.5   2.0   1   3     0.032   3.5e+02    1.1   0.1    55    75    74    94    66   102 0.81 -
ID=PSME_00031639     -            337 54177at3193          -            523      0.99    9.5   2.0   2   3    0.0033        36    4.4   0.1    47    73   134   157   112   176 0.76 -
ID=PSME_00031639     -            337 54177at3193          -            523      0.99    9.5   2.0   3   3     0.019   2.1e+02    1.9   0.0    47    73   305   327   282   335 0.74 -
#
# Program:         hmmsearch
# Version:         3.2.1 (June 2018)
# Pipeline mode:   SEARCH
# Query file:      /isg/shared/databases/BUSCO/odb10/embryophyta_odb10/hmms/54177at3193.hmm
# Target file:     /labs/Wegrzyn/ConiferGenomes/Psme/analysis/SURF_annotation/analyze_orig_maker/gfacs/filtered/maker_genes.fasta.faa
# Option settings: /usr/local/bin/hmmsearch --domtblout /labs/Wegrzyn/ConiferGenomes/Psme/analysis/SURF_annotation/analyze_orig_maker/busco/maker/run_embryophyta_odb10/hmmer_output/54177at3193.out --cpu 1 /isg/shared/databases/BUSCO/odb10/embryophyta_odb10/hmms/54177at3193.hmm /labs/Wegrzyn/ConiferGenomes/Psme/analysis/SURF_annotation/analyze_orig_maker/gfacs/filtered/maker_genes.fasta.faa 
# Current dir:     /labs/Wegrzyn/ConiferGenomes/Psme/analysis/SURF_annotation/analyze_orig_maker/busco
# Date:            Fri Jul 10 13:53:13 2020
# [ok]
