#                                                                            --- full sequence --- -------------- this domain -------------   hmm coord   ali coord   env coord
# target name        accession   tlen query name           accession   qlen   E-value  score  bias   #  of  c-Evalue  i-Evalue  score  bias  from    to  from    to  from    to  acc description of target
#------------------- ---------- ----- -------------------- ---------- ----- --------- ------ ----- --- --- --------- --------- ------ ----- ----- ----- ----- ----- ----- ----- ---- ---------------------
ID=PSME_00049782     -           1018 54569at3193          -            473   3.8e-40  139.5  17.9   1   5   8.7e-11   2.5e-08   34.5   0.1   188   294   360   462   351   483 0.66 -
ID=PSME_00049782     -           1018 54569at3193          -            473   3.8e-40  139.5  17.9   2   5     5e-10   1.5e-07   32.0   1.3   155   343   457   644   455   650 0.80 -
ID=PSME_00049782     -           1018 54569at3193          -            473   3.8e-40  139.5  17.9   3   5     6e-08   1.7e-05   25.2   1.9   119   237   624   742   610   750 0.68 -
ID=PSME_00049782     -           1018 54569at3193          -            473   3.8e-40  139.5  17.9   4   5   6.9e-15     2e-12   48.1   0.1   105   249   745   889   741   903 0.94 -
ID=PSME_00049782     -           1018 54569at3193          -            473   3.8e-40  139.5  17.9   5   5   1.6e-05    0.0046   17.2   0.1   168   249   906   987   890  1008 0.89 -
ID=PSME_00023468     -            727 54569at3193          -            473   4.7e-32  112.8  21.6   1   3     8e-19   2.3e-16   61.0   9.9   176   399   108   331    86   340 0.89 -
ID=PSME_00023468     -            727 54569at3193          -            473   4.7e-32  112.8  21.6   2   3   0.00032     0.093   12.9   0.2   195   278   342   435   312   445 0.79 -
ID=PSME_00023468     -            727 54569at3193          -            473   4.7e-32  112.8  21.6   3   3   1.6e-15   4.5e-13   50.2   0.9   110   270   402   568   399   597 0.85 -
ID=PSME_00019673     -            548 54569at3193          -            473   2.3e-22   80.8  17.6   1   4   4.2e-06    0.0012   19.1   3.3   175   266    72   163    51   164 0.79 -
ID=PSME_00019673     -            548 54569at3193          -            473   2.3e-22   80.8  17.6   2   4   0.00015     0.044   14.0   0.2   213   278   169   233   164   248 0.87 -
ID=PSME_00019673     -            548 54569at3193          -            473   2.3e-22   80.8  17.6   3   4   0.00025     0.072   13.2   0.0   200   287   267   364   258   366 0.81 -
ID=PSME_00019673     -            548 54569at3193          -            473   2.3e-22   80.8  17.6   4   4   2.1e-14     6e-12   46.5   1.0   110   270   322   488   322   516 0.84 -
ID=PSME_00012062     -            397 54569at3193          -            473   9.1e-22   78.9   8.1   1   2   1.1e-06   0.00032   21.0   1.6   189   307    54   172    49   176 0.85 -
ID=PSME_00012062     -            397 54569at3193          -            473   9.1e-22   78.9   8.1   2   2   4.8e-19   1.4e-16   61.8   0.4   105   327   173   391   171   395 0.93 -
ID=PSME_00015547     -            568 54569at3193          -            473   2.2e-21   77.6  14.0   1   3     3e-06   0.00085   19.6   3.6   178   266    77   165    66   172 0.88 -
ID=PSME_00015547     -            568 54569at3193          -            473   2.2e-21   77.6  14.0   2   3   1.4e-07   4.1e-05   24.0   0.2   214   312   171   262   166   280 0.57 -
ID=PSME_00015547     -            568 54569at3193          -            473   2.2e-21   77.6  14.0   3   3   2.2e-12   6.4e-10   39.8   0.3   143   270   324   452   292   481 0.82 -
ID=PSME_00021526     -            966 54569at3193          -            473   1.5e-18   68.2   5.8   1   4      0.15        45    4.0   0.0   191   259   115   185    99   206 0.83 -
ID=PSME_00021526     -            966 54569at3193          -            473   1.5e-18   68.2   5.8   2   4    0.0056       1.6    8.8   0.0    57   122   264   332   230   341 0.80 -
ID=PSME_00021526     -            966 54569at3193          -            473   1.5e-18   68.2   5.8   3   4   7.2e-06    0.0021   18.3   0.4   173   237   459   527   452   534 0.68 -
ID=PSME_00021526     -            966 54569at3193          -            473   1.5e-18   68.2   5.8   4   4   5.9e-11   1.7e-08   35.1   0.1   188   343   639   803   554   813 0.68 -
ID=PSME_00008838     -            527 54569at3193          -            473   3.2e-17   63.9  12.2   1   2   1.6e-07   4.7e-05   23.7   5.8   180   276    88   184    81   219 0.69 -
ID=PSME_00008838     -            527 54569at3193          -            473   3.2e-17   63.9  12.2   2   2   2.4e-13     7e-11   43.0   0.4   145   270   249   375   219   405 0.83 -
ID=PSME_00012063     -            280 54569at3193          -            473   4.6e-15   56.8   0.6   1   2   1.4e-10   4.1e-08   33.8   0.0   124   235    50   154    42   170 0.69 -
ID=PSME_00012063     -            280 54569at3193          -            473   4.6e-15   56.8   0.6   2   2   2.3e-06   0.00066   20.0   0.1   193   281   176   260   169   270 0.71 -
ID=PSME_00001512     -            820 54569at3193          -            473   1.3e-13   52.0   9.0   1   1   6.2e-16   1.8e-13   51.5   9.0   177   398    20   241    12   246 0.91 -
ID=PSME_00010728     -            698 54569at3193          -            473   4.3e-12   47.0   8.9   1   5   9.1e-10   2.6e-07   31.2   4.4   189   379   102   290    83   319 0.88 -
ID=PSME_00010728     -            698 54569at3193          -            473   4.3e-12   47.0   8.9   2   5     2e-06   0.00059   20.1   0.1   186   307   200   289   195   370 0.61 -
ID=PSME_00010728     -            698 54569at3193          -            473   4.3e-12   47.0   8.9   3   5       2.9   8.2e+02   -0.1   0.0   196   250   324   380   293   418 0.74 -
ID=PSME_00010728     -            698 54569at3193          -            473   4.3e-12   47.0   8.9   4   5   0.00099      0.29   11.3   0.0   190   261   396   470   380   472 0.68 -
ID=PSME_00010728     -            698 54569at3193          -            473   4.3e-12   47.0   8.9   5   5      0.54   1.6e+02    2.3   0.0   233   270   476   513   474   525 0.89 -
ID=PSME_00010990     -            615 54569at3193          -            473   2.1e-10   41.4   9.0   1   4     0.021       6.2    6.9   0.1   191   232   104   145   100   178 0.65 -
ID=PSME_00010990     -            615 54569at3193          -            473   2.1e-10   41.4   9.0   2   4   3.9e-06    0.0011   19.2   0.4   112   201   194   285   180   308 0.41 -
ID=PSME_00010990     -            615 54569at3193          -            473   2.1e-10   41.4   9.0   3   4     0.015       4.3    7.4   0.2   196   279   324   417   316   438 0.75 -
ID=PSME_00010990     -            615 54569at3193          -            473   2.1e-10   41.4   9.0   4   4   0.00017     0.049   13.8   0.3   115   266   345   509   342   510 0.78 -
ID=PSME_00030027     -            609 54569at3193          -            473   1.3e-09   38.8   4.4   1   1   1.2e-11   3.3e-09   37.4   4.4    91   239   107   252   104   314 0.66 -
ID=PSME_00001060     -            983 54569at3193          -            473   3.2e-09   37.5   0.7   1   2    0.0071         2    8.5   0.0   257   381    70   191    61   208 0.81 -
ID=PSME_00001060     -            983 54569at3193          -            473   3.2e-09   37.5   0.7   2   2   5.8e-09   1.7e-06   28.5   0.5   145   384   162   398   159   427 0.83 -
ID=PSME_00027758     -            704 54569at3193          -            473   1.7e-08   35.1   1.4   1   3   1.3e-06   0.00036   20.8   0.1    82   268    56   226    49   228 0.87 -
ID=PSME_00027758     -            704 54569at3193          -            473   1.7e-08   35.1   1.4   2   3    0.0054       1.6    8.8   0.1   119   169   213   260   199   321 0.66 -
ID=PSME_00027758     -            704 54569at3193          -            473   1.7e-08   35.1   1.4   3   3     0.037        11    6.1   0.0   176   236   365   422   346   431 0.74 -
ID=PSME_00007755     -            622 54569at3193          -            473   3.6e-08   34.0   0.0   1   4    0.0098       2.8    8.0   0.0   155   308     6   163     3   192 0.73 -
ID=PSME_00007755     -            622 54569at3193          -            473   3.6e-08   34.0   0.0   2   4    0.0023      0.65   10.1   0.0    72   268   132   332    96   334 0.64 -
ID=PSME_00007755     -            622 54569at3193          -            473   3.6e-08   34.0   0.0   3   4     4e-05     0.012   15.9   0.0    40   338   167   474   160   477 0.69 -
ID=PSME_00007755     -            622 54569at3193          -            473   3.6e-08   34.0   0.0   4   4   0.00012     0.035   14.3   0.0    52   221   321   491   318   616 0.67 -
ID=PSME_00049425     -            534 54569at3193          -            473   5.4e-08   33.5   0.0   1   2   6.6e-08   1.9e-05   25.1   0.0    53   269   177   398   172   416 0.78 -
ID=PSME_00049425     -            534 54569at3193          -            473   5.4e-08   33.5   0.0   2   2       1.6   4.6e+02    0.7   0.0    82   166   417   502   403   521 0.46 -
ID=PSME_00031668     -            383 54569at3193          -            473   1.9e-07   31.6   0.3   1   2     0.019       5.6    7.0   0.0   234   270   145   181   127   191 0.86 -
ID=PSME_00031668     -            383 54569at3193          -            473   1.9e-07   31.6   0.3   2   2   6.6e-07   0.00019   21.8   0.1   165   309   219   363   193   372 0.81 -
ID=PSME_00031386     -           1026 54569at3193          -            473   2.5e-07   31.3   0.1   1   5      0.13        36    4.3   0.0    52    98   252   299   247   329 0.73 -
ID=PSME_00031386     -           1026 54569at3193          -            473   2.5e-07   31.3   0.1   2   5      0.23        67    3.5   0.0    55   200   425   503   337   509 0.60 -
ID=PSME_00031386     -           1026 54569at3193          -            473   2.5e-07   31.3   0.1   3   5      0.38   1.1e+02    2.8   0.0    77   202   518   645   507   650 0.65 -
ID=PSME_00031386     -           1026 54569at3193          -            473   2.5e-07   31.3   0.1   4   5     0.091        26    4.8   0.0    51    98   801   849   794   882 0.87 -
ID=PSME_00031386     -           1026 54569at3193          -            473   2.5e-07   31.3   0.1   5   5     0.047        14    5.7   0.0    50    97   948   996   918  1002 0.86 -
ID=PSME_00049424     -            434 54569at3193          -            473   6.6e-07   29.9   0.0   1   3       0.1        29    4.7   0.0    73   132    28    87     3    97 0.42 -
ID=PSME_00049424     -            434 54569at3193          -            473   6.6e-07   29.9   0.0   2   3   4.8e-07   0.00014   22.2   0.0    53   236    77   264    74   315 0.73 -
ID=PSME_00049424     -            434 54569at3193          -            473   6.6e-07   29.9   0.0   3   3       2.7   7.9e+02   -0.1   0.0    74   135   309   370   266   411 0.59 -
ID=PSME_00056692     -            480 54569at3193          -            473     9e-07   29.4   0.2   1   4       0.8   2.3e+02    1.7   0.0   155   201     6    53     4    61 0.80 -
ID=PSME_00056692     -            480 54569at3193          -            473     9e-07   29.4   0.2   2   4    0.0011      0.31   11.2   0.0    50   207    74   234    58   268 0.79 -
ID=PSME_00056692     -            480 54569at3193          -            473     9e-07   29.4   0.2   3   4   0.00058      0.17   12.0   0.0    38   134   270   369   237   374 0.83 -
ID=PSME_00056692     -            480 54569at3193          -            473     9e-07   29.4   0.2   4   4       8.6   2.5e+03   -1.7   0.0   155   171   426   441   416   462 0.73 -
ID=PSME_00030166     -            978 54569at3193          -            473   3.1e-06   27.6   2.1   1   3    0.0021      0.62   10.2   0.0   175   412   118   342   109   346 0.75 -
ID=PSME_00030166     -            978 54569at3193          -            473   3.1e-06   27.6   2.1   2   3   0.00018     0.051   13.7   0.1    96   269   371   532   364   564 0.83 -
ID=PSME_00030166     -            978 54569at3193          -            473   3.1e-06   27.6   2.1   3   3         4   1.2e+03   -0.6   0.1   189   239   551   598   541   605 0.78 -
ID=PSME_00038079     -            903 54569at3193          -            473   3.3e-06   27.6   0.4   1   3   4.8e-07   0.00014   22.2   0.1    47   236    93   274    78   313 0.87 -
ID=PSME_00038079     -            903 54569at3193          -            473   3.3e-06   27.6   0.4   2   3       5.8   1.7e+03   -1.1   0.0   159   236   401   476   397   485 0.74 -
ID=PSME_00038079     -            903 54569at3193          -            473   3.3e-06   27.6   0.4   3   3       2.6   7.6e+02   -0.0   0.0   176   234   520   575   501   585 0.66 -
ID=PSME_00043317     -            656 54569at3193          -            473   3.7e-06   27.4   0.0   1   4    0.0057       1.6    8.8   0.0    52   207   220   378   213   408 0.68 -
ID=PSME_00043317     -            656 54569at3193          -            473   3.7e-06   27.4   0.0   2   4     0.027       7.7    6.6   0.0    55   138   293   377   277   449 0.60 -
ID=PSME_00043317     -            656 54569at3193          -            473   3.7e-06   27.4   0.0   3   4       1.7   4.9e+02    0.6   0.0    36    97   447   511   414   548 0.65 -
ID=PSME_00043317     -            656 54569at3193          -            473   3.7e-06   27.4   0.0   4   4   0.00032     0.092   12.9   0.0    50   133   568   652   551   655 0.89 -
ID=PSME_00012002     -            644 54569at3193          -            473   3.9e-06   27.3   0.7   1   3   1.8e-07   5.1e-05   23.6   0.2   108   270    75   227    64   261 0.58 -
ID=PSME_00012002     -            644 54569at3193          -            473   3.9e-06   27.3   0.7   2   3      0.15        43    4.1   0.0   189   305   214   332   207   362 0.81 -
ID=PSME_00012002     -            644 54569at3193          -            473   3.9e-06   27.3   0.7   3   3       4.9   1.4e+03   -0.9   0.0    58    96   458   496   445   505 0.83 -
ID=PSME_00038295     -            865 54569at3193          -            473   5.8e-06   26.8   5.8   1   3     0.012       3.4    7.7   0.1    48   144    14   107     9   132 0.90 -
ID=PSME_00038295     -            865 54569at3193          -            473   5.8e-06   26.8   5.8   2   3    0.0054       1.6    8.9   0.0   179   268   176   259   151   295 0.74 -
ID=PSME_00038295     -            865 54569at3193          -            473   5.8e-06   26.8   5.8   3   3    0.0018      0.52   10.4   0.6    66   348   329   599   313   637 0.71 -
ID=PSME_00010852     -            707 54569at3193          -            473   9.7e-06   26.0   0.3   1   2   4.1e-06    0.0012   19.1   0.1   151   277    79   196    49   225 0.64 -
ID=PSME_00010852     -            707 54569at3193          -            473   9.7e-06   26.0   0.3   2   2      0.13        37    4.3   0.0   220   272   375   424   239   476 0.66 -
ID=PSME_00002833     -           1041 54569at3193          -            473   1.1e-05   25.8   2.4   1   1   5.3e-08   1.5e-05   25.4   0.9   116   381   145   407    73   438 0.82 -
ID=PSME_00028920     -            949 54569at3193          -            473   1.2e-05   25.7   0.6   1   3       5.8   1.7e+03   -1.1   0.0   227   268    61    99    38   111 0.58 -
ID=PSME_00028920     -            949 54569at3193          -            473   1.2e-05   25.7   0.6   2   3    0.0014      0.41   10.8   0.0    84   269   147   333   128   379 0.68 -
ID=PSME_00028920     -            949 54569at3193          -            473   1.2e-05   25.7   0.6   3   3   0.00081      0.23   11.6   0.0    73   244   507   675   479   712 0.76 -
ID=PSME_00056137     -            399 54569at3193          -            473   1.3e-05   25.6   0.1   1   3      0.11        32    4.5   0.0    51    98     5    53     2    60 0.80 -
ID=PSME_00056137     -            399 54569at3193          -            473   1.3e-05   25.6   0.1   2   3    0.0021      0.61   10.2   0.1    50    98   106   155    91   260 0.78 -
ID=PSME_00056137     -            399 54569at3193          -            473   1.3e-05   25.6   0.1   3   3     0.057        16    5.5   0.0   157   203   250   297   245   332 0.69 -
ID=PSME_00017290     -            794 54569at3193          -            473   1.6e-05   25.3   0.0   1   4    0.0079       2.3    8.3   0.0    46   134    28   117    10   127 0.88 -
ID=PSME_00017290     -            794 54569at3193          -            473   1.6e-05   25.3   0.0   2   4      0.78   2.3e+02    1.7   0.0   158   236   173   249   169   260 0.75 -
ID=PSME_00017290     -            794 54569at3193          -            473   1.6e-05   25.3   0.0   3   4    0.0066       1.9    8.6   0.0   184   297   301   417   273   466 0.80 -
ID=PSME_00017290     -            794 54569at3193          -            473   1.6e-05   25.3   0.0   4   4       4.3   1.3e+03   -0.7   0.0   120   135   542   557   521   574 0.65 -
ID=PSME_00032007     -            664 54569at3193          -            473   1.8e-05   25.1   0.3   1   2   2.4e-05    0.0068   16.6   0.0   118   269   225   364   156   400 0.70 -
ID=PSME_00032007     -            664 54569at3193          -            473   1.8e-05   25.1   0.3   2   2     0.063        18    5.3   0.0   178   240   442   501   432   510 0.79 -
ID=PSME_00028102     -            544 54569at3193          -            473   1.9e-05   25.0   0.0   1   1     1e-07   2.9e-05   24.5   0.0   188   245   360   417   342   425 0.68 -
ID=PSME_00022325     -           1072 54569at3193          -            473     2e-05   25.0   0.1   1   4    0.0034      0.97    9.5   0.0    48   168    72   190    47   195 0.87 -
ID=PSME_00022325     -           1072 54569at3193          -            473     2e-05   25.0   0.1   2   4       6.5   1.9e+03   -1.3   0.0   179   203   258   282   233   319 0.64 -
ID=PSME_00022325     -           1072 54569at3193          -            473     2e-05   25.0   0.1   3   4       1.1   3.2e+02    1.2   0.0   106   209   354   469   338   488 0.57 -
ID=PSME_00022325     -           1072 54569at3193          -            473     2e-05   25.0   0.1   4   4     0.018       5.1    7.1   0.0   175   267   839   929   745   944 0.70 -
ID=PSME_00040872     -            766 54569at3193          -            473   2.2e-05   24.8   0.2   1   3       2.9   8.5e+02   -0.2   0.0   118   148   219   246   208   278 0.71 -
ID=PSME_00040872     -            766 54569at3193          -            473   2.2e-05   24.8   0.2   2   3   0.00039      0.11   12.6   0.0   115   270   315   468   298   473 0.79 -
ID=PSME_00040872     -            766 54569at3193          -            473   2.2e-05   24.8   0.2   3   3     0.013       3.6    7.6   0.0    90   150   525   582   471   639 0.63 -
ID=PSME_00005900     -            792 54569at3193          -            473   2.3e-05   24.8   0.7   1   4       6.3   1.8e+03   -1.3   0.0   107   147   110   147    83   179 0.53 -
ID=PSME_00005900     -            792 54569at3193          -            473   2.3e-05   24.8   0.7   2   4     7e-05      0.02   15.1   0.0    80   135   219   270   200   332 0.85 -
ID=PSME_00005900     -            792 54569at3193          -            473   2.3e-05   24.8   0.7   3   4      0.15        42    4.1   0.0   180   269   449   532   423   561 0.73 -
ID=PSME_00005900     -            792 54569at3193          -            473   2.3e-05   24.8   0.7   4   4       1.5   4.3e+02    0.8   0.0   363   425   633   695   597   720 0.84 -
ID=PSME_00005855     -            625 54569at3193          -            473   2.6e-05   24.6   0.0   1   3    0.0014      0.41   10.8   0.0   155   373   142   359     3   377 0.69 -
ID=PSME_00005855     -            625 54569at3193          -            473   2.6e-05   24.6   0.0   2   3      0.06        17    5.4   0.0    51   104   452   506   436   540 0.75 -
ID=PSME_00005855     -            625 54569at3193          -            473   2.6e-05   24.6   0.0   3   3       4.7   1.3e+03   -0.8   0.0    50   101   521   577   500   590 0.71 -
ID=PSME_00029629     -            855 54569at3193          -            473   2.6e-05   24.6   0.1   1   3     0.088        25    4.9   0.0    34    97   134   197    68   203 0.85 -
ID=PSME_00029629     -            855 54569at3193          -            473   2.6e-05   24.6   0.1   2   3      0.02       5.9    6.9   0.0    51    98   467   515   460   531 0.87 -
ID=PSME_00029629     -            855 54569at3193          -            473   2.6e-05   24.6   0.1   3   3     0.013       3.7    7.6   0.0    50    98   614   663   592   685 0.80 -
ID=PSME_00029003     -            524 54569at3193          -            473   3.8e-05   24.1   0.0   1   1   1.9e-07   5.4e-05   23.5   0.0   188   245   360   417   342   425 0.69 -
ID=PSME_00057082     -           1109 54569at3193          -            473   3.9e-05   24.0   0.0   1   4     0.016       4.6    7.3   0.0    46   207   266   430   248   458 0.82 -
ID=PSME_00057082     -           1109 54569at3193          -            473   3.9e-05   24.0   0.0   2   4      0.19        55    3.7   0.0   121   205   482   568   438   580 0.73 -
ID=PSME_00057082     -           1109 54569at3193          -            473   3.9e-05   24.0   0.0   3   4       1.1   3.1e+02    1.2   0.0    79   134   720   775   713   782 0.87 -
ID=PSME_00057082     -           1109 54569at3193          -            473   3.9e-05   24.0   0.0   4   4       0.1        29    4.6   0.0   188   239   901   953   866   988 0.87 -
ID=PSME_00038229     -            665 54569at3193          -            473   4.8e-05   23.7   1.4   1   2    0.0011      0.33   11.1   0.1   327   407   129   207    93   277 0.63 -
ID=PSME_00038229     -            665 54569at3193          -            473   4.8e-05   23.7   1.4   2   2    0.0011      0.32   11.1   0.1   318   427   551   659   545   663 0.69 -
ID=PSME_00029700     -            422 54569at3193          -            473   5.6e-05   23.5   0.1   1   3    0.0041       1.2    9.3   0.0   155   269     6   120     4   137 0.71 -
ID=PSME_00029700     -            422 54569at3193          -            473   5.6e-05   23.5   0.1   2   3     0.015       4.3    7.4   0.0    50    99   141   191   124   300 0.74 -
ID=PSME_00029700     -            422 54569at3193          -            473   5.6e-05   23.5   0.1   3   3      0.94   2.7e+02    1.5   0.0    77   133   309   365   297   370 0.84 -
ID=PSME_00033049     -            751 54569at3193          -            473   6.7e-05   23.2   0.0   1   2   1.8e-05    0.0052   17.0   0.0   112   272   112   268    55   283 0.77 -
ID=PSME_00033049     -            751 54569at3193          -            473   6.7e-05   23.2   0.0   2   2      0.27        77    3.3   0.0   188   265   287   363   269   377 0.75 -
ID=PSME_00001599     -            773 54569at3193          -            473     7e-05   23.2   5.6   1   4    0.0018      0.51   10.4   0.6    35   268    29   255     6   256 0.79 -
ID=PSME_00001599     -            773 54569at3193          -            473     7e-05   23.2   5.6   2   4   6.2e-05     0.018   15.2   0.2   181   339   205   359   195   378 0.71 -
ID=PSME_00001599     -            773 54569at3193          -            473     7e-05   23.2   5.6   3   4       0.3        87    3.1   0.1   113   136   438   461   363   497 0.74 -
ID=PSME_00001599     -            773 54569at3193          -            473     7e-05   23.2   5.6   4   4       2.8     8e+02   -0.1   0.0    52   106   580   638   564   643 0.75 -
ID=PSME_00039879     -            708 54569at3193          -            473   7.6e-05   23.1  10.9   1   2   5.8e-07   0.00017   21.9   8.1   229   341    74   186    66   197 0.93 -
ID=PSME_00039879     -            708 54569at3193          -            473   7.6e-05   23.1  10.9   2   2      0.82   2.4e+02    1.7   0.1   216   266   196   244   190   257 0.54 -
ID=PSME_00013105     -            221 54569at3193          -            473     8e-05   23.0   0.4   1   2   0.00061      0.18   12.0   0.0   188   268    67   141    33   149 0.77 -
ID=PSME_00013105     -            221 54569at3193          -            473     8e-05   23.0   0.4   2   2    0.0053       1.5    8.9   0.0   110   168   150   205   144   213 0.83 -
ID=PSME_00010832     -            861 54569at3193          -            473     8e-05   23.0   0.3   1   3      0.16        45    4.0   0.0   176   210   114   148    83   178 0.72 -
ID=PSME_00010832     -            861 54569at3193          -            473     8e-05   23.0   0.3   2   3   6.8e-05      0.02   15.1   0.1   182   321   322   458   312   497 0.75 -
ID=PSME_00010832     -            861 54569at3193          -            473     8e-05   23.0   0.3   3   3       7.5   2.2e+03   -1.5   0.0   119   134   533   548   522   581 0.66 -
ID=PSME_00003206     -            699 54569at3193          -            473   8.9e-05   22.8   0.0   1   2    0.0004      0.12   12.6   0.0   214   294    85   167    57   186 0.60 -
ID=PSME_00003206     -            699 54569at3193          -            473   8.9e-05   22.8   0.0   2   2    0.0093       2.7    8.1   0.0   189   342   304   466   296   481 0.80 -
ID=PSME_00038837     -            550 54569at3193          -            473   9.2e-05   22.8   0.3   1   3     0.028       8.2    6.5   0.0    50    97   169   217   131   223 0.70 -
ID=PSME_00038837     -            550 54569at3193          -            473   9.2e-05   22.8   0.3   2   3     0.035        10    6.2   0.0    50    98   271   320   251   339 0.82 -
ID=PSME_00038837     -            550 54569at3193          -            473   9.2e-05   22.8   0.3   3   3       0.1        30    4.6   0.0   155   235   411   493   403   503 0.69 -
ID=PSME_00030484     -            673 54569at3193          -            473   9.8e-05   22.7   0.1   1   3    0.0029      0.84    9.7   0.0    73   270    77   270    52   275 0.61 -
ID=PSME_00030484     -            673 54569at3193          -            473   9.8e-05   22.7   0.1   2   3    0.0077       2.2    8.3   0.0   177   235   214   269   208   304 0.73 -
ID=PSME_00030484     -            673 54569at3193          -            473   9.8e-05   22.7   0.1   3   3     0.013       3.8    7.6   0.0   183   300   352   460   323   475 0.52 -
ID=PSME_00031730     -            409 54569at3193          -            473   9.8e-05   22.7   0.3   1   3     0.011       3.2    7.8   0.0   224   271   138   185   132   195 0.83 -
ID=PSME_00031730     -            409 54569at3193          -            473   9.8e-05   22.7   0.3   2   3         2   5.7e+02    0.4   0.1   213   270   200   258   184   282 0.71 -
ID=PSME_00031730     -            409 54569at3193          -            473   9.8e-05   22.7   0.3   3   3    0.0013      0.37   10.9   0.0   181   262   306   390   246   402 0.73 -
ID=PSME_00052751     -            645 54569at3193          -            473    0.0001   22.7   0.0   1   3    0.0079       2.3    8.3   0.1   155   207   241   294   236   325 0.57 -
ID=PSME_00052751     -            645 54569at3193          -            473    0.0001   22.7   0.0   2   3         2   5.9e+02    0.4   0.0    42    96   334   391   324   411 0.82 -
ID=PSME_00052751     -            645 54569at3193          -            473    0.0001   22.7   0.0   3   3    0.0038       1.1    9.4   0.0    50   202   414   569   398   606 0.81 -
ID=PSME_00026765     -            841 54569at3193          -            473   0.00011   22.5   0.0   1   5      0.12        35    4.4   0.0   154   235   181   256   174   291 0.63 -
ID=PSME_00026765     -            841 54569at3193          -            473   0.00011   22.5   0.0   2   5     0.084        24    4.9   0.0   175   243   300   365   279   375 0.86 -
ID=PSME_00026765     -            841 54569at3193          -            473   0.00011   22.5   0.0   3   5      0.39   1.1e+02    2.7   0.0   168   236   397   459   388   473 0.83 -
ID=PSME_00026765     -            841 54569at3193          -            473   0.00011   22.5   0.0   4   5       0.2        57    3.7   0.0    91   146   486   538   462   557 0.76 -
ID=PSME_00026765     -            841 54569at3193          -            473   0.00011   22.5   0.0   5   5      0.15        44    4.1   0.0   182   237   509   561   490   601 0.63 -
ID=PSME_00013799     -            792 54569at3193          -            473   0.00013   22.3   0.1   1   4     0.025       7.1    6.7   0.0    49   139    61   149    19   174 0.82 -
ID=PSME_00013799     -            792 54569at3193          -            473   0.00013   22.3   0.1   2   4       7.7   2.2e+03   -1.5   0.0   120   135   231   246   202   275 0.67 -
ID=PSME_00013799     -            792 54569at3193          -            473   0.00013   22.3   0.1   3   4    0.0026      0.75    9.9   0.0    79   164   327   405   317   479 0.68 -
ID=PSME_00013799     -            792 54569at3193          -            473   0.00013   22.3   0.1   4   4       1.6   4.7e+02    0.7   0.0   182   214   459   488   434   545 0.69 -
ID=PSME_00033695     -            767 54569at3193          -            473   0.00015   22.1   0.0   1   3       4.8   1.4e+03   -0.9   0.0   229   276   260   308   248   328 0.63 -
ID=PSME_00033695     -            767 54569at3193          -            473   0.00015   22.1   0.0   2   3      0.82   2.4e+02    1.7   0.0    77   135   385   443   357   451 0.82 -
ID=PSME_00033695     -            767 54569at3193          -            473   0.00015   22.1   0.0   3   3   7.3e-06    0.0021   18.3   0.0    53   200   430   580   427   618 0.84 -
ID=PSME_00008751     -            801 54569at3193          -            473   0.00015   22.1   0.0   1   3      0.39   1.1e+02    2.7   0.0    47   138    38   127    31   146 0.87 -
ID=PSME_00008751     -            801 54569at3193          -            473   0.00015   22.1   0.0   2   3   0.00061      0.17   12.0   0.0   178   309   200   330   191   363 0.71 -
ID=PSME_00008751     -            801 54569at3193          -            473   0.00015   22.1   0.0   3   3       0.6   1.7e+02    2.1   0.0   184   216   470   502   446   524 0.70 -
ID=PSME_00029923     -            755 54569at3193          -            473   0.00016   22.0   0.0   1   1     9e-07   0.00026   21.3   0.0   188   245   463   520   442   527 0.80 -
ID=PSME_00023978     -            642 54569at3193          -            473   0.00018   21.8   1.5   1   3   0.00045      0.13   12.4   0.0    47   141    48   143    46   170 0.82 -
ID=PSME_00023978     -            642 54569at3193          -            473   0.00018   21.8   1.5   2   3     0.024         7    6.7   0.3   108   235   208   326   188   437 0.72 -
ID=PSME_00023978     -            642 54569at3193          -            473   0.00018   21.8   1.5   3   3       3.5     1e+03   -0.4   0.0   111   135   405   429   378   476 0.60 -
ID=PSME_00029699     -            604 54569at3193          -            473   0.00019   21.7   0.0   1   3     0.056        16    5.5   0.0    51   200   235   282   123   290 0.64 -
ID=PSME_00029699     -            604 54569at3193          -            473   0.00019   21.7   0.0   2   3     0.091        26    4.8   0.0    51    98   235   283   216   314 0.80 -
ID=PSME_00029699     -            604 54569at3193          -            473   0.00019   21.7   0.0   3   3   0.00041      0.12   12.5   0.0    49   201   335   490   289   499 0.77 -
ID=PSME_00025181     -            717 54569at3193          -            473    0.0002   21.7   1.5   1   2   0.00028     0.081   13.1   0.1   154   240   184   265   107   361 0.78 -
ID=PSME_00025181     -            717 54569at3193          -            473    0.0002   21.7   1.5   2   2      0.19        54    3.8   0.0   118   134   447   463   419   490 0.77 -
ID=PSME_00035018     -            431 54569at3193          -            473   0.00023   21.5   0.1   1   3     0.033       9.6    6.2   0.0    51    99     5    54     2   121 0.75 -
ID=PSME_00035018     -            431 54569at3193          -            473   0.00023   21.5   0.1   2   3    0.0081       2.3    8.3   0.0    50    97   138   186   127   194 0.87 -
ID=PSME_00035018     -            431 54569at3193          -            473   0.00023   21.5   0.1   3   3      0.68     2e+02    1.9   0.0    76   133   305   362   278   396 0.73 -
ID=PSME_00030185     -            835 54569at3193          -            473   0.00025   21.4   0.1   1   2   0.00016     0.045   13.9   0.0   183   338    99   250    87   294 0.74 -
ID=PSME_00030185     -            835 54569at3193          -            473   0.00025   21.4   0.1   2   2       0.1        29    4.7   0.0    92   139   480   527   434   540 0.83 -
ID=PSME_00052752     -            441 54569at3193          -            473   0.00027   21.3   0.0   1   3       6.1   1.8e+03   -1.2   0.0    50    96    70   117    39   138 0.71 -
ID=PSME_00052752     -            441 54569at3193          -            473   0.00027   21.3   0.0   2   3     0.011       3.1    7.9   0.0    50   132   140   223   121   228 0.87 -
ID=PSME_00052752     -            441 54569at3193          -            473   0.00027   21.3   0.0   3   3    0.0005      0.15   12.2   0.1    55   203   215   366   209   403 0.71 -
ID=PSME_00040318     -            599 54569at3193          -            473   0.00027   21.2   0.1   1   2      0.15        43    4.1   0.0   273   351   290   370   270   383 0.71 -
ID=PSME_00040318     -            599 54569at3193          -            473   0.00027   21.2   0.1   2   2   7.7e-05     0.022   14.9   0.0   230   325   472   569   461   585 0.61 -
ID=PSME_00032670     -            654 54569at3193          -            473   0.00028   21.2   0.1   1   2     0.065        19    5.3   0.0    83   133    92   138    83   143 0.67 -
ID=PSME_00032670     -            654 54569at3193          -            473   0.00028   21.2   0.1   2   2   0.00043      0.12   12.5   0.0   169   277   311   417   218   428 0.74 -
ID=PSME_00055628     -            420 54569at3193          -            473   0.00033   21.0   0.0   1   1   4.4e-06    0.0013   19.0   0.0    50   271   112   338    97   376 0.79 -
ID=PSME_00056947     -            979 54569at3193          -            473   0.00042   20.6   0.5   1   5      0.52   1.5e+02    2.3   0.0   229   269   162   199   145   229 0.60 -
ID=PSME_00056947     -            979 54569at3193          -            473   0.00042   20.6   0.5   2   5     0.031       8.8    6.4   0.0    79   270   281   363   251   379 0.54 -
ID=PSME_00056947     -            979 54569at3193          -            473   0.00042   20.6   0.5   3   5       2.5   7.2e+02    0.1   0.0   172   240   403   468   387   495 0.79 -
ID=PSME_00056947     -            979 54569at3193          -            473   0.00042   20.6   0.5   4   5     0.081        23    5.0   0.1    79   169   514   597   506   635 0.73 -
ID=PSME_00056947     -            979 54569at3193          -            473   0.00042   20.6   0.5   5   5       7.3   2.1e+03   -1.5   0.0   174   215   636   679   619   707 0.57 -
ID=PSME_00007739     -            490 54569at3193          -            473   0.00044   20.6   0.1   1   4      0.91   2.6e+02    1.5   0.0   155   204     6    56     3   129 0.66 -
ID=PSME_00007739     -            490 54569at3193          -            473   0.00044   20.6   0.1   2   4     0.012       3.6    7.7   0.0    50   132   144   227   129   233 0.86 -
ID=PSME_00007739     -            490 54569at3193          -            473   0.00044   20.6   0.1   3   4      0.16        46    4.0   0.0    85   174   285   340   231   377 0.53 -
ID=PSME_00007739     -            490 54569at3193          -            473   0.00044   20.6   0.1   4   4       1.6   4.5e+02    0.7   0.0    54    97   428   472   413   480 0.80 -
ID=PSME_00024961     -            763 54569at3193          -            473   0.00044   20.5   0.1   1   3       0.7     2e+02    1.9   0.0    33    98   351   416   324   448 0.76 -
ID=PSME_00024961     -            763 54569at3193          -            473   0.00044   20.5   0.1   2   3    0.0049       1.4    9.0   0.1    50   200   469   622   450   628 0.65 -
ID=PSME_00024961     -            763 54569at3193          -            473   0.00044   20.5   0.1   3   3     0.067        19    5.2   0.0    56   133   615   693   609   699 0.70 -
ID=PSME_00001600     -            623 54569at3193          -            473   0.00048   20.4   0.7   1   2   0.00016     0.045   13.9   0.2   120   269   184   321   177   353 0.88 -
ID=PSME_00001600     -            623 54569at3193          -            473   0.00048   20.4   0.7   2   2      0.12        34    4.4   0.0    96   135   385   424   333   446 0.73 -
ID=PSME_00056840     -            249 54569at3193          -            473   0.00062   20.1   0.1   1   2     0.012       3.4    7.7   0.0    51    99     5    54     2    86 0.82 -
ID=PSME_00056840     -            249 54569at3193          -            473   0.00062   20.1   0.1   2   2    0.0031      0.89    9.6   0.0    50    97   103   151    86   170 0.86 -
ID=PSME_00025319     -            699 54569at3193          -            473   0.00084   19.6   2.8   1   1     7e-06     0.002   18.4   2.8   201   340   114   251   110   252 0.69 -
ID=PSME_00056153     -            690 54569at3193          -            473   0.00087   19.6   0.3   1   3      0.01         3    7.9   0.0    83   268   117   294   113   347 0.65 -
ID=PSME_00056153     -            690 54569at3193          -            473   0.00087   19.6   0.3   2   3     0.013       3.9    7.5   0.0   181   268   345   430   319   504 0.80 -
ID=PSME_00056153     -            690 54569at3193          -            473   0.00087   19.6   0.3   3   3         3   8.6e+02   -0.2   0.0    64    95   599   631   560   646 0.79 -
ID=PSME_00010833     -            195 54569at3193          -            473    0.0012   19.1   0.1   1   1   5.2e-06    0.0015   18.8   0.1   182   311    50   178    40   188 0.78 -
ID=PSME_00004828     -            905 54569at3193          -            473    0.0012   19.1   1.1   1   3    0.0035         1    9.5   0.1   174   304   174   303   151   344 0.69 -
ID=PSME_00004828     -            905 54569at3193          -            473    0.0012   19.1   1.1   2   3      0.28        79    3.2   0.0   120   251   390   518   380   613 0.70 -
ID=PSME_00004828     -            905 54569at3193          -            473    0.0012   19.1   1.1   3   3      0.93   2.7e+02    1.5   0.0    58    91   834   867   819   883 0.80 -
ID=PSME_00008848     -            808 54569at3193          -            473    0.0013   19.0   0.0   1   2    0.0052       1.5    8.9   0.0   300   353   145   198   135   241 0.81 -
ID=PSME_00008848     -            808 54569at3193          -            473    0.0013   19.0   0.0   2   2     0.011       3.3    7.8   0.1   170   378   226   438   207   447 0.76 -
ID=PSME_00041084     -            644 54569at3193          -            473    0.0014   18.9   0.3   1   2   0.00099      0.29   11.3   0.1   182   269   188   271   165   284 0.87 -
ID=PSME_00041084     -            644 54569at3193          -            473    0.0014   18.9   0.3   2   2      0.12        33    4.5   0.0   110   174   380   440   355   472 0.70 -
ID=PSME_00000079     -            875 54569at3193          -            473    0.0016   18.7   0.3   1   3      0.19        55    3.7   0.0   183   337   107   257    71   292 0.58 -
ID=PSME_00000079     -            875 54569at3193          -            473    0.0016   18.7   0.3   2   3     0.063        18    5.3   0.1   176   241   333   395   281   537 0.61 -
ID=PSME_00000079     -            875 54569at3193          -            473    0.0016   18.7   0.3   3   3     0.096        28    4.7   0.0   116   136   543   563   511   584 0.73 -
ID=PSME_00044695     -            585 54569at3193          -            473    0.0018   18.5   0.1   1   2   0.00037      0.11   12.7   0.0    80   267    51   234    43   270 0.65 -
ID=PSME_00044695     -            585 54569at3193          -            473    0.0018   18.5   0.1   2   2       2.5   7.1e+02    0.1   0.0    62    96   403   437   387   462 0.76 -
ID=PSME_00004138     -            683 54569at3193          -            473    0.0018   18.5   0.1   1   2   2.2e-05    0.0065   16.7   0.0   178   310    43   174    28   205 0.85 -
ID=PSME_00004138     -            683 54569at3193          -            473    0.0018   18.5   0.1   2   2       7.8   2.2e+03   -1.6   0.0   183   215   250   279   226   303 0.67 -
ID=PSME_00011725     -            659 54569at3193          -            473    0.0021   18.3   0.0   1   3   0.00035       0.1   12.8   0.0    51   139     3    89     1   237 0.73 -
ID=PSME_00011725     -            659 54569at3193          -            473    0.0021   18.3   0.0   2   3       1.8   5.3e+02    0.5   0.0   172   237   169   233   150   261 0.81 -
ID=PSME_00011725     -            659 54569at3193          -            473    0.0021   18.3   0.0   3   3      0.91   2.6e+02    1.5   0.0   184   217   438   470   422   524 0.62 -
ID=PSME_00014474     -            435 54569at3193          -            473    0.0025   18.0   0.0   1   2     0.039        11    6.0   0.0    77   207    13   145     8   156 0.81 -
ID=PSME_00014474     -            435 54569at3193          -            473    0.0025   18.0   0.0   2   2   0.00087      0.25   11.5   0.0    52   270    92   315    52   423 0.67 -
ID=PSME_00045505     -            799 54569at3193          -            473    0.0028   17.9   0.4   1   3   0.00073      0.21   11.7   0.1    75   168   124   214   103   318 0.76 -
ID=PSME_00045505     -            799 54569at3193          -            473    0.0028   17.9   0.4   2   3      0.75   2.2e+02    1.8   0.0    93   139   344   390   327   425 0.80 -
ID=PSME_00045505     -            799 54569at3193          -            473    0.0028   17.9   0.4   3   3       2.5   7.1e+02    0.1   0.0    60   100   446   487   435   516 0.74 -
ID=PSME_00021959     -            896 54569at3193          -            473    0.0028   17.9   0.3   1   3      0.18        52    3.8   0.1    24   202   304   487   283   492 0.62 -
ID=PSME_00021959     -            896 54569at3193          -            473    0.0028   17.9   0.3   2   3      0.19        54    3.8   0.0    73   137   661   726   638   735 0.84 -
ID=PSME_00021959     -            896 54569at3193          -            473    0.0028   17.9   0.3   3   3     0.098        28    4.7   0.0    55    99   746   791   737   800 0.81 -
ID=PSME_00021378     -            623 54569at3193          -            473    0.0029   17.8   0.0   1   1   1.6e-05    0.0047   17.1   0.0   182   267   521   609   479   618 0.75 -
ID=PSME_00013800     -            909 54569at3193          -            473    0.0032   17.7   0.1   1   3    0.0057       1.6    8.8   0.0    47   134    28   113    23   124 0.91 -
ID=PSME_00013800     -            909 54569at3193          -            473    0.0032   17.7   0.1   2   3      0.15        43    4.1   0.0   181   241   197   253   187   317 0.82 -
ID=PSME_00013800     -            909 54569at3193          -            473    0.0032   17.7   0.1   3   3       1.4   4.1e+02    0.9   0.0   119   208   304   325   273   357 0.60 -
ID=PSME_00004821     -            167 54569at3193          -            473    0.0032   17.7   0.0   1   1   1.6e-05    0.0046   17.2   0.0   122   236    19   124     5   158 0.64 -
ID=PSME_00014001     -            886 54569at3193          -            473    0.0033   17.7   0.4   1   4     0.022       6.2    6.9   0.1    81   207   188   316   158   325 0.78 -
ID=PSME_00014001     -            886 54569at3193          -            473    0.0033   17.7   0.4   2   4       4.4   1.3e+03   -0.7   0.0   176   270   461   557   445   560 0.74 -
ID=PSME_00014001     -            886 54569at3193          -            473    0.0033   17.7   0.4   3   4     0.044        13    5.9   0.0    73   144   566   637   514   701 0.78 -
ID=PSME_00014001     -            886 54569at3193          -            473    0.0033   17.7   0.4   4   4       3.9   1.1e+03   -0.6   0.0    44    88   680   720   653   732 0.74 -
ID=PSME_00012689     -            911 54569at3193          -            473    0.0034   17.6   0.0   1   4       5.1   1.5e+03   -1.0   0.0   176   237   106   164    99   177 0.79 -
ID=PSME_00012689     -            911 54569at3193          -            473    0.0034   17.6   0.0   2   4     0.004       1.2    9.3   0.0   106   146   205   245   184   262 0.80 -
ID=PSME_00012689     -            911 54569at3193          -            473    0.0034   17.6   0.0   3   4      0.93   2.7e+02    1.5   0.0   182   237   314   366   304   403 0.72 -
ID=PSME_00012689     -            911 54569at3193          -            473    0.0034   17.6   0.0   4   4       2.5   7.2e+02    0.1   0.0   102   135   566   599   547   634 0.62 -
ID=PSME_00038937     -            715 54569at3193          -            473    0.0038   17.5   0.3   1   2         1     3e+02    1.3   0.1    34   134   101   203    72   239 0.77 -
ID=PSME_00038937     -            715 54569at3193          -            473    0.0038   17.5   0.3   2   2   0.00018     0.052   13.7   0.0   176   269   278   365   257   423 0.71 -
ID=PSME_00001602     -            747 54569at3193          -            473    0.0041   17.4   0.1   1   3      0.44   1.3e+02    2.5   0.0    41   169    36   159     4   259 0.63 -
ID=PSME_00001602     -            747 54569at3193          -            473    0.0041   17.4   0.1   2   3    0.0073       2.1    8.4   0.0   186   243   352   406   334   416 0.81 -
ID=PSME_00001602     -            747 54569at3193          -            473    0.0041   17.4   0.1   3   3       1.6   4.7e+02    0.7   0.0   120   139   479   498   467   532 0.66 -
ID=PSME_00006931     -            686 54569at3193          -            473    0.0041   17.3   3.9   1   4         2   5.7e+02    0.4   0.0   185   405    63   107    41   127 0.57 -
ID=PSME_00006931     -            686 54569at3193          -            473    0.0041   17.3   3.9   2   4      0.71   2.1e+02    1.9   0.0   220   268   165   210   154   218 0.56 -
ID=PSME_00006931     -            686 54569at3193          -            473    0.0041   17.3   3.9   3   4     0.011       3.1    7.8   0.3   189   276   230   311   226   324 0.82 -
ID=PSME_00006931     -            686 54569at3193          -            473    0.0041   17.3   3.9   4   4      0.19        54    3.8   0.0    88   134   327   373   314   381 0.89 -
ID=PSME_00023831     -            423 54569at3193          -            473    0.0051   17.0   0.2   1   3       5.6   1.6e+03   -1.1   0.0   223   248    59    84    50    98 0.79 -
ID=PSME_00023831     -            423 54569at3193          -            473    0.0051   17.0   0.2   2   3    0.0014       0.4   10.8   0.0   191   249   222   280   216   288 0.84 -
ID=PSME_00023831     -            423 54569at3193          -            473    0.0051   17.0   0.2   3   3      0.51   1.5e+02    2.3   0.0   196   270   295   371   292   381 0.78 -
ID=PSME_00006921     -            181 54569at3193          -            473    0.0054   17.0   0.0   1   1   2.4e-05    0.0069   16.6   0.0   225   325    43   143    33   162 0.85 -
ID=PSME_00057111     -            392 54569at3193          -            473    0.0055   16.9   0.0   1   1   0.00011     0.033   14.4   0.0    76   338   111   379   104   382 0.80 -
ID=PSME_00028093     -            899 54569at3193          -            473    0.0059   16.8   2.9   1   6      0.13        39    4.2   0.0    47   134    21   106    16   117 0.93 -
ID=PSME_00028093     -            899 54569at3193          -            473    0.0059   16.8   2.9   2   6      0.14        39    4.2   0.0   175   318   180   322   172   353 0.70 -
ID=PSME_00028093     -            899 54569at3193          -            473    0.0059   16.8   2.9   3   6      0.45   1.3e+02    2.5   0.2    73   167   282   369   250   479 0.48 -
ID=PSME_00028093     -            899 54569at3193          -            473    0.0059   16.8   2.9   4   6       2.2   6.4e+02    0.2   0.8   216   216   474   474   389   569 0.57 -
ID=PSME_00028093     -            899 54569at3193          -            473    0.0059   16.8   2.9   5   6       1.7     5e+02    0.6   0.2   209   273   498   559   479   646 0.53 -
ID=PSME_00028093     -            899 54569at3193          -            473    0.0059   16.8   2.9   6   6      0.77   2.2e+02    1.7   0.0   183   271   607   658   575   691 0.58 -
ID=PSME_00040983     -            815 54569at3193          -            473     0.006   16.8   2.2   1   3       1.3   3.7e+02    1.0   0.0   175   267    90   176    60   187 0.73 -
ID=PSME_00040983     -            815 54569at3193          -            473     0.006   16.8   2.2   2   3      0.13        38    4.3   0.1   186   271   264   343   237   351 0.81 -
ID=PSME_00040983     -            815 54569at3193          -            473     0.006   16.8   2.2   3   3     0.013       3.9    7.5   0.1   181   266   484   567   459   616 0.59 -
ID=PSME_00002079     -            662 54569at3193          -            473    0.0061   16.8   0.0   1   1   4.9e-05     0.014   15.6   0.0   145   275   510   642   503   652 0.64 -
ID=PSME_00056084     -            952 54569at3193          -            473    0.0064   16.7   0.1   1   2     0.052        15    5.6   0.0    49   148    47   144    23   182 0.63 -
ID=PSME_00056084     -            952 54569at3193          -            473    0.0064   16.7   0.1   2   2      0.35     1e+02    2.9   0.0   179   246   313   377   306   412 0.76 -
ID=PSME_00051353     -           1027 54569at3193          -            473    0.0064   16.7   0.1   1   3       1.8   5.3e+02    0.5   0.0   110   139   185   214   161   233 0.75 -
ID=PSME_00051353     -           1027 54569at3193          -            473    0.0064   16.7   0.1   2   3      0.19        56    3.7   0.0   118   144   395   421   385   446 0.78 -
ID=PSME_00051353     -           1027 54569at3193          -            473    0.0064   16.7   0.1   3   3     0.024       6.9    6.7   0.0   178   307   488   616   472   644 0.80 -
ID=PSME_00056315     -            674 54569at3193          -            473    0.0065   16.7   0.1   1   3    0.0057       1.7    8.8   0.0   182   357   179   352   170   376 0.75 -
ID=PSME_00056315     -            674 54569at3193          -            473    0.0065   16.7   0.1   2   3       0.3        86    3.1   0.0   117   146   384   410   371   442 0.64 -
ID=PSME_00056315     -            674 54569at3193          -            473    0.0065   16.7   0.1   3   3       2.5   7.3e+02    0.0   0.0   131   162   589   620   580   625 0.88 -
ID=PSME_00054471     -            601 54569at3193          -            473    0.0073   16.5   0.1   1   2   6.3e-05     0.018   15.2   0.1   114   317   218   414   210   436 0.75 -
ID=PSME_00054471     -            601 54569at3193          -            473    0.0073   16.5   0.1   2   2       2.4     7e+02    0.1   0.0   186   245   385   441   375   467 0.72 -
ID=PSME_00026118     -            873 54569at3193          -            473    0.0077   16.4   1.0   1   3     0.075        22    5.1   0.1   178   306    95   222    85   248 0.80 -
ID=PSME_00026118     -            873 54569at3193          -            473    0.0077   16.4   1.0   2   3     0.014         4    7.5   0.0    89   151   275   338   235   371 0.79 -
ID=PSME_00026118     -            873 54569at3193          -            473    0.0077   16.4   1.0   3   3       2.5   7.3e+02    0.0   0.0    82   132   610   656   593   806 0.64 -
ID=PSME_00022065     -            686 54569at3193          -            473    0.0081   16.4   0.1   1   2    0.0014      0.39   10.8   0.1   118   270    54   202    44   283 0.61 -
ID=PSME_00022065     -            686 54569at3193          -            473    0.0081   16.4   0.1   2   2    0.0008      0.23   11.6   0.0   108   346   145   381   141   421 0.74 -
ID=PSME_00014470     -            663 54569at3193          -            473    0.0083   16.3   2.5   1   3     0.039        11    6.0   0.1   179   240    81   142    65   184 0.87 -
ID=PSME_00014470     -            663 54569at3193          -            473    0.0083   16.3   2.5   2   3    0.0063       1.8    8.6   0.4   185   285   192   283   180   352 0.72 -
ID=PSME_00014470     -            663 54569at3193          -            473    0.0083   16.3   2.5   3   3       4.9   1.4e+03   -0.9   0.0    80   303   446   464   347   474 0.54 -
ID=PSME_00047190     -            698 54569at3193          -            473    0.0091   16.2   0.2   1   2       9.5   2.7e+03   -1.9   0.0   186   214   105   133    97   166 0.59 -
ID=PSME_00047190     -            698 54569at3193          -            473    0.0091   16.2   0.2   2   2   0.00019     0.055   13.6   0.0   173   268   193   282   171   325 0.67 -
ID=PSME_00036103     -            617 54569at3193          -            473     0.011   15.9   0.1   1   4       1.1   3.1e+02    1.3   0.0    40   135     5    97     2   162 0.63 -
ID=PSME_00036103     -            617 54569at3193          -            473     0.011   15.9   0.1   2   4     0.016       4.7    7.3   0.0   180   216   228   264   190   290 0.59 -
ID=PSME_00036103     -            617 54569at3193          -            473     0.011   15.9   0.1   3   4       2.9   8.3e+02   -0.1   0.0   112   135   358   383   338   412 0.69 -
ID=PSME_00036103     -            617 54569at3193          -            473     0.011   15.9   0.1   4   4       1.1     3e+02    1.3   0.0    58    97   509   548   457   552 0.81 -
ID=PSME_00041300     -           1034 54569at3193          -            473     0.012   15.8   0.1   1   2    0.0021      0.61   10.2   0.0    29   124   239   335   220   347 0.79 -
ID=PSME_00041300     -           1034 54569at3193          -            473     0.012   15.8   0.1   2   2      0.96   2.8e+02    1.4   0.0   154   203   506   556   364   596 0.67 -
ID=PSME_00007125     -            564 54569at3193          -            473     0.014   15.6   0.0   1   2     0.076        22    5.1   0.0   182   305   136   258   109   298 0.59 -
ID=PSME_00007125     -            564 54569at3193          -            473     0.014   15.6   0.0   2   2    0.0071       2.1    8.4   0.0    77   162   402   484   375   560 0.78 -
ID=PSME_00022851     -            744 54569at3193          -            473     0.014   15.6   0.1   1   3       2.2   6.4e+02    0.2   0.0   177   239   111   174    96   200 0.84 -
ID=PSME_00022851     -            744 54569at3193          -            473     0.014   15.6   0.1   2   3    0.0025      0.72    9.9   0.0   177   272   212   301   201   311 0.87 -
ID=PSME_00022851     -            744 54569at3193          -            473     0.014   15.6   0.1   3   3       2.5   7.1e+02    0.1   0.0    88   236   385   462   346   475 0.54 -
ID=PSME_00010502     -            670 54569at3193          -            473     0.015   15.5   0.0   1   3      0.11        32    4.5   0.0   268   304    10    46     7    58 0.89 -
ID=PSME_00010502     -            670 54569at3193          -            473     0.015   15.5   0.0   2   3     0.038        11    6.0   0.0   208   310   127   231    78   261 0.76 -
ID=PSME_00010502     -            670 54569at3193          -            473     0.015   15.5   0.0   3   3       1.7   4.9e+02    0.6   0.0   185   240   340   392   330   403 0.64 -
ID=PSME_00048186     -            580 54569at3193          -            473     0.015   15.5   0.0   1   3       1.3   3.8e+02    1.0   0.0   121   169   219   268   130   284 0.52 -
ID=PSME_00048186     -            580 54569at3193          -            473     0.015   15.5   0.0   2   3     0.011       3.1    7.9   0.1    50    99   287   337   252   443 0.70 -
ID=PSME_00048186     -            580 54569at3193          -            473     0.015   15.5   0.0   3   3      0.34        97    2.9   0.0   120   133   428   441   343   517 0.53 -
ID=PSME_00015962     -            724 54569at3193          -            473     0.015   15.5   3.1   1   2         5   1.5e+03   -0.9   0.0   258   302    61   103    56   111 0.71 -
ID=PSME_00015962     -            724 54569at3193          -            473     0.015   15.5   3.1   2   2   0.00035       0.1   12.8   2.5   181   345   549   714   429   719 0.84 -
ID=PSME_00018525     -            302 54569at3193          -            473     0.016   15.4   0.0   1   1   7.8e-05     0.023   14.9   0.0   178   343   103   265    96   286 0.81 -
ID=PSME_00049739     -            118 54569at3193          -            473     0.017   15.3   0.1   1   1   6.6e-05     0.019   15.2   0.1   114   168    22    77     7   101 0.65 -
ID=PSME_00056966     -            888 54569at3193          -            473     0.018   15.2   0.1   1   3    0.0011      0.33   11.1   0.0   178   306    46   173    24   229 0.79 -
ID=PSME_00056966     -            888 54569at3193          -            473     0.018   15.2   0.1   2   3       4.9   1.4e+03   -0.9   0.0   213   267   381   436   350   485 0.49 -
ID=PSME_00056966     -            888 54569at3193          -            473     0.018   15.2   0.1   3   3       1.7   4.8e+02    0.6   0.0    92   171   432   512   389   617 0.73 -
ID=PSME_00011804     -            615 54569at3193          -            473     0.019   15.2   0.4   1   3     0.045        13    5.8   0.1    44   134    12   100     6   109 0.90 -
ID=PSME_00011804     -            615 54569at3193          -            473     0.019   15.2   0.4   2   3       1.5   4.4e+02    0.8   0.0   284   284   282   282   170   320 0.53 -
ID=PSME_00011804     -            615 54569at3193          -            473     0.019   15.2   0.4   3   3      0.18        51    3.8   0.0    56    96   427   467   390   481 0.80 -
ID=PSME_00052037     -           1050 54569at3193          -            473      0.02   15.1   0.1   1   3       5.6   1.6e+03   -1.1   0.0    52    99   228   276   209   312 0.70 -
ID=PSME_00052037     -           1050 54569at3193          -            473      0.02   15.1   0.1   2   3     0.063        18    5.3   0.0    51   133   367   450   321   521 0.71 -
ID=PSME_00052037     -           1050 54569at3193          -            473      0.02   15.1   0.1   3   3      0.28        81    3.2   0.0    56   133   934  1012   928  1028 0.65 -
ID=PSME_00046485     -            883 54569at3193          -            473     0.021   15.0   0.0   1   2    0.0083       2.4    8.2   0.0    70   148   203   278   169   286 0.80 -
ID=PSME_00046485     -            883 54569at3193          -            473     0.021   15.0   0.0   2   2      0.22        62    3.6   0.0   182   238   348   401   338   444 0.85 -
ID=PSME_00056168     -            901 54569at3193          -            473     0.026   14.7   0.0   1   3       0.2        58    3.7   0.0   155   215   140   197   127   228 0.67 -
ID=PSME_00056168     -            901 54569at3193          -            473     0.026   14.7   0.0   2   3      0.14        40    4.2   0.0   175   236   258   316   248   334 0.75 -
ID=PSME_00056168     -            901 54569at3193          -            473     0.026   14.7   0.0   3   3       1.3   3.8e+02    1.0   0.0   177   269   563   653   540   675 0.84 -
ID=PSME_00006080     -            787 54569at3193          -            473     0.028   14.6   0.0   1   4       1.2   3.4e+02    1.1   0.0   118   236   155   272   119   305 0.59 -
ID=PSME_00006080     -            787 54569at3193          -            473     0.028   14.6   0.0   2   4       6.2   1.8e+03   -1.2   0.0   160   226   229   293   223   334 0.67 -
ID=PSME_00006080     -            787 54569at3193          -            473     0.028   14.6   0.0   3   4    0.0055       1.6    8.8   0.0   187   269   459   539   436   561 0.82 -
ID=PSME_00006080     -            787 54569at3193          -            473     0.028   14.6   0.0   4   4       3.7   1.1e+03   -0.5   0.0    64    96   607   639   593   658 0.84 -
ID=PSME_00040926     -            277 54569at3193          -            473     0.028   14.6   0.4   1   1   0.00014     0.039   14.1   0.4   161   250   144   234   116   271 0.62 -
ID=PSME_00053088     -            489 54569at3193          -            473     0.032   14.4   0.5   1   3       4.1   1.2e+03   -0.6   0.1   175   226   114   162    58   176 0.69 -
ID=PSME_00053088     -            489 54569at3193          -            473     0.032   14.4   0.5   2   3    0.0021      0.61   10.2   0.0   108   269   211   370   201   377 0.58 -
ID=PSME_00053088     -            489 54569at3193          -            473     0.032   14.4   0.5   3   3     0.007         2    8.5   0.0    86   168   292   371   279   440 0.72 -
ID=PSME_00034401     -            214 54569at3193          -            473     0.033   14.4   0.2   1   1   0.00018     0.053   13.7   0.2   155   269    98   211    82   213 0.58 -
ID=PSME_00004593     -            410 54569at3193          -            473     0.035   14.3   0.0   1   2     0.013       3.9    7.5   0.0   156   336     7   192     4   201 0.56 -
ID=PSME_00004593     -            410 54569at3193          -            473     0.035   14.3   0.0   2   2       0.2        56    3.7   0.0    50   131   214   296   199   304 0.80 -
ID=PSME_00036221     -            180 54569at3193          -            473     0.036   14.2   0.1   1   1   0.00019     0.054   13.7   0.1   197   308    44   151    30   159 0.88 -
ID=PSME_00005935     -            437 54569at3193          -            473     0.039   14.1   0.1   1   2    0.0016      0.45   10.6   0.1   234   336   215   323   197   336 0.69 -
ID=PSME_00005935     -            437 54569at3193          -            473     0.039   14.1   0.1   2   2      0.18        52    3.8   0.0   212   270   266   325   251   400 0.79 -
ID=PSME_00007293     -            743 54569at3193          -            473     0.041   14.1   0.2   1   2     0.001      0.29   11.2   0.1   179   270    81   166    63   223 0.86 -
ID=PSME_00007293     -            743 54569at3193          -            473     0.041   14.1   0.2   2   2       7.5   2.2e+03   -1.5   0.0   186   235   414   460   384   498 0.60 -
ID=PSME_00005130     -            739 54569at3193          -            473     0.041   14.1   0.0   1   2    0.0065       1.9    8.6   0.0   179   306   184   311   160   324 0.67 -
ID=PSME_00005130     -            739 54569at3193          -            473     0.041   14.1   0.0   2   2      0.51   1.5e+02    2.3   0.0   120   251   396   523   380   553 0.68 -
ID=PSME_00047869     -            746 54569at3193          -            473     0.046   13.9   0.1   1   1   0.00071       0.2   11.8   0.0   175   269   212   300   194   318 0.87 -
ID=PSME_00022463     -            841 54569at3193          -            473     0.049   13.8   0.0   1   2    0.0032      0.94    9.6   0.0   157   336   345   528   305   536 0.68 -
ID=PSME_00022463     -            841 54569at3193          -            473     0.049   13.8   0.0   2   2       2.8   8.1e+02   -0.1   0.0   324   342   726   744   714   753 0.91 -
ID=PSME_00013741     -            398 54569at3193          -            473     0.051   13.7   0.1   1   2     0.052        15    5.6   0.0    50    98   159   208   149   215 0.84 -
ID=PSME_00013741     -            398 54569at3193          -            473     0.051   13.7   0.1   2   2     0.056        16    5.5   0.0    52   166   231   347   218   356 0.69 -
ID=PSME_00024964     -            398 54569at3193          -            473     0.052   13.7   0.0   1   2      0.39   1.1e+02    2.7   0.0    56    98   105   148    91   163 0.76 -
ID=PSME_00024964     -            398 54569at3193          -            473     0.052   13.7   0.0   2   2      0.26        75    3.3   0.0    52   132   222   303   209   310 0.82 -
ID=PSME_00052053     -            742 54569at3193          -            473     0.052   13.7   0.2   1   2      0.21        60    3.6   0.0   118   134   211   227   173   241 0.85 -
ID=PSME_00052053     -            742 54569at3193          -            473     0.052   13.7   0.2   2   2     0.044        13    5.9   0.1   182   302   308   427   295   440 0.55 -
ID=PSME_00028067     -            480 54569at3193          -            473     0.055   13.6   0.0   1   4      0.61   1.8e+02    2.1   0.0    52    97     6    52     2    71 0.61 -
ID=PSME_00028067     -            480 54569at3193          -            473     0.055   13.6   0.0   2   4       3.4   9.7e+02   -0.4   0.0    52    99   146   194   129   229 0.78 -
ID=PSME_00028067     -            480 54569at3193          -            473     0.055   13.6   0.0   3   4     0.021         6    6.9   0.0    50   134   284   369   256   446 0.81 -
ID=PSME_00028067     -            480 54569at3193          -            473     0.055   13.6   0.0   4   4       7.6   2.2e+03   -1.5   0.0   121   171   426   477   370   478 0.69 -
ID=PSME_00044465     -            378 54569at3193          -            473     0.055   13.6   0.0   1   1    0.0004      0.12   12.6   0.0    73   203   186   318   151   345 0.66 -
ID=PSME_00021183     -            565 54569at3193          -            473     0.056   13.6   0.0   1   2   0.00058      0.17   12.0   0.0   162   268    40   141    32   189 0.72 -
ID=PSME_00021183     -            565 54569at3193          -            473     0.056   13.6   0.0   2   2       8.5   2.4e+03   -1.7   0.0   178   219   228   266   208   285 0.65 -
ID=PSME_00017819     -           1045 54569at3193          -            473     0.064   13.4   1.7   1   3       8.4   2.4e+03   -1.7   0.0   186   211   211   236   195   258 0.68 -
ID=PSME_00017819     -           1045 54569at3193          -            473     0.064   13.4   1.7   2   3      0.94   2.7e+02    1.5   0.0   178   230   304   353   291   363 0.58 -
ID=PSME_00017819     -           1045 54569at3193          -            473     0.064   13.4   1.7   3   3     0.055        16    5.5   0.0    83   220   615   750   593   781 0.63 -
ID=PSME_00032448     -           1542 54569at3193          -            473     0.064   13.4   0.2   1   3       4.9   1.4e+03   -0.9   0.0   176   235   215   271   195   307 0.61 -
ID=PSME_00032448     -           1542 54569at3193          -            473     0.064   13.4   0.2   2   3      0.95   2.7e+02    1.4   0.0    76   134   548   606   521   617 0.83 -
ID=PSME_00032448     -           1542 54569at3193          -            473     0.064   13.4   0.2   3   3     0.036        10    6.1   0.0   186   310  1020  1143  1004  1185 0.79 -
ID=PSME_00054922     -            415 54569at3193          -            473     0.073   13.2   0.1   1   3     0.049        14    5.7   0.0   171   239   100   165    72   178 0.71 -
ID=PSME_00054922     -            415 54569at3193          -            473     0.073   13.2   0.1   2   3      0.21        62    3.6   0.0   187   219   208   237   186   290 0.61 -
ID=PSME_00054922     -            415 54569at3193          -            473     0.073   13.2   0.1   3   3         3   8.7e+02   -0.2   0.0    63    96   355   388   336   394 0.81 -
ID=PSME_00019893     -            499 54569at3193          -            473     0.075   13.2   0.4   1   4       4.6   1.3e+03   -0.8   0.0    45    97   135   188   122   195 0.77 -
ID=PSME_00019893     -            499 54569at3193          -            473     0.075   13.2   0.4   2   4      0.48   1.4e+02    2.4   0.0    71    97   302   328   167   369 0.55 -
ID=PSME_00019893     -            499 54569at3193          -            473     0.075   13.2   0.4   3   4     0.016       4.7    7.3   0.2   153   204   385   437   249   446 0.60 -
ID=PSME_00019893     -            499 54569at3193          -            473     0.075   13.2   0.4   4   4     0.018       5.1    7.2   0.3   121   179   387   447   343   483 0.50 -
ID=PSME_00055177     -            183 54569at3193          -            473     0.075   13.2   0.0   1   2      0.03       8.7    6.4   0.0    52    99     6    54     2    65 0.60 -
ID=PSME_00055177     -            183 54569at3193          -            473     0.075   13.2   0.0   2   2     0.079        23    5.0   0.0    76   133    68   125    55   134 0.82 -
ID=PSME_00034108     -            671 54569at3193          -            473      0.08   13.1   0.0   1   3     0.028         8    6.5   0.0    75   135    66   126    14   143 0.83 -
ID=PSME_00034108     -            671 54569at3193          -            473      0.08   13.1   0.0   2   3       1.2   3.5e+02    1.1   0.0   186   215   210   239   200   296 0.64 -
ID=PSME_00034108     -            671 54569at3193          -            473      0.08   13.1   0.0   3   3       1.1   3.2e+02    1.2   0.0   188   270   344   424   317   458 0.78 -
ID=PSME_00038838     -            185 54569at3193          -            473      0.08   13.1   0.0   1   2      0.12        34    4.4   0.0    72   105     8    41     3    53 0.85 -
ID=PSME_00038838     -            185 54569at3193          -            473      0.08   13.1   0.0   2   2     0.034       9.7    6.2   0.0    54   132   104   183    89   184 0.60 -
ID=PSME_00013082     -            637 54569at3193          -            473      0.08   13.1   0.1   1   3      0.57   1.7e+02    2.2   0.0   179   266    31   116    19   153 0.76 -
ID=PSME_00013082     -            637 54569at3193          -            473      0.08   13.1   0.1   2   3       1.4   3.9e+02    0.9   0.0   179   236   130   186   106   221 0.65 -
ID=PSME_00013082     -            637 54569at3193          -            473      0.08   13.1   0.1   3   3     0.039        11    6.0   0.0    95   148   339   389   294   441 0.62 -
ID=PSME_00023277     -            870 54569at3193          -            473     0.081   13.1   0.1   1   2     0.018       5.2    7.1   0.0    72   149    38   112    18   249 0.67 -
ID=PSME_00023277     -            870 54569at3193          -            473     0.081   13.1   0.1   2   2      0.84   2.4e+02    1.6   0.0   118   226   524   561   490   624 0.56 -
ID=PSME_00024043     -            332 54569at3193          -            473     0.082   13.1   1.3   1   2       3.9   1.1e+03   -0.6   0.0    54    97    13    57     6    64 0.56 -
ID=PSME_00024043     -            332 54569at3193          -            473     0.082   13.1   1.3   2   2     0.014         4    7.5   0.0    49    97   202   251   156   258 0.78 -
ID=PSME_00049683     -            605 54569at3193          -            473     0.087   13.0   0.0   1   1   0.00065      0.19   11.9   0.0    58   204   245   393   231   478 0.87 -
ID=PSME_00002114     -            419 54569at3193          -            473     0.092   12.9   0.3   1   1    0.0005      0.15   12.2   0.3   120   229     7   118     5   164 0.74 -
ID=PSME_00056676     -            646 54569at3193          -            473     0.095   12.8   0.4   1   2    0.0012      0.36   11.0   0.2   175   311    73   208    51   240 0.81 -
ID=PSME_00056676     -            646 54569at3193          -            473     0.095   12.8   0.4   2   2       5.9   1.7e+03   -1.2   0.0    79   132   313   362   301   365 0.72 -
ID=PSME_00013811     -            275 54569at3193          -            473       0.1   12.8   0.1   1   2     0.001      0.29   11.3   0.1   234   271   168   205   150   253 0.86 -
ID=PSME_00013811     -            275 54569at3193          -            473       0.1   12.8   0.1   2   2       6.8     2e+03   -1.4   0.0   212   255   219   264   206   272 0.70 -
ID=PSME_00045160     -            290 54569at3193          -            473       0.1   12.8   0.0   1   1   0.00071      0.21   11.7   0.0   107   172   149   210    47   219 0.79 -
ID=PSME_00028706     -            398 54569at3193          -            473      0.11   12.6   0.0   1   1   0.00056      0.16   12.1   0.0   221   290   297   366   257   375 0.51 -
ID=PSME_00012819     -            395 54569at3193          -            473      0.11   12.6   0.0   1   1   0.00059      0.17   12.0   0.0   186   291   255   362   235   379 0.52 -
ID=PSME_00043954     -            527 54569at3193          -            473      0.11   12.6   0.1   1   2    0.0018      0.53   10.4   0.1   157   335    20   191    10   195 0.69 -
ID=PSME_00043954     -            527 54569at3193          -            473      0.11   12.6   0.1   2   2      0.58   1.7e+02    2.2   0.0   181   235   142   193   117   233 0.76 -
ID=PSME_00056292     -            627 54569at3193          -            473      0.12   12.5   0.1   1   1    0.0014      0.41   10.8   0.1   175   268   143   230   130   263 0.87 -
ID=PSME_00007754     -            671 54569at3193          -            473      0.13   12.4   0.0   1   3       1.9   5.5e+02    0.5   0.0    51    97   129   176   124   187 0.82 -
ID=PSME_00007754     -            671 54569at3193          -            473      0.13   12.4   0.0   2   3       3.3   9.6e+02   -0.4   0.0   155   206   340   392   330   395 0.76 -
ID=PSME_00007754     -            671 54569at3193          -            473      0.13   12.4   0.0   3   3       0.3        86    3.1   0.0    53   132   411   491   397   498 0.70 -
ID=PSME_00006059     -            859 54569at3193          -            473      0.13   12.4   0.1   1   3       1.5   4.3e+02    0.8   0.0   186   268   262   338   250   405 0.72 -
ID=PSME_00006059     -            859 54569at3193          -            473      0.13   12.4   0.1   2   3      0.33        95    3.0   0.0   176   222   446   489   431   515 0.74 -
ID=PSME_00006059     -            859 54569at3193          -            473      0.13   12.4   0.1   3   3      0.22        64    3.5   0.0   367   424   598   655   590   661 0.89 -
ID=PSME_00027322     -            295 54569at3193          -            473      0.14   12.3   0.1   1   2       2.2   6.3e+02    0.3   0.0    34    97    56   122    36   126 0.77 -
ID=PSME_00027322     -            295 54569at3193          -            473      0.14   12.3   0.1   2   2    0.0043       1.2    9.2   0.0   154   203   215   265   130   275 0.80 -
ID=PSME_00028708     -            379 54569at3193          -            473      0.15   12.2   0.0   1   1    0.0007       0.2   11.8   0.0   225   324   253   355   232   363 0.57 -
ID=PSME_00008444     -            775 54569at3193          -            473      0.15   12.2   2.5   1   3     0.041        12    6.0   0.2   178   235   139   193    80   228 0.69 -
ID=PSME_00008444     -            775 54569at3193          -            473      0.15   12.2   2.5   2   3       0.5   1.4e+02    2.4   0.0   175   215   268   305   250   327 0.77 -
ID=PSME_00008444     -            775 54569at3193          -            473      0.15   12.2   2.5   3   3       2.3   6.6e+02    0.2   0.0   121   166   348   394   342   403 0.70 -
ID=PSME_00052183     -            552 54569at3193          -            473      0.15   12.2   1.2   1   1   0.00098      0.28   11.3   1.2    33   162   270   404   259   535 0.77 -
ID=PSME_00016227     -            313 54569at3193          -            473      0.15   12.2   0.0   1   1    0.0028      0.82    9.8   0.0    48   132   177   262   141   267 0.87 -
ID=PSME_00054565     -            571 54569at3193          -            473      0.19   11.9   0.1   1   2      0.47   1.3e+02    2.5   0.0   113   136    84   107    15   153 0.58 -
ID=PSME_00054565     -            571 54569at3193          -            473      0.19   11.9   0.1   2   2     0.018       5.1    7.2   0.0    72   164   196   285   162   328 0.62 -
ID=PSME_00029698     -            129 54569at3193          -            473      0.19   11.8   0.0   1   2      0.15        42    4.1   0.0   358   377    32    51    27    67 0.70 -
ID=PSME_00029698     -            129 54569at3193          -            473      0.19   11.8   0.0   2   2     0.038        11    6.1   0.0    81   138    66   123    54   125 0.79 -
ID=PSME_00009742     -            580 54569at3193          -            473       0.2   11.8   0.0   1   2     0.012       3.5    7.7   0.0   178   321    72   208    59   228 0.63 -
ID=PSME_00009742     -            580 54569at3193          -            473       0.2   11.8   0.0   2   2       2.1   6.1e+02    0.3   0.0   118   134   344   360   313   389 0.73 -
ID=PSME_00003934     -            759 54569at3193          -            473      0.22   11.7   0.0   1   1    0.0041       1.2    9.2   0.0    50   131   412   494   382   526 0.85 -
ID=PSME_00029016     -            461 54569at3193          -            473      0.22   11.7   0.0   1   2     0.012       3.6    7.7   0.0    76   220   132   276   102   363 0.75 -
ID=PSME_00029016     -            461 54569at3193          -            473      0.22   11.7   0.0   2   2      0.66   1.9e+02    2.0   0.0    51    97   316   363   301   398 0.74 -
ID=PSME_00006333     -            467 54569at3193          -            473      0.23   11.6   0.1   1   3     0.019       5.4    7.1   0.0   120   210   118   210    43   218 0.74 -
ID=PSME_00006333     -            467 54569at3193          -            473      0.23   11.6   0.1   2   3       2.3   6.5e+02    0.2   0.0    67   134   234   301   227   354 0.61 -
ID=PSME_00006333     -            467 54569at3193          -            473      0.23   11.6   0.1   3   3       6.5   1.9e+03   -1.3   0.0   156   183   426   453   419   458 0.87 -
ID=PSME_00009529     -            452 54569at3193          -            473      0.23   11.6   0.4   1   2       5.5   1.6e+03   -1.1   0.0   359   406   257   304   213   312 0.71 -
ID=PSME_00009529     -            452 54569at3193          -            473      0.23   11.6   0.4   2   2    0.0022      0.63   10.1   0.3    30    99   314   381   281   388 0.73 -
ID=PSME_00014131     -            494 54569at3193          -            473      0.23   11.6   0.1   1   3      0.12        35    4.4   0.0    71   145    56   127    41   154 0.87 -
ID=PSME_00014131     -            494 54569at3193          -            473      0.23   11.6   0.1   2   3      0.22        63    3.5   0.0   108   134   281   307   222   319 0.83 -
ID=PSME_00014131     -            494 54569at3193          -            473      0.23   11.6   0.1   3   3       5.1   1.5e+03   -1.0   0.0    55   102   420   471   381   478 0.69 -
ID=PSME_00056497     -            736 54569at3193          -            473      0.24   11.5   0.0   1   2     0.056        16    5.5   0.0    76   134    59   117    50   126 0.93 -
ID=PSME_00056497     -            736 54569at3193          -            473      0.24   11.5   0.0   2   2      0.23        67    3.5   0.0   187   281   202   294   184   334 0.74 -
ID=PSME_00025196     -            936 54569at3193          -            473      0.25   11.5   0.1   1   3     0.019       5.5    7.0   0.0   173   236   189   249   171   325 0.85 -
ID=PSME_00025196     -            936 54569at3193          -            473      0.25   11.5   0.1   2   3       3.6     1e+03   -0.5   0.0   119   166   406   450   396   459 0.78 -
ID=PSME_00025196     -            936 54569at3193          -            473      0.25   11.5   0.1   3   3       7.9   2.3e+03   -1.6   0.0   120   134   609   623   519   631 0.70 -
ID=PSME_00001902     -            225 54569at3193          -            473      0.25   11.5   0.0   1   2      0.92   2.7e+02    1.5   0.0    73    99    44    70    17   102 0.62 -
ID=PSME_00001902     -            225 54569at3193          -            473      0.25   11.5   0.0   2   2    0.0055       1.6    8.8   0.0    52   204    57   209    42   218 0.72 -
ID=PSME_00044466     -            281 54569at3193          -            473      0.25   11.5   0.0   1   1    0.0016      0.45   10.6   0.0    77   184   142   251    96   273 0.55 -
ID=PSME_00009864     -            382 54569at3193          -            473      0.28   11.3   0.1   1   2       0.1        30    4.6   0.0    46   101   116   172    93   203 0.74 -
ID=PSME_00009864     -            382 54569at3193          -            473      0.28   11.3   0.1   2   2      0.18        52    3.8   0.1    80   150   186   254   177   381 0.45 -
ID=PSME_00038792     -            269 54569at3193          -            473      0.29   11.3   0.0   1   2       0.3        86    3.1   0.0    83   134    89   140    76   150 0.87 -
ID=PSME_00038792     -            269 54569at3193          -            473      0.29   11.3   0.0   2   2     0.049        14    5.7   0.0   155   202   197   245   192   253 0.85 -
ID=PSME_00024048     -            564 54569at3193          -            473      0.29   11.3   0.2   1   2       0.5   1.5e+02    2.3   0.0   164   235    65   139    41   168 0.69 -
ID=PSME_00024048     -            564 54569at3193          -            473      0.29   11.3   0.2   2   2      0.05        14    5.7   0.0   185   245   256   310   177   347 0.51 -
ID=PSME_00057187     -            814 54569at3193          -            473       0.3   11.2   0.0   1   2      0.02       5.6    7.0   0.0   176   233   172   230   150   317 0.88 -
ID=PSME_00057187     -            814 54569at3193          -            473       0.3   11.2   0.0   2   2       1.8   5.2e+02    0.5   0.0   180   212   479   511   467   565 0.75 -
ID=PSME_00015660     -            822 54569at3193          -            473      0.31   11.2   0.0   1   2      0.61   1.8e+02    2.1   0.0   177   238    80   138    33   205 0.61 -
ID=PSME_00015660     -            822 54569at3193          -            473      0.31   11.2   0.0   2   2      0.03       8.6    6.4   0.1   193   379   298   486   280   500 0.74 -
ID=PSME_00054905     -            436 54569at3193          -            473      0.34   11.0   0.0   1   2      0.46   1.3e+02    2.5   0.0    37    98   153   217   138   224 0.81 -
ID=PSME_00054905     -            436 54569at3193          -            473      0.34   11.0   0.0   2   2      0.28        82    3.2   0.0   157   201   347   392   342   399 0.86 -
ID=PSME_00056965     -            814 54569at3193          -            473      0.36   10.9   0.0   1   2      0.12        33    4.5   0.0   176   241    85   147    51   157 0.75 -
ID=PSME_00056965     -            814 54569at3193          -            473      0.36   10.9   0.0   2   2      0.23        67    3.5   0.0   180   309   190   318   178   388 0.83 -
ID=PSME_00005148     -            692 54569at3193          -            473       0.4   10.8   0.0   1   3      0.04        12    6.0   0.0    79   157   195   266   165   386 0.81 -
ID=PSME_00005148     -            692 54569at3193          -            473       0.4   10.8   0.0   2   3       9.6   2.8e+03   -1.9   0.0   106   134   461   491   451   500 0.72 -
ID=PSME_00005148     -            692 54569at3193          -            473       0.4   10.8   0.0   3   3       5.6   1.6e+03   -1.1   0.0   164   217   563   615   556   638 0.61 -
ID=PSME_00056699     -            449 54569at3193          -            473      0.42   10.7   0.0   1   3     0.039        11    6.0   0.0    51   200     5   157     2   197 0.69 -
ID=PSME_00056699     -            449 54569at3193          -            473      0.42   10.7   0.0   2   3       1.6   4.7e+02    0.7   0.0    73   133   273   333   233   342 0.73 -
ID=PSME_00056699     -            449 54569at3193          -            473      0.42   10.7   0.0   3   3       4.4   1.3e+03   -0.8   0.0   155   167   426   438   358   446 0.77 -
ID=PSME_00052988     -             64 54569at3193          -            473      0.43   10.7   0.0   1   1    0.0017       0.5   10.5   0.0   155   202     6    54     3    60 0.69 -
ID=PSME_00048130     -            775 54569at3193          -            473      0.44   10.7   0.3   1   2     0.038        11    6.1   0.1    76   153   212   297   187   343 0.72 -
ID=PSME_00048130     -            775 54569at3193          -            473      0.44   10.7   0.3   2   2       1.3   3.8e+02    1.0   0.0   195   310   466   580   433   606 0.76 -
ID=PSME_00017106     -            703 54569at3193          -            473      0.45   10.6   0.9   1   2      0.24        70    3.4   0.1   105   210    74   111    41   140 0.58 -
ID=PSME_00017106     -            703 54569at3193          -            473      0.45   10.6   0.9   2   2     0.093        27    4.8   0.0    77   134   182   235   155   265 0.79 -
ID=PSME_00056323     -            340 54569at3193          -            473      0.45   10.6   0.0   1   2     0.011       3.1    7.9   0.0    57   201    27   174    17   214 0.67 -
ID=PSME_00056323     -            340 54569at3193          -            473      0.45   10.6   0.0   2   2      0.67   1.9e+02    1.9   0.1   154   203   196   246   117   318 0.63 -
ID=PSME_00056594     -            616 54569at3193          -            473      0.63   10.1   0.0   1   3     0.035        10    6.2   0.0   182   227   374   420   349   438 0.74 -
ID=PSME_00056594     -            616 54569at3193          -            473      0.63   10.1   0.0   2   3       6.4   1.8e+03   -1.3   0.0   178   234   469   524   450   539 0.71 -
ID=PSME_00056594     -            616 54569at3193          -            473      0.63   10.1   0.0   3   3       8.6   2.5e+03   -1.7   0.0    63    99   558   596   543   599 0.81 -
ID=PSME_00056052     -            773 54569at3193          -            473       0.7   10.0   4.2   1   2      0.13        36    4.3   0.1    14    99   336   420   323   439 0.75 -
ID=PSME_00056052     -            773 54569at3193          -            473       0.7   10.0   4.2   2   2     0.036        10    6.1   0.2    49   132   509   593   489   628 0.70 -
ID=PSME_00039074     -            369 54569at3193          -            473      0.81    9.8   0.0   1   1    0.0064       1.8    8.6   0.0   161   240   133   214    92   259 0.82 -
#
# Program:         hmmsearch
# Version:         3.2.1 (June 2018)
# Pipeline mode:   SEARCH
# Query file:      /isg/shared/databases/BUSCO/odb10/embryophyta_odb10/hmms/54569at3193.hmm
# Target file:     /labs/Wegrzyn/ConiferGenomes/Psme/analysis/SURF_annotation/analyze_orig_maker/gfacs/filtered/maker_genes.fasta.faa
# Option settings: /usr/local/bin/hmmsearch --domtblout /labs/Wegrzyn/ConiferGenomes/Psme/analysis/SURF_annotation/analyze_orig_maker/busco/maker/run_embryophyta_odb10/hmmer_output/54569at3193.out --cpu 1 /isg/shared/databases/BUSCO/odb10/embryophyta_odb10/hmms/54569at3193.hmm /labs/Wegrzyn/ConiferGenomes/Psme/analysis/SURF_annotation/analyze_orig_maker/gfacs/filtered/maker_genes.fasta.faa 
# Current dir:     /labs/Wegrzyn/ConiferGenomes/Psme/analysis/SURF_annotation/analyze_orig_maker/busco
# Date:            Fri Jul 10 13:53:33 2020
# [ok]
