#                                                                            --- full sequence --- -------------- this domain -------------   hmm coord   ali coord   env coord
# target name        accession   tlen query name           accession   qlen   E-value  score  bias   #  of  c-Evalue  i-Evalue  score  bias  from    to  from    to  from    to  acc description of target
#------------------- ---------- ----- -------------------- ---------- ----- --------- ------ ----- --- --- --------- --------- ------ ----- ----- ----- ----- ----- ----- ----- ---- ---------------------
ID=PSME_00031480     -            676 54858at3193          -            484  1.8e-257  856.4   0.0   1   1  1.9e-259  4.4e-257  855.1   0.0    23   484   211   671   207   671 0.97 -
ID=PSME_00027590     -            318 54858at3193          -            484   1.7e-26   94.6  10.5   1   4   0.00098      0.22   11.8   0.1   230   256    25    51    20    59 0.90 -
ID=PSME_00027590     -            318 54858at3193          -            484   1.7e-26   94.6  10.5   2   4   4.2e-16   9.5e-14   52.6   1.5   133   289    64   215    60   215 0.82 -
ID=PSME_00027590     -            318 54858at3193          -            484   1.7e-26   94.6  10.5   3   4   3.2e-15   7.2e-13   49.7   0.3   131   270   104   240   101   250 0.83 -
ID=PSME_00027590     -            318 54858at3193          -            484   1.7e-26   94.6  10.5   4   4   0.00064      0.15   12.4   0.4   180   256   233   313   226   317 0.78 -
ID=PSME_00054687     -            317 54858at3193          -            484   1.9e-17   64.9   8.9   1   3   4.2e-12   9.4e-10   39.4   0.6   135   257    12   134     6   143 0.90 -
ID=PSME_00054687     -            317 54858at3193          -            484   1.9e-17   64.9   8.9   2   3   4.5e-07    0.0001   22.8   0.4   134   265   146   271   136   284 0.80 -
ID=PSME_00054687     -            317 54858at3193          -            484   1.9e-17   64.9   8.9   3   3      0.02       4.5    7.5   0.1   188   216   284   313   266   315 0.64 -
ID=PSME_00005685     -            234 54858at3193          -            484   1.6e-16   61.8   2.5   1   2   0.00096      0.22   11.9   0.0   230   256    27    53    21    66 0.88 -
ID=PSME_00005685     -            234 54858at3193          -            484   1.6e-16   61.8   2.5   2   2   7.3e-15   1.7e-12   48.5   0.7   132   289    61   213    58   224 0.82 -
ID=PSME_00018747     -            675 54858at3193          -            484   3.5e-14   54.1   0.0   1   4    0.0046         1    9.6   0.0   182   263     3    90     1   108 0.78 -
ID=PSME_00018747     -            675 54858at3193          -            484   3.5e-14   54.1   0.0   2   4   6.9e-06    0.0016   18.9   0.1   156   263   145   258   141   270 0.82 -
ID=PSME_00018747     -            675 54858at3193          -            484   3.5e-14   54.1   0.0   3   4   0.00011     0.026   14.9   0.0   174   263   275   370   268   384 0.79 -
ID=PSME_00018747     -            675 54858at3193          -            484   3.5e-14   54.1   0.0   4   4      0.23        53    4.0   0.0   210   304   390   484   383   519 0.82 -
ID=PSME_00009687     -            655 54858at3193          -            484   3.8e-14   53.9   8.6   1   4   1.3e-05    0.0029   18.0   0.1   198   257    69   129    64   137 0.89 -
ID=PSME_00009687     -            655 54858at3193          -            484   3.8e-14   53.9   8.6   2   4   3.5e-05    0.0079   16.6   0.4   227   399   141   311   136   345 0.64 -
ID=PSME_00009687     -            655 54858at3193          -            484   3.8e-14   53.9   8.6   3   4   1.1e-05    0.0026   18.2   0.2   187   288   397   499   372   500 0.86 -
ID=PSME_00009687     -            655 54858at3193          -            484   3.8e-14   53.9   8.6   4   4     0.059        13    6.0   0.0    32    65   476   509   470   513 0.91 -
ID=PSME_00016646     -            363 54858at3193          -            484   1.1e-13   52.5   1.8   1   2   4.7e-08   1.1e-05   26.1   0.1   186   257    72   143    32   158 0.89 -
ID=PSME_00016646     -            363 54858at3193          -            484   1.1e-13   52.5   1.8   2   2   5.7e-07   0.00013   22.5   0.2    83   220   194   323   190   362 0.59 -
ID=PSME_00014113     -            542 54858at3193          -            484   1.7e-12   48.5   0.2   1   2   3.4e-13   7.7e-11   43.0   0.0   135   299   179   348   132   359 0.85 -
ID=PSME_00014113     -            542 54858at3193          -            484   1.7e-12   48.5   0.2   2   2      0.36        81    3.4   0.1   136   170   376   410   371   419 0.90 -
ID=PSME_00007745     -            817 54858at3193          -            484   3.8e-12   47.3   0.1   1   2   4.8e-07   0.00011   22.7   0.1   147   260    42   150    27   158 0.76 -
ID=PSME_00007745     -            817 54858at3193          -            484   3.8e-12   47.3   0.1   2   2   1.7e-06   0.00038   20.9   0.0   228   313   160   242   154   253 0.84 -
ID=PSME_00040762     -            835 54858at3193          -            484   4.9e-12   47.0   0.1   1   2     0.011       2.4    8.4   0.1   189   257   400   469   392   480 0.74 -
ID=PSME_00040762     -            835 54858at3193          -            484   4.9e-12   47.0   0.1   2   2   2.8e-11   6.4e-09   36.7   0.0   132   292   475   629   471   645 0.85 -
ID=PSME_00016934     -            396 54858at3193          -            484   1.6e-11   45.2   5.0   1   5   0.00027     0.062   13.7   0.0   227   289    24    89    19   110 0.80 -
ID=PSME_00016934     -            396 54858at3193          -            484   1.6e-11   45.2   5.0   2   5   0.00012     0.026   14.9   0.3   190   282   115   206   103   211 0.79 -
ID=PSME_00016934     -            396 54858at3193          -            484   1.6e-11   45.2   5.0   3   5    0.0013      0.29   11.5   0.0   192   260   159   226   151   237 0.85 -
ID=PSME_00016934     -            396 54858at3193          -            484   1.6e-11   45.2   5.0   4   5      0.34        76    3.5   0.0   163   215   218   268   215   274 0.87 -
ID=PSME_00016934     -            396 54858at3193          -            484   1.6e-11   45.2   5.0   5   5    0.0036      0.81   10.0   0.0   136   171   280   315   273   325 0.85 -
ID=PSME_00003170     -            812 54858at3193          -            484   4.7e-11   43.7   0.1   1   2   3.3e-06   0.00075   20.0   0.1   150   260    29   134    14   143 0.75 -
ID=PSME_00003170     -            812 54858at3193          -            484   4.7e-11   43.7   0.1   2   2   4.9e-06    0.0011   19.4   0.0   229   312   145   225   137   240 0.83 -
ID=PSME_00041381     -            794 54858at3193          -            484     6e-11   43.4   4.3   1   4    0.0072       1.6    9.0   0.0   227   259   478   511   467   520 0.60 -
ID=PSME_00041381     -            794 54858at3193          -            484     6e-11   43.4   4.3   2   4    0.0082       1.9    8.8   0.0    34    67   520   553   516   563 0.85 -
ID=PSME_00041381     -            794 54858at3193          -            484     6e-11   43.4   4.3   3   4     6e-05     0.014   15.8   0.1   199   309   579   689   562   697 0.78 -
ID=PSME_00041381     -            794 54858at3193          -            484     6e-11   43.4   4.3   4   4    0.0017      0.38   11.1   0.0   227   336   651   761   646   767 0.74 -
ID=PSME_00011743     -            275 54858at3193          -            484   1.5e-10   42.1   0.4   1   1   1.3e-10     3e-08   34.5   0.4    32   237    32   214    31   253 0.80 -
ID=PSME_00013038     -            683 54858at3193          -            484   1.8e-10   41.8   2.7   1   4   1.3e-05     0.003   18.0   0.0    85   171   198   274   136   304 0.70 -
ID=PSME_00013038     -            683 54858at3193          -            484   1.8e-10   41.8   2.7   2   4       6.3   1.4e+03   -0.7   0.0    33    61   329   359   321   375 0.79 -
ID=PSME_00013038     -            683 54858at3193          -            484   1.8e-10   41.8   2.7   3   4   1.5e-05    0.0035   17.8   0.1   189   288   459   562   445   563 0.82 -
ID=PSME_00013038     -            683 54858at3193          -            484   1.8e-10   41.8   2.7   4   4    0.0019      0.42   10.9   0.1   188   257   545   616   532   617 0.82 -
ID=PSME_00004313     -            429 54858at3193          -            484   2.5e-10   41.3   2.0   1   3   3.4e-07   7.6e-05   23.3   0.4   188   259    68   139    23   181 0.87 -
ID=PSME_00004313     -            429 54858at3193          -            484   2.5e-10   41.3   2.0   2   3   0.00014     0.032   14.6   0.0   227   288   207   277   184   286 0.67 -
ID=PSME_00004313     -            429 54858at3193          -            484   2.5e-10   41.3   2.0   3   3   0.00028     0.063   13.6   0.0   204   258   234   289   231   302 0.66 -
ID=PSME_00019641     -            306 54858at3193          -            484   4.8e-10   40.4   1.5   1   3   0.00059      0.13   12.6   0.1   149   220     9    74     3    87 0.80 -
ID=PSME_00019641     -            306 54858at3193          -            484   4.8e-10   40.4   1.5   2   3   1.1e-05    0.0026   18.2   0.1   189   287    92   199    82   201 0.82 -
ID=PSME_00019641     -            306 54858at3193          -            484   4.8e-10   40.4   1.5   3   3    0.0015      0.34   11.2   0.0   230   290   184   249   179   269 0.58 -
ID=PSME_00016647     -            283 54858at3193          -            484   9.4e-10   39.4   2.5   1   2   6.8e-09   1.5e-06   28.9   1.6   135   259    27   161    21   172 0.79 -
ID=PSME_00016647     -            283 54858at3193          -            484   9.4e-10   39.4   2.5   2   2     0.014       3.1    8.0   0.0   227   269   212   253   179   270 0.65 -
ID=PSME_00030545     -            524 54858at3193          -            484   1.4e-09   38.9   6.9   1   3   3.2e-05    0.0073   16.7   0.5   151   260   250   355   231   365 0.80 -
ID=PSME_00030545     -            524 54858at3193          -            484   1.4e-09   38.9   6.9   2   3   6.6e-06    0.0015   19.0   0.2   193   260   370   439   362   477 0.74 -
ID=PSME_00030545     -            524 54858at3193          -            484   1.4e-09   38.9   6.9   3   3      0.11        25    5.0   0.1   157   215   471   523   462   523 0.70 -
ID=PSME_00011774     -            522 54858at3193          -            484   1.5e-09   38.8   5.2   1   3    0.0002     0.045   14.1   0.5   180   260    86   168    76   191 0.80 -
ID=PSME_00011774     -            522 54858at3193          -            484   1.5e-09   38.8   5.2   2   3     0.022       4.9    7.4   0.1   223   261   200   239   177   254 0.82 -
ID=PSME_00011774     -            522 54858at3193          -            484   1.5e-09   38.8   5.2   3   3   4.8e-05     0.011   16.1   0.0    35   183   258   394   244   406 0.75 -
ID=PSME_00000461     -            538 54858at3193          -            484   3.8e-09   37.5   0.2   1   2   7.4e-05     0.017   15.5   0.1   161   263    41   146    26   157 0.78 -
ID=PSME_00000461     -            538 54858at3193          -            484   3.8e-09   37.5   0.2   2   2     4e-06    0.0009   19.7   0.0   195   263   330   399   298   457 0.68 -
ID=PSME_00020924     -            249 54858at3193          -            484   5.1e-09   37.0   5.1   1   2   1.4e-08   3.2e-06   27.8   2.2   126   257    23   165    13   167 0.82 -
ID=PSME_00020924     -            249 54858at3193          -            484   5.1e-09   37.0   5.1   2   2     4e-06   0.00091   19.7   1.1   189   255   138   208   131   212 0.89 -
ID=PSME_00007492     -           1061 54858at3193          -            484     1e-08   36.0   5.3   1   5     0.031       7.1    6.9   0.0   202   262   313   375   308   390 0.74 -
ID=PSME_00007492     -           1061 54858at3193          -            484     1e-08   36.0   5.3   2   5       4.5     1e+03   -0.2   0.0   239   256   393   410   379   415 0.63 -
ID=PSME_00007492     -           1061 54858at3193          -            484     1e-08   36.0   5.3   3   5    0.0054       1.2    9.4   0.0   142   218   432   505   414   542 0.82 -
ID=PSME_00007492     -           1061 54858at3193          -            484     1e-08   36.0   5.3   4   5     0.018       4.1    7.6   0.7   199   256   767   823   723   831 0.48 -
ID=PSME_00007492     -           1061 54858at3193          -            484     1e-08   36.0   5.3   5   5     0.001      0.23   11.8   1.0    32   260   752   948   747   962 0.72 -
ID=PSME_00021733     -            647 54858at3193          -            484   1.2e-08   35.8   0.1   1   2   7.4e-07   0.00017   22.1   0.3   142   263   139   279   128   291 0.76 -
ID=PSME_00021733     -            647 54858at3193          -            484   1.2e-08   35.8   0.1   2   2    0.0031      0.71   10.2   0.0   197   253   584   641   561   645 0.82 -
ID=PSME_00020279     -            350 54858at3193          -            484   1.3e-08   35.6   3.5   1   3   0.00043     0.098   13.0   0.2   154   215    45   102    38   110 0.82 -
ID=PSME_00020279     -            350 54858at3193          -            484   1.3e-08   35.6   3.5   2   3   9.4e-05     0.021   15.2   0.1   125   262   142   285   135   294 0.74 -
ID=PSME_00020279     -            350 54858at3193          -            484   1.3e-08   35.6   3.5   3   3    0.0029      0.65   10.3   0.1   186   267   248   332   247   345 0.77 -
ID=PSME_00007486     -            456 54858at3193          -            484   1.3e-08   35.6   0.4   1   3     0.022       4.9    7.4   0.1   193   265    23    96    11   120 0.68 -
ID=PSME_00007486     -            456 54858at3193          -            484   1.3e-08   35.6   0.4   2   3   3.5e-07     8e-05   23.2   0.1   190   281   156   250   139   270 0.80 -
ID=PSME_00007486     -            456 54858at3193          -            484   1.3e-08   35.6   0.4   3   3       2.3   5.2e+02    0.7   0.0    33    67   291   325   281   330 0.82 -
ID=PSME_00004967     -           1191 54858at3193          -            484   1.5e-08   35.5   0.6   1   4   0.00054      0.12   12.7   0.1   162   257   439   540   395   558 0.72 -
ID=PSME_00004967     -           1191 54858at3193          -            484   1.5e-08   35.5   0.6   2   4      0.09        20    5.4   0.1   147   247   519   616   508   638 0.74 -
ID=PSME_00004967     -           1191 54858at3193          -            484   1.5e-08   35.5   0.6   3   4       6.1   1.4e+03   -0.7   0.0   241   299   568   627   558   662 0.66 -
ID=PSME_00004967     -           1191 54858at3193          -            484   1.5e-08   35.5   0.6   4   4   1.1e-05    0.0024   18.3   0.0   196   257   947  1009   882  1066 0.79 -
ID=PSME_00002684     -            781 54858at3193          -            484   1.8e-08   35.2   0.0   1   4    0.0028      0.62   10.3   0.0   181   263    30   118    19   129 0.81 -
ID=PSME_00002684     -            781 54858at3193          -            484   1.8e-08   35.2   0.0   2   4       1.2   2.7e+02    1.7   0.0   187   295   220   332   179   346 0.56 -
ID=PSME_00002684     -            781 54858at3193          -            484   1.8e-08   35.2   0.0   3   4      0.13        28    4.9   0.0   177   295   360   485   324   496 0.64 -
ID=PSME_00002684     -            781 54858at3193          -            484   1.8e-08   35.2   0.0   4   4   0.00053      0.12   12.7   0.0   197   255   718   777   695   779 0.83 -
ID=PSME_00024193     -           1216 54858at3193          -            484   2.2e-08   34.9   6.4   1   3     0.014       3.3    8.0   0.0   199   260    21    83     7    98 0.84 -
ID=PSME_00024193     -           1216 54858at3193          -            484   2.2e-08   34.9   6.4   2   3     0.007       1.6    9.0   0.3   194   257   100   164    91   188 0.67 -
ID=PSME_00024193     -           1216 54858at3193          -            484   2.2e-08   34.9   6.4   3   3   5.9e-06    0.0013   19.1   0.4   171   265   189   285   169   327 0.70 -
ID=PSME_00020280     -            460 54858at3193          -            484   2.4e-08   34.8   2.4   1   2   2.1e-06   0.00049   20.6   0.2   131   264   223   360   202   377 0.70 -
ID=PSME_00020280     -            460 54858at3193          -            484   2.4e-08   34.8   2.4   2   2   0.00015     0.035   14.5   0.1   191   264   370   439   356   454 0.86 -
ID=PSME_00022796     -            424 54858at3193          -            484   3.3e-08   34.3   7.3   1   3   0.00016     0.036   14.4   0.3   162   267    99   200    85   203 0.81 -
ID=PSME_00022796     -            424 54858at3193          -            484   3.3e-08   34.3   7.3   2   3   1.2e-06   0.00028   21.4   0.7   133   258   199   325   195   348 0.80 -
ID=PSME_00022796     -            424 54858at3193          -            484   3.3e-08   34.3   7.3   3   3      0.69   1.6e+02    2.4   0.0   146   171   345   369   326   390 0.50 -
ID=PSME_00024119     -            462 54858at3193          -            484   3.8e-08   34.2   1.6   1   2     0.022         5    7.4   0.1   190   216   187   213   155   256 0.79 -
ID=PSME_00024119     -            462 54858at3193          -            484   3.8e-08   34.2   1.6   2   2   1.6e-07   3.7e-05   24.3   0.3   122   288   249   423   239   448 0.73 -
ID=PSME_00037056     -            492 54858at3193          -            484   7.6e-08   33.2   0.1   1   1   4.8e-10   1.1e-07   32.6   0.1   201   302    30   130     9   149 0.80 -
ID=PSME_00001956     -            795 54858at3193          -            484   7.7e-08   33.1   0.2   1   3     1e-06   0.00023   21.7   0.0   185   285   455   557   434   581 0.87 -
ID=PSME_00001956     -            795 54858at3193          -            484   7.7e-08   33.1   0.2   2   3     0.088        20    5.4   0.0   185   220   621   655   594   698 0.80 -
ID=PSME_00001956     -            795 54858at3193          -            484   7.7e-08   33.1   0.2   3   3      0.87     2e+02    2.1   0.0    31    64   702   735   688   736 0.79 -
ID=PSME_00012180     -            596 54858at3193          -            484   9.8e-08   32.8   3.7   1   3     0.022       4.9    7.4   0.5   226   259   260   293   223   338 0.63 -
ID=PSME_00012180     -            596 54858at3193          -            484   9.8e-08   32.8   3.7   2   3   1.8e-06   0.00042   20.8   0.1   153   266   321   429   303   443 0.79 -
ID=PSME_00012180     -            596 54858at3193          -            484   9.8e-08   32.8   3.7   3   3      0.27        62    3.8   0.1    37   110   444   516   431   523 0.66 -
ID=PSME_00016314     -            482 54858at3193          -            484     1e-07   32.7   0.5   1   4   1.1e-05    0.0024   18.3   0.0   184   260   204   281   183   293 0.83 -
ID=PSME_00016314     -            482 54858at3193          -            484     1e-07   32.7   0.5   2   4       1.3     3e+02    1.5   0.0   131   170   285   324   282   332 0.88 -
ID=PSME_00016314     -            482 54858at3193          -            484     1e-07   32.7   0.5   3   4     0.024       5.4    7.3   0.1   183   236   371   421   334   444 0.78 -
ID=PSME_00016314     -            482 54858at3193          -            484     1e-07   32.7   0.5   4   4       1.7   3.9e+02    1.1   0.0   214   255   439   480   431   481 0.57 -
ID=PSME_00014453     -            610 54858at3193          -            484   1.2e-07   32.5   7.3   1   5   6.8e-05     0.015   15.6   0.0   189   264   142   222   121   228 0.79 -
ID=PSME_00014453     -            610 54858at3193          -            484   1.2e-07   32.5   7.3   2   5    0.0078       1.8    8.9   0.0   227   259   225   257   220   271 0.90 -
ID=PSME_00014453     -            610 54858at3193          -            484   1.2e-07   32.5   7.3   3   5       1.7   3.9e+02    1.1   0.0    33    65   414   448   404   454 0.76 -
ID=PSME_00014453     -            610 54858at3193          -            484   1.2e-07   32.5   7.3   4   5     0.016       3.6    7.8   0.6   156   288   437   564   429   569 0.77 -
ID=PSME_00014453     -            610 54858at3193          -            484   1.2e-07   32.5   7.3   5   5      0.22        51    4.0   0.0   135   170   543   577   530   589 0.79 -
ID=PSME_00012603     -            332 54858at3193          -            484   1.2e-07   32.5   1.9   1   3   1.3e-05     0.003   18.0   0.2   198   257    91   151    87   160 0.89 -
ID=PSME_00012603     -            332 54858at3193          -            484   1.2e-07   32.5   1.9   2   3   0.00044     0.099   13.0   0.1   226   290   162   226   155   236 0.83 -
ID=PSME_00012603     -            332 54858at3193          -            484   1.2e-07   32.5   1.9   3   3      0.56   1.3e+02    2.7   0.0    31    67   201   236   197   269 0.68 -
ID=PSME_00051512     -           1207 54858at3193          -            484   1.2e-07   32.5   6.3   1   3   0.00033     0.074   13.4   0.2   152   287    22   152    11   158 0.73 -
ID=PSME_00051512     -           1207 54858at3193          -            484   1.2e-07   32.5   6.3   2   3     0.026         6    7.1   0.1    32    73   130   171   120   180 0.79 -
ID=PSME_00051512     -           1207 54858at3193          -            484   1.2e-07   32.5   6.3   3   3   2.2e-05     0.005   17.3   1.9   173   263   191   283   133   326 0.66 -
ID=PSME_00008574     -            297 54858at3193          -            484   1.4e-07   32.3   0.0   1   2       9.7   2.2e+03   -1.3   0.0   152   172    98   118    70   155 0.72 -
ID=PSME_00008574     -            297 54858at3193          -            484   1.4e-07   32.3   0.0   2   2   1.8e-09   4.1e-07   30.7   0.0   192   303   173   286   159   291 0.91 -
ID=PSME_00004465     -            525 54858at3193          -            484   1.8e-07   31.9   7.8   1   4    0.0048       1.1    9.5   0.1   197   249    32    85    27    87 0.85 -
ID=PSME_00004465     -            525 54858at3193          -            484   1.8e-07   31.9   7.8   2   4   0.00013     0.029   14.8   0.9   230   399    87   254    82   266 0.60 -
ID=PSME_00004465     -            525 54858at3193          -            484   1.8e-07   31.9   7.8   3   4     0.075        17    5.6   0.0   229   300   346   411   340   424 0.75 -
ID=PSME_00004465     -            525 54858at3193          -            484   1.8e-07   31.9   7.8   4   4      0.57   1.3e+02    2.7   0.0    40   112   429   507   416   514 0.59 -
ID=PSME_00024324     -            563 54858at3193          -            484   1.9e-07   31.8   0.0   1   1   3.1e-09     7e-07   30.0   0.0   192   306   439   555   341   559 0.90 -
ID=PSME_00000602     -            950 54858at3193          -            484   2.1e-07   31.7   0.9   1   3   1.8e-07   4.1e-05   24.1   0.1   187   262   537   613   529   626 0.86 -
ID=PSME_00000602     -            950 54858at3193          -            484   2.1e-07   31.7   0.9   2   3      0.42        96    3.1   0.0   131   175   615   659   612   663 0.83 -
ID=PSME_00000602     -            950 54858at3193          -            484   2.1e-07   31.7   0.9   3   3       1.6   3.7e+02    1.2   0.0    30    64   779   813   762   814 0.81 -
ID=PSME_00044539     -            487 54858at3193          -            484   2.3e-07   31.6   2.3   1   2   3.3e-07   7.5e-05   23.3   0.9   153   290    24   156    18   270 0.81 -
ID=PSME_00044539     -            487 54858at3193          -            484   2.3e-07   31.6   2.3   2   2      0.12        28    4.9   0.0   228   288   346   403   338   416 0.72 -
ID=PSME_00048532     -            614 54858at3193          -            484   2.9e-07   31.2   4.6   1   3   8.4e-08   1.9e-05   25.2   0.4   153   290   166   298   116   406 0.83 -
ID=PSME_00048532     -            614 54858at3193          -            484   2.9e-07   31.2   4.6   2   3      0.14        32    4.7   0.1   229   257   497   524   490   572 0.72 -
ID=PSME_00048532     -            614 54858at3193          -            484   2.9e-07   31.2   4.6   3   3         2   4.5e+02    0.9   0.0   203   256   551   605   537   609 0.55 -
ID=PSME_00004692     -            453 54858at3193          -            484   3.4e-07   31.0   0.0   1   2      0.14        32    4.7   0.0   237   285   250   297   195   317 0.70 -
ID=PSME_00004692     -            453 54858at3193          -            484   3.4e-07   31.0   0.0   2   2   1.7e-07   3.8e-05   24.2   0.0   192   302   329   441   319   446 0.89 -
ID=PSME_00005268     -            284 54858at3193          -            484   3.8e-07   30.9   4.0   1   2   3.2e-08   7.3e-06   26.6   1.8   131   257    80   207    65   210 0.78 -
ID=PSME_00005268     -            284 54858at3193          -            484   3.8e-07   30.9   4.0   2   2    0.0011      0.25   11.7   0.0   135   169   174   208   165   229 0.86 -
ID=PSME_00010333     -            611 54858at3193          -            484   3.8e-07   30.9   0.1   1   3   3.8e-07   8.5e-05   23.1   0.2   191   263   135   211   127   224 0.85 -
ID=PSME_00010333     -            611 54858at3193          -            484   3.8e-07   30.9   0.1   2   3      0.47   1.1e+02    3.0   0.0   231   274   328   375   325   387 0.77 -
ID=PSME_00010333     -            611 54858at3193          -            484   3.8e-07   30.9   0.1   3   3       3.1     7e+02    0.3   0.0   259   329   390   458   381   468 0.77 -
ID=PSME_00014235     -            413 54858at3193          -            484   4.8e-07   30.5   5.7   1   2   1.9e-06   0.00043   20.8   1.3   161   290    22   146    22   159 0.80 -
ID=PSME_00014235     -            413 54858at3193          -            484   4.8e-07   30.5   5.7   2   2      0.34        78    3.4   0.0   230   300   278   342   273   353 0.70 -
ID=PSME_00003075     -            548 54858at3193          -            484   5.8e-07   30.2   2.0   1   2   2.7e-06   0.00062   20.3   0.3   139   259   283   399   231   404 0.77 -
ID=PSME_00003075     -            548 54858at3193          -            484   5.8e-07   30.2   2.0   2   2    0.0035      0.78   10.0   0.1   215   259   399   441   397   476 0.83 -
ID=PSME_00001102     -            981 54858at3193          -            484   5.9e-07   30.2   1.8   1   2   0.00024     0.055   13.8   0.1   195   255    42   105    19   125 0.58 -
ID=PSME_00001102     -            981 54858at3193          -            484   5.9e-07   30.2   1.8   2   2   1.1e-07   2.4e-05   24.9   0.3    27   259    68   286    57   311 0.81 -
ID=PSME_00005357     -            440 54858at3193          -            484     6e-07   30.2   6.3   1   3     0.023       5.3    7.3   0.0    32    68   124   158   112   165 0.87 -
ID=PSME_00005357     -            440 54858at3193          -            484     6e-07   30.2   6.3   2   3   0.00012     0.027   14.9   2.1   133   257   164   279   159   281 0.71 -
ID=PSME_00005357     -            440 54858at3193          -            484     6e-07   30.2   6.3   3   3     0.002      0.45   10.8   0.5   199   268   262   333   251   362 0.66 -
ID=PSME_00015328     -            220 54858at3193          -            484   9.5e-07   29.5   0.9   1   2   7.2e-08   1.6e-05   25.5   0.2   131   289    49   205    32   206 0.78 -
ID=PSME_00015328     -            220 54858at3193          -            484   9.5e-07   29.5   0.9   2   2    0.0097       2.2    8.6   0.0   135   171   183   218   178   219 0.81 -
ID=PSME_00033595     -            464 54858at3193          -            484   1.1e-06   29.4   4.3   1   4     0.017       3.8    7.8   0.0   227   259    12    44     9    60 0.91 -
ID=PSME_00033595     -            464 54858at3193          -            484   1.1e-06   29.4   4.3   2   4      0.34        77    3.5   0.0   227   257   246   277   242   281 0.74 -
ID=PSME_00033595     -            464 54858at3193          -            484   1.1e-06   29.4   4.3   3   4      0.27        60    3.8   0.2   203   258   278   332   276   343 0.75 -
ID=PSME_00033595     -            464 54858at3193          -            484   1.1e-06   29.4   4.3   4   4   0.00039     0.088   13.2   0.1   200   289   350   439   343   448 0.79 -
ID=PSME_00049142     -            504 54858at3193          -            484   1.1e-06   29.3   0.4   1   2   3.3e-07   7.6e-05   23.3   0.3   192   263    27   102    20   114 0.84 -
ID=PSME_00049142     -            504 54858at3193          -            484   1.1e-06   29.3   0.4   2   2      0.53   1.2e+02    2.8   0.0   231   269   219   261   172   278 0.78 -
ID=PSME_00021391     -            613 54858at3193          -            484   1.2e-06   29.2   1.3   1   4     0.017       3.9    7.7   0.0   199   259    95   158    85   175 0.74 -
ID=PSME_00021391     -            613 54858at3193          -            484   1.2e-06   29.2   1.3   2   4      0.27        61    3.8   0.0   239   284   178   225   164   252 0.73 -
ID=PSME_00021391     -            613 54858at3193          -            484   1.2e-06   29.2   1.3   3   4   0.00036     0.083   13.2   0.1   199   272   397   472   388   488 0.74 -
ID=PSME_00021391     -            613 54858at3193          -            484   1.2e-06   29.2   1.3   4   4       1.2   2.6e+02    1.7   0.0   239   267   480   510   459   527 0.68 -
ID=PSME_00043526     -            250 54858at3193          -            484   1.2e-06   29.2   0.0   1   2   4.7e-08   1.1e-05   26.1   0.0   197   307    29   147     9   154 0.66 -
ID=PSME_00043526     -            250 54858at3193          -            484   1.2e-06   29.2   0.0   2   2       1.7   3.9e+02    1.1   0.0   156   214   175   237   159   245 0.78 -
ID=PSME_00008859     -           1082 54858at3193          -            484   1.6e-06   28.8   3.9   1   3      0.47   1.1e+02    3.0   0.0   227   260   501   534   494   566 0.79 -
ID=PSME_00008859     -           1082 54858at3193          -            484   1.6e-06   28.8   3.9   2   3   0.00048      0.11   12.8   0.6   227   293   612   676   596   690 0.74 -
ID=PSME_00008859     -           1082 54858at3193          -            484   1.6e-06   28.8   3.9   3   3    0.0019      0.44   10.9   0.0    88   216   699   818   686   823 0.77 -
ID=PSME_00014903     -            490 54858at3193          -            484   2.1e-06   28.4   0.4   1   2     5e-07   0.00011   22.7   0.1   192   263    24    98    17   113 0.82 -
ID=PSME_00014903     -            490 54858at3193          -            484   2.1e-06   28.4   0.4   2   2      0.44     1e+02    3.1   0.0   231   271   215   259   169   271 0.82 -
ID=PSME_00044122     -            268 54858at3193          -            484   2.3e-06   28.3   0.5   1   4      0.22        51    4.1   0.0    32    67    14    49     7    56 0.86 -
ID=PSME_00044122     -            268 54858at3193          -            484   2.3e-06   28.3   0.5   2   4    0.0011      0.25   11.7   0.2   190   258    65   133    53   147 0.65 -
ID=PSME_00044122     -            268 54858at3193          -            484   2.3e-06   28.3   0.5   3   4         2   4.6e+02    0.9   0.0    47    67   155   175   137   180 0.77 -
ID=PSME_00044122     -            268 54858at3193          -            484   2.3e-06   28.3   0.5   4   4     0.025       5.7    7.2   0.0   133   201   182   251   155   258 0.70 -
ID=PSME_00010434     -            523 54858at3193          -            484   2.5e-06   28.1   0.0   1   2   0.00068      0.15   12.4   0.0   169   262    48   147    29   157 0.75 -
ID=PSME_00010434     -            523 54858at3193          -            484   2.5e-06   28.1   0.0   2   2    0.0005      0.11   12.8   0.0   197   251   455   510   431   521 0.79 -
ID=PSME_00047152     -            241 54858at3193          -            484   2.7e-06   28.0   0.0   1   2   1.3e-07     3e-05   24.6   0.1   197   308    20   139     8   152 0.68 -
ID=PSME_00047152     -            241 54858at3193          -            484   2.7e-06   28.0   0.0   2   2       1.6   3.5e+02    1.3   0.0   154   214   164   228   154   236 0.80 -
ID=PSME_00001612     -           1070 54858at3193          -            484   2.7e-06   28.0   0.1   1   3      0.17        39    4.4   0.1   187   247   425   486   346   535 0.82 -
ID=PSME_00001612     -           1070 54858at3193          -            484   2.7e-06   28.0   0.1   2   3   3.2e-05    0.0073   16.7   0.0   197   257   828   889   764   942 0.84 -
ID=PSME_00001612     -           1070 54858at3193          -            484   2.7e-06   28.0   0.1   3   3         1   2.4e+02    1.9   0.0   154   224   969  1047   962  1058 0.78 -
ID=PSME_00016071     -            515 54858at3193          -            484   2.8e-06   28.0   0.1   1   2       1.4   3.1e+02    1.5   0.0    41   117   109   185   102   192 0.81 -
ID=PSME_00016071     -            515 54858at3193          -            484   2.8e-06   28.0   0.1   2   2   1.8e-06    0.0004   20.9   0.0   190   311   371   502   353   509 0.72 -
ID=PSME_00024307     -           1014 54858at3193          -            484     3e-06   27.9   0.3   1   2     3e-05    0.0067   16.8   0.1   182   255   201   277   187   282 0.86 -
ID=PSME_00024307     -           1014 54858at3193          -            484     3e-06   27.9   0.3   2   2     0.018         4    7.7   0.0    28   117   325   417   315   427 0.79 -
ID=PSME_00026630     -            586 54858at3193          -            484   3.1e-06   27.8   0.0   1   2      0.39        88    3.3   0.0   207   296    27   118     8   174 0.77 -
ID=PSME_00026630     -            586 54858at3193          -            484   3.1e-06   27.8   0.0   2   2   9.4e-07   0.00021   21.8   0.0   197   309   379   492   356   498 0.84 -
ID=PSME_00016963     -            516 54858at3193          -            484   3.1e-06   27.8   1.7   1   3      0.25        56    3.9   0.4   189   223   238   272   226   328 0.72 -
ID=PSME_00016963     -            516 54858at3193          -            484   3.1e-06   27.8   1.7   2   3   3.7e-05    0.0084   16.5   0.0   224   354   328   455   318   464 0.78 -
ID=PSME_00016963     -            516 54858at3193          -            484   3.1e-06   27.8   1.7   3   3      0.12        28    4.9   0.0   193   227   468   502   461   510 0.82 -
ID=PSME_00014297     -            652 54858at3193          -            484   3.4e-06   27.7   0.1   1   3       0.4        91    3.2   0.0   240   300    31    92    22   102 0.74 -
ID=PSME_00014297     -            652 54858at3193          -            484   3.4e-06   27.7   0.1   2   3       8.6     2e+03   -1.2   0.0    85   125   109   149    65   152 0.64 -
ID=PSME_00014297     -            652 54858at3193          -            484   3.4e-06   27.7   0.1   3   3   1.7e-06   0.00039   20.9   0.0   160   306   375   521   360   598 0.70 -
ID=PSME_00008005     -            554 54858at3193          -            484   4.8e-06   27.2   0.9   1   3   6.1e-05     0.014   15.8   0.0   200   257    22    80    19    90 0.89 -
ID=PSME_00008005     -            554 54858at3193          -            484   4.8e-06   27.2   0.9   2   3      0.23        53    4.0   0.1   229   257   221   248   216   290 0.72 -
ID=PSME_00008005     -            554 54858at3193          -            484   4.8e-06   27.2   0.9   3   3       0.4        91    3.2   0.0    32    83   296   347   288   384 0.81 -
ID=PSME_00002176     -            912 54858at3193          -            484   5.7e-06   27.0   1.6   1   2      0.63   1.4e+02    2.6   0.0    32    68   157   194   143   199 0.73 -
ID=PSME_00002176     -            912 54858at3193          -            484   5.7e-06   27.0   1.6   2   2   1.8e-07   4.2e-05   24.1   1.6    96   267   183   351   156   358 0.76 -
ID=PSME_00016635     -            729 54858at3193          -            484   6.1e-06   26.9   1.2   1   2    0.0011      0.25   11.7   0.0   189   255   104   173    87   178 0.74 -
ID=PSME_00016635     -            729 54858at3193          -            484   6.1e-06   26.9   1.2   2   2   4.6e-07    0.0001   22.8   0.2    27   265   136   362   124   374 0.82 -
ID=PSME_00031008     -            598 54858at3193          -            484   7.5e-06   26.6   0.9   1   4   0.00055      0.12   12.7   0.1   184   255    15    89     3    92 0.83 -
ID=PSME_00031008     -            598 54858at3193          -            484   7.5e-06   26.6   0.9   2   4    0.0017      0.38   11.1   0.0    27    70    52    95    40   108 0.87 -
ID=PSME_00031008     -            598 54858at3193          -            484   7.5e-06   26.6   0.9   3   4    0.0071       1.6    9.0   0.0    28   116   137   228   121   239 0.78 -
ID=PSME_00031008     -            598 54858at3193          -            484   7.5e-06   26.6   0.9   4   4       2.7   6.2e+02    0.5   0.0   193   216   245   268   237   308 0.75 -
ID=PSME_00012971     -            700 54858at3193          -            484     9e-06   26.3   0.1   1   2       6.4   1.5e+03   -0.8   0.0    22    55   419   453   405   466 0.75 -
ID=PSME_00012971     -            700 54858at3193          -            484     9e-06   26.3   0.1   2   2     2e-07   4.5e-05   24.0   0.0   176   258   467   551   444   588 0.82 -
ID=PSME_00018904     -            656 54858at3193          -            484   9.9e-06   26.2   0.0   1   2   4.5e-07    0.0001   22.8   0.1   190   264    60   138    48   152 0.84 -
ID=PSME_00018904     -            656 54858at3193          -            484   9.9e-06   26.2   0.0   2   2       2.5   5.6e+02    0.6   0.0   231   269   254   296   208   314 0.80 -
ID=PSME_00021966     -            294 54858at3193          -            484   1.8e-05   25.3   0.4   1   3    0.0024      0.54   10.5   0.0   227   302    59   129    56   134 0.80 -
ID=PSME_00021966     -            294 54858at3193          -            484   1.8e-05   25.3   0.4   2   3     0.022       5.1    7.4   0.0   230   260   148   178   139   186 0.87 -
ID=PSME_00021966     -            294 54858at3193          -            484   1.8e-05   25.3   0.4   3   3      0.24        54    4.0   0.1   194   220   214   240   205   288 0.82 -
ID=PSME_00014506     -            333 54858at3193          -            484     2e-05   25.2   0.4   1   2   0.00026     0.059   13.7   0.0   189   264    58   138    50   143 0.80 -
ID=PSME_00014506     -            333 54858at3193          -            484     2e-05   25.2   0.4   2   2    0.0031       0.7   10.2   0.1   227   259   141   173   135   189 0.88 -
ID=PSME_00034030     -            481 54858at3193          -            484   2.4e-05   24.9   0.0   1   2   1.3e-06   0.00029   21.3   0.0   196   259   259   323   233   383 0.72 -
ID=PSME_00034030     -            481 54858at3193          -            484   2.4e-05   24.9   0.0   2   2       2.8   6.3e+02    0.4   0.0   155   214   405   468   399   475 0.80 -
ID=PSME_00042991     -            522 54858at3193          -            484   2.5e-05   24.9   0.6   1   3   9.3e-05     0.021   15.2   0.0   203   258     7    63     4    99 0.88 -
ID=PSME_00042991     -            522 54858at3193          -            484   2.5e-05   24.9   0.6   2   3      0.32        72    3.5   0.1   229   256   284   310   279   350 0.81 -
ID=PSME_00042991     -            522 54858at3193          -            484   2.5e-05   24.9   0.6   3   3       1.8   4.1e+02    1.1   0.0    32    95   359   424   353   437 0.68 -
ID=PSME_00014824     -            450 54858at3193          -            484   2.5e-05   24.8   0.9   1   2     8e-05     0.018   15.4   0.2   139   265   196   321   189   331 0.75 -
ID=PSME_00014824     -            450 54858at3193          -            484   2.5e-05   24.8   0.9   2   2     0.016       3.7    7.8   0.1   231   269   327   366   322   394 0.72 -
ID=PSME_00030324     -            583 54858at3193          -            484   3.3e-05   24.4   4.5   1   5       3.9   8.8e+02   -0.0   0.0    27    68   112   153    96   167 0.77 -
ID=PSME_00030324     -            583 54858at3193          -            484   3.3e-05   24.4   4.5   2   5     0.032       7.3    6.8   0.1   225   258   179   212   125   230 0.84 -
ID=PSME_00030324     -            583 54858at3193          -            484   3.3e-05   24.4   4.5   3   5      0.21        48    4.1   0.0    34    68   408   443   385   460 0.63 -
ID=PSME_00030324     -            583 54858at3193          -            484   3.3e-05   24.4   4.5   4   5      0.41        93    3.2   0.0   224   288   462   526   441   527 0.79 -
ID=PSME_00030324     -            583 54858at3193          -            484   3.3e-05   24.4   4.5   5   5    0.0015      0.34   11.2   0.2   154   258   481   580   474   582 0.69 -
ID=PSME_00030094     -            492 54858at3193          -            484   3.4e-05   24.4   3.4   1   3      0.11        24    5.1   0.0   227   259    10    42     5    61 0.89 -
ID=PSME_00030094     -            492 54858at3193          -            484   3.4e-05   24.4   3.4   2   3     0.017       3.8    7.8   0.2   211   288   226   317   196   325 0.54 -
ID=PSME_00030094     -            492 54858at3193          -            484   3.4e-05   24.4   3.4   3   3    0.0025      0.56   10.5   0.1   197   260   339   403   324   425 0.80 -
ID=PSME_00027473     -            595 54858at3193          -            484   4.8e-05   23.9   0.0   1   2     1e-06   0.00023   21.7   0.0   197   258   342   404   319   464 0.78 -
ID=PSME_00027473     -            595 54858at3193          -            484   4.8e-05   23.9   0.0   2   2       8.9     2e+03   -1.2   0.0   155   214   519   582   514   588 0.77 -
ID=PSME_00017357     -            635 54858at3193          -            484   4.9e-05   23.9   0.1   1   1   3.5e-07   7.9e-05   23.2   0.1   186   259   552   626   546   632 0.89 -
ID=PSME_00042867     -            492 54858at3193          -            484   5.6e-05   23.7   0.7   1   2    0.0012      0.27   11.5   0.1   188   262   217   290   201   295 0.85 -
ID=PSME_00042867     -            492 54858at3193          -            484   5.6e-05   23.7   0.7   2   2    0.0019      0.44   10.9   0.1   134   293   295   458   287   482 0.71 -
ID=PSME_00020195     -            462 54858at3193          -            484     6e-05   23.6   0.1   1   2    0.0011      0.24   11.7   0.1   181   255    32   109    20   114 0.85 -
ID=PSME_00020195     -            462 54858at3193          -            484     6e-05   23.6   0.1   2   2    0.0041      0.93    9.8   0.0    28   307   157   250   117   295 0.49 -
ID=PSME_00011504     -            954 54858at3193          -            484   6.1e-05   23.6   5.8   1   4   0.00077      0.17   12.2   0.4   189   259    34   122     3   128 0.80 -
ID=PSME_00011504     -            954 54858at3193          -            484   6.1e-05   23.6   5.8   2   4      0.05        11    6.2   0.0    31   103   127   199   123   214 0.79 -
ID=PSME_00011504     -            954 54858at3193          -            484   6.1e-05   23.6   5.8   3   4      0.49   1.1e+02    2.9   0.0   200   256   277   335   249   356 0.81 -
ID=PSME_00011504     -            954 54858at3193          -            484   6.1e-05   23.6   5.8   4   4       1.3     3e+02    1.5   0.1   198   259   651   711   618   743 0.83 -
ID=PSME_00016263     -            287 54858at3193          -            484   6.5e-05   23.5   0.3   1   2   1.3e-06   0.00029   21.4   0.1   122   265    65   214    31   225 0.77 -
ID=PSME_00016263     -            287 54858at3193          -            484   6.5e-05   23.5   0.3   2   2       5.3   1.2e+03   -0.5   0.0   237   258   228   249   223   278 0.78 -
ID=PSME_00037908     -            515 54858at3193          -            484   7.1e-05   23.4   1.9   1   2    0.0057       1.3    9.3   0.0   227   259   117   149   108   162 0.90 -
ID=PSME_00037908     -            515 54858at3193          -            484   7.1e-05   23.4   1.9   2   2   0.00095      0.21   11.9   0.5   203   306   363   463   346   501 0.78 -
ID=PSME_00014231     -            371 54858at3193          -            484   7.7e-05   23.2   0.5   1   3    0.0014      0.31   11.3   0.1   201   267   178   246   172   255 0.76 -
ID=PSME_00014231     -            371 54858at3193          -            484   7.7e-05   23.2   0.5   2   3         1   2.3e+02    1.9   0.1   239   256   259   276   246   281 0.77 -
ID=PSME_00014231     -            371 54858at3193          -            484   7.7e-05   23.2   0.5   3   3     0.055        12    6.1   0.0   141   184   297   340   280   357 0.80 -
ID=PSME_00009008     -            569 54858at3193          -            484   9.1e-05   23.0   0.4   1   2   2.9e-05    0.0066   16.9   0.1   136   260    65   208    46   218 0.74 -
ID=PSME_00009008     -            569 54858at3193          -            484   9.1e-05   23.0   0.4   2   2      0.37        83    3.3   0.0   238   297   230   290   217   316 0.63 -
ID=PSME_00009187     -            674 54858at3193          -            484   9.7e-05   22.9   0.0   1   2    0.0087         2    8.7   0.0    27    72    50    95    43   109 0.85 -
ID=PSME_00009187     -            674 54858at3193          -            484   9.7e-05   22.9   0.0   2   2    0.0014      0.31   11.4   0.0    28   116   135   226   125   236 0.79 -
ID=PSME_00003503     -            366 54858at3193          -            484   0.00012   22.6   0.1   1   1   1.5e-05    0.0035   17.8   0.1    26   105   162   242   151   352 0.88 -
ID=PSME_00026689     -            201 54858at3193          -            484   0.00013   22.5   0.0   1   2   1.9e-05    0.0044   17.5   0.0   179   251    11    84     4   100 0.77 -
ID=PSME_00026689     -            201 54858at3193          -            484   0.00013   22.5   0.0   2   2       0.5   1.1e+02    2.9   0.0   155   214   125   188   116   196 0.81 -
ID=PSME_00026029     -            556 54858at3193          -            484   0.00014   22.4   0.0   1   2   0.00027     0.062   13.7   0.0   157   264    14   127    10   146 0.76 -
ID=PSME_00026029     -            556 54858at3193          -            484   0.00014   22.4   0.0   2   2     0.079        18    5.5   0.0   197   238   458   500   437   505 0.77 -
ID=PSME_00035897     -            319 54858at3193          -            484   0.00016   22.2   1.8   1   2   8.1e-05     0.018   15.4   0.1   189   286    91   186    81   200 0.81 -
ID=PSME_00035897     -            319 54858at3193          -            484   0.00016   22.2   1.8   2   2      0.11        26    5.0   0.1   203   258   240   305   196   316 0.52 -
ID=PSME_00023132     -            523 54858at3193          -            484   0.00016   22.2   0.0   1   1   1.6e-06   0.00037   21.0   0.0   197   258   344   406   321   467 0.71 -
ID=PSME_00016018     -            287 54858at3193          -            484   0.00016   22.2   0.0   1   1   3.8e-06   0.00086   19.8   0.0   152   288    75   208    61   229 0.73 -
ID=PSME_00019621     -            240 54858at3193          -            484   0.00018   22.1   0.1   1   2   8.1e-05     0.018   15.4   0.0    32   105    42   116    26   129 0.85 -
ID=PSME_00019621     -            240 54858at3193          -            484   0.00018   22.1   0.1   2   2      0.33        76    3.5   0.0   225   257   180   212   137   221 0.66 -
ID=PSME_00038146     -            422 54858at3193          -            484    0.0002   21.9   0.1   1   1   2.6e-05    0.0058   17.0   0.0    32   105   224   298   207   311 0.86 -
ID=PSME_00021651     -            462 54858at3193          -            484   0.00022   21.7   0.1   1   2   1.1e-05    0.0024   18.3   0.1   196   297   230   330   189   354 0.71 -
ID=PSME_00021651     -            462 54858at3193          -            484   0.00022   21.7   0.1   2   2       2.9   6.6e+02    0.4   0.0   188   218   412   442   361   450 0.79 -
ID=PSME_00018509     -            527 54858at3193          -            484   0.00026   21.5   0.2   1   3    0.0015      0.34   11.2   0.0   132   259    53   175    47   181 0.80 -
ID=PSME_00018509     -            527 54858at3193          -            484   0.00026   21.5   0.2   2   3   8.1e-05     0.018   15.4   0.1   131   258   136   269   131   295 0.84 -
ID=PSME_00018509     -            527 54858at3193          -            484   0.00026   21.5   0.2   3   3      0.13        29    4.8   0.0    54   112   216   267   211   336 0.58 -
ID=PSME_00035269     -            383 54858at3193          -            484   0.00027   21.4   0.4   1   2   5.8e-06    0.0013   19.2   0.2   121   282   160   327   152   335 0.64 -
ID=PSME_00035269     -            383 54858at3193          -            484   0.00027   21.4   0.4   2   2         2   4.4e+02    0.9   0.0   233   258   320   345   313   369 0.77 -
ID=PSME_00034555     -            547 54858at3193          -            484   0.00028   21.4   2.9   1   4         1   2.3e+02    1.9   0.1   178   220   167   209   150   231 0.70 -
ID=PSME_00034555     -            547 54858at3193          -            484   0.00028   21.4   2.9   2   4   0.00096      0.22   11.9   0.1   183   257   238   313   221   321 0.82 -
ID=PSME_00034555     -            547 54858at3193          -            484   0.00028   21.4   2.9   3   4      0.23        53    4.0   0.0   150   216   336   394   319   400 0.71 -
ID=PSME_00034555     -            547 54858at3193          -            484   0.00028   21.4   2.9   4   4       6.4   1.4e+03   -0.7   0.0   201   244   469   516   456   525 0.64 -
ID=PSME_00018909     -            841 54858at3193          -            484   0.00029   21.3   0.0   1   1     6e-06    0.0014   19.1   0.0   146   288   605   761   585   771 0.67 -
ID=PSME_00017811     -            456 54858at3193          -            484    0.0003   21.3   2.7   1   2     0.003      0.67   10.2   0.1   186   215   179   208   165   217 0.87 -
ID=PSME_00017811     -            456 54858at3193          -            484    0.0003   21.3   2.7   2   2    0.0043      0.98    9.7   0.2   122   285   245   414   224   422 0.68 -
ID=PSME_00005767     -            374 54858at3193          -            484    0.0003   21.3   0.0   1   2   1.2e-05    0.0027   18.1   0.0   189   257   178   247   135   271 0.89 -
ID=PSME_00005767     -            374 54858at3193          -            484    0.0003   21.3   0.0   2   2       1.9   4.2e+02    1.0   0.0   239   259   292   312   276   365 0.80 -
ID=PSME_00014505     -            274 54858at3193          -            484   0.00032   21.2   4.7   1   1   0.00024     0.055   13.8   4.7    35   259    15   231     8   245 0.59 -
ID=PSME_00010284     -            417 54858at3193          -            484   0.00032   21.2   0.1   1   1   7.9e-06    0.0018   18.7   0.1   121   282   208   375   146   393 0.72 -
ID=PSME_00052167     -            338 54858at3193          -            484   0.00035   21.1   0.1   1   2   6.6e-05     0.015   15.7   0.0    33   104   141   213   128   224 0.87 -
ID=PSME_00052167     -            338 54858at3193          -            484   0.00035   21.1   0.1   2   2      0.54   1.2e+02    2.8   0.0    35   257   279   310   234   329 0.66 -
ID=PSME_00019614     -            461 54858at3193          -            484   0.00036   21.1   0.0   1   4    0.0052       1.2    9.4   0.0    28    69   149   188   143   207 0.85 -
ID=PSME_00019614     -            461 54858at3193          -            484   0.00036   21.1   0.0   2   4      0.25        57    3.9   0.0   209   262   216   271   204   278 0.85 -
ID=PSME_00019614     -            461 54858at3193          -            484   0.00036   21.1   0.0   3   4         5   1.1e+03   -0.4   0.1   242   268   306   332   297   342 0.74 -
ID=PSME_00019614     -            461 54858at3193          -            484   0.00036   21.1   0.0   4   4       0.9     2e+02    2.1   0.0    47   171   372   394   360   429 0.61 -
ID=PSME_00024443     -            461 54858at3193          -            484   0.00036   21.0   2.2   1   3      0.32        72    3.5   0.0    32    67   246   283   230   289 0.79 -
ID=PSME_00024443     -            461 54858at3193          -            484   0.00036   21.0   2.2   2   3    0.0056       1.3    9.3   0.2   202   261   268   329   263   370 0.68 -
ID=PSME_00024443     -            461 54858at3193          -            484   0.00036   21.0   2.2   3   3   0.00014     0.032   14.6   0.7   135   266   292   432   288   440 0.80 -
ID=PSME_00004801     -            554 54858at3193          -            484   0.00043   20.8   0.2   1   2    0.0017      0.38   11.1   0.0    32   106   192   267   177   281 0.86 -
ID=PSME_00004801     -            554 54858at3193          -            484   0.00043   20.8   0.2   2   2     0.018       4.1    7.6   0.1    34   219   420   506   341   553 0.60 -
ID=PSME_00026341     -            229 54858at3193          -            484   0.00044   20.7   0.6   1   2   0.00011     0.024   15.0   0.1   121   280    10   171     2   172 0.66 -
ID=PSME_00026341     -            229 54858at3193          -            484   0.00044   20.7   0.6   2   2     0.089        20    5.4   0.0   236   274   169   207   161   222 0.77 -
ID=PSME_00020281     -            406 54858at3193          -            484   0.00045   20.7   0.2   1   2   9.4e-06    0.0021   18.5   0.2   131   282   206   361   187   371 0.66 -
ID=PSME_00020281     -            406 54858at3193          -            484   0.00045   20.7   0.2   2   2       1.8   4.1e+02    1.1   0.0    30    68   342   380   335   388 0.70 -
ID=PSME_00022364     -            432 54858at3193          -            484   0.00046   20.7   0.0   1   2       1.7   3.8e+02    1.2   0.0   208   296    13   103     3   169 0.66 -
ID=PSME_00022364     -            432 54858at3193          -            484   0.00046   20.7   0.0   2   2   2.7e-05    0.0061   17.0   0.0   197   255   369   428   345   430 0.84 -
ID=PSME_00051515     -            162 54858at3193          -            484   0.00049   20.6   0.1   1   2    0.0073       1.7    8.9   0.0   247   310    23    86     6    93 0.81 -
ID=PSME_00051515     -            162 54858at3193          -            484   0.00049   20.6   0.1   2   2    0.0044         1    9.7   0.1   136   171   115   150   110   156 0.91 -
ID=PSME_00025081     -            394 54858at3193          -            484   0.00055   20.4   2.3   1   3      0.11        24    5.1   0.0   225   257   155   188   123   194 0.66 -
ID=PSME_00025081     -            394 54858at3193          -            484   0.00055   20.4   2.3   2   3      0.32        74    3.5   0.0    26    64   202   240   189   250 0.83 -
ID=PSME_00025081     -            394 54858at3193          -            484   0.00055   20.4   2.3   3   3    0.0042      0.94    9.8   0.1   199   259   267   328   250   346 0.69 -
ID=PSME_00019723     -            286 54858at3193          -            484   0.00065   20.2   0.6   1   1   8.1e-06    0.0018   18.7   0.5   190   288    25   124     4   129 0.85 -
ID=PSME_00029486     -            423 54858at3193          -            484   0.00069   20.1   0.1   1   2   6.8e-05     0.015   15.7   0.0    33   104   226   298   209   305 0.86 -
ID=PSME_00029486     -            423 54858at3193          -            484   0.00069   20.1   0.1   2   2      0.92   2.1e+02    2.0   0.0    35   257   364   395   323   415 0.68 -
ID=PSME_00014349     -            701 54858at3193          -            484    0.0008   19.9   0.1   1   2   0.00025     0.056   13.8   0.1   184   255   103   177    88   181 0.74 -
ID=PSME_00014349     -            701 54858at3193          -            484    0.0008   19.9   0.1   2   2      0.44        99    3.1   0.0    28   115   225   315   214   323 0.79 -
ID=PSME_00010779     -            383 54858at3193          -            484   0.00083   19.8   0.1   1   1   1.4e-05    0.0032   17.9   0.1   157   261    14   124    10   135 0.79 -
ID=PSME_00007905     -            652 54858at3193          -            484   0.00087   19.8   0.5   1   2   2.8e-05    0.0064   16.9   0.1   173   275   358   468   326   493 0.76 -
ID=PSME_00007905     -            652 54858at3193          -            484   0.00087   19.8   0.5   2   2         3   6.9e+02    0.3   0.1   181   289   504   618   469   634 0.51 -
ID=PSME_00013937     -            325 54858at3193          -            484   0.00088   19.8   3.8   1   2    0.0023      0.53   10.6   0.8    94   258    46   203     5   230 0.59 -
ID=PSME_00013937     -            325 54858at3193          -            484   0.00088   19.8   3.8   2   2    0.0031      0.71   10.2   1.6    34   169   169   299   161   308 0.38 -
ID=PSME_00055135     -            377 54858at3193          -            484   0.00089   19.7   0.0   1   3    0.0029      0.66   10.3   0.0   137   261    13    47     5    62 0.56 -
ID=PSME_00055135     -            377 54858at3193          -            484   0.00089   19.7   0.0   2   3      0.18        42    4.3   0.0   231   274   166   213   128   227 0.85 -
ID=PSME_00055135     -            377 54858at3193          -            484   0.00089   19.7   0.0   3   3       1.8     4e+02    1.1   0.0   259   329   228   296   218   307 0.76 -
ID=PSME_00018931     -            489 54858at3193          -            484     0.001   19.5   0.2   1   3      0.96   2.2e+02    2.0   0.0   221   286    45   109    21   121 0.79 -
ID=PSME_00018931     -            489 54858at3193          -            484     0.001   19.5   0.2   2   3      0.21        48    4.1   0.0   190   224   144   178   113   187 0.67 -
ID=PSME_00018931     -            489 54858at3193          -            484     0.001   19.5   0.2   3   3     0.006       1.4    9.2   0.0   188   290   373   477   354   484 0.80 -
ID=PSME_00031681     -            440 54858at3193          -            484    0.0011   19.5   0.3   1   1   1.2e-05    0.0026   18.2   0.3   119   282   226   395   167   410 0.74 -
ID=PSME_00042814     -            572 54858at3193          -            484    0.0011   19.4   0.7   1   1   0.00028     0.064   13.6   0.7   187   260   392   469   265   509 0.77 -
ID=PSME_00020225     -            253 54858at3193          -            484    0.0013   19.2   0.0   1   2       2.1   4.8e+02    0.8   0.0   210   257   114   161   103   181 0.74 -
ID=PSME_00020225     -            253 54858at3193          -            484    0.0013   19.2   0.0   2   2   3.7e-05    0.0085   16.5   0.0   221   270   177   228   159   237 0.81 -
ID=PSME_00039137     -            147 54858at3193          -            484    0.0013   19.2   0.0   1   1   7.3e-06    0.0016   18.9   0.0   246   339    22   115     6   122 0.83 -
ID=PSME_00021254     -            444 54858at3193          -            484    0.0015   19.0   0.0   1   1   1.2e-05    0.0027   18.1   0.0   145   260   254   367   235   418 0.79 -
ID=PSME_00046143     -            334 54858at3193          -            484    0.0016   18.9   0.0   1   2       6.5   1.5e+03   -0.8   0.0    24    55   116   146   112   160 0.73 -
ID=PSME_00046143     -            334 54858at3193          -            484    0.0016   18.9   0.0   2   2   3.9e-05    0.0089   16.4   0.0    23   172   157   311   149   327 0.72 -
ID=PSME_00040435     -            391 54858at3193          -            484    0.0019   18.6   2.7   1   2    0.0023      0.53   10.6   0.6   160   290   122   260    61   260 0.70 -
ID=PSME_00040435     -            391 54858at3193          -            484    0.0019   18.6   2.7   2   2   0.00096      0.22   11.9   0.2   135   219   237   314   232   334 0.75 -
ID=PSME_00009165     -            630 54858at3193          -            484    0.0019   18.6   0.0   1   3      0.57   1.3e+02    2.7   0.0   200   297    66   123    33   180 0.63 -
ID=PSME_00009165     -            630 54858at3193          -            484    0.0019   18.6   0.0   2   3     0.011       2.5    8.3   0.0   196   250   446   501   402   511 0.82 -
ID=PSME_00009165     -            630 54858at3193          -            484    0.0019   18.6   0.0   3   3      0.31        70    3.6   0.0   150   216   521   592   514   617 0.76 -
ID=PSME_00010476     -            192 54858at3193          -            484    0.0022   18.5   1.2   1   1   0.00048      0.11   12.9   1.3   135   257    19   148     4   155 0.68 -
ID=PSME_00010285     -            373 54858at3193          -            484    0.0023   18.4   0.1   1   1   4.2e-05    0.0094   16.4   0.1   123   265   148   296   138   324 0.52 -
ID=PSME_00045770     -            397 54858at3193          -            484    0.0023   18.4   0.2   1   2   6.1e-05     0.014   15.8   0.1   131   265   192   330   166   353 0.65 -
ID=PSME_00045770     -            397 54858at3193          -            484    0.0023   18.4   0.2   2   2         1   2.3e+02    1.9   0.0   226   258   326   359   316   387 0.74 -
ID=PSME_00017147     -            173 54858at3193          -            484    0.0025   18.3   0.1   1   1   1.4e-05    0.0031   18.0   0.1   157   263    34   146    25   157 0.77 -
ID=PSME_00006857     -            215 54858at3193          -            484    0.0026   18.2   0.1   1   2   0.00025     0.056   13.8   0.0   134   177    26    69    16    71 0.90 -
ID=PSME_00006857     -            215 54858at3193          -            484    0.0026   18.2   0.1   2   2       2.1   4.7e+02    0.9   0.0   179   213   105   139    83   145 0.66 -
ID=PSME_00021197     -            611 54858at3193          -            484    0.0027   18.1   1.3   1   2   0.00026     0.059   13.7   0.1   163   263    73   176    19   188 0.71 -
ID=PSME_00021197     -            611 54858at3193          -            484    0.0027   18.1   1.3   2   2   0.00092      0.21   11.9   0.1   133   248   134   247   127   303 0.67 -
ID=PSME_00023103     -            198 54858at3193          -            484    0.0028   18.1   0.3   1   1   1.7e-05    0.0038   17.7   0.3   136   293     3   164     1   182 0.76 -
ID=PSME_00017810     -            412 54858at3193          -            484    0.0029   18.1   0.1   1   2   8.5e-05     0.019   15.3   0.0    33   104   221   293   204   301 0.85 -
ID=PSME_00017810     -            412 54858at3193          -            484    0.0029   18.1   0.1   2   2       4.2   9.5e+02   -0.1   0.0   226   256   352   383   316   399 0.81 -
ID=PSME_00022351     -            455 54858at3193          -            484    0.0029   18.0   0.1   1   1   2.7e-05     0.006   17.0   0.1   196   258   367   430   325   443 0.84 -
ID=PSME_00031935     -            526 54858at3193          -            484    0.0029   18.0   0.3   1   3      0.12        26    5.0   0.0   150   260     6   125     2   145 0.75 -
ID=PSME_00031935     -            526 54858at3193          -            484    0.0029   18.0   0.3   2   3    0.0089         2    8.7   0.1   202   269   404   473   396   492 0.73 -
ID=PSME_00031935     -            526 54858at3193          -            484    0.0029   18.0   0.3   3   3       1.9   4.4e+02    1.0   0.1   240   256   485   501   472   510 0.83 -
ID=PSME_00020863     -            540 54858at3193          -            484     0.003   18.0   0.0   1   2      0.83   1.9e+02    2.2   0.0   202   256   300   357   292   376 0.71 -
ID=PSME_00020863     -            540 54858at3193          -            484     0.003   18.0   0.0   2   2   0.00039     0.089   13.1   0.0   142   260   379   484   362   503 0.85 -
ID=PSME_00014539     -            314 54858at3193          -            484    0.0032   17.9   0.0   1   2   0.00039     0.088   13.2   0.0   157   263    80   192    71   213 0.77 -
ID=PSME_00014539     -            314 54858at3193          -            484    0.0032   17.9   0.0   2   2       0.6   1.4e+02    2.6   0.0   155   215   238   302   231   309 0.82 -
ID=PSME_00014595     -            316 54858at3193          -            484    0.0037   17.7   0.6   1   2      0.11        25    5.1   0.5   193   260   164   239    92   242 0.72 -
ID=PSME_00014595     -            316 54858at3193          -            484    0.0037   17.7   0.6   2   2    0.0017      0.39   11.0   0.0   131   169   245   283   239   291 0.91 -
ID=PSME_00035610     -            392 54858at3193          -            484    0.0038   17.7   0.1   1   2    0.0013       0.3   11.4   0.1   223   266   281   325   275   332 0.79 -
ID=PSME_00035610     -            392 54858at3193          -            484    0.0038   17.7   0.1   2   2       0.1        23    5.2   0.0    32    87   323   378   319   385 0.89 -
ID=PSME_00039843     -            340 54858at3193          -            484     0.004   17.6   0.0   1   2    0.0012      0.26   11.6   0.0   201   269   149   219   142   242 0.75 -
ID=PSME_00039843     -            340 54858at3193          -            484     0.004   17.6   0.0   2   2      0.29        66    3.7   0.0   143   174   250   281   237   307 0.76 -
ID=PSME_00005552     -           1172 54858at3193          -            484    0.0044   17.5   0.3   1   2     0.058        13    6.0   0.0   201   254   126   181   111   197 0.82 -
ID=PSME_00005552     -           1172 54858at3193          -            484    0.0044   17.5   0.3   2   2    0.0063       1.4    9.2   0.0   190   276   251   335   216   372 0.78 -
ID=PSME_00045677     -            424 54858at3193          -            484    0.0044   17.4   0.0   1   2   0.00052      0.12   12.7   0.0    33   104   225   297   207   309 0.86 -
ID=PSME_00045677     -            424 54858at3193          -            484    0.0044   17.4   0.0   2   2       0.9     2e+02    2.1   0.0    33    67   364   398   348   416 0.66 -
ID=PSME_00005553     -            575 54858at3193          -            484    0.0046   17.4   0.0   1   2   0.00051      0.12   12.8   0.0   231   339   111   221    84   233 0.79 -
ID=PSME_00005553     -            575 54858at3193          -            484    0.0046   17.4   0.0   2   2       1.2   2.8e+02    1.6   0.0   154   171   455   472   451   495 0.78 -
ID=PSME_00013794     -            129 54858at3193          -            484    0.0048   17.3   0.1   1   1   2.6e-05    0.0058   17.0   0.1   157   262    14   125     9   128 0.76 -
ID=PSME_00014933     -            423 54858at3193          -            484    0.0049   17.3   0.3   1   2       1.1   2.4e+02    1.8   0.2   199   260   144   209   107   212 0.72 -
ID=PSME_00014933     -            423 54858at3193          -            484    0.0049   17.3   0.3   2   2   0.00047      0.11   12.9   0.0   131   169   215   253   209   264 0.91 -
ID=PSME_00017809     -            360 54858at3193          -            484     0.005   17.3   0.1   1   2   0.00076      0.17   12.2   0.0    32   104   162   235   145   242 0.85 -
ID=PSME_00017809     -            360 54858at3193          -            484     0.005   17.3   0.1   2   2      0.75   1.7e+02    2.3   0.0   226   257   301   332   240   337 0.64 -
ID=PSME_00010140     -           1404 54858at3193          -            484    0.0052   17.2   0.6   1   2   0.00068      0.15   12.4   0.6   152   269  1145  1271  1132  1283 0.73 -
ID=PSME_00010140     -           1404 54858at3193          -            484    0.0052   17.2   0.6   2   2   0.00073      0.17   12.3   0.0   154   258  1244  1350  1225  1388 0.82 -
ID=PSME_00026862     -            353 54858at3193          -            484    0.0053   17.2   1.4   1   2      0.14        33    4.7   0.3   133   257   208   243    72   246 0.68 -
ID=PSME_00026862     -            353 54858at3193          -            484    0.0053   17.2   1.4   2   2   0.00012     0.027   14.8   0.6   130   218   205   289   186   295 0.81 -
ID=PSME_00028453     -            207 54858at3193          -            484    0.0055   17.1   1.6   1   2   0.00096      0.22   11.9   0.6   190   288    23   135    14   137 0.74 -
ID=PSME_00028453     -            207 54858at3193          -            484    0.0055   17.1   1.6   2   2     0.031       6.9    6.9   0.0   135   170   114   148   107   162 0.74 -
ID=PSME_00034105     -            325 54858at3193          -            484    0.0055   17.1   1.2   1   3   0.00058      0.13   12.6   0.1   202   257     3    59     1    67 0.91 -
ID=PSME_00034105     -            325 54858at3193          -            484    0.0055   17.1   1.2   2   3       6.9   1.6e+03   -0.9   0.0   229   257   208   235   204   274 0.67 -
ID=PSME_00034105     -            325 54858at3193          -            484    0.0055   17.1   1.2   3   3       4.1   9.3e+02   -0.1   0.0   143   169   251   276   244   319 0.64 -
ID=PSME_00026092     -            237 54858at3193          -            484    0.0065   16.9   0.0   1   1   4.1e-05    0.0094   16.4   0.0   197   255   174   233   148   235 0.84 -
ID=PSME_00038164     -            337 54858at3193          -            484    0.0073   16.7   0.1   1   2   0.00021     0.047   14.1   0.0   136   247     6   115     1   120 0.73 -
ID=PSME_00038164     -            337 54858at3193          -            484    0.0073   16.7   0.1   2   2     0.034       7.6    6.8   0.0   239   302    65   129    51   165 0.76 -
ID=PSME_00016262     -            343 54858at3193          -            484    0.0074   16.7   0.1   1   1   4.7e-05     0.011   16.2   0.1   131   265   165   303   133   318 0.75 -
ID=PSME_00000474     -            316 54858at3193          -            484    0.0075   16.7   0.3   1   3      0.91   2.1e+02    2.0   0.0   229   257    21    49     8    56 0.83 -
ID=PSME_00000474     -            316 54858at3193          -            484    0.0075   16.7   0.3   2   3      0.94   2.1e+02    2.0   0.0    51    69    74    92    59    98 0.83 -
ID=PSME_00000474     -            316 54858at3193          -            484    0.0075   16.7   0.3   3   3       2.3   5.1e+02    0.7   0.0   204   244   234   275   218   284 0.56 -
ID=PSME_00055600     -            493 54858at3193          -            484    0.0086   16.5   0.8   1   2    0.0011      0.24   11.7   0.1   227   290   203   269   182   288 0.78 -
ID=PSME_00055600     -            493 54858at3193          -            484    0.0086   16.5   0.8   2   2       1.7   3.8e+02    1.2   0.0   273   318   321   365   306   377 0.69 -
ID=PSME_00002967     -            541 54858at3193          -            484    0.0088   16.5   0.0   1   2    0.0055       1.2    9.4   0.0   194   266   198   272   186   283 0.76 -
ID=PSME_00002967     -            541 54858at3193          -            484    0.0088   16.5   0.0   2   2      0.15        35    4.6   0.0   189   290   319   420   297   425 0.80 -
ID=PSME_00012829     -            326 54858at3193          -            484    0.0092   16.4   0.0   1   2   0.00014     0.033   14.6   0.0   197   257   154   218   130   232 0.81 -
ID=PSME_00012829     -            326 54858at3193          -            484    0.0092   16.4   0.0   2   2       8.6     2e+03   -1.2   0.0   156   214   251   313   244   319 0.75 -
ID=PSME_00026651     -            352 54858at3193          -            484      0.01   16.2   0.1   1   1   6.5e-05     0.015   15.7   0.1   116   263   190   343   170   350 0.67 -
ID=PSME_00026539     -            413 54858at3193          -            484     0.011   16.1   0.2   1   2    0.0015      0.33   11.3   0.0   201   263   245   309   238   323 0.76 -
ID=PSME_00026539     -            413 54858at3193          -            484     0.011   16.1   0.2   2   2       1.1   2.4e+02    1.8   0.1   239   256   326   343   313   350 0.77 -
ID=PSME_00033080     -            186 54858at3193          -            484     0.011   16.1   0.0   1   1   5.9e-05     0.013   15.9   0.0   196   251   113   169    76   181 0.81 -
ID=PSME_00016072     -            399 54858at3193          -            484     0.012   16.0   0.0   1   1   8.5e-05     0.019   15.3   0.0   141   217   292   381   282   393 0.78 -
ID=PSME_00031002     -            269 54858at3193          -            484     0.013   15.9   0.3   1   2      0.76   1.7e+02    2.3   0.0   223   271    99   148    91   159 0.80 -
ID=PSME_00031002     -            269 54858at3193          -            484     0.013   15.9   0.3   2   2    0.0017      0.39   11.0   0.2   202   261   164   225   158   268 0.61 -
ID=PSME_00049658     -            312 54858at3193          -            484     0.013   15.9   0.0   1   2     0.086        19    5.4   0.0   235   287   169   224   161   234 0.65 -
ID=PSME_00049658     -            312 54858at3193          -            484     0.013   15.9   0.0   2   2     0.022       4.9    7.4   0.0   233   261   269   297   264   306 0.86 -
ID=PSME_00035181     -            380 54858at3193          -            484     0.013   15.9   0.0   1   1   0.00013     0.029   14.8   0.0    33   104   232   304   216   314 0.88 -
ID=PSME_00019916     -            517 54858at3193          -            484     0.014   15.8   0.3   1   2     0.029       6.5    7.0   0.1   157   296    71   219    65   273 0.70 -
ID=PSME_00019916     -            517 54858at3193          -            484     0.014   15.8   0.3   2   2     0.032       7.2    6.9   0.0   229   264   415   450   406   509 0.63 -
ID=PSME_00054559     -            361 54858at3193          -            484     0.015   15.7   0.0   1   1   0.00011     0.025   15.0   0.0   207   260    86   140    49   152 0.76 -
ID=PSME_00014010     -            501 54858at3193          -            484     0.016   15.6   0.0   1   2      0.17        38    4.5   0.0   204   297    76   172    37   226 0.75 -
ID=PSME_00014010     -            501 54858at3193          -            484     0.016   15.6   0.0   2   2    0.0079       1.8    8.8   0.0   197   250   437   491   416   495 0.82 -
ID=PSME_00050500     -            314 54858at3193          -            484     0.016   15.6   1.0   1   3     0.053        12    6.1   0.0   202   258    24    81     8    84 0.87 -
ID=PSME_00050500     -            314 54858at3193          -            484     0.016   15.6   1.0   2   3      0.45     1e+02    3.0   0.1   227   257    92   122    89   124 0.85 -
ID=PSME_00050500     -            314 54858at3193          -            484     0.016   15.6   1.0   3   3      0.34        77    3.5   0.0   136   172   133   168   127   172 0.57 -
ID=PSME_00037503     -            507 54858at3193          -            484     0.016   15.6   0.2   1   2    0.0005      0.11   12.8   0.0    26   105   303   383   291   389 0.84 -
ID=PSME_00037503     -            507 54858at3193          -            484     0.016   15.6   0.2   2   2       8.5   1.9e+03   -1.2   0.0    33    62   446   475   437   476 0.84 -
ID=PSME_00044281     -            184 54858at3193          -            484     0.016   15.6   0.5   1   1   9.4e-05     0.021   15.2   0.5   149   257    31   134     5   179 0.76 -
ID=PSME_00037330     -            519 54858at3193          -            484      0.02   15.3   0.7   1   1   0.00026     0.058   13.8   0.7   134   266   345   486   340   495 0.75 -
ID=PSME_00024217     -            162 54858at3193          -            484     0.021   15.2   0.3   1   2      0.02       4.5    7.5   0.0   189   265     5    86     3    98 0.62 -
ID=PSME_00024217     -            162 54858at3193          -            484     0.021   15.2   0.3   2   2     0.058        13    6.0   0.1   136   170   115   149   110   156 0.90 -
ID=PSME_00018157     -            335 54858at3193          -            484     0.024   15.0   0.1   1   1   0.00022     0.049   14.0   0.1   117   221   159   267   153   317 0.48 -
ID=PSME_00003499     -            373 54858at3193          -            484     0.026   14.9   0.0   1   1   0.00021     0.048   14.0   0.0    31   106   165   241   147   258 0.85 -
ID=PSME_00006448     -            237 54858at3193          -            484     0.026   14.9   0.0   1   1   0.00015     0.033   14.5   0.0    33   107    43   118    21   142 0.72 -
ID=PSME_00042937     -            387 54858at3193          -            484     0.026   14.9   0.3   1   2      0.12        26    5.0   0.1    27   260   208   250   174   269 0.62 -
ID=PSME_00042937     -            387 54858at3193          -            484     0.026   14.9   0.3   2   2     0.016       3.6    7.8   0.0   198   287   271   360   253   371 0.71 -
ID=PSME_00046185     -            216 54858at3193          -            484     0.027   14.9   0.2   1   2    0.0041      0.94    9.8   0.0   202   259    94   154    87   169 0.68 -
ID=PSME_00046185     -            216 54858at3193          -            484     0.027   14.9   0.2   2   2       0.6   1.4e+02    2.6   0.1   240   256   175   191   162   203 0.83 -
ID=PSME_00043360     -            260 54858at3193          -            484     0.028   14.8   0.0   1   2    0.0088         2    8.7   0.0   229   307    72   157    47   163 0.65 -
ID=PSME_00043360     -            260 54858at3193          -            484     0.028   14.8   0.0   2   2      0.21        48    4.1   0.0   155   215   184   248   177   255 0.82 -
ID=PSME_00009375     -            413 54858at3193          -            484      0.03   14.7   0.9   1   2   0.00097      0.22   11.8   0.3   163   258    36   134     2   146 0.78 -
ID=PSME_00009375     -            413 54858at3193          -            484      0.03   14.7   0.9   2   2         2   4.4e+02    0.9   0.0   107   214   163   274   142   281 0.64 -
ID=PSME_00024680     -            503 54858at3193          -            484     0.031   14.7   0.0   1   2       1.5   3.4e+02    1.3   0.0   208   287    40   122    14   171 0.62 -
ID=PSME_00024680     -            503 54858at3193          -            484     0.031   14.7   0.0   2   2    0.0026       0.6   10.4   0.0   197   251   348   403   325   412 0.82 -
ID=PSME_00053207     -            162 54858at3193          -            484     0.032   14.6   0.0   1   2     0.017       3.9    7.7   0.0   245   310    21    86     5    93 0.77 -
ID=PSME_00053207     -            162 54858at3193          -            484     0.032   14.6   0.0   2   2      0.11        26    5.0   0.1   135   169   114   148   108   156 0.89 -
ID=PSME_00004799     -            342 54858at3193          -            484     0.033   14.6   0.1   1   2   0.00052      0.12   12.7   0.0    32   105   175   249   157   261 0.84 -
ID=PSME_00004799     -            342 54858at3193          -            484     0.033   14.6   0.1   2   2      0.26        59    3.8   0.0   189   264   233   310   201   319 0.60 -
ID=PSME_00033522     -            393 54858at3193          -            484     0.033   14.6   0.3   1   1    0.0003     0.069   13.5   0.3   179   271    85   179    74   203 0.79 -
ID=PSME_00002331     -            400 54858at3193          -            484     0.034   14.5   0.2   1   1    0.0003     0.068   13.5   0.2   121   262   228   375   218   386 0.54 -
ID=PSME_00048725     -            121 54858at3193          -            484     0.034   14.5   0.0   1   1   0.00019     0.043   14.2   0.0   135   169    11    45     4    67 0.85 -
ID=PSME_00024148     -            132 54858at3193          -            484     0.035   14.5   0.1   1   1     0.015       3.4    7.9   0.0   234   257    52    75    45    91 0.84 -
ID=PSME_00046579     -            211 54858at3193          -            484     0.035   14.5   0.0   1   1   0.00021     0.048   14.0   0.0   197   255   148   207   123   209 0.83 -
ID=PSME_00024236     -            563 54858at3193          -            484     0.036   14.4   0.1   1   2     0.027       6.1    7.1   0.1   136   171   287   320   279   342 0.83 -
ID=PSME_00024236     -            563 54858at3193          -            484     0.036   14.4   0.1   2   2       0.1        24    5.2   0.0   135   171   423   459   416   532 0.79 -
ID=PSME_00005266     -            144 54858at3193          -            484      0.04   14.3   0.0   1   1   0.00021     0.049   14.0   0.0   134   169    33    68    12    90 0.82 -
ID=PSME_00044301     -            442 54858at3193          -            484     0.041   14.2   0.0   1   1    0.0017      0.39   11.0   0.1    31   167    49   176    36   182 0.59 -
ID=PSME_00047971     -            399 54858at3193          -            484     0.042   14.2   0.1   1   2       2.5   5.7e+02    0.6   0.0   154   207   114   163   104   167 0.73 -
ID=PSME_00047971     -            399 54858at3193          -            484     0.042   14.2   0.1   2   2    0.0027       0.6   10.4   0.0    33   105   251   324   236   336 0.81 -
ID=PSME_00036554     -            152 54858at3193          -            484     0.042   14.2   0.5   1   2     0.016       3.7    7.8   0.2   194   279     6    96     2   104 0.68 -
ID=PSME_00036554     -            152 54858at3193          -            484     0.042   14.2   0.5   2   2     0.065        15    5.8   0.0   231   265    90   126    85   133 0.78 -
ID=PSME_00005270     -            119 54858at3193          -            484     0.042   14.2   0.0   1   1   0.00024     0.053   13.9   0.0   135   169     9    43     2    65 0.81 -
ID=PSME_00031540     -            397 54858at3193          -            484     0.045   14.1   0.0   1   1   0.00057      0.13   12.6   0.0    33   104   203   275   186   289 0.86 -
ID=PSME_00029351     -            515 54858at3193          -            484     0.045   14.1   0.0   1   1    0.0006      0.14   12.5   0.0   197   257   392   452   368   504 0.87 -
ID=PSME_00024129     -            162 54858at3193          -            484     0.048   14.0   0.1   1   2    0.0098       2.2    8.5   0.0   242   309    18    85     4    95 0.65 -
ID=PSME_00024129     -            162 54858at3193          -            484     0.048   14.0   0.1   2   2      0.31        71    3.6   0.1   136   171   115   150   109   158 0.85 -
ID=PSME_00021786     -            489 54858at3193          -            484     0.049   14.0   0.0   1   1   0.00089       0.2   12.0   0.0   196   250   424   479   398   483 0.82 -
ID=PSME_00015159     -           1006 54858at3193          -            484     0.061   13.7   0.0   1   3      0.52   1.2e+02    2.8   0.0   143   214   342   413   306   457 0.84 -
ID=PSME_00015159     -           1006 54858at3193          -            484     0.061   13.7   0.0   2   3       2.6   5.9e+02    0.5   0.0    32    65   713   744   698   761 0.83 -
ID=PSME_00015159     -           1006 54858at3193          -            484     0.061   13.7   0.0   3   3      0.19        42    4.3   0.0   142   202   766   826   751   857 0.80 -
ID=PSME_00012692     -            418 54858at3193          -            484     0.062   13.7   1.0   1   2   0.00094      0.21   11.9   0.3   188   261    87   162    79   188 0.75 -
ID=PSME_00012692     -            418 54858at3193          -            484     0.062   13.7   1.0   2   2       7.4   1.7e+03   -1.0   0.0   227   259   197   229   169   241 0.81 -
ID=PSME_00043427     -            246 54858at3193          -            484     0.073   13.4   0.2   1   1    0.0021      0.47   10.8   0.2   153   255   132   229   128   238 0.55 -
ID=PSME_00022297     -            298 54858at3193          -            484     0.074   13.4   0.0   1   2     0.022       4.9    7.4   0.0   229   259   118   148    95   208 0.66 -
ID=PSME_00022297     -            298 54858at3193          -            484     0.074   13.4   0.0   2   2      0.23        53    4.0   0.0   155   212   230   291   225   295 0.85 -
ID=PSME_00023919     -            340 54858at3193          -            484     0.074   13.4   0.1   1   1   0.00052      0.12   12.7   0.1   189   266   242   321   165   335 0.73 -
ID=PSME_00032329     -            349 54858at3193          -            484     0.083   13.2   0.2   1   1    0.0017      0.38   11.1   0.1   156   269   207   319   200   332 0.71 -
ID=PSME_00009596     -            675 54858at3193          -            484     0.084   13.2   0.1   1   1    0.0012      0.27   11.6   0.1    32   257    50   177    34   205 0.54 -
ID=PSME_00031092     -            245 54858at3193          -            484     0.086   13.2   0.1   1   3       4.1   9.3e+02   -0.1   0.0   207   259    17    67     6    77 0.82 -
ID=PSME_00031092     -            245 54858at3193          -            484     0.086   13.2   0.1   2   3     0.065        15    5.8   0.0   182   220    74   110    52   151 0.81 -
ID=PSME_00031092     -            245 54858at3193          -            484     0.086   13.2   0.1   3   3      0.18        41    4.3   0.0    30    64   156   190   139   191 0.81 -
ID=PSME_00001924     -            318 54858at3193          -            484     0.089   13.1   0.1   1   2    0.0025      0.57   10.5   0.1   153   281   137   272   124   280 0.70 -
ID=PSME_00001924     -            318 54858at3193          -            484     0.089   13.1   0.1   2   2       3.2   7.2e+02    0.3   0.0    33    69   257   293   251   305 0.66 -
ID=PSME_00007253     -            816 54858at3193          -            484     0.097   13.0   3.5   1   3       1.1   2.4e+02    1.8   0.6   189   222    16    52     3   108 0.58 -
ID=PSME_00007253     -            816 54858at3193          -            484     0.097   13.0   3.5   2   3     0.012       2.6    8.3   0.1   202   264   165   230   154   315 0.59 -
ID=PSME_00007253     -            816 54858at3193          -            484     0.097   13.0   3.5   3   3       2.3   5.2e+02    0.7   0.0    77   123   631   678   618   715 0.79 -
ID=PSME_00030768     -            465 54858at3193          -            484     0.099   13.0   0.0   1   2       6.4   1.4e+03   -0.7   0.0   149   259    29    50    11    58 0.53 -
ID=PSME_00030768     -            465 54858at3193          -            484     0.099   13.0   0.0   2   2    0.0022      0.49   10.7   0.0   197   261   308   373   288   407 0.78 -
ID=PSME_00038106     -            211 54858at3193          -            484      0.11   12.8   0.1   1   2     0.084        19    5.4   0.0   245   306    70   131    28   141 0.76 -
ID=PSME_00038106     -            211 54858at3193          -            484      0.11   12.8   0.1   2   2     0.087        20    5.4   0.1   136   171   164   199   159   205 0.90 -
ID=PSME_00016538     -            135 54858at3193          -            484      0.13   12.6   0.2   1   2    0.0067       1.5    9.1   0.1   187   249    60   122    35   124 0.70 -
ID=PSME_00016538     -            135 54858at3193          -            484      0.13   12.6   0.2   2   2     0.096        22    5.3   0.0    29    67    93   131    90   134 0.90 -
ID=PSME_00008399     -            317 54858at3193          -            484      0.14   12.5   0.1   1   1   0.00083      0.19   12.1   0.1   172   260    67   153    43   215 0.78 -
ID=PSME_00008688     -           1666 54858at3193          -            484      0.14   12.5   0.5   1   1    0.0026      0.58   10.5   0.2    33    67  1418  1452  1403  1465 0.85 -
ID=PSME_00053429     -            149 54858at3193          -            484      0.14   12.5   0.1   1   1   0.00073      0.16   12.3   0.1   182   230    51    97    22   115 0.78 -
ID=PSME_00041218     -            401 54858at3193          -            484      0.14   12.5   0.3   1   2     0.014       3.1    8.0   0.2   199   293   182   276   166   331 0.59 -
ID=PSME_00041218     -            401 54858at3193          -            484      0.14   12.5   0.3   2   2       1.4   3.1e+02    1.5   0.0   227   258   331   363   320   390 0.76 -
ID=PSME_00028454     -            225 54858at3193          -            484      0.17   12.2   0.0   1   1    0.0012      0.27   11.6   0.0   227   259    12    44     6    72 0.86 -
ID=PSME_00049670     -            198 54858at3193          -            484      0.18   12.1   0.0   1   2     0.017       3.8    7.8   0.0   229   258    10    39     6   100 0.82 -
ID=PSME_00049670     -            198 54858at3193          -            484      0.18   12.1   0.0   2   2      0.65   1.5e+02    2.5   0.0   155   214   122   185   114   192 0.81 -
ID=PSME_00038141     -            180 54858at3193          -            484      0.18   12.1   0.0   1   1    0.0022      0.51   10.6   0.0   182   258    64   140    40   150 0.77 -
ID=PSME_00026479     -            175 54858at3193          -            484      0.18   12.1   0.1   1   2      0.33        75    3.5   0.0    23    63    46    86    26    93 0.79 -
ID=PSME_00026479     -            175 54858at3193          -            484      0.18   12.1   0.1   2   2      0.04       9.1    6.5   0.0   231   267   105   143    97   163 0.70 -
ID=PSME_00005269     -            167 54858at3193          -            484      0.21   11.9   0.0   1   1    0.0012      0.28   11.5   0.0   135   168    57    90    49   112 0.87 -
ID=PSME_00005648     -            217 54858at3193          -            484      0.23   11.8   0.0   1   1    0.0014      0.32   11.3   0.0   224   262    92   130    79   144 0.79 -
ID=PSME_00026467     -            258 54858at3193          -            484      0.23   11.8   0.0   1   2      0.24        55    3.9   0.0   231   286    97   154    87   199 0.83 -
ID=PSME_00026467     -            258 54858at3193          -            484      0.23   11.8   0.0   2   2     0.059        13    6.0   0.0   233   259   229   255   222   257 0.92 -
ID=PSME_00040139     -            386 54858at3193          -            484      0.24   11.7   0.0   1   1    0.0014      0.32   11.3   0.0   170   262   115   209    92   257 0.70 -
ID=PSME_00050035     -            110 54858at3193          -            484      0.25   11.7   0.0   1   1    0.0013      0.29   11.4   0.0   229   311     8    97     4   105 0.62 -
ID=PSME_00006527     -             75 54858at3193          -            484      0.25   11.7   0.0   1   1    0.0014      0.33   11.3   0.0   200   245    19    65     3    73 0.77 -
ID=PSME_00024143     -            251 54858at3193          -            484      0.34   11.2   0.1   1   2      0.22        49    4.1   0.0    33    68    79   113    73   150 0.68 -
ID=PSME_00024143     -            251 54858at3193          -            484      0.34   11.2   0.1   2   2      0.28        63    3.7   0.0    31    64   162   195   155   196 0.88 -
ID=PSME_00051286     -            154 54858at3193          -            484      0.35   11.2   0.0   1   1    0.0027       0.6   10.4   0.0   229   308    10    96     6   101 0.61 -
ID=PSME_00026402     -            121 54858at3193          -            484      0.35   11.2   0.4   1   1     0.018       4.1    7.7   0.4   157   204    14    61     8   116 0.67 -
ID=PSME_00030320     -            148 54858at3193          -            484      0.36   11.1   0.0   1   1    0.0019      0.44   10.9   0.0    33   104    42   114    16   139 0.57 -
ID=PSME_00010984     -           1409 54858at3193          -            484      0.37   11.1   0.0   1   2     0.022         5    7.4   0.0   200   262   228   291   215   304 0.88 -
ID=PSME_00010984     -           1409 54858at3193          -            484      0.37   11.1   0.0   2   2       1.9   4.2e+02    1.0   0.0   231   289   381   444   375   454 0.67 -
ID=PSME_00034086     -            152 54858at3193          -            484       0.4   11.0   0.0   1   1    0.0028      0.63   10.3   0.0   229   308     8    94     4   100 0.63 -
ID=PSME_00040399     -            261 54858at3193          -            484      0.42   10.9   2.0   1   2       5.2   1.2e+03   -0.4   0.0   153   182    22    51     7    62 0.74 -
ID=PSME_00040399     -            261 54858at3193          -            484      0.42   10.9   2.0   2   2    0.0054       1.2    9.4   0.6   134   172   141   179    98   187 0.80 -
ID=PSME_00005264     -            195 54858at3193          -            484      0.42   10.9   0.0   1   1    0.0023      0.53   10.6   0.0   134   169    84   119    11   141 0.86 -
ID=PSME_00048650     -            194 54858at3193          -            484      0.48   10.7   0.1   1   2      0.14        32    4.7   0.0   249   309    57   117    12   125 0.74 -
ID=PSME_00048650     -            194 54858at3193          -            484      0.48   10.7   0.1   2   2      0.23        51    4.0   0.1   136   171   147   182   142   188 0.89 -
ID=PSME_00020217     -            541 54858at3193          -            484      0.54   10.6   0.1   1   1    0.0051       1.1    9.5   0.1   192   238   103   149    95   165 0.84 -
#
# Program:         hmmsearch
# Version:         3.2.1 (June 2018)
# Pipeline mode:   SEARCH
# Query file:      /isg/shared/databases/BUSCO/odb10/embryophyta_odb10/hmms/54858at3193.hmm
# Target file:     /labs/Wegrzyn/ConiferGenomes/Psme/analysis/SURF_annotation/analyze_orig_maker/gfacs/filtered/maker_genes.fasta.faa
# Option settings: /usr/local/bin/hmmsearch --domtblout /labs/Wegrzyn/ConiferGenomes/Psme/analysis/SURF_annotation/analyze_orig_maker/busco/maker/run_embryophyta_odb10/hmmer_output/54858at3193.out --cpu 1 /isg/shared/databases/BUSCO/odb10/embryophyta_odb10/hmms/54858at3193.hmm /labs/Wegrzyn/ConiferGenomes/Psme/analysis/SURF_annotation/analyze_orig_maker/gfacs/filtered/maker_genes.fasta.faa 
# Current dir:     /labs/Wegrzyn/ConiferGenomes/Psme/analysis/SURF_annotation/analyze_orig_maker/busco
# Date:            Fri Jul 10 13:54:00 2020
# [ok]
