#                                                                            --- full sequence --- -------------- this domain -------------   hmm coord   ali coord   env coord
# target name        accession   tlen query name           accession   qlen   E-value  score  bias   #  of  c-Evalue  i-Evalue  score  bias  from    to  from    to  from    to  acc description of target
#------------------- ---------- ----- -------------------- ---------- ----- --------- ------ ----- --- --- --------- --------- ------ ----- ----- ----- ----- ----- ----- ----- ---- ---------------------
ID=PSME_00000156     -           2299 5603at3193           -            866  9.3e-100  336.5   5.0   1   2   2.5e-57   1.5e-54  186.9   1.1   182   483   638   937   624   987 0.88 -
ID=PSME_00000156     -           2299 5603at3193           -            866  9.3e-100  336.5   5.0   2   2   2.1e-46   1.2e-43  150.9   0.1   496   660  1187  1356  1178  1386 0.94 -
ID=PSME_00005765     -           1227 5603at3193           -            866   6.8e-94  317.1   0.2   1   1   2.3e-96   1.3e-93  316.1   0.2   181   680   195   691   183   732 0.84 -
ID=PSME_00000065     -            830 5603at3193           -            866   7.1e-90  303.8   1.3   1   1   1.9e-92   1.1e-89  303.2   0.9   183   672   258   771   207   797 0.84 -
ID=PSME_00013965     -           1573 5603at3193           -            866   2.9e-87  295.1   5.6   1   2   3.8e-44   2.2e-41  143.4   0.3   177   465   653   941   648   969 0.83 -
ID=PSME_00013965     -           1573 5603at3193           -            866   2.9e-87  295.1   5.6   2   2   2.7e-47   1.6e-44  153.8   0.8   495   643  1234  1386  1224  1423 0.90 -
ID=PSME_00001767     -            832 5603at3193           -            866   7.3e-85  287.2   0.4   1   1   1.7e-87   9.9e-85  286.8   0.4   182   645   244   728   124   783 0.82 -
ID=PSME_00015528     -           1201 5603at3193           -            866   8.7e-85  287.0   9.6   1   3         5   2.9e+03   -2.6   0.0     6    41   338   371   335   409 0.66 -
ID=PSME_00015528     -           1201 5603at3193           -            866   8.7e-85  287.0   9.6   2   3   7.1e-41   4.1e-38  132.5   0.3   182   486   423   735   411   803 0.76 -
ID=PSME_00015528     -           1201 5603at3193           -            866   8.7e-85  287.0   9.6   3   3   8.9e-49   5.2e-46  158.7   1.9   495   630  1003  1142   995  1154 0.95 -
ID=PSME_00005283     -           1957 5603at3193           -            866   3.3e-84  285.0   0.0   1   2   4.5e-51   2.6e-48  166.3   0.0   190   454  1356  1626  1346  1636 0.91 -
ID=PSME_00005283     -           1957 5603at3193           -            866   3.3e-84  285.0   0.0   2   2     5e-36   2.9e-33  116.5   0.0   509   660  1733  1892  1727  1919 0.86 -
ID=PSME_00008566     -            769 5603at3193           -            866   1.6e-80  272.8   1.2   1   3   1.1e-33   6.4e-31  108.7   0.2   239   460    42   260     1   281 0.88 -
ID=PSME_00008566     -            769 5603at3193           -            866   1.6e-80  272.8   1.2   2   3     0.011       6.5    6.2   0.0   492   521   366   395   355   399 0.88 -
ID=PSME_00008566     -            769 5603at3193           -            866   1.6e-80  272.8   1.2   3   3   2.9e-47   1.7e-44  153.7   0.0   517   703   495   683   489   713 0.93 -
ID=PSME_00006567     -           2632 5603at3193           -            866   2.2e-79  269.1   0.4   1   1     1e-81   6.1e-79  267.6   0.4   171   633   907  1385   900  1402 0.85 -
ID=PSME_00013853     -            687 5603at3193           -            866   1.2e-69  236.9   0.5   1   2   6.1e-29   3.5e-26   93.1   0.0   207   482   183   451   152   464 0.82 -
ID=PSME_00013853     -            687 5603at3193           -            866   1.2e-69  236.9   0.5   2   2   3.2e-42   1.9e-39  137.0   0.1   493   663   492   685   485   687 0.82 -
ID=PSME_00013264     -           1532 5603at3193           -            866   8.9e-52  177.7   2.8   1   3   1.4e-37   8.1e-35  121.6   0.1   180   484   764  1106   757  1117 0.77 -
ID=PSME_00013264     -           1532 5603at3193           -            866   8.9e-52  177.7   2.8   2   3   9.1e-06    0.0052   16.4   0.0   487   538  1175  1228  1134  1235 0.81 -
ID=PSME_00013264     -           1532 5603at3193           -            866   8.9e-52  177.7   2.8   3   3   2.8e-12   1.6e-09   37.9   0.4   602   667  1242  1307  1232  1325 0.90 -
ID=PSME_00017433     -           1049 5603at3193           -            866   1.1e-47  164.2   5.8   1   4    0.0076       4.4    6.7   0.3   210   230   441   461   436   470 0.83 -
ID=PSME_00017433     -           1049 5603at3193           -            866   1.1e-47  164.2   5.8   2   4   1.5e-15   8.8e-13   48.7   0.0   242   364   517   644   506   653 0.86 -
ID=PSME_00017433     -           1049 5603at3193           -            866   1.1e-47  164.2   5.8   3   4     0.039        23    4.4   0.0   407   495   675   772   668   781 0.79 -
ID=PSME_00017433     -           1049 5603at3193           -            866   1.1e-47  164.2   5.8   4   4   2.4e-32   1.4e-29  104.3   0.0   491   645   876  1034   833  1048 0.83 -
ID=PSME_00015826     -            739 5603at3193           -            866   4.8e-45  155.5   0.0   1   1   1.3e-47   7.3e-45  154.9   0.0   437   656   232   459   222   470 0.88 -
ID=PSME_00027418     -            709 5603at3193           -            866   9.2e-40  138.0   0.0   1   3   2.5e-06    0.0014   18.3   0.0   210   279   143   211   109   218 0.85 -
ID=PSME_00027418     -            709 5603at3193           -            866   9.2e-40  138.0   0.0   2   3     3e-08   1.7e-05   24.6   0.0   306   366   282   342   236   348 0.91 -
ID=PSME_00027418     -            709 5603at3193           -            866   9.2e-40  138.0   0.0   3   3   2.1e-28   1.2e-25   91.3   0.0   495   645   501   661   494   678 0.86 -
ID=PSME_00000429     -            957 5603at3193           -            866   1.9e-38  133.7   0.0   1   1   6.7e-41   3.9e-38  132.6   0.0   472   629     9   180     4   195 0.85 -
ID=PSME_00040859     -            369 5603at3193           -            866   1.4e-37  130.8   0.1   1   2   3.1e-21   1.8e-18   67.5   0.0   323   484     2   170     1   184 0.86 -
ID=PSME_00040859     -            369 5603at3193           -            866   1.4e-37  130.8   0.1   2   2     3e-19   1.7e-16   61.0   0.0   449   596   202   368   185   368 0.79 -
ID=PSME_00018507     -           1289 5603at3193           -            866     7e-37  128.5   0.4   1   4   0.00012     0.071   12.6   0.0   191   230   525   567   518   574 0.80 -
ID=PSME_00018507     -           1289 5603at3193           -            866     7e-37  128.5   0.4   2   4     0.011       6.3    6.2   0.0   242   277   639   677   629   701 0.70 -
ID=PSME_00018507     -           1289 5603at3193           -            866     7e-37  128.5   0.4   3   4   1.6e-09     9e-07   28.8   0.0   307   389   756   841   752   899 0.92 -
ID=PSME_00018507     -           1289 5603at3193           -            866     7e-37  128.5   0.4   4   4   1.3e-23   7.2e-21   75.5   0.0   511   633  1131  1257  1119  1287 0.90 -
ID=PSME_00014499     -           1167 5603at3193           -            866   1.1e-35  124.5   0.0   1   1     3e-38   1.8e-35  123.8   0.0   191   478   855  1143   842  1150 0.82 -
ID=PSME_00021957     -            435 5603at3193           -            866   3.7e-27   96.3   0.0   1   2     2e-14   1.1e-11   45.1   0.0   205   380   122   315   103   319 0.74 -
ID=PSME_00021957     -            435 5603at3193           -            866   3.7e-27   96.3   0.0   2   2   9.2e-16   5.3e-13   49.5   0.0   492   598   319   434   315   435 0.90 -
ID=PSME_00007867     -            317 5603at3193           -            866   4.1e-21   76.3   0.1   1   1   9.6e-24   5.6e-21   75.9   0.1   506   635    88   221    81   228 0.91 -
ID=PSME_00042407     -            238 5603at3193           -            866   5.5e-21   75.9   0.1   1   1   1.3e-23   7.4e-21   75.4   0.1   505   627     8   134     4   138 0.93 -
ID=PSME_00020985     -            226 5603at3193           -            866   7.4e-21   75.4   0.0   1   1   1.5e-23   8.5e-21   75.3   0.0   539   633    10   106     6   165 0.89 -
ID=PSME_00023417     -            396 5603at3193           -            866   3.9e-20   73.1   0.0   1   1   9.2e-23   5.3e-20   72.6   0.0   506   635   166   299   159   306 0.91 -
ID=PSME_00012748     -            101 5603at3193           -            866     7e-20   72.2   0.0   1   1   1.3e-22   7.4e-20   72.1   0.0   564   630    10    76     6    97 0.90 -
ID=PSME_00031123     -             79 5603at3193           -            866   3.5e-19   69.9   0.1   1   1   6.3e-22   3.6e-19   69.8   0.1   569   629     2    62     1    75 0.91 -
ID=PSME_00048441     -            112 5603at3193           -            866   4.5e-19   69.5   0.0   1   1   8.7e-22     5e-19   69.4   0.0   569   631     2    64     1    77 0.90 -
ID=PSME_00017987     -            124 5603at3193           -            866   1.1e-18   68.2   0.0   1   1     2e-21   1.1e-18   68.2   0.0   564   633    10    79     7   120 0.88 -
ID=PSME_00042232     -            318 5603at3193           -            866     1e-17   65.1   0.1   1   1   2.3e-20   1.3e-17   64.7   0.1   183   325   151   307   137   310 0.77 -
ID=PSME_00020829     -            108 5603at3193           -            866   1.7e-17   64.3   0.0   1   1     3e-20   1.7e-17   64.3   0.0   572   633     1    62     1   103 0.88 -
ID=PSME_00037191     -            208 5603at3193           -            866   2.2e-17   63.9   0.0   1   1   4.9e-20   2.8e-17   63.6   0.0   538   635    15   112     6   120 0.95 -
ID=PSME_00008176     -            820 5603at3193           -            866   2.3e-17   63.9   0.0   1   3   0.00088      0.51    9.8   0.0   211   243   283   315   265   328 0.84 -
ID=PSME_00008176     -            820 5603at3193           -            866   2.3e-17   63.9   0.0   2   3   8.5e-12   4.9e-09   36.3   0.0   240   395   383   539   380   557 0.83 -
ID=PSME_00008176     -            820 5603at3193           -            866   2.3e-17   63.9   0.0   3   3   5.4e-05     0.031   13.8   0.0   493   558   730   801   704   809 0.79 -
ID=PSME_00047179     -            123 5603at3193           -            866     3e-17   63.5   0.0   1   1   5.6e-20   3.2e-17   63.4   0.0   570   630     3    63     1    86 0.91 -
ID=PSME_00028859     -            265 5603at3193           -            866   3.1e-17   63.5   0.0   1   1     7e-20     4e-17   63.1   0.0   505   626    35   160    28   166 0.93 -
ID=PSME_00040297     -            182 5603at3193           -            866   3.1e-17   63.5   0.0   1   1   5.6e-20   3.2e-17   63.4   0.0   537   633    59   155     6   159 0.91 -
ID=PSME_00009495     -            245 5603at3193           -            866   2.1e-16   60.7   0.1   1   1   4.7e-19   2.7e-16   60.3   0.1   569   628    88   147    71   164 0.91 -
ID=PSME_00003202     -             79 5603at3193           -            866   2.2e-16   60.7   0.0   1   1   3.9e-19   2.3e-16   60.6   0.0   570   629     3    62     1    75 0.90 -
ID=PSME_00022561     -            132 5603at3193           -            866   3.7e-16   59.9   0.0   1   1   7.6e-19   4.4e-16   59.7   0.0   565   616    79   130    70   132 0.93 -
ID=PSME_00018693     -            135 5603at3193           -            866   4.2e-16   59.7   0.0   1   1     8e-19   4.6e-16   59.6   0.0   240   351    19   132     3   134 0.89 -
ID=PSME_00039397     -            253 5603at3193           -            866     6e-16   59.2   0.0   1   1   1.3e-18   7.5e-16   58.9   0.0   506   635    24   157    10   167 0.89 -
ID=PSME_00036296     -            111 5603at3193           -            866     8e-16   58.8   0.0   1   1   1.6e-18   9.2e-16   58.6   0.0   569   629    30    90    24   104 0.91 -
ID=PSME_00001935     -            354 5603at3193           -            866   9.2e-16   58.6   0.1   1   1   2.2e-18   1.3e-15   58.1   0.1   506   635   126   259   118   267 0.90 -
ID=PSME_00011717     -           2903 5603at3193           -            866   9.3e-16   58.6   0.1   1   2       1.1   6.1e+02   -0.4   0.1   211   324  1031  1149  1017  1186 0.74 -
ID=PSME_00011717     -           2903 5603at3193           -            866   9.3e-16   58.6   0.1   2   2   9.1e-18   5.3e-15   56.1   0.0   472   627  1282  1461  1257  1476 0.80 -
ID=PSME_00035138     -            211 5603at3193           -            866   1.1e-15   58.4   0.0   1   1   2.4e-18   1.4e-15   58.0   0.0   538   635    24   121    20   129 0.95 -
ID=PSME_00006845     -            146 5603at3193           -            866   1.1e-15   58.3   0.0   1   1   2.4e-18   1.4e-15   58.0   0.0   564   619    21    76     8    81 0.89 -
ID=PSME_00020447     -            225 5603at3193           -            866   1.6e-15   57.8   0.0   1   1   8.1e-18   4.7e-15   56.3   0.0   470   583    85   223    78   224 0.79 -
ID=PSME_00033417     -            457 5603at3193           -            866   2.7e-15   57.1   0.0   1   1   6.4e-18   3.7e-15   56.6   0.0   568   628   379   439   350   452 0.90 -
ID=PSME_00054847     -             63 5603at3193           -            866   3.2e-15   56.8   0.0   1   1     6e-18   3.5e-15   56.7   0.0   564   616    10    62     6    63 0.96 -
ID=PSME_00023407     -            562 5603at3193           -            866   3.4e-15   56.7   0.0   1   1     9e-18   5.2e-15   56.1   0.0   567   627   227   287   224   302 0.91 -
ID=PSME_00030964     -            238 5603at3193           -            866   7.3e-15   55.6   0.1   1   1   1.6e-17   9.4e-15   55.3   0.1   506   635     9   142     5   150 0.91 -
ID=PSME_00034842     -            111 5603at3193           -            866   8.6e-15   55.4   0.0   1   1   1.8e-17     1e-14   55.1   0.0   538   619     9    88     6    99 0.87 -
ID=PSME_00042454     -            238 5603at3193           -            866   1.1e-14   55.1   0.1   1   1   2.3e-17   1.3e-14   54.8   0.1   505   634     8   141     4   144 0.90 -
ID=PSME_00011000     -            249 5603at3193           -            866   2.7e-14   53.7   0.1   1   1   6.1e-17   3.5e-14   53.3   0.1   505   634    19   152    15   159 0.87 -
ID=PSME_00020203     -            324 5603at3193           -            866   2.9e-14   53.6   0.0   1   1   6.4e-17   3.7e-14   53.3   0.0   239   351   207   321   184   323 0.87 -
ID=PSME_00027464     -            253 5603at3193           -            866   6.4e-14   52.5   0.0   1   1   1.4e-16     8e-14   52.2   0.0   509   635    27   157    11   165 0.89 -
ID=PSME_00004575     -            308 5603at3193           -            866   6.9e-14   52.4   1.1   1   2   4.4e-05     0.025   14.1   0.0   491   560   159   232   117   234 0.78 -
ID=PSME_00004575     -            308 5603at3193           -            866   6.9e-14   52.4   1.1   2   2   2.3e-12   1.3e-09   38.2   0.4   585   659   233   306   229   307 0.87 -
ID=PSME_00036208     -            166 5603at3193           -            866     1e-13   51.8   0.0   1   1   1.9e-16   1.1e-13   51.7   0.0   225   351    34   163     7   165 0.87 -
ID=PSME_00028395     -            231 5603at3193           -            866   1.1e-13   51.8   0.0   1   1   2.4e-16   1.4e-13   51.4   0.0   507   635    10   135     5   141 0.87 -
ID=PSME_00012491     -            867 5603at3193           -            866   1.7e-13   51.1   0.4   1   2   8.8e-07   0.00051   19.7   0.5   186   301   208   348   140   358 0.68 -
ID=PSME_00012491     -            867 5603at3193           -            866   1.7e-13   51.1   0.4   2   2   2.2e-07   0.00013   21.7   0.0   307   364   499   556   494   562 0.93 -
ID=PSME_00048073     -            191 5603at3193           -            866   2.5e-13   50.5   0.0   1   1   5.2e-16     3e-13   50.3   0.0   226   351    60   188    54   190 0.84 -
ID=PSME_00033879     -            252 5603at3193           -            866     3e-13   50.3   0.0   1   1   6.1e-16   3.5e-13   50.0   0.0   537   639    59   161    42   182 0.92 -
ID=PSME_00005826     -            238 5603at3193           -            866   3.1e-13   50.2   0.0   1   1   6.5e-16   3.7e-13   50.0   0.0   506   636     9   143     4   163 0.90 -
ID=PSME_00051888     -             81 5603at3193           -            866   4.4e-13   49.7   0.0   1   1   8.4e-16   4.9e-13   49.6   0.0   564   619    10    61     6    73 0.91 -
ID=PSME_00018940     -            222 5603at3193           -            866   4.9e-13   49.6   0.0   1   1     1e-15     6e-13   49.3   0.0   563   635    54   126    27   134 0.93 -
ID=PSME_00054608     -             59 5603at3193           -            866   1.3e-12   48.2   0.0   1   1   2.4e-15   1.4e-12   48.1   0.0   564   616    10    58     6    59 0.93 -
ID=PSME_00009907     -            130 5603at3193           -            866   1.7e-12   47.8   0.0   1   1   3.2e-15   1.8e-12   47.7   0.0   261   352    19   112     7   123 0.84 -
ID=PSME_00039596     -            181 5603at3193           -            866   6.1e-12   45.9   0.0   1   1   1.3e-14   7.7e-12   45.6   0.0   538   611    15    88     6    92 0.95 -
ID=PSME_00030499     -            401 5603at3193           -            866   1.2e-11   44.9   0.0   1   2   9.6e-07   0.00055   19.6   0.0   247   358     2   118     1   125 0.79 -
ID=PSME_00030499     -            401 5603at3193           -            866   1.2e-11   44.9   0.0   2   2   8.7e-08     5e-05   23.1   0.0   514   615   297   391   279   397 0.86 -
ID=PSME_00006150     -            310 5603at3193           -            866   1.7e-11   44.4   0.1   1   1   3.9e-14   2.3e-11   44.1   0.1   506   635    81   214    76   220 0.89 -
ID=PSME_00053400     -            435 5603at3193           -            866   2.6e-09   37.2   0.0   1   1   6.7e-12   3.9e-09   36.7   0.0   537   594    11    68     3    83 0.91 -
ID=PSME_00012041     -           1304 5603at3193           -            866   2.9e-09   37.1   0.2   1   3      0.52     3e+02    0.7   0.0   210   230   380   400   377   406 0.89 -
ID=PSME_00012041     -           1304 5603at3193           -            866   2.9e-09   37.1   0.2   2   3   0.00033      0.19   11.2   0.0   239   352   784   902   705   933 0.77 -
ID=PSME_00012041     -           1304 5603at3193           -            866   2.9e-09   37.1   0.2   3   3   3.6e-07   0.00021   21.0   0.0   545   626  1170  1250  1158  1256 0.87 -
ID=PSME_00007025     -            238 5603at3193           -            866   3.2e-09   37.0   0.1   1   1   7.1e-12   4.1e-09   36.6   0.1   506   635     9   142     5   149 0.88 -
ID=PSME_00024130     -           1350 5603at3193           -            866   3.9e-09   36.7   0.0   1   1     1e-11   5.8e-09   36.1   0.0   190   250   328   389   313   432 0.88 -
ID=PSME_00040858     -            396 5603at3193           -            866   7.6e-09   35.7   0.0   1   1   1.9e-11   1.1e-08   35.2   0.0   180   301   248   386   241   392 0.74 -
ID=PSME_00020626     -            198 5603at3193           -            866   4.8e-08   33.1   0.0   1   1     1e-10     6e-08   32.7   0.0   581   635    48   102    38   112 0.92 -
ID=PSME_00024744     -            383 5603at3193           -            866     6e-08   32.7   0.0   1   1   1.5e-10   8.9e-08   32.2   0.0   562   610    41    89    37    94 0.94 -
ID=PSME_00019250     -            143 5603at3193           -            866   1.6e-07   31.3   0.0   1   1   3.4e-10     2e-07   31.0   0.0   563   617    81   137    51   140 0.90 -
ID=PSME_00020446     -            273 5603at3193           -            866   1.6e-07   31.3   0.0   1   1     3e-10   1.7e-07   31.2   0.0   588   641     3    56     1   135 0.90 -
ID=PSME_00032937     -            195 5603at3193           -            866   1.8e-07   31.2   0.0   1   1   4.7e-10   2.7e-07   30.6   0.0   563   611    54   102    34   106 0.93 -
ID=PSME_00009932     -            141 5603at3193           -            866   5.1e-07   29.7   0.0   1   1     1e-09   5.9e-07   29.5   0.0   581   630     8    57     2    80 0.86 -
ID=PSME_00035168     -             87 5603at3193           -            866   5.9e-07   29.4   0.1   1   1   1.2e-09   6.9e-07   29.2   0.1   583   635    27    79    22    83 0.92 -
ID=PSME_00003045     -            194 5603at3193           -            866   1.9e-06   27.8   0.0   1   1   4.1e-09   2.4e-06   27.5   0.0   583   635    46    98    39   106 0.91 -
ID=PSME_00009908     -            214 5603at3193           -            866   7.3e-06   25.8   0.3   1   2     3e-06    0.0017   18.0   0.0   585   619    39    73    34    79 0.86 -
ID=PSME_00009908     -            214 5603at3193           -            866   7.3e-06   25.8   0.3   2   2     0.013       7.2    6.0   0.2   610   636    84   110    73   138 0.80 -
ID=PSME_00011675     -            812 5603at3193           -            866   1.5e-05   24.8   0.0   1   1   3.9e-08   2.2e-05   24.2   0.0   190   225   273   308   258   320 0.92 -
ID=PSME_00043567     -            212 5603at3193           -            866   1.6e-05   24.8   0.0   1   1   3.2e-08   1.8e-05   24.5   0.0   594   633   127   166   125   208 0.85 -
ID=PSME_00009696     -            240 5603at3193           -            866   1.6e-05   24.7   0.0   1   1     3e-08   1.7e-05   24.6   0.0   600   681     3    87     1   126 0.80 -
ID=PSME_00030581     -            136 5603at3193           -            866   1.7e-05   24.6   0.0   1   1   3.6e-08   2.1e-05   24.3   0.0   580   629    66   115    60   129 0.85 -
ID=PSME_00050704     -            257 5603at3193           -            866   0.00011   22.0   0.0   1   1   2.1e-07   0.00012   21.8   0.0   598   673     1    77     1   115 0.84 -
ID=PSME_00025589     -            139 5603at3193           -            866   0.00023   20.9   0.1   1   1     5e-07   0.00029   20.6   0.1   594   630    64   100    60   114 0.86 -
ID=PSME_00013647     -            613 5603at3193           -            866   0.00029   20.5   0.2   1   1   9.2e-07   0.00053   19.7   0.2   564   593   577   606   564   610 0.85 -
ID=PSME_00010371     -            190 5603at3193           -            866    0.0071   16.0   0.0   1   1   1.6e-05    0.0091   15.6   0.0   584   635    43    94    32   100 0.87 -
ID=PSME_00023466     -            513 5603at3193           -            866     0.027   14.0   0.2   1   1   8.4e-05     0.048   13.2   0.1   211   233   427   449   403   457 0.88 -
ID=PSME_00039194     -             99 5603at3193           -            866     0.038   13.5   0.0   1   1   7.5e-05     0.043   13.3   0.0   596   618    76    98    61    98 0.85 -
ID=PSME_00014739     -            104 5603at3193           -            866      0.13   11.7   0.0   1   1   0.00025      0.14   11.6   0.0   330   385    21    75    14    92 0.84 -
ID=PSME_00008400     -            219 5603at3193           -            866      0.19   11.2   0.0   1   1   0.00043      0.25   10.8   0.0   329   385    95   150    83   163 0.86 -
ID=PSME_00038955     -            182 5603at3193           -            866      0.36   10.3   0.0   1   1   0.00079      0.46   10.0   0.0   330   385    99   153    88   167 0.86 -
#
# Program:         hmmsearch
# Version:         3.2.1 (June 2018)
# Pipeline mode:   SEARCH
# Query file:      /isg/shared/databases/BUSCO/odb10/embryophyta_odb10/hmms/5603at3193.hmm
# Target file:     /labs/Wegrzyn/ConiferGenomes/Psme/analysis/SURF_annotation/analyze_orig_maker/gfacs/filtered/maker_genes.fasta.faa
# Option settings: /usr/local/bin/hmmsearch --domtblout /labs/Wegrzyn/ConiferGenomes/Psme/analysis/SURF_annotation/analyze_orig_maker/busco/maker/run_embryophyta_odb10/hmmer_output/5603at3193.out --cpu 1 /isg/shared/databases/BUSCO/odb10/embryophyta_odb10/hmms/5603at3193.hmm /labs/Wegrzyn/ConiferGenomes/Psme/analysis/SURF_annotation/analyze_orig_maker/gfacs/filtered/maker_genes.fasta.faa 
# Current dir:     /labs/Wegrzyn/ConiferGenomes/Psme/analysis/SURF_annotation/analyze_orig_maker/busco
# Date:            Fri Jul 10 13:54:15 2020
# [ok]
