#                                                                            --- full sequence --- -------------- this domain -------------   hmm coord   ali coord   env coord
# target name        accession   tlen query name           accession   qlen   E-value  score  bias   #  of  c-Evalue  i-Evalue  score  bias  from    to  from    to  from    to  acc description of target
#------------------- ---------- ----- -------------------- ---------- ----- --------- ------ ----- --- --- --------- --------- ------ ----- ----- ----- ----- ----- ----- ----- ---- ---------------------
ID=PSME_00045333     -            726 56205at3193          -            424  4.3e-170  567.5   3.7   1   4   5.8e-36   6.3e-32  112.3   0.1    35   153    42   172    31   217 0.86 -
ID=PSME_00045333     -            726 56205at3193          -            424  4.3e-170  567.5   3.7   2   4  1.7e-102   1.9e-98  331.5   0.2   170   385   240   481   185   487 0.86 -
ID=PSME_00045333     -            726 56205at3193          -            424  4.3e-170  567.5   3.7   3   4       1.2   1.3e+04   -4.1   0.0    22    36   566   580   563   582 0.83 -
ID=PSME_00045333     -            726 56205at3193          -            424  4.3e-170  567.5   3.7   4   4   3.7e-38     4e-34  119.6   0.1    35   148   600   725   584   725 0.88 -
ID=PSME_00041477     -            409 56205at3193          -            424   4.4e-94  317.1   0.2   1   2   4.7e-35   5.2e-31  109.3   0.0    35   153    42   172    31   207 0.86 -
ID=PSME_00041477     -            409 56205at3193          -            424   4.4e-94  317.1   0.2   2   2   2.3e-64   2.5e-60  205.9   0.0   169   297   239   374   183   388 0.87 -
ID=PSME_00039269     -            461 56205at3193          -            424     8e-89  299.8   4.1   1   4   5.1e-12   5.6e-08   33.4   0.0   144   174     3    33     1    43 0.92 -
ID=PSME_00039269     -            461 56205at3193          -            424     8e-89  299.8   4.1   2   4   6.8e-65   7.4e-61  207.6   0.0   169   296   155   289   101   302 0.89 -
ID=PSME_00039269     -            461 56205at3193          -            424     8e-89  299.8   4.1   3   4     0.063   6.9e+02    0.2   1.2   288   304   303   319   297   322 0.87 -
ID=PSME_00039269     -            461 56205at3193          -            424     8e-89  299.8   4.1   4   4   6.9e-19   7.6e-15   56.1   0.0   295   340   337   382   324   385 0.89 -
ID=PSME_00038116     -            777 56205at3193          -            424   2.6e-32  113.6   0.7   1   3     0.031   3.4e+02    1.2   0.0    16    52   136   172   124   191 0.75 -
ID=PSME_00038116     -            777 56205at3193          -            424   2.6e-32  113.6   0.7   2   3   6.4e-33   7.1e-29  102.3   0.1    74   289   241   439   238   447 0.87 -
ID=PSME_00038116     -            777 56205at3193          -            424   2.6e-32  113.6   0.7   3   3     0.016   1.7e+02    2.2   0.0   304   383   650   729   632   752 0.73 -
ID=PSME_00039595     -            380 56205at3193          -            424      0.24   11.6   0.0   1   1   4.6e-05      0.51   10.5   0.0   138   159    49    70    32    90 0.88 -
#
# Program:         hmmsearch
# Version:         3.2.1 (June 2018)
# Pipeline mode:   SEARCH
# Query file:      /isg/shared/databases/BUSCO/odb10/embryophyta_odb10/hmms/56205at3193.hmm
# Target file:     /labs/Wegrzyn/ConiferGenomes/Psme/analysis/SURF_annotation/analyze_orig_maker/gfacs/filtered/maker_genes.fasta.faa
# Option settings: /usr/local/bin/hmmsearch --domtblout /labs/Wegrzyn/ConiferGenomes/Psme/analysis/SURF_annotation/analyze_orig_maker/busco/maker/run_embryophyta_odb10/hmmer_output/56205at3193.out --cpu 1 /isg/shared/databases/BUSCO/odb10/embryophyta_odb10/hmms/56205at3193.hmm /labs/Wegrzyn/ConiferGenomes/Psme/analysis/SURF_annotation/analyze_orig_maker/gfacs/filtered/maker_genes.fasta.faa 
# Current dir:     /labs/Wegrzyn/ConiferGenomes/Psme/analysis/SURF_annotation/analyze_orig_maker/busco
# Date:            Fri Jul 10 13:54:14 2020
# [ok]
