#                                                                            --- full sequence --- -------------- this domain -------------   hmm coord   ali coord   env coord
# target name        accession   tlen query name           accession   qlen   E-value  score  bias   #  of  c-Evalue  i-Evalue  score  bias  from    to  from    to  from    to  acc description of target
#------------------- ---------- ----- -------------------- ---------- ----- --------- ------ ----- --- --- --------- --------- ------ ----- ----- ----- ----- ----- ----- ----- ---- ---------------------
ID=PSME_00013375     -            173 57296at3193          -            449   9.5e-44  151.6   0.1   1   1   1.9e-47   1.2e-43  151.3   0.1   296   401    10   120     6   134 0.93 -
ID=PSME_00048677     -            369 57296at3193          -            449   4.1e-29  103.3   0.0   1   2   2.2e-08   0.00013   22.6   0.0    60   102    40    83    22   122 0.86 -
ID=PSME_00048677     -            369 57296at3193          -            449   4.1e-29  103.3   0.0   2   2   2.3e-25   1.4e-21   78.5   0.0   108   181   171   244   140   285 0.88 -
ID=PSME_00055336     -            172 57296at3193          -            449     0.051   14.0   0.0   1   1   1.1e-05     0.066   13.7   0.0    51   135    78   161    67   168 0.80 -
ID=PSME_00040731     -            267 57296at3193          -            449     0.066   13.7   0.0   1   1   1.6e-05     0.095   13.1   0.0    21    48    72    98    64   111 0.87 -
ID=PSME_00046930     -            843 57296at3193          -            449      0.11   12.9   0.0   1   1   3.3e-05       0.2   12.1   0.0     4    38   241   273   239   282 0.89 -
ID=PSME_00015752     -            399 57296at3193          -            449      0.12   12.8   0.0   1   1   2.9e-05      0.18   12.2   0.0    21    48   148   174   137   186 0.88 -
ID=PSME_00046548     -            969 57296at3193          -            449      0.12   12.8   0.1   1   2   5.1e-05      0.31   11.4   0.0     4    38   294   326   292   334 0.89 -
ID=PSME_00046548     -            969 57296at3193          -            449      0.12   12.8   0.1   2   2         2   1.2e+04   -3.7   0.0   130   165   875   911   872   913 0.76 -
ID=PSME_00025907     -            164 57296at3193          -            449      0.25   11.8   0.0   1   1   5.2e-05      0.32   11.4   0.0   118   189    60   142    52   158 0.77 -
ID=PSME_00028046     -            159 57296at3193          -            449      0.25   11.7   0.0   1   1   5.3e-05      0.32   11.4   0.0    52    98    35    82    21    90 0.86 -
#
# Program:         hmmsearch
# Version:         3.2.1 (June 2018)
# Pipeline mode:   SEARCH
# Query file:      /isg/shared/databases/BUSCO/odb10/embryophyta_odb10/hmms/57296at3193.hmm
# Target file:     /labs/Wegrzyn/ConiferGenomes/Psme/analysis/SURF_annotation/analyze_orig_maker/gfacs/filtered/maker_genes.fasta.faa
# Option settings: /usr/local/bin/hmmsearch --domtblout /labs/Wegrzyn/ConiferGenomes/Psme/analysis/SURF_annotation/analyze_orig_maker/busco/maker/run_embryophyta_odb10/hmmer_output/57296at3193.out --cpu 1 /isg/shared/databases/BUSCO/odb10/embryophyta_odb10/hmms/57296at3193.hmm /labs/Wegrzyn/ConiferGenomes/Psme/analysis/SURF_annotation/analyze_orig_maker/gfacs/filtered/maker_genes.fasta.faa 
# Current dir:     /labs/Wegrzyn/ConiferGenomes/Psme/analysis/SURF_annotation/analyze_orig_maker/busco
# Date:            Fri Jul 10 13:54:31 2020
# [ok]
