#                                                                            --- full sequence --- -------------- this domain -------------   hmm coord   ali coord   env coord
# target name        accession   tlen query name           accession   qlen   E-value  score  bias   #  of  c-Evalue  i-Evalue  score  bias  from    to  from    to  from    to  acc description of target
#------------------- ---------- ----- -------------------- ---------- ----- --------- ------ ----- --- --- --------- --------- ------ ----- ----- ----- ----- ----- ----- ----- ---- ---------------------
ID=PSME_00019767     -            370 5761at3193           -            834   2.9e-85  288.7   1.3   1   3   1.2e-55   3.2e-51  176.1   0.2   538   670    19   175     6   179 0.83 -
ID=PSME_00019767     -            370 5761at3193           -            834   2.9e-85  288.7   1.3   2   3   2.2e-30   5.9e-26   92.5   0.0   707   812   181   318   176   331 0.83 -
ID=PSME_00019767     -            370 5761at3193           -            834   2.9e-85  288.7   1.3   3   3   1.5e-05      0.42   10.3   0.1   812   834   345   367   338   367 0.90 -
ID=PSME_00051520     -            299 5761at3193           -            834      0.51   10.0   0.0   1   1   2.3e-05      0.64    9.7   0.0   508   558   174   218   158   250 0.82 -
#
# Program:         hmmsearch
# Version:         3.2.1 (June 2018)
# Pipeline mode:   SEARCH
# Query file:      /isg/shared/databases/BUSCO/odb10/embryophyta_odb10/hmms/5761at3193.hmm
# Target file:     /labs/Wegrzyn/ConiferGenomes/Psme/analysis/SURF_annotation/analyze_orig_maker/gfacs/filtered/maker_genes.fasta.faa
# Option settings: /usr/local/bin/hmmsearch --domtblout /labs/Wegrzyn/ConiferGenomes/Psme/analysis/SURF_annotation/analyze_orig_maker/busco/maker/run_embryophyta_odb10/hmmer_output/5761at3193.out --cpu 1 /isg/shared/databases/BUSCO/odb10/embryophyta_odb10/hmms/5761at3193.hmm /labs/Wegrzyn/ConiferGenomes/Psme/analysis/SURF_annotation/analyze_orig_maker/gfacs/filtered/maker_genes.fasta.faa 
# Current dir:     /labs/Wegrzyn/ConiferGenomes/Psme/analysis/SURF_annotation/analyze_orig_maker/busco
# Date:            Fri Jul 10 13:54:32 2020
# [ok]
