#                                                                            --- full sequence --- -------------- this domain -------------   hmm coord   ali coord   env coord
# target name        accession   tlen query name           accession   qlen   E-value  score  bias   #  of  c-Evalue  i-Evalue  score  bias  from    to  from    to  from    to  acc description of target
#------------------- ---------- ----- -------------------- ---------- ----- --------- ------ ----- --- --- --------- --------- ------ ----- ----- ----- ----- ----- ----- ----- ---- ---------------------
ID=PSME_00016892     -            356 5849at3193           -           1007   1.6e-66  226.3   0.0   1   1   1.5e-70   2.7e-66  225.6   0.0   766  1006    66   348    42   349 0.81 -
ID=PSME_00016893     -            257 5849at3193           -           1007   3.6e-36  125.8   8.3   1   3   1.7e-10   3.1e-06   26.7   0.2   129   157    15    43     5    46 0.89 -
ID=PSME_00016893     -            257 5849at3193           -           1007   3.6e-36  125.8   8.3   2   3   1.2e-21   2.1e-17   63.7   0.4   183   243    43   110    42   116 0.86 -
ID=PSME_00016893     -            257 5849at3193           -           1007   3.6e-36  125.8   8.3   3   3   1.1e-14   2.1e-10   40.6   0.2   250   316   170   249   138   254 0.87 -
ID=PSME_00001156     -            680 5849at3193           -           1007      0.87    8.7   0.1   1   1   6.7e-05       1.2    8.2   0.1   780   837    68   127    40   134 0.84 -
#
# Program:         hmmsearch
# Version:         3.2.1 (June 2018)
# Pipeline mode:   SEARCH
# Query file:      /isg/shared/databases/BUSCO/odb10/embryophyta_odb10/hmms/5849at3193.hmm
# Target file:     /labs/Wegrzyn/ConiferGenomes/Psme/analysis/SURF_annotation/analyze_orig_maker/gfacs/filtered/maker_genes.fasta.faa
# Option settings: /usr/local/bin/hmmsearch --domtblout /labs/Wegrzyn/ConiferGenomes/Psme/analysis/SURF_annotation/analyze_orig_maker/busco/maker/run_embryophyta_odb10/hmmer_output/5849at3193.out --cpu 1 /isg/shared/databases/BUSCO/odb10/embryophyta_odb10/hmms/5849at3193.hmm /labs/Wegrzyn/ConiferGenomes/Psme/analysis/SURF_annotation/analyze_orig_maker/gfacs/filtered/maker_genes.fasta.faa 
# Current dir:     /labs/Wegrzyn/ConiferGenomes/Psme/analysis/SURF_annotation/analyze_orig_maker/busco
# Date:            Fri Jul 10 13:54:41 2020
# [ok]
