#                                                                            --- full sequence --- -------------- this domain -------------   hmm coord   ali coord   env coord
# target name        accession   tlen query name           accession   qlen   E-value  score  bias   #  of  c-Evalue  i-Evalue  score  bias  from    to  from    to  from    to  acc description of target
#------------------- ---------- ----- -------------------- ---------- ----- --------- ------ ----- --- --- --------- --------- ------ ----- ----- ----- ----- ----- ----- ----- ---- ---------------------
ID=PSME_00053431     -            401 5921at3193           -            956   5.6e-98  330.5   1.7   1   2   2.4e-61   2.7e-58  199.2   1.5   717   843     1   130     1   159 0.93 -
ID=PSME_00053431     -            401 5921at3193           -            956   5.6e-98  330.5   1.7   2   2   2.3e-40   2.6e-37  129.7   0.0   837   955   261   390   247   391 0.83 -
ID=PSME_00003755     -            348 5921at3193           -            956   6.7e-27   95.2   0.1   1   2   5.5e-29     6e-26   92.1   0.0   625   800    77   262    67   268 0.88 -
ID=PSME_00003755     -            348 5921at3193           -            956   6.7e-27   95.2   0.1   2   2      0.18   1.9e+02    1.0   0.0   801   844   299   339   289   347 0.78 -
ID=PSME_00005061     -            487 5921at3193           -            956   1.6e-25   90.7   0.0   1   2   5.7e-28   6.3e-25   88.7   0.0   626   794   159   337   152   349 0.87 -
ID=PSME_00005061     -            487 5921at3193           -            956   1.6e-25   90.7   0.0   2   2      0.68   7.5e+02   -0.9   0.0   801   837   380   416   372   430 0.86 -
ID=PSME_00046175     -            427 5921at3193           -            956   1.7e-25   90.6   0.0   1   2     6e-28   6.6e-25   88.6   0.1   626   800    95   279    86   286 0.88 -
ID=PSME_00046175     -            427 5921at3193           -            956   1.7e-25   90.6   0.0   2   2       0.7   7.7e+02   -1.0   0.0   801   831   317   347   312   363 0.88 -
ID=PSME_00028083     -            385 5921at3193           -            956   1.9e-23   83.8   0.0   1   2   3.6e-26   3.9e-23   82.8   0.1   626   799    62   245    54   252 0.85 -
ID=PSME_00028083     -            385 5921at3193           -            956   1.9e-23   83.8   0.0   2   2       5.5   6.1e+03   -3.9   0.0   802   831   284   313   283   323 0.84 -
ID=PSME_00011263     -            943 5921at3193           -            956   4.4e-23   82.6   0.0   1   1     6e-26   6.6e-23   82.0   0.0   653   833   684   866   674   894 0.93 -
ID=PSME_00019801     -            901 5921at3193           -            956   4.6e-23   82.5   0.0   1   1   6.3e-26     7e-23   81.9   0.0   653   832   615   813   601   843 0.78 -
ID=PSME_00019159     -            379 5921at3193           -            956   8.7e-23   81.6   0.1   1   1   1.1e-25   1.2e-22   81.1   0.1   641   799    92   259    71   266 0.83 -
ID=PSME_00018810     -            344 5921at3193           -            956   9.2e-23   81.5   0.1   1   1   1.4e-25   1.5e-22   80.8   0.1   632   800    56   233    47   240 0.86 -
ID=PSME_00009532     -            372 5921at3193           -            956   7.3e-22   78.6   0.1   1   1   9.6e-25     1e-21   78.0   0.1   626   789    45   218    36   227 0.87 -
ID=PSME_00034209     -            606 5921at3193           -            956   1.7e-21   77.4   0.0   1   2   4.4e-24   4.9e-21   75.8   0.0   626   800   200   379   194   396 0.87 -
ID=PSME_00034209     -            606 5921at3193           -            956   1.7e-21   77.4   0.0   2   2       1.1   1.2e+03   -1.6   0.0   801   837   416   452   406   472 0.83 -
ID=PSME_00050008     -            408 5921at3193           -            956   4.1e-21   76.1   0.0   1   2   1.4e-23   1.5e-20   74.2   0.0   626   799    81   264    71   271 0.87 -
ID=PSME_00050008     -            408 5921at3193           -            956   4.1e-21   76.1   0.0   2   2      0.73     8e+02   -1.0   0.0   801   832   302   333   296   361 0.81 -
ID=PSME_00039427     -            464 5921at3193           -            956   1.2e-20   74.5   0.0   1   1   1.5e-23   1.6e-20   74.1   0.0   624   829   176   385   161   418 0.86 -
ID=PSME_00030897     -            379 5921at3193           -            956   3.1e-20   73.2   0.0   1   1   4.6e-23     5e-20   72.5   0.0   625   794    75   254    68   266 0.86 -
ID=PSME_00033797     -            341 5921at3193           -            956   2.6e-19   70.1   0.1   1   1   3.2e-22   3.5e-19   69.7   0.1   626   754    98   235    86   247 0.86 -
ID=PSME_00020305     -            523 5921at3193           -            956   4.5e-19   69.3   0.0   1   2   8.5e-22   9.3e-19   68.3   0.0   626   753    78   214    70   218 0.90 -
ID=PSME_00020305     -            523 5921at3193           -            956   4.5e-19   69.3   0.0   2   2       5.6   6.1e+03   -3.9   0.0   801   831   338   368   337   379 0.86 -
ID=PSME_00007918     -            279 5921at3193           -            956   5.1e-19   69.1   0.1   1   1   6.5e-22   7.1e-19   68.7   0.1   626   753    16   152    11   157 0.90 -
ID=PSME_00013934     -            366 5921at3193           -            956   9.9e-19   68.2   0.0   1   2   3.1e-21   3.4e-18   66.4   0.1   654   799   105   246    67   253 0.89 -
ID=PSME_00013934     -            366 5921at3193           -            956   9.9e-19   68.2   0.0   2   2      0.77   8.5e+02   -1.1   0.0   801   831   284   314   279   329 0.88 -
ID=PSME_00013570     -            565 5921at3193           -            956   2.4e-18   66.9   0.0   1   1   3.2e-21   3.5e-18   66.4   0.0   626   753   223   359   204   363 0.87 -
ID=PSME_00033946     -            391 5921at3193           -            956   2.9e-18   66.7   0.1   1   2   1.2e-20   1.3e-17   64.5   0.1   628   800    77   249    69   256 0.85 -
ID=PSME_00033946     -            391 5921at3193           -            956   2.9e-18   66.7   0.1   2   2       0.5   5.5e+02   -0.5   0.0   801   832   286   317   270   339 0.88 -
ID=PSME_00038897     -            310 5921at3193           -            956   5.5e-18   65.7   0.0   1   2   2.1e-20   2.2e-17   63.7   0.0   682   780     4   103     2   111 0.94 -
ID=PSME_00038897     -            310 5921at3193           -            956   5.5e-18   65.7   0.0   2   2       0.6   6.5e+02   -0.7   0.0   801   835   164   198   141   213 0.78 -
ID=PSME_00015374     -            334 5921at3193           -            956   2.5e-17   63.6   0.0   1   1   3.1e-20   3.4e-17   63.1   0.0   655   837    86   263    76   299 0.86 -
ID=PSME_00038309     -            352 5921at3193           -            956   8.2e-15   55.2   0.0   1   1   1.2e-17   1.3e-14   54.6   0.0   626   739    78   200    69   202 0.90 -
ID=PSME_00049154     -            375 5921at3193           -            956   1.6e-13   50.9   0.1   1   2   4.1e-14   4.5e-11   42.8   0.1   633   799    84   241    72   248 0.81 -
ID=PSME_00049154     -            375 5921at3193           -            956   1.6e-13   50.9   0.1   2   2      0.52   5.7e+02   -0.5   0.0   801   832   279   310   269   325 0.88 -
ID=PSME_00013092     -            267 5921at3193           -            956   2.6e-12   46.9   0.1   1   2   1.3e-14   1.4e-11   44.5   0.1   681   799     4   123     1   130 0.89 -
ID=PSME_00013092     -            267 5921at3193           -            956   2.6e-12   46.9   0.1   2   2      0.33   3.7e+02    0.1   0.0   801   832   161   192   153   212 0.88 -
ID=PSME_00002849     -            365 5921at3193           -            956   8.1e-12   45.3   0.1   1   1   1.5e-14   1.6e-11   44.3   0.1   626   729    69   181    63   305 0.75 -
ID=PSME_00032136     -            466 5921at3193           -            956   1.1e-11   44.9   0.1   1   2   3.5e-14   3.9e-11   43.1   0.1   682   799   178   296   173   303 0.90 -
ID=PSME_00032136     -            466 5921at3193           -            956   1.1e-11   44.9   0.1   2   2      0.74   8.1e+02   -1.0   0.0   801   832   334   365   325   389 0.89 -
ID=PSME_00004758     -             76 5921at3193           -            956   7.1e-11   42.2   0.0   1   1   6.7e-14   7.4e-11   42.1   0.0   682   753     4    75     1    75 0.96 -
ID=PSME_00026504     -            162 5921at3193           -            956   8.3e-11   42.0   0.3   1   1   8.6e-14   9.4e-11   41.8   0.3   677   778     7   110     2   142 0.88 -
ID=PSME_00046660     -            377 5921at3193           -            956     7e-10   38.9   0.0   1   3     5e-10   5.5e-07   29.3   0.0   625   702    77   163    71   168 0.84 -
ID=PSME_00046660     -            377 5921at3193           -            956     7e-10   38.9   0.0   2   3    0.0034       3.7    6.7   0.0   736   799   174   238   165   246 0.83 -
ID=PSME_00046660     -            377 5921at3193           -            956     7e-10   38.9   0.0   3   3       1.8     2e+03   -2.3   0.0   801   831   276   306   272   321 0.87 -
ID=PSME_00033606     -             93 5921at3193           -            956   9.2e-10   38.5   0.1   1   1     9e-13   9.8e-10   38.4   0.1   651   729    11    89     2    92 0.92 -
ID=PSME_00043455     -            272 5921at3193           -            956   4.2e-09   36.3   0.1   1   1   5.3e-12   5.8e-09   35.9   0.1   625   713   158   255   147   261 0.85 -
ID=PSME_00032571     -            191 5921at3193           -            956   1.7e-08   34.3   0.1   1   1     2e-11   2.2e-08   33.9   0.1   626   713    78   174    71   180 0.84 -
ID=PSME_00043896     -            433 5921at3193           -            956   3.1e-08   33.4   0.1   1   1     4e-11   4.4e-08   32.9   0.1   625   713   319   416   313   422 0.85 -
ID=PSME_00045960     -            533 5921at3193           -            956   4.8e-08   32.8   0.0   1   2   1.2e-06    0.0013   18.1   0.0   626   678   294   355   289   359 0.77 -
ID=PSME_00045960     -            533 5921at3193           -            956   4.8e-08   32.8   0.0   2   2   1.9e-05     0.021   14.2   0.0   717   770   353   407   351   471 0.70 -
ID=PSME_00015196     -            304 5921at3193           -            956   1.5e-07   31.2   0.1   1   1   1.9e-10   2.1e-07   30.7   0.1   625   713   190   287   179   294 0.84 -
ID=PSME_00019253     -            191 5921at3193           -            956   4.3e-07   29.7   0.1   1   1     5e-10   5.5e-07   29.3   0.1   634   709    87   170    73   179 0.77 -
ID=PSME_00031254     -            330 5921at3193           -            956   0.00013   21.5   0.0   1   2   1.9e-06    0.0021   17.5   0.0   626   679    78   140    71   152 0.74 -
ID=PSME_00031254     -            330 5921at3193           -            956   0.00013   21.5   0.0   2   2     0.097   1.1e+02    1.9   0.0   801   832   224   255   201   276 0.89 -
ID=PSME_00048248     -            138 5921at3193           -            956   0.00026   20.5   0.0   1   1   2.7e-07   0.00029   20.3   0.0   626   679    56   118    41   129 0.77 -
ID=PSME_00055759     -            160 5921at3193           -            956   0.00028   20.4   0.0   1   1   3.2e-07   0.00035   20.1   0.0   633   681    86   142    72   152 0.74 -
ID=PSME_00051039     -            174 5921at3193           -            956   0.00049   19.5   0.0   1   1   5.6e-07   0.00061   19.2   0.0   626   678   111   172   101   174 0.77 -
ID=PSME_00025175     -            267 5921at3193           -            956    0.0018   17.7   0.1   1   1   2.2e-06    0.0025   17.2   0.1   625   685    77   146    66   154 0.80 -
ID=PSME_00043050     -             71 5921at3193           -            956    0.0024   17.3   0.1   1   1   2.2e-06    0.0024   17.3   0.1   653   682    25    54     2    64 0.72 -
ID=PSME_00043763     -            466 5921at3193           -            956    0.0068   15.8   0.0   1   1   1.4e-05     0.016   14.6   0.0   712   758   284   331   266   412 0.88 -
ID=PSME_00021822     -            243 5921at3193           -            956     0.011   15.1   0.0   1   1   1.3e-05     0.014   14.7   0.0   682   736     2    56     1    67 0.94 -
ID=PSME_00004754     -            106 5921at3193           -            956     0.052   12.9   0.0   1   1   5.3e-05     0.058   12.7   0.0    97   138    56    97    41   103 0.91 -
ID=PSME_00004759     -            103 5921at3193           -            956      0.23   10.7   0.1   1   1   0.00022      0.25   10.6   0.1   754   821    12    88     2    98 0.67 -
ID=PSME_00002013     -            760 5921at3193           -            956      0.35   10.1   0.1   1   1   0.00049      0.54    9.5   0.1   649   672   456   479   444   490 0.85 -
ID=PSME_00010129     -            214 5921at3193           -            956      0.47    9.7   0.0   1   1   0.00056      0.61    9.3   0.0   652   671    85   104    51   110 0.73 -
ID=PSME_00037143     -            153 5921at3193           -            956      0.58    9.4   0.0   1   1   0.00073       0.8    8.9   0.0   654   672     9    27     2    35 0.82 -
#
# Program:         hmmsearch
# Version:         3.2.1 (June 2018)
# Pipeline mode:   SEARCH
# Query file:      /isg/shared/databases/BUSCO/odb10/embryophyta_odb10/hmms/5921at3193.hmm
# Target file:     /labs/Wegrzyn/ConiferGenomes/Psme/analysis/SURF_annotation/analyze_orig_maker/gfacs/filtered/maker_genes.fasta.faa
# Option settings: /usr/local/bin/hmmsearch --domtblout /labs/Wegrzyn/ConiferGenomes/Psme/analysis/SURF_annotation/analyze_orig_maker/busco/maker/run_embryophyta_odb10/hmmer_output/5921at3193.out --cpu 1 /isg/shared/databases/BUSCO/odb10/embryophyta_odb10/hmms/5921at3193.hmm /labs/Wegrzyn/ConiferGenomes/Psme/analysis/SURF_annotation/analyze_orig_maker/gfacs/filtered/maker_genes.fasta.faa 
# Current dir:     /labs/Wegrzyn/ConiferGenomes/Psme/analysis/SURF_annotation/analyze_orig_maker/busco
# Date:            Fri Jul 10 13:54:49 2020
# [ok]
