#                                                                            --- full sequence --- -------------- this domain -------------   hmm coord   ali coord   env coord
# target name        accession   tlen query name           accession   qlen   E-value  score  bias   #  of  c-Evalue  i-Evalue  score  bias  from    to  from    to  from    to  acc description of target
#------------------- ---------- ----- -------------------- ---------- ----- --------- ------ ----- --- --- --------- --------- ------ ----- ----- ----- ----- ----- ----- ----- ---- ---------------------
ID=PSME_00009965     -            883 6095at3193           -            688   5.7e-32  112.6   0.1   1   2   2.2e-13   1.5e-09   38.6   0.0    21   282   198   455   185   462 0.75 -
ID=PSME_00009965     -            883 6095at3193           -            688   5.7e-32  112.6   0.1   2   2   1.1e-22   7.7e-19   69.2   0.5   442   639   542   759   493   764 0.76 -
ID=PSME_00017777     -            421 6095at3193           -            688   1.5e-16   61.7  11.0   1   3   2.8e-07    0.0019   18.4   0.0   229   286    16    85    11   100 0.71 -
ID=PSME_00017777     -            421 6095at3193           -            688   1.5e-16   61.7  11.0   2   3      0.04   2.7e+02    1.3   0.1   399   473   108   186   103   212 0.75 -
ID=PSME_00017777     -            421 6095at3193           -            688   1.5e-16   61.7  11.0   3   3   8.1e-15   5.5e-11   43.3   5.7   487   630   244   388   214   391 0.81 -
ID=PSME_00006658     -            367 6095at3193           -            688   2.7e-13   50.9   3.8   1   1   5.1e-17   3.5e-13   50.6   3.8   487   634   111   262    28   294 0.82 -
ID=PSME_00054954     -            453 6095at3193           -            688   5.3e-12   46.7   6.2   1   2     0.057   3.9e+02    0.8   0.0   399   472    15    92    11   119 0.75 -
ID=PSME_00054954     -            453 6095at3193           -            688   5.3e-12   46.7   6.2   2   2     1e-15     7e-12   46.3   3.5   488   631   152   296   120   303 0.83 -
ID=PSME_00022466     -            403 6095at3193           -            688   4.8e-11   43.5   1.2   1   1   9.5e-15   6.5e-11   43.1   1.2   487   631   107   252    28   272 0.80 -
ID=PSME_00018115     -            323 6095at3193           -            688   6.3e-06   26.6   0.8   1   1   1.3e-09   8.7e-06   26.1   0.8   558   639     3    83     1    88 0.96 -
ID=PSME_00026901     -            219 6095at3193           -            688   6.7e-05   23.2   0.0   1   1   1.1e-08   7.6e-05   23.0   0.0   458   547    98   193    68   216 0.85 -
ID=PSME_00040349     -            528 6095at3193           -            688      0.12   12.4   0.0   1   2   5.8e-05      0.39   10.7   0.0   213   244     4    35     1    46 0.88 -
ID=PSME_00040349     -            528 6095at3193           -            688      0.12   12.4   0.0   2   2      0.42   2.9e+03   -2.1   0.0   258   286   112   140    96   159 0.78 -
#
# Program:         hmmsearch
# Version:         3.2.1 (June 2018)
# Pipeline mode:   SEARCH
# Query file:      /isg/shared/databases/BUSCO/odb10/embryophyta_odb10/hmms/6095at3193.hmm
# Target file:     /labs/Wegrzyn/ConiferGenomes/Psme/analysis/SURF_annotation/analyze_orig_maker/gfacs/filtered/maker_genes.fasta.faa
# Option settings: /usr/local/bin/hmmsearch --domtblout /labs/Wegrzyn/ConiferGenomes/Psme/analysis/SURF_annotation/analyze_orig_maker/busco/maker/run_embryophyta_odb10/hmmer_output/6095at3193.out --cpu 1 /isg/shared/databases/BUSCO/odb10/embryophyta_odb10/hmms/6095at3193.hmm /labs/Wegrzyn/ConiferGenomes/Psme/analysis/SURF_annotation/analyze_orig_maker/gfacs/filtered/maker_genes.fasta.faa 
# Current dir:     /labs/Wegrzyn/ConiferGenomes/Psme/analysis/SURF_annotation/analyze_orig_maker/busco
# Date:            Fri Jul 10 13:55:06 2020
# [ok]
