#                                                                            --- full sequence --- -------------- this domain -------------   hmm coord   ali coord   env coord
# target name        accession   tlen query name           accession   qlen   E-value  score  bias   #  of  c-Evalue  i-Evalue  score  bias  from    to  from    to  from    to  acc description of target
#------------------- ---------- ----- -------------------- ---------- ----- --------- ------ ----- --- --- --------- --------- ------ ----- ----- ----- ----- ----- ----- ----- ---- ---------------------
ID=PSME_00013056     -            687 61850at3193          -            624   4.3e-29  102.9   0.0   1   2   2.4e-30   2.6e-26   93.7   0.0     6   329    26   385    21   398 0.82 -
ID=PSME_00013056     -            687 61850at3193          -            624   4.3e-29  102.9   0.0   2   2    0.0003       3.3    7.5   0.0   440   501   390   451   377   467 0.84 -
ID=PSME_00048919     -            427 61850at3193          -            624   9.5e-26   91.9   0.0   1   2   1.2e-26   1.4e-22   81.4   0.0    56   328    29   331    25   344 0.83 -
ID=PSME_00048919     -            427 61850at3193          -            624   9.5e-26   91.9   0.0   2   2   0.00019       2.1    8.1   0.0   441   501   338   398   324   409 0.85 -
ID=PSME_00034011     -            543 61850at3193          -            624     4e-07   30.3   0.0   1   3   7.6e-08   0.00083   19.4   0.0   244   329     6    94     2   106 0.83 -
ID=PSME_00034011     -            543 61850at3193          -            624     4e-07   30.3   0.0   2   3   4.7e-05      0.52   10.1   0.0   437   501    96   160    79   176 0.83 -
ID=PSME_00034011     -            543 61850at3193          -            624     4e-07   30.3   0.0   3   3      0.73     8e+03   -3.7   0.0   464   511   437   488   434   493 0.76 -
ID=PSME_00009018     -            469 61850at3193          -            624    0.0011   19.0   0.2   1   1   1.4e-07    0.0015   18.5   0.2   236   314    44   122    40   136 0.93 -
ID=PSME_00022910     -            362 61850at3193          -            624      0.64    9.8   0.0   1   1   7.7e-05      0.84    9.4   0.0    46    85   139   179    88   192 0.87 -
#
# Program:         hmmsearch
# Version:         3.2.1 (June 2018)
# Pipeline mode:   SEARCH
# Query file:      /isg/shared/databases/BUSCO/odb10/embryophyta_odb10/hmms/61850at3193.hmm
# Target file:     /labs/Wegrzyn/ConiferGenomes/Psme/analysis/SURF_annotation/analyze_orig_maker/gfacs/filtered/maker_genes.fasta.faa
# Option settings: /usr/local/bin/hmmsearch --domtblout /labs/Wegrzyn/ConiferGenomes/Psme/analysis/SURF_annotation/analyze_orig_maker/busco/maker/run_embryophyta_odb10/hmmer_output/61850at3193.out --cpu 1 /isg/shared/databases/BUSCO/odb10/embryophyta_odb10/hmms/61850at3193.hmm /labs/Wegrzyn/ConiferGenomes/Psme/analysis/SURF_annotation/analyze_orig_maker/gfacs/filtered/maker_genes.fasta.faa 
# Current dir:     /labs/Wegrzyn/ConiferGenomes/Psme/analysis/SURF_annotation/analyze_orig_maker/busco
# Date:            Fri Jul 10 13:55:07 2020
# [ok]
