#                                                                            --- full sequence --- -------------- this domain -------------   hmm coord   ali coord   env coord
# target name        accession   tlen query name           accession   qlen   E-value  score  bias   #  of  c-Evalue  i-Evalue  score  bias  from    to  from    to  from    to  acc description of target
#------------------- ---------- ----- -------------------- ---------- ----- --------- ------ ----- --- --- --------- --------- ------ ----- ----- ----- ----- ----- ----- ----- ---- ---------------------
ID=PSME_00033974     -            439 63082at3193          -            397   1.6e-06   29.0   0.8   1   2   7.2e-07    0.0033   18.1   0.3     7    44    92   129    87   248 0.76 -
ID=PSME_00033974     -            439 63082at3193          -            397   1.6e-06   29.0   0.8   2   2    0.0026        12    6.4   0.0   264   314   321   371   298   414 0.82 -
ID=PSME_00031028     -            526 63082at3193          -            397   4.7e-05   24.2   0.0   1   3     0.015        68    3.9   0.0     6    40   113   147   109   157 0.89 -
ID=PSME_00031028     -            526 63082at3193          -            397   4.7e-05   24.2   0.0   2   3      0.22     1e+03    0.1   0.0   117   137   196   216   182   234 0.79 -
ID=PSME_00031028     -            526 63082at3193          -            397   4.7e-05   24.2   0.0   3   3   3.2e-06     0.015   16.0   0.0   242   311   296   362   284   390 0.78 -
ID=PSME_00000682     -            135 63082at3193          -            397   6.5e-05   23.7   0.0   1   1   1.6e-08   7.3e-05   23.6   0.0   242   315    34   104    21   127 0.77 -
ID=PSME_00012304     -            165 63082at3193          -            397   0.00042   21.1   0.0   1   1   1.1e-07   0.00049   20.9   0.0   242   315    37   107    21   132 0.78 -
ID=PSME_00032374     -            414 63082at3193          -            397   0.00057   20.7   0.0   1   1   1.8e-07   0.00082   20.1   0.0   255   339   270   354   257   410 0.64 -
ID=PSME_00043615     -            262 63082at3193          -            397   0.00091   20.0   0.0   1   1   2.7e-07    0.0012   19.5   0.0     7    76    95   161    92   188 0.85 -
ID=PSME_00037244     -           1311 63082at3193          -            397     0.022   15.4   0.0   1   3     0.017        77    3.8   0.0    54   117   264   327   231   336 0.90 -
ID=PSME_00037244     -           1311 63082at3193          -            397     0.022   15.4   0.0   2   3     0.029   1.3e+02    3.0   0.0    54   117   783   846   755   851 0.90 -
ID=PSME_00037244     -           1311 63082at3193          -            397     0.022   15.4   0.0   3   3     0.011        49    4.4   0.0    54   117  1215  1278  1185  1288 0.89 -
ID=PSME_00011305     -            320 63082at3193          -            397       0.1   13.2   0.0   1   1   3.5e-05      0.16   12.6   0.0     7    43    23    59    18    70 0.90 -
ID=PSME_00016131     -            690 63082at3193          -            397      0.14   12.8   0.0   1   2      0.08   3.7e+02    1.5   0.1    52   159    42   143    13   152 0.73 -
ID=PSME_00016131     -            690 63082at3193          -            397      0.14   12.8   0.0   2   2   0.00055       2.5    8.6   0.0   246   288   203   245   193   306 0.84 -
ID=PSME_00008302     -            286 63082at3193          -            397      0.15   12.7   0.0   1   1   4.6e-05      0.21   12.2   0.0   242   279    29    66    19    81 0.90 -
ID=PSME_00022060     -            489 63082at3193          -            397      0.16   12.6   0.0   1   3      0.53   2.4e+03   -1.2   0.0     8    40    49    82    45    90 0.78 -
ID=PSME_00022060     -            489 63082at3193          -            397      0.16   12.6   0.0   2   3       0.1   4.7e+02    1.2   0.0   117   139   131   153   109   171 0.78 -
ID=PSME_00022060     -            489 63082at3193          -            397      0.16   12.6   0.0   3   3     0.001       4.7    7.8   0.0   242   280   231   269   212   315 0.83 -
ID=PSME_00047032     -            935 63082at3193          -            397      0.43   11.2   0.0   1   3     0.037   1.7e+02    2.6   0.0    55   117     6    68     3    73 0.92 -
ID=PSME_00047032     -            935 63082at3193          -            397      0.43   11.2   0.0   2   3     0.029   1.3e+02    3.0   0.0    54   117   448   511   412   516 0.90 -
ID=PSME_00047032     -            935 63082at3193          -            397      0.43   11.2   0.0   3   3       0.1   4.7e+02    1.2   0.0    54   117   787   850   762   854 0.88 -
#
# Program:         hmmsearch
# Version:         3.2.1 (June 2018)
# Pipeline mode:   SEARCH
# Query file:      /isg/shared/databases/BUSCO/odb10/embryophyta_odb10/hmms/63082at3193.hmm
# Target file:     /labs/Wegrzyn/ConiferGenomes/Psme/analysis/SURF_annotation/analyze_orig_maker/gfacs/filtered/maker_genes.fasta.faa
# Option settings: /usr/local/bin/hmmsearch --domtblout /labs/Wegrzyn/ConiferGenomes/Psme/analysis/SURF_annotation/analyze_orig_maker/busco/maker/run_embryophyta_odb10/hmmer_output/63082at3193.out --cpu 1 /isg/shared/databases/BUSCO/odb10/embryophyta_odb10/hmms/63082at3193.hmm /labs/Wegrzyn/ConiferGenomes/Psme/analysis/SURF_annotation/analyze_orig_maker/gfacs/filtered/maker_genes.fasta.faa 
# Current dir:     /labs/Wegrzyn/ConiferGenomes/Psme/analysis/SURF_annotation/analyze_orig_maker/busco
# Date:            Fri Jul 10 13:55:09 2020
# [ok]
