#                                                                            --- full sequence --- -------------- this domain -------------   hmm coord   ali coord   env coord
# target name        accession   tlen query name           accession   qlen   E-value  score  bias   #  of  c-Evalue  i-Evalue  score  bias  from    to  from    to  from    to  acc description of target
#------------------- ---------- ----- -------------------- ---------- ----- --------- ------ ----- --- --- --------- --------- ------ ----- ----- ----- ----- ----- ----- ----- ---- ---------------------
ID=PSME_00030638     -            460 63167at3193          -            404   1.2e-09   39.1   0.0   1   3   3.1e-05     0.024   15.0   0.0   270   323    46    99    24   137 0.87 -
ID=PSME_00030638     -            460 63167at3193          -            404   1.2e-09   39.1   0.0   2   3     0.097        74    3.6   0.0   271   295   159   183   149   190 0.88 -
ID=PSME_00030638     -            460 63167at3193          -            404   1.2e-09   39.1   0.0   3   3   1.2e-05    0.0094   16.4   0.0   271   313   199   241   196   248 0.92 -
ID=PSME_00055882     -            504 63167at3193          -            404     4e-09   37.4   0.3   1   5    0.0047       3.6    7.9   0.0   270   313   197   240   189   248 0.91 -
ID=PSME_00055882     -            504 63167at3193          -            404     4e-09   37.4   0.3   2   5    0.0041       3.1    8.1   0.1   272   311   265   304   256   308 0.90 -
ID=PSME_00055882     -            504 63167at3193          -            404     4e-09   37.4   0.3   3   5    0.0056       4.2    7.6   0.0   273   314   299   340   295   349 0.91 -
ID=PSME_00055882     -            504 63167at3193          -            404     4e-09   37.4   0.3   4   5      0.65   4.9e+02    0.8   0.0   274   321   354   401   342   411 0.76 -
ID=PSME_00055882     -            504 63167at3193          -            404     4e-09   37.4   0.3   5   5    0.0039         3    8.1   0.0   272   310   418   456   408   462 0.89 -
ID=PSME_00018130     -            429 63167at3193          -            404   1.3e-07   32.4   3.0   1   3   4.3e-10   3.3e-07   31.1   0.0    20    64    14    58    10    68 0.91 -
ID=PSME_00018130     -            429 63167at3193          -            404   1.3e-07   32.4   3.0   2   3       1.4   1.1e+03   -0.3   0.1    14    47    73   105    61   122 0.82 -
ID=PSME_00018130     -            429 63167at3193          -            404   1.3e-07   32.4   3.0   3   3       1.5   1.1e+03   -0.3   0.2    18    51   251   281   246   307 0.75 -
ID=PSME_00007816     -            809 63167at3193          -            404   9.4e-07   29.6   0.3   1   5      0.99   7.5e+02    0.2   0.0   263   306   123   166    95   177 0.73 -
ID=PSME_00007816     -            809 63167at3193          -            404   9.4e-07   29.6   0.3   2   5    0.0029       2.2    8.6   0.0   271   325   375   429   366   446 0.87 -
ID=PSME_00007816     -            809 63167at3193          -            404   9.4e-07   29.6   0.3   3   5         1   7.8e+02    0.2   0.0   254   313   464   521   433   529 0.77 -
ID=PSME_00007816     -            809 63167at3193          -            404   9.4e-07   29.6   0.3   4   5      0.12        88    3.3   0.0   278   324   519   565   510   572 0.92 -
ID=PSME_00007816     -            809 63167at3193          -            404   9.4e-07   29.6   0.3   5   5    0.0011      0.86    9.9   0.0   273   313   580   620   574   657 0.81 -
ID=PSME_00024966     -            476 63167at3193          -            404     2e-06   28.4   0.0   1   2    0.0044       3.3    8.0   0.0   266   312    76   122    42   127 0.87 -
ID=PSME_00024966     -            476 63167at3193          -            404     2e-06   28.4   0.0   2   2   5.4e-06    0.0041   17.6   0.0   272   312   231   271   227   276 0.94 -
ID=PSME_00005487     -            622 63167at3193          -            404   2.8e-05   24.7   0.1   1   4     0.003       2.3    8.5   0.0   270   321   210   261   200   270 0.87 -
ID=PSME_00005487     -            622 63167at3193          -            404   2.8e-05   24.7   0.1   2   4       2.7   2.1e+03   -1.2   0.0   256   310   302   354   292   367 0.68 -
ID=PSME_00005487     -            622 63167at3193          -            404   2.8e-05   24.7   0.1   3   4   0.00079       0.6   10.4   0.0   271   312   414   455   403   460 0.90 -
ID=PSME_00005487     -            622 63167at3193          -            404   2.8e-05   24.7   0.1   4   4    0.0087       6.6    7.0   0.0   273   314   449   490   448   496 0.92 -
ID=PSME_00027948     -            584 63167at3193          -            404   3.1e-05   24.6   0.2   1   3    0.0049       3.7    7.8   0.0   270   321   236   287   225   296 0.87 -
ID=PSME_00027948     -            584 63167at3193          -            404   3.1e-05   24.6   0.2   2   3   0.00075      0.57   10.5   0.0   271   312   409   450   397   454 0.90 -
ID=PSME_00027948     -            584 63167at3193          -            404   3.1e-05   24.6   0.2   3   3    0.0022       1.7    9.0   0.0   273   314   444   485   443   513 0.84 -
ID=PSME_00030805     -            602 63167at3193          -            404     4e-05   24.2   0.1   1   5     0.022        17    5.7   0.0   270   313   190   233   182   267 0.86 -
ID=PSME_00030805     -            602 63167at3193          -            404     4e-05   24.2   0.1   2   5       3.6   2.7e+03   -1.6   0.0   267   294   293   317   274   342 0.67 -
ID=PSME_00030805     -            602 63167at3193          -            404     4e-05   24.2   0.1   3   5       1.7   1.3e+03   -0.5   0.0   285   324   342   381   327   389 0.79 -
ID=PSME_00030805     -            602 63167at3193          -            404     4e-05   24.2   0.1   4   5   0.00082      0.63   10.4   0.0   271   312   394   435   386   440 0.91 -
ID=PSME_00030805     -            602 63167at3193          -            404     4e-05   24.2   0.1   5   5    0.0028       2.1    8.6   0.0   273   315   429   471   428   497 0.89 -
ID=PSME_00037256     -            595 63167at3193          -            404   4.3e-05   24.1   0.2   1   3    0.0015       1.1    9.5   0.0   270   321   211   262   200   271 0.87 -
ID=PSME_00037256     -            595 63167at3193          -            404   4.3e-05   24.1   0.2   2   3   0.00057      0.44   10.9   0.0   271   312   399   440   390   447 0.91 -
ID=PSME_00037256     -            595 63167at3193          -            404   4.3e-05   24.1   0.2   3   3     0.038        29    4.9   0.0   273   314   434   475   433   480 0.92 -
ID=PSME_00043866     -            540 63167at3193          -            404   4.5e-05   24.0   0.0   1   3    0.0028       2.1    8.6   0.0   270   320   140   190   131   199 0.87 -
ID=PSME_00043866     -            540 63167at3193          -            404   4.5e-05   24.0   0.0   2   3       2.7     2e+03   -1.2   0.0   256   306   232   280   221   300 0.67 -
ID=PSME_00043866     -            540 63167at3193          -            404   4.5e-05   24.0   0.0   3   3   0.00044      0.33   11.3   0.0   271   312   344   385   332   394 0.90 -
ID=PSME_00046828     -            462 63167at3193          -            404   6.6e-05   23.5   0.1   1   5      0.19   1.5e+02    2.6   0.0   271   321    51   101    47   111 0.83 -
ID=PSME_00046828     -            462 63167at3193          -            404   6.6e-05   23.5   0.1   2   5      0.18   1.4e+02    2.7   0.0   267   313    80   126    76   134 0.90 -
ID=PSME_00046828     -            462 63167at3193          -            404   6.6e-05   23.5   0.1   3   5         2   1.5e+03   -0.8   0.0   255   294   141   177   130   205 0.67 -
ID=PSME_00046828     -            462 63167at3193          -            404   6.6e-05   23.5   0.1   4   5   0.00055      0.42   11.0   0.0   271   312   254   295   244   302 0.90 -
ID=PSME_00046828     -            462 63167at3193          -            404   6.6e-05   23.5   0.1   5   5   0.00069      0.53   10.6   0.0   273   316   289   332   287   344 0.93 -
ID=PSME_00005850     -            529 63167at3193          -            404   7.6e-05   23.3   0.2   1   5    0.0022       1.7    9.0   0.0   270   321   239   290   227   299 0.86 -
ID=PSME_00005850     -            529 63167at3193          -            404   7.6e-05   23.3   0.2   2   5       3.2   2.4e+03   -1.5   0.0   271   294   337   360   318   394 0.69 -
ID=PSME_00005850     -            529 63167at3193          -            404   7.6e-05   23.3   0.2   3   5       1.1   8.7e+02    0.0   0.0   285   324   385   424   370   432 0.80 -
ID=PSME_00005850     -            529 63167at3193          -            404   7.6e-05   23.3   0.2   4   5     0.016        12    6.1   0.0   271   311   437   477   427   482 0.89 -
ID=PSME_00005850     -            529 63167at3193          -            404   7.6e-05   23.3   0.2   5   5      0.03        23    5.2   0.0   273   314   472   513   471   519 0.91 -
ID=PSME_00049021     -            492 63167at3193          -            404   8.3e-05   23.2   0.1   1   3    0.0013      0.98    9.7   0.0   270   323   149   202   140   226 0.83 -
ID=PSME_00049021     -            492 63167at3193          -            404   8.3e-05   23.2   0.1   2   3     0.002       1.5    9.1   0.0   270   312   283   325   268   334 0.90 -
ID=PSME_00049021     -            492 63167at3193          -            404   8.3e-05   23.2   0.1   3   3       1.5   1.2e+03   -0.4   0.0   289   314   335   360   327   370 0.82 -
ID=PSME_00034308     -            611 63167at3193          -            404   8.4e-05   23.1   0.0   1   4    0.0012      0.92    9.8   0.0   263   321   225   283   216   292 0.85 -
ID=PSME_00034308     -            611 63167at3193          -            404   8.4e-05   23.1   0.0   2   4       5.1   3.9e+03   -2.1   0.0   256   295   324   360   311   389 0.67 -
ID=PSME_00034308     -            611 63167at3193          -            404   8.4e-05   23.1   0.0   3   4    0.0022       1.6    9.0   0.0   271   312   436   477   425   486 0.90 -
ID=PSME_00034308     -            611 63167at3193          -            404   8.4e-05   23.1   0.0   4   4     0.018        13    6.0   0.0   272   313   470   511   466   517 0.91 -
ID=PSME_00021701     -            365 63167at3193          -            404   9.4e-05   23.0   0.1   1   4       2.4   1.8e+03   -1.0   0.0   279   313     4    38     2    48 0.89 -
ID=PSME_00021701     -            365 63167at3193          -            404   9.4e-05   23.0   0.1   2   4       1.2   8.9e+02   -0.0   0.0   271   313    66   109    43   124 0.71 -
ID=PSME_00021701     -            365 63167at3193          -            404   9.4e-05   23.0   0.1   3   4   0.00023      0.17   12.2   0.0   271   312   165   206   155   211 0.90 -
ID=PSME_00021701     -            365 63167at3193          -            404   9.4e-05   23.0   0.1   4   4   0.00012     0.092   13.1   0.0   273   315   200   242   198   268 0.85 -
ID=PSME_00005488     -            535 63167at3193          -            404   0.00012   22.7   0.4   1   3      0.38   2.9e+02    1.6   0.0   272   296    23    47    14    57 0.85 -
ID=PSME_00005488     -            535 63167at3193          -            404   0.00012   22.7   0.4   2   3    0.0001     0.077   13.4   0.0   271   312   160   202   150   208 0.89 -
ID=PSME_00005488     -            535 63167at3193          -            404   0.00012   22.7   0.4   3   3      0.19   1.5e+02    2.6   0.0   256   311   211   269   206   280 0.74 -
ID=PSME_00045748     -            639 63167at3193          -            404   0.00018   22.0   0.1   1   3    0.0019       1.4    9.2   0.0   267   321   233   287   224   296 0.86 -
ID=PSME_00045748     -            639 63167at3193          -            404   0.00018   22.0   0.1   2   3     0.029        22    5.3   0.0   271   312   431   472   425   476 0.91 -
ID=PSME_00045748     -            639 63167at3193          -            404   0.00018   22.0   0.1   3   3    0.0013         1    9.7   0.0   272   315   465   508   455   540 0.84 -
ID=PSME_00029539     -            448 63167at3193          -            404   0.00019   22.0   0.0   1   2     0.065        50    4.1   0.0   253   321   172   239   167   255 0.75 -
ID=PSME_00029539     -            448 63167at3193          -            404   0.00019   22.0   0.0   2   2   2.1e-05     0.016   15.7   0.0   272   313   256   297   250   315 0.91 -
ID=PSME_00036047     -            626 63167at3193          -            404   0.00022   21.7   0.1   1   3     0.016        12    6.1   0.0   269   321   213   265   203   275 0.86 -
ID=PSME_00036047     -            626 63167at3193          -            404   0.00022   21.7   0.1   2   3       6.6     5e+03   -2.5   0.0   267   294   317   341   297   369 0.65 -
ID=PSME_00036047     -            626 63167at3193          -            404   0.00022   21.7   0.1   3   3   0.00056      0.42   10.9   0.0   271   314   451   494   408   529 0.74 -
ID=PSME_00004335     -            137 63167at3193          -            404   0.00023   21.7   0.0   1   2     0.014        11    6.3   0.0   272   307    13    48     6    49 0.94 -
ID=PSME_00004335     -            137 63167at3193          -            404   0.00023   21.7   0.0   2   2   6.3e-06    0.0048   17.3   0.0   272   317    46    94    43   108 0.81 -
ID=PSME_00003921     -            677 63167at3193          -            404   0.00025   21.6   0.1   1   3    0.0021       1.6    9.1   0.0   269   321   207   259   197   291 0.88 -
ID=PSME_00003921     -            677 63167at3193          -            404   0.00025   21.6   0.1   2   3    0.0017       1.3    9.3   0.0   271   313   399   441   389   450 0.90 -
ID=PSME_00003921     -            677 63167at3193          -            404   0.00025   21.6   0.1   3   3      0.13        97    3.2   0.0   273   314   434   475   433   480 0.91 -
ID=PSME_00044629     -            579 63167at3193          -            404   0.00037   21.0   0.1   1   3    0.0028       2.1    8.6   0.0   270   321   167   218   157   226 0.87 -
ID=PSME_00044629     -            579 63167at3193          -            404   0.00037   21.0   0.1   2   3    0.0039       2.9    8.2   0.0   271   312   371   412   363   417 0.91 -
ID=PSME_00044629     -            579 63167at3193          -            404   0.00037   21.0   0.1   3   3     0.014        11    6.3   0.0   272   314   405   447   396   453 0.90 -
ID=PSME_00043290     -            848 63167at3193          -            404   0.00039   20.9   0.2   1   3     0.023        18    5.6   0.0   271   321   419   469   413   477 0.88 -
ID=PSME_00043290     -            848 63167at3193          -            404   0.00039   20.9   0.2   2   3   0.00098      0.75   10.1   0.0   271   312   640   681   624   688 0.89 -
ID=PSME_00043290     -            848 63167at3193          -            404   0.00039   20.9   0.2   3   3    0.0055       4.2    7.7   0.0   273   315   675   717   673   735 0.87 -
ID=PSME_00049730     -            623 63167at3193          -            404   0.00055   20.4   0.0   1   2    0.0033       2.6    8.4   0.0   269   321   210   262   202   271 0.87 -
ID=PSME_00049730     -            623 63167at3193          -            404   0.00055   20.4   0.0   2   2    0.0021       1.6    9.0   0.0   271   312   415   456   400   494 0.91 -
ID=PSME_00020294     -            613 63167at3193          -            404   0.00059   20.3   0.1   1   3    0.0089       6.8    7.0   0.0   270   321   201   252   191   262 0.87 -
ID=PSME_00020294     -            613 63167at3193          -            404   0.00059   20.3   0.1   2   3    0.0048       3.6    7.9   0.0   271   312   405   446   396   454 0.90 -
ID=PSME_00020294     -            613 63167at3193          -            404   0.00059   20.3   0.1   3   3    0.0054       4.1    7.7   0.0   272   313   439   480   435   487 0.91 -
ID=PSME_00007442     -            921 63167at3193          -            404   0.00068   20.1   0.0   1   3   0.00011     0.084   13.3   0.0   272   310   602   640   596   661 0.89 -
ID=PSME_00007442     -            921 63167at3193          -            404   0.00068   20.1   0.0   2   3      0.29   2.2e+02    2.0   0.0   275   315   669   709   663   721 0.87 -
ID=PSME_00007442     -            921 63167at3193          -            404   0.00068   20.1   0.0   3   3     0.079        60    3.9   0.0   272   312   699   739   689   746 0.89 -
ID=PSME_00039156     -            729 63167at3193          -            404   0.00081   19.9   0.2   1   3    0.0039       2.9    8.2   0.0   270   320   278   328   270   337 0.87 -
ID=PSME_00039156     -            729 63167at3193          -            404   0.00081   19.9   0.2   2   3    0.0065         5    7.4   0.0   271   312   466   507   450   514 0.89 -
ID=PSME_00039156     -            729 63167at3193          -            404   0.00081   19.9   0.2   3   3     0.035        27    5.0   0.0   273   314   501   542   500   548 0.91 -
ID=PSME_00023514     -            517 63167at3193          -            404   0.00084   19.8   0.1   1   3    0.0024       1.8    8.9   0.0   270   320   225   275   217   284 0.89 -
ID=PSME_00023514     -            517 63167at3193          -            404   0.00084   19.8   0.1   2   3     0.084        64    3.8   0.0   271   312   425   466   415   468 0.90 -
ID=PSME_00023514     -            517 63167at3193          -            404   0.00084   19.8   0.1   3   3    0.0058       4.4    7.6   0.0   272   314   459   501   446   507 0.89 -
ID=PSME_00009949     -            971 63167at3193          -            404   0.00084   19.8   0.0   1   2   8.1e-05     0.061   13.7   0.0   250   317   577   646   562   670 0.82 -
ID=PSME_00009949     -            971 63167at3193          -            404   0.00084   19.8   0.0   2   2     0.092        70    3.6   0.0   273   314   732   773   725   787 0.88 -
ID=PSME_00027752     -            577 63167at3193          -            404    0.0011   19.4   0.2   1   3     0.043        33    4.7   0.0   270   321   229   280   219   289 0.86 -
ID=PSME_00027752     -            577 63167at3193          -            404    0.0011   19.4   0.2   2   3    0.0008      0.61   10.4   0.0   270   312   368   410   352   416 0.89 -
ID=PSME_00027752     -            577 63167at3193          -            404    0.0011   19.4   0.2   3   3      0.67   5.1e+02    0.8   0.0   283   314   414   445   409   451 0.79 -
ID=PSME_00003808     -            657 63167at3193          -            404    0.0011   19.4   0.2   1   3     0.042        32    4.8   0.0   269   320   261   312   251   322 0.86 -
ID=PSME_00003808     -            657 63167at3193          -            404    0.0011   19.4   0.2   2   3   0.00072      0.55   10.6   0.0   271   313   466   508   452   516 0.89 -
ID=PSME_00003808     -            657 63167at3193          -            404    0.0011   19.4   0.2   3   3     0.014        11    6.3   0.0   273   314   501   542   500   548 0.92 -
ID=PSME_00043521     -            515 63167at3193          -            404    0.0013   19.3   0.1   1   4     0.071        54    4.0   0.0   270   321   167   218   157   228 0.86 -
ID=PSME_00043521     -            515 63167at3193          -            404    0.0013   19.3   0.1   2   4       6.8   5.2e+03   -2.5   0.0   288   323   258   293   244   300 0.76 -
ID=PSME_00043521     -            515 63167at3193          -            404    0.0013   19.3   0.1   3   4    0.0016       1.2    9.5   0.0   271   312   307   348   287   355 0.88 -
ID=PSME_00043521     -            515 63167at3193          -            404    0.0013   19.3   0.1   4   4     0.011       8.4    6.7   0.0   273   314   342   383   341   390 0.91 -
ID=PSME_00049426     -            648 63167at3193          -            404    0.0014   19.1   0.1   1   4     0.049        37    4.5   0.0   270   322   236   288   226   298 0.85 -
ID=PSME_00049426     -            648 63167at3193          -            404    0.0014   19.1   0.1   2   4       2.7     2e+03   -1.2   0.0   255   309   327   379   317   399 0.70 -
ID=PSME_00049426     -            648 63167at3193          -            404    0.0014   19.1   0.1   3   4       0.1        77    3.5   0.0   271   311   440   480   427   481 0.90 -
ID=PSME_00049426     -            648 63167at3193          -            404    0.0014   19.1   0.1   4   4    0.0015       1.2    9.5   0.0   272   314   474   516   466   529 0.90 -
ID=PSME_00010419     -            611 63167at3193          -            404    0.0017   18.8   0.1   1   2     0.014        11    6.3   0.0   270   321   211   262   202   282 0.88 -
ID=PSME_00010419     -            611 63167at3193          -            404    0.0017   18.8   0.1   2   2    0.0011      0.85    9.9   0.0   271   318   415   462   374   491 0.90 -
ID=PSME_00018328     -            270 63167at3193          -            404     0.002   18.6   0.0   1   3       1.9   1.4e+03   -0.7   0.0   289   324    14    49     3    58 0.78 -
ID=PSME_00018328     -            270 63167at3193          -            404     0.002   18.6   0.0   2   3   0.00025      0.19   12.1   0.0   271   312    62   103    52   111 0.90 -
ID=PSME_00018328     -            270 63167at3193          -            404     0.002   18.6   0.0   3   3   0.00072      0.55   10.6   0.0   273   315    97   139    94   152 0.91 -
ID=PSME_00003450     -            576 63167at3193          -            404    0.0021   18.5   0.1   1   3    0.0097       7.4    6.8   0.0   270   321   201   252   193   261 0.87 -
ID=PSME_00003450     -            576 63167at3193          -            404    0.0021   18.5   0.1   2   3     0.018        14    5.9   0.0   271   312   401   442   392   447 0.90 -
ID=PSME_00003450     -            576 63167at3193          -            404    0.0021   18.5   0.1   3   3     0.014        11    6.3   0.0   273   313   436   476   434   484 0.92 -
ID=PSME_00004750     -            173 63167at3193          -            404    0.0026   18.2   0.0   1   3     0.024        18    5.6   0.0   272   297    30    55    16    65 0.90 -
ID=PSME_00004750     -            173 63167at3193          -            404    0.0026   18.2   0.0   2   3   0.00012     0.094   13.1   0.0   248   315    35   112    31   123 0.70 -
ID=PSME_00004750     -            173 63167at3193          -            404    0.0026   18.2   0.0   3   3      0.32   2.4e+02    1.9   0.0   273   294   103   124    96   137 0.74 -
ID=PSME_00032584     -            555 63167at3193          -            404    0.0028   18.1   0.0   1   4     0.055        42    4.4   0.0   250   313   187   250   156   264 0.85 -
ID=PSME_00032584     -            555 63167at3193          -            404    0.0028   18.1   0.0   2   4      0.35   2.7e+02    1.7   0.0    98   124   307   333   289   344 0.84 -
ID=PSME_00032584     -            555 63167at3193          -            404    0.0028   18.1   0.0   3   4    0.0097       7.4    6.8   0.0   271   312   347   388   335   394 0.87 -
ID=PSME_00032584     -            555 63167at3193          -            404    0.0028   18.1   0.0   4   4       0.1        77    3.5   0.0   273   313   382   422   379   428 0.91 -
ID=PSME_00016393     -            226 63167at3193          -            404    0.0033   17.9   0.1   1   1   6.4e-06    0.0049   17.3   0.1    20    52   164   196   154   214 0.91 -
ID=PSME_00002516     -            216 63167at3193          -            404    0.0051   17.3   0.0   1   2    0.0011      0.83   10.0   0.0   272   309    69   106    63   139 0.87 -
ID=PSME_00002516     -            216 63167at3193          -            404    0.0051   17.3   0.0   2   2     0.026        20    5.4   0.0   271   297   182   208   154   213 0.83 -
ID=PSME_00018860     -            917 63167at3193          -            404    0.0074   16.7   0.0   1   3     0.035        27    5.0   0.0   251   313   526   590   515   596 0.77 -
ID=PSME_00018860     -            917 63167at3193          -            404    0.0074   16.7   0.0   2   3     0.038        29    4.9   0.0   271   308   581   618   576   622 0.91 -
ID=PSME_00018860     -            917 63167at3193          -            404    0.0074   16.7   0.0   3   3    0.0059       4.5    7.5   0.0   272   314   679   721   673   732 0.90 -
ID=PSME_00002218     -            155 63167at3193          -            404    0.0081   16.6   0.0   1   1   1.4e-05     0.011   16.2   0.0   272   315    15    58    10    66 0.91 -
ID=PSME_00048745     -            667 63167at3193          -            404    0.0093   16.4   0.1   1   3      0.09        68    3.7   0.0   270   321   255   306   246   321 0.87 -
ID=PSME_00048745     -            667 63167at3193          -            404    0.0093   16.4   0.1   2   3       7.2   5.5e+03   -2.6   0.0   282   323   404   445   384   459 0.77 -
ID=PSME_00048745     -            667 63167at3193          -            404    0.0093   16.4   0.1   3   3    0.0018       1.4    9.2   0.0   272   314   493   535   448   541 0.85 -
ID=PSME_00050893     -            227 63167at3193          -            404    0.0098   16.3   0.0   1   1   1.9e-05     0.014   15.8   0.0   260   316   110   170    86   215 0.82 -
ID=PSME_00020013     -            253 63167at3193          -            404     0.014   15.8   0.0   1   2   0.00022      0.17   12.2   0.0   271   312   135   176   125   182 0.90 -
ID=PSME_00020013     -            253 63167at3193          -            404     0.014   15.8   0.0   2   2    0.0032       2.4    8.4   0.0   272   312   169   209   166   217 0.90 -
ID=PSME_00016105     -            916 63167at3193          -            404     0.016   15.6   0.0   1   2     0.025        19    5.5   0.0   275   314   559   598   530   613 0.82 -
ID=PSME_00016105     -            916 63167at3193          -            404     0.016   15.6   0.0   2   2    0.0051       3.9    7.8   0.0   272   313   686   727   680   734 0.92 -
ID=PSME_00009950     -            995 63167at3193          -            404      0.02   15.3   0.0   1   2     0.013       9.9    6.4   0.0   271   307   660   696   630   702 0.91 -
ID=PSME_00009950     -            995 63167at3193          -            404      0.02   15.3   0.0   2   2     0.014        11    6.3   0.0   272   314   758   800   731   810 0.93 -
ID=PSME_00055903     -            260 63167at3193          -            404      0.02   15.3   0.1   1   3      0.11        82    3.4   0.0   273   312    18    58    11    75 0.66 -
ID=PSME_00055903     -            260 63167at3193          -            404      0.02   15.3   0.1   2   3      0.26     2e+02    2.1   0.0   270   292    49    71    35   110 0.77 -
ID=PSME_00055903     -            260 63167at3193          -            404      0.02   15.3   0.1   3   3    0.0015       1.1    9.6   0.0   272   320   117   165   107   235 0.86 -
ID=PSME_00013699     -            142 63167at3193          -            404     0.021   15.2   0.1   1   2         2   1.5e+03   -0.8   0.0   272   307     9    44     5    53 0.88 -
ID=PSME_00013699     -            142 63167at3193          -            404     0.021   15.2   0.1   2   2    0.0001     0.078   13.4   0.0   271   312    81   122    64   131 0.87 -
ID=PSME_00037153     -            270 63167at3193          -            404     0.025   15.0   0.0   1   2   0.00023      0.17   12.2   0.0   271   312    62   103    47   109 0.90 -
ID=PSME_00037153     -            270 63167at3193          -            404     0.025   15.0   0.0   2   2     0.011       8.7    6.6   0.0   273   313    97   137    97   144 0.91 -
ID=PSME_00008448     -            317 63167at3193          -            404     0.026   14.9   0.0   1   3   0.00065      0.49   10.7   0.0   268   311    70   113    39   125 0.84 -
ID=PSME_00008448     -            317 63167at3193          -            404     0.026   14.9   0.0   2   3       2.8   2.1e+03   -1.3   0.0   273   298   238   263   235   278 0.83 -
ID=PSME_00008448     -            317 63167at3193          -            404     0.026   14.9   0.0   3   3       0.9   6.8e+02    0.4   0.0   269   296   277   304   271   313 0.78 -
ID=PSME_00022789     -            567 63167at3193          -            404     0.028   14.8   0.0   1   2   0.00032      0.25   11.7   0.0   271   314   260   303   242   313 0.86 -
ID=PSME_00022789     -            567 63167at3193          -            404     0.028   14.8   0.0   2   2    0.0086       6.6    7.0   0.0   273   314   295   336   294   342 0.92 -
ID=PSME_00041233     -            270 63167at3193          -            404     0.032   14.6   0.0   1   3       4.7   3.5e+03   -2.0   0.0   289   323    14    48     3    58 0.74 -
ID=PSME_00041233     -            270 63167at3193          -            404     0.032   14.6   0.0   2   3    0.0011      0.81   10.0   0.0   270   312    61   103    48   111 0.89 -
ID=PSME_00041233     -            270 63167at3193          -            404     0.032   14.6   0.0   3   3     0.022        17    5.7   0.0   273   314    97   138    97   145 0.90 -
ID=PSME_00031102     -            460 63167at3193          -            404     0.044   14.2   0.1   1   3       2.5   1.9e+03   -1.1   0.0   271   309   214   252   207   283 0.81 -
ID=PSME_00031102     -            460 63167at3193          -            404     0.044   14.2   0.1   2   3    0.0031       2.3    8.5   0.0   271   312   342   383   332   388 0.90 -
ID=PSME_00031102     -            460 63167at3193          -            404     0.044   14.2   0.1   3   3     0.011       8.4    6.7   0.0   273   314   377   418   376   425 0.90 -
ID=PSME_00025265     -            386 63167at3193          -            404     0.061   13.7   0.2   1   2     0.032        25    5.1   0.1   271   311   167   207   164   215 0.89 -
ID=PSME_00025265     -            386 63167at3193          -            404     0.061   13.7   0.2   2   2     0.012       9.3    6.5   0.0   270   318   232   280   221   286 0.88 -
ID=PSME_00024974     -            445 63167at3193          -            404     0.065   13.6   0.0   1   2    0.0012       0.9    9.9   0.0   271   312   237   278   220   283 0.89 -
ID=PSME_00024974     -            445 63167at3193          -            404     0.065   13.6   0.0   2   2    0.0057       4.4    7.6   0.0   273   319   272   314   270   348 0.81 -
ID=PSME_00040705     -            600 63167at3193          -            404     0.068   13.6   0.1   1   2     0.003       2.3    8.5   0.0   270   312   391   433   375   437 0.87 -
ID=PSME_00040705     -            600 63167at3193          -            404     0.068   13.6   0.1   2   2    0.0027         2    8.7   0.0   273   315   427   469   426   487 0.87 -
ID=PSME_00021154     -           1673 63167at3193          -            404     0.072   13.5   0.1   1   3      0.95   7.2e+02    0.3   0.0   276   311   593   628   579   636 0.84 -
ID=PSME_00021154     -           1673 63167at3193          -            404     0.072   13.5   0.1   2   3    0.0015       1.1    9.5   0.0   272   312   766   806   758   814 0.91 -
ID=PSME_00021154     -           1673 63167at3193          -            404     0.072   13.5   0.1   3   3     0.072        55    4.0   0.0   270   317   797   846   796   850 0.87 -
ID=PSME_00004366     -            342 63167at3193          -            404     0.099   13.0   2.7   1   1   0.00018      0.14   12.5   2.7   342   377   275   310   267   317 0.89 -
ID=PSME_00043239     -            630 63167at3193          -            404      0.11   12.9   0.1   1   2     0.051        39    4.5   0.0   270   320   230   280   222   289 0.87 -
ID=PSME_00043239     -            630 63167at3193          -            404      0.11   12.9   0.1   2   2     0.022        17    5.7   0.0   271   312   422   463   372   473 0.92 -
ID=PSME_00057101     -            154 63167at3193          -            404      0.11   12.8   0.0   1   1   0.00017      0.13   12.6   0.0   177   279    23   135     6   145 0.72 -
ID=PSME_00044844     -            164 63167at3193          -            404      0.14   12.5   0.0   1   1    0.0003      0.23   11.8   0.0   270   314    31    77    24    89 0.83 -
ID=PSME_00025630     -            187 63167at3193          -            404      0.19   12.1   0.0   1   1   0.00031      0.24   11.8   0.0   238   313    85   162    73   176 0.82 -
ID=PSME_00018097     -            412 63167at3193          -            404       0.2   12.0   0.2   1   2     0.014        11    6.3   0.1   272   311   239   278   220   285 0.86 -
ID=PSME_00018097     -            412 63167at3193          -            404       0.2   12.0   0.2   2   2     0.098        74    3.5   0.0   270   313   303   346   298   359 0.87 -
ID=PSME_00038015     -            483 63167at3193          -            404      0.26   11.6   0.3   1   2     0.057        43    4.3   0.0   274   311   254   291   249   299 0.89 -
ID=PSME_00038015     -            483 63167at3193          -            404      0.26   11.6   0.3   2   2     0.029        22    5.3   0.0   270   312   316   358   309   366 0.91 -
ID=PSME_00033858     -            130 63167at3193          -            404      0.32   11.3   0.0   1   2       1.1   8.4e+02    0.1   0.0   276   322     3    50     2    65 0.75 -
ID=PSME_00033858     -            130 63167at3193          -            404      0.32   11.3   0.0   2   2     0.002       1.5    9.1   0.0   272   315    66   111    60   121 0.87 -
ID=PSME_00049206     -            412 63167at3193          -            404      0.42   11.0   0.0   1   2    0.0016       1.2    9.4   0.0   270   321   202   253   194   279 0.88 -
ID=PSME_00049206     -            412 63167at3193          -            404      0.42   11.0   0.0   2   2         4     3e+03   -1.8   0.0   272   310   307   346   284   389 0.69 -
ID=PSME_00041234     -            330 63167at3193          -            404      0.57   10.5   0.0   1   1    0.0011      0.85    9.9   0.0   266   320   235   289   227   299 0.86 -
ID=PSME_00039540     -            443 63167at3193          -            404      0.69   10.2   0.0   1   1    0.0014         1    9.7   0.0   243   311   341   411   328   422 0.82 -
ID=PSME_00034359     -            218 63167at3193          -            404      0.82   10.0   6.3   1   1    0.0013      0.99    9.7   6.3   293   392    49   150    17   161 0.54 -
ID=PSME_00008500     -            177 63167at3193          -            404       3.1    8.1  13.3   1   1    0.0043       3.3    8.0  13.3   351   391    73   113     9   122 0.60 -
ID=PSME_00047760     -            184 63167at3193          -            404       3.9    7.8  13.8   1   1    0.0058       4.4    7.6  13.8   321   387    83   145    32   152 0.65 -
#
# Program:         hmmsearch
# Version:         3.2.1 (June 2018)
# Pipeline mode:   SEARCH
# Query file:      /isg/shared/databases/BUSCO/odb10/embryophyta_odb10/hmms/63167at3193.hmm
# Target file:     /labs/Wegrzyn/ConiferGenomes/Psme/analysis/SURF_annotation/analyze_orig_maker/gfacs/filtered/maker_genes.fasta.faa
# Option settings: /usr/local/bin/hmmsearch --domtblout /labs/Wegrzyn/ConiferGenomes/Psme/analysis/SURF_annotation/analyze_orig_maker/busco/maker/run_embryophyta_odb10/hmmer_output/63167at3193.out --cpu 1 /isg/shared/databases/BUSCO/odb10/embryophyta_odb10/hmms/63167at3193.hmm /labs/Wegrzyn/ConiferGenomes/Psme/analysis/SURF_annotation/analyze_orig_maker/gfacs/filtered/maker_genes.fasta.faa 
# Current dir:     /labs/Wegrzyn/ConiferGenomes/Psme/analysis/SURF_annotation/analyze_orig_maker/busco
# Date:            Fri Jul 10 13:55:12 2020
# [ok]
