#                                                                            --- full sequence --- -------------- this domain -------------   hmm coord   ali coord   env coord
# target name        accession   tlen query name           accession   qlen   E-value  score  bias   #  of  c-Evalue  i-Evalue  score  bias  from    to  from    to  from    to  acc description of target
#------------------- ---------- ----- -------------------- ---------- ----- --------- ------ ----- --- --- --------- --------- ------ ----- ----- ----- ----- ----- ----- ----- ---- ---------------------
ID=PSME_00010814     -            597 64104at3193          -            373   7.4e-36  125.5   0.0   1   2   1.7e-18   9.9e-16   59.2   0.0    22   163   189   355   173   373 0.77 -
ID=PSME_00010814     -            597 64104at3193          -            373   7.4e-36  125.5   0.0   2   2   5.8e-20   3.5e-17   64.0   0.0   240   353   416   531   389   543 0.88 -
ID=PSME_00010735     -            620 64104at3193          -            373   1.7e-35  124.3   0.2   1   2   8.2e-16   4.9e-13   50.4   0.0    12   153   179   349   173   360 0.73 -
ID=PSME_00010735     -            620 64104at3193          -            373   1.7e-35  124.3   0.2   2   2   2.9e-22   1.7e-19   71.6   0.2   239   348   426   537   408   569 0.83 -
ID=PSME_00019301     -            459 64104at3193          -            373   7.7e-34  118.8   0.4   1   2   1.2e-17   7.3e-15   56.4   0.0    24   156   103   255    91   285 0.82 -
ID=PSME_00019301     -            459 64104at3193          -            373   7.7e-34  118.8   0.4   2   2   6.2e-19   3.7e-16   60.6   0.1   240   348   320   430   296   440 0.88 -
ID=PSME_00036706     -            640 64104at3193          -            373     2e-33  117.4   0.1   1   2   7.4e-12   4.4e-09   37.3   0.0    23   155   192   354   174   391 0.76 -
ID=PSME_00036706     -            640 64104at3193          -            373     2e-33  117.4   0.1   2   2   2.2e-23   1.3e-20   75.3   0.0   243   353   435   547   414   558 0.91 -
ID=PSME_00034692     -            661 64104at3193          -            373   3.3e-33  116.7   0.1   1   3   1.4e-07   8.6e-05   23.2   0.0    23    67   210   254   196   257 0.90 -
ID=PSME_00034692     -            661 64104at3193          -            373   3.3e-33  116.7   0.1   2   3   1.5e-05    0.0087   16.6   0.0   107   155   328   379   322   416 0.90 -
ID=PSME_00034692     -            661 64104at3193          -            373   3.3e-33  116.7   0.1   3   3     1e-22     6e-20   73.1   0.0   243   350   462   571   438   583 0.91 -
ID=PSME_00017714     -            628 64104at3193          -            373     5e-33  116.2   0.0   1   2   1.5e-16   8.7e-14   52.8   0.0    23   162   119   287   110   304 0.76 -
ID=PSME_00017714     -            628 64104at3193          -            373     5e-33  116.2   0.0   2   2   8.3e-19   4.9e-16   60.2   0.0   240   350   349   461   318   475 0.87 -
ID=PSME_00029838     -            502 64104at3193          -            373   8.3e-33  115.4   0.7   1   1   7.1e-32   4.2e-29  103.2   0.7    24   348   146   473   129   481 0.80 -
ID=PSME_00034125     -            870 64104at3193          -            373   6.8e-32  112.4   0.0   1   2   7.4e-17   4.4e-14   53.8   0.0    21   163   235   401   229   415 0.77 -
ID=PSME_00034125     -            870 64104at3193          -            373   6.8e-32  112.4   0.0   2   2     4e-18   2.4e-15   58.0   0.0   179   350   398   574   395   590 0.73 -
ID=PSME_00040415     -            761 64104at3193          -            373   2.8e-31  110.4   0.0   1   2   1.1e-15   6.6e-13   49.9   0.0    21   156   195   354   188   373 0.76 -
ID=PSME_00040415     -            761 64104at3193          -            373   2.8e-31  110.4   0.0   2   2   6.3e-19   3.8e-16   60.6   0.0   173   346   352   530   347   549 0.77 -
ID=PSME_00043687     -            413 64104at3193          -            373   6.1e-31  109.3   0.1   1   2   9.3e-18   5.5e-15   56.8   0.0     3   155    34   209    32   215 0.84 -
ID=PSME_00043687     -            413 64104at3193          -            373   6.1e-31  109.3   0.1   2   2   7.4e-16   4.4e-13   50.5   0.1   232   352   264   391   248   399 0.83 -
ID=PSME_00013617     -           1440 64104at3193          -            373   1.3e-30  108.3   0.0   1   2     1e-17   6.1e-15   56.6   0.0     9   161   679   862   675   879 0.76 -
ID=PSME_00013617     -           1440 64104at3193          -            373   1.3e-30  108.3   0.0   2   2   1.9e-15   1.1e-12   49.2   0.0   243   351   927  1037   923  1048 0.88 -
ID=PSME_00000892     -            412 64104at3193          -            373   2.1e-30  107.5   0.1   1   2   1.7e-17     1e-14   55.9   0.0     3   155    33   208    31   214 0.84 -
ID=PSME_00000892     -            412 64104at3193          -            373   2.1e-30  107.5   0.1   2   2   1.4e-15   8.5e-13   49.6   0.1   232   352   263   390   247   400 0.83 -
ID=PSME_00015686     -            849 64104at3193          -            373   3.8e-30  106.7   0.0   1   3   3.7e-11   2.2e-08   35.0   0.0     9    68   214   277   207   279 0.81 -
ID=PSME_00015686     -            849 64104at3193          -            373   3.8e-30  106.7   0.0   2   3     0.017        10    6.6   0.0    69   155   308   410   304   456 0.70 -
ID=PSME_00015686     -            849 64104at3193          -            373   3.8e-30  106.7   0.0   3   3   4.7e-19   2.8e-16   61.0   0.1   239   348   535   646   507   658 0.86 -
ID=PSME_00049527     -            414 64104at3193          -            373   9.6e-30  105.3   0.1   1   2   1.2e-16   7.3e-14   53.1   0.0     5   155    37   210    33   216 0.81 -
ID=PSME_00049527     -            414 64104at3193          -            373   9.6e-30  105.3   0.1   2   2   9.3e-16   5.6e-13   50.2   0.1   225   352   257   392   249   402 0.83 -
ID=PSME_00039428     -            658 64104at3193          -            373   1.4e-29  104.8   0.1   1   2   3.8e-14   2.2e-11   44.9   0.0     6   153   150   324   148   337 0.78 -
ID=PSME_00039428     -            658 64104at3193          -            373   1.4e-29  104.8   0.1   2   2     7e-18   4.2e-15   57.2   0.0   243   352   399   509   389   526 0.88 -
ID=PSME_00013357     -           1195 64104at3193          -            373   2.2e-29  104.2   0.0   1   2   1.5e-17     9e-15   56.1   0.0     9   161   539   722   535   739 0.75 -
ID=PSME_00013357     -           1195 64104at3193          -            373   2.2e-29  104.2   0.0   2   2   2.3e-14   1.4e-11   45.6   0.0   243   345   787   891   783   908 0.85 -
ID=PSME_00047883     -            410 64104at3193          -            373   8.8e-29  102.2   0.1   1   2   8.1e-16   4.8e-13   50.4   0.0    10   153    37   203    29   210 0.79 -
ID=PSME_00047883     -            410 64104at3193          -            373   8.8e-29  102.2   0.1   2   2   1.3e-15   7.7e-13   49.7   0.1   222   349   250   385   244   396 0.84 -
ID=PSME_00013579     -            522 64104at3193          -            373   9.4e-29  102.1   0.6   1   1     7e-28   4.2e-25   90.1   0.6    23   352    75   412    58   420 0.74 -
ID=PSME_00047834     -            410 64104at3193          -            373   1.1e-28  101.8   0.1   1   2   9.9e-16   5.9e-13   50.1   0.0    10   155    37   205    28   213 0.79 -
ID=PSME_00047834     -            410 64104at3193          -            373   1.1e-28  101.8   0.1   2   2   1.3e-15   7.7e-13   49.7   0.1   222   349   250   385   244   396 0.84 -
ID=PSME_00041552     -            451 64104at3193          -            373   1.7e-28  101.2   0.1   1   2   1.2e-15   7.4e-13   49.8   0.0    10   155    78   246    69   254 0.79 -
ID=PSME_00041552     -            451 64104at3193          -            373   1.7e-28  101.2   0.1   2   2   1.6e-15   9.4e-13   49.4   0.1   222   349   291   426   285   437 0.84 -
ID=PSME_00039230     -            553 64104at3193          -            373   1.8e-28  101.2   0.2   1   2   2.2e-20   1.3e-17   65.4   0.4    24   155   168   326   158   362 0.80 -
ID=PSME_00039230     -            553 64104at3193          -            373   1.8e-28  101.2   0.2   2   2   1.6e-10   9.5e-08   33.0   0.0   226   352   373   509   348   518 0.77 -
ID=PSME_00017117     -            639 64104at3193          -            373   3.6e-28  100.2   0.1   1   3   5.4e-12   3.2e-09   37.8   0.0     9    67   192   253   186   262 0.87 -
ID=PSME_00017117     -            639 64104at3193          -            373   3.6e-28  100.2   0.1   2   3   0.00027      0.16   12.5   0.0   106   195   322   421   271   434 0.72 -
ID=PSME_00017117     -            639 64104at3193          -            373   3.6e-28  100.2   0.1   3   3   1.5e-14   9.2e-12   46.2   0.0   220   347   467   601   456   612 0.79 -
ID=PSME_00041255     -            553 64104at3193          -            373   6.7e-28   99.3   0.2   1   2   7.7e-20   4.6e-17   63.6   0.3    24   156   168   327   158   367 0.79 -
ID=PSME_00041255     -            553 64104at3193          -            373   6.7e-28   99.3   0.2   2   2   1.3e-10   7.9e-08   33.2   0.0   221   352   368   509   328   518 0.78 -
ID=PSME_00047772     -            410 64104at3193          -            373   1.2e-27   98.4   0.1   1   2   3.6e-15   2.2e-12   48.2   0.0    10   155    37   205    28   213 0.80 -
ID=PSME_00047772     -            410 64104at3193          -            373   1.2e-27   98.4   0.1   2   2   3.9e-15   2.3e-12   48.1   0.1   222   349   250   385   244   396 0.84 -
ID=PSME_00046222     -            855 64104at3193          -            373   2.2e-27   97.6   0.3   1   2   3.5e-14   2.1e-11   45.0   0.0    12   162   268   446   262   465 0.75 -
ID=PSME_00046222     -            855 64104at3193          -            373   2.2e-27   97.6   0.3   2   2   8.7e-16   5.2e-13   50.3   0.1   244   345   512   616   499   629 0.86 -
ID=PSME_00013759     -            610 64104at3193          -            373   2.4e-27   97.5   0.0   1   2   2.9e-12   1.7e-09   38.7   0.0     7    75   139   210   136   236 0.86 -
ID=PSME_00013759     -            610 64104at3193          -            373   2.4e-27   97.5   0.0   2   2   1.1e-17   6.7e-15   56.5   0.0   241   333   358   452   351   463 0.90 -
ID=PSME_00012859     -            635 64104at3193          -            373   2.4e-27   97.5   1.6   1   1   6.4e-26   3.8e-23   83.6   1.6    21   349   205   550   199   558 0.71 -
ID=PSME_00039978     -            439 64104at3193          -            373     5e-27   96.4   0.1   1   1   5.2e-26   3.1e-23   83.9   0.1    23   353    73   414    56   422 0.73 -
ID=PSME_00017078     -            795 64104at3193          -            373   7.6e-26   92.5   0.0   1   2   3.3e-15     2e-12   48.4   0.0    15   155    86   254    80   289 0.77 -
ID=PSME_00017078     -            795 64104at3193          -            373   7.6e-26   92.5   0.0   2   2   2.9e-13   1.7e-10   42.0   0.0   217   351   295   438   256   458 0.82 -
ID=PSME_00037049     -            308 64104at3193          -            373   7.8e-23   82.6   0.0   1   2      0.18   1.1e+02    3.2   0.0   128   153     2    27     1    32 0.91 -
ID=PSME_00037049     -            308 64104at3193          -            373   7.8e-23   82.6   0.0   2   2   5.3e-24   3.2e-21   77.3   0.0   243   352   110   221    87   233 0.91 -
ID=PSME_00039979     -            347 64104at3193          -            373   1.5e-20   75.1   0.2   1   1   1.3e-19   7.6e-17   62.9   0.2    44   354     2   323     1   330 0.70 -
ID=PSME_00043843     -            307 64104at3193          -            373   6.5e-19   69.7   0.0   1   1   1.5e-21   9.1e-19   69.2   0.0     8   158    51   227    47   256 0.81 -
ID=PSME_00034714     -            387 64104at3193          -            373   1.3e-18   68.7   0.1   1   2   2.9e-14   1.7e-11   45.3   0.0     9   151    40   205    34   223 0.79 -
ID=PSME_00034714     -            387 64104at3193          -            373   1.3e-18   68.7   0.1   2   2   1.3e-06   0.00078   20.1   0.0   258   347   255   360   241   375 0.74 -
ID=PSME_00041551     -            330 64104at3193          -            373     3e-18   67.5   0.3   1   2   5.2e-05     0.031   14.8   0.0    77   155    34   125    19   133 0.75 -
ID=PSME_00041551     -            330 64104at3193          -            373     3e-18   67.5   0.3   2   2   5.5e-16   3.3e-13   50.9   0.1   222   349   170   305   164   316 0.84 -
ID=PSME_00042380     -            288 64104at3193          -            373   3.6e-17   64.0   0.1   1   2   0.00037      0.22   12.0   0.0   108   155    33    83    10    91 0.80 -
ID=PSME_00042380     -            288 64104at3193          -            373   3.6e-17   64.0   0.1   2   2   9.5e-16   5.6e-13   50.2   0.0   222   347   128   261   122   273 0.85 -
ID=PSME_00055275     -            274 64104at3193          -            373   6.8e-17   63.1   0.1   1   2   0.00022      0.13   12.7   0.0   108   155    19    69     4    77 0.78 -
ID=PSME_00055275     -            274 64104at3193          -            373   6.8e-17   63.1   0.1   2   2   3.2e-15   1.9e-12   48.4   0.0   222   349   114   249   108   260 0.84 -
ID=PSME_00041256     -            266 64104at3193          -            373   1.8e-16   61.6   0.0   1   2   7.7e-09   4.6e-06   27.4   0.0    68   149    14   108     9   110 0.79 -
ID=PSME_00041256     -            266 64104at3193          -            373   1.8e-16   61.6   0.0   2   2   2.5e-10   1.5e-07   32.3   0.0   245   352   112   222   108   231 0.82 -
ID=PSME_00017596     -            281 64104at3193          -            373     3e-16   60.9   0.0   1   1   6.3e-19   3.7e-16   60.6   0.0   260   349     4    95     1   107 0.88 -
ID=PSME_00028267     -            194 64104at3193          -            373   1.1e-15   59.1   0.0   1   1   2.7e-18   1.6e-15   58.5   0.0    22   153     6   156     2   160 0.81 -
ID=PSME_00017686     -            235 64104at3193          -            373   2.4e-15   58.0   0.0   1   2   3.1e-06    0.0019   18.8   0.0    20    67    94   141    74   148 0.84 -
ID=PSME_00017686     -            235 64104at3193          -            373   2.4e-15   58.0   0.0   2   2   7.5e-12   4.5e-09   37.3   0.0   291   349   152   210   144   221 0.89 -
ID=PSME_00018498     -            348 64104at3193          -            373   6.7e-15   56.5   0.0   1   2   0.00089      0.53   10.8   0.0   105   155     7    63     1    76 0.81 -
ID=PSME_00018498     -            348 64104at3193          -            373   6.7e-15   56.5   0.0   2   2     9e-14   5.4e-11   43.6   0.0   242   338   136   234   122   241 0.89 -
ID=PSME_00043842     -            117 64104at3193          -            373   1.5e-14   55.3   0.0   1   1   2.9e-17   1.7e-14   55.1   0.0   257   345    21   111     8   115 0.89 -
ID=PSME_00036350     -            213 64104at3193          -            373   1.6e-14   55.3   0.0   1   1   3.2e-17   1.9e-14   55.0   0.0   239   333    70   174    38   190 0.80 -
ID=PSME_00050148     -            238 64104at3193          -            373   2.2e-14   54.8   0.0   1   1   4.8e-17   2.9e-14   54.4   0.0   245   358    79   194    71   200 0.89 -
ID=PSME_00043222     -            470 64104at3193          -            373   2.4e-14   54.7   0.2   1   2    0.0004      0.24   11.9   0.0   107   154    47    97    42   113 0.87 -
ID=PSME_00043222     -            470 64104at3193          -            373   2.4e-14   54.7   0.2   2   2   6.8e-13     4e-10   40.8   0.0   289   349   218   276   195   293 0.80 -
ID=PSME_00055514     -            174 64104at3193          -            373   4.2e-14   53.9   0.0   1   2    0.0002      0.12   12.9   0.0   108   157    33    85    10    89 0.80 -
ID=PSME_00055514     -            174 64104at3193          -            373   4.2e-14   53.9   0.0   2   2   1.2e-12     7e-10   40.0   0.0   289   351    89   151    82   161 0.87 -
ID=PSME_00049494     -            220 64104at3193          -            373   4.8e-14   53.7   0.0   1   1     1e-16   6.2e-14   53.3   0.0     3   147    24   191    22   194 0.83 -
ID=PSME_00027093     -            219 64104at3193          -            373   1.4e-13   52.2   0.0   1   2   0.00038      0.23   12.0   0.0   108   156    78   129    74   134 0.76 -
ID=PSME_00027093     -            219 64104at3193          -            373   1.4e-13   52.2   0.0   2   2   2.2e-12   1.3e-09   39.1   0.0   289   350   134   195   126   206 0.86 -
ID=PSME_00013820     -            716 64104at3193          -            373   1.5e-13   52.1   0.0   1   2    0.0021       1.2    9.5   0.0   107   151   224   271   179   280 0.88 -
ID=PSME_00013820     -            716 64104at3193          -            373   1.5e-13   52.1   0.0   2   2   1.4e-12   8.4e-10   39.7   0.0   180   344   283   450   273   465 0.69 -
ID=PSME_00045197     -            225 64104at3193          -            373   1.9e-13   51.7   0.0   1   1   4.1e-16   2.5e-13   51.3   0.0    21   154    54   207    33   215 0.79 -
ID=PSME_00049962     -            144 64104at3193          -            373   1.3e-12   49.0   0.1   1   1   2.6e-15   1.6e-12   48.7   0.1   242   344    28   135    16   142 0.78 -
ID=PSME_00052722     -            200 64104at3193          -            373   1.6e-12   48.7   0.0   1   1   3.3e-15     2e-12   48.4   0.0    10   147    40   200    31   200 0.79 -
ID=PSME_00048644     -            249 64104at3193          -            373   2.3e-11   44.9   0.2   1   2    0.0013      0.77   10.2   0.1   115   156   111   159    71   164 0.65 -
ID=PSME_00048644     -            249 64104at3193          -            373   2.3e-11   44.9   0.2   2   2   9.1e-11   5.4e-08   33.8   0.0   285   347   159   222   153   235 0.87 -
ID=PSME_00032141     -            428 64104at3193          -            373   6.1e-11   43.5   0.1   1   1   1.6e-12   9.8e-10   39.5   0.1   108   322   161   382   112   387 0.77 -
ID=PSME_00010415     -            436 64104at3193          -            373   1.5e-09   38.9   0.0   1   1   3.7e-12   2.2e-09   38.3   0.0   238   334    38   136    24   166 0.80 -
ID=PSME_00051106     -            329 64104at3193          -            373   7.4e-08   33.3   0.0   1   1   1.6e-10   9.8e-08   32.9   0.0   278   332   201   256   185   279 0.83 -
ID=PSME_00050161     -            434 64104at3193          -            373   9.9e-08   32.9   0.0   1   1   2.4e-10   1.4e-07   32.4   0.0   275   333   303   362   289   387 0.83 -
ID=PSME_00011616     -            112 64104at3193          -            373   1.2e-07   32.6   0.0   1   1   2.4e-10   1.4e-07   32.4   0.0   266   326    40   102    23   108 0.82 -
ID=PSME_00002746     -            234 64104at3193          -            373   1.2e-07   32.6   0.0   1   1   2.4e-10   1.4e-07   32.4   0.0   231   345    70   194    10   212 0.73 -
ID=PSME_00049912     -            458 64104at3193          -            373   1.9e-07   32.0   0.0   1   1   4.6e-10   2.7e-07   31.5   0.0   274   332   326   385   314   409 0.84 -
ID=PSME_00048066     -            454 64104at3193          -            373     3e-07   31.3   0.0   1   1     7e-10   4.2e-07   30.8   0.0   276   332   324   381   308   401 0.83 -
ID=PSME_00006013     -           1155 64104at3193          -            373   3.6e-07   31.0   0.2   1   2    0.0041       2.4    8.6   0.0    30   139   613   736   595   761 0.67 -
ID=PSME_00006013     -           1155 64104at3193          -            373   3.6e-07   31.0   0.2   2   2   1.1e-06   0.00067   20.3   0.0   245   339   842   938   835   954 0.86 -
ID=PSME_00014729     -            167 64104at3193          -            373   4.5e-07   30.7   0.0   1   1   9.8e-10   5.8e-07   30.4   0.0   268   351    12    97     4   116 0.80 -
ID=PSME_00048514     -            458 64104at3193          -            373   4.6e-07   30.7   0.0   1   1   1.2e-09     7e-07   30.1   0.0   276   333   328   386   314   410 0.83 -
ID=PSME_00027092     -            134 64104at3193          -            373   5.6e-07   30.4   0.2   1   1   1.1e-09   6.6e-07   30.2   0.2    24   110    18   112    12   129 0.87 -
ID=PSME_00050090     -            269 64104at3193          -            373   1.1e-06   29.4   0.0   1   1   2.6e-09   1.5e-06   29.0   0.0   269   332   131   196   115   220 0.79 -
ID=PSME_00044513     -            390 64104at3193          -            373   1.9e-06   28.7   0.0   1   1   4.4e-09   2.6e-06   28.2   0.0   274   330   197   254   186   270 0.84 -
ID=PSME_00036962     -            389 64104at3193          -            373   3.4e-06   27.8   0.0   1   1   8.4e-09     5e-06   27.3   0.0   226   360   151   292    83   298 0.79 -
ID=PSME_00018597     -            247 64104at3193          -            373   3.5e-06   27.8   0.0   1   1   8.4e-09     5e-06   27.3   0.0   232   349   115   237   100   244 0.79 -
ID=PSME_00018596     -            233 64104at3193          -            373   8.3e-06   26.6   0.0   1   1   1.8e-08   1.1e-05   26.2   0.0   232   341   101   214    84   230 0.79 -
ID=PSME_00045843     -            329 64104at3193          -            373   1.1e-05   26.1   0.0   1   1   2.5e-08   1.5e-05   25.7   0.0   274   332   197   256   185   279 0.85 -
ID=PSME_00014730     -            155 64104at3193          -            373   2.1e-05   25.3   0.2   1   1     4e-08   2.4e-05   25.0   0.2   108   162    47   107    34   143 0.81 -
ID=PSME_00021159     -            329 64104at3193          -            373   2.2e-05   25.2   0.0   1   1     5e-08     3e-05   24.7   0.0   277   332   200   256   183   281 0.80 -
ID=PSME_00013680     -            411 64104at3193          -            373   3.1e-05   24.7   0.0   1   1   7.6e-08   4.5e-05   24.2   0.0   273   314    92   133    66   139 0.79 -
ID=PSME_00012902     -            369 64104at3193          -            373   0.00036   21.2   0.2   1   1   8.8e-07   0.00053   20.6   0.2   254   346   201   296   174   314 0.84 -
ID=PSME_00049025     -            189 64104at3193          -            373    0.0038   17.8   0.0   1   1   8.5e-06    0.0051   17.4   0.0   237   338    72   177    56   186 0.80 -
ID=PSME_00009840     -            353 64104at3193          -            373    0.0068   17.0   1.6   1   2   5.9e-05     0.035   14.6   0.1   319   352    54    87    43   101 0.83 -
ID=PSME_00009840     -            353 64104at3193          -            373    0.0068   17.0   1.6   2   2      0.74   4.4e+02    1.1   0.3   220   286   157   225   133   228 0.81 -
ID=PSME_00047178     -            423 64104at3193          -            373     0.011   16.3   0.0   1   2     0.042        25    5.2   0.0   107   156   125   180    92   195 0.82 -
ID=PSME_00047178     -            423 64104at3193          -            373     0.011   16.3   0.0   2   2    0.0041       2.4    8.6   0.0   299   355   247   303   240   311 0.88 -
ID=PSME_00051440     -            299 64104at3193          -            373     0.014   16.0   0.0   1   1   3.2e-05     0.019   15.5   0.0   109   156     7    57     4    84 0.77 -
ID=PSME_00036351     -            134 64104at3193          -            373     0.016   15.8   0.0   1   2      0.23   1.4e+02    2.8   0.0   107   140    33    69    27    87 0.82 -
ID=PSME_00036351     -            134 64104at3193          -            373     0.016   15.8   0.0   2   2   0.00065      0.39   11.2   0.0   179   223    90   130    86   134 0.83 -
ID=PSME_00010460     -           1691 64104at3193          -            373     0.021   15.4   0.5   1   2      0.31   1.8e+02    2.4   0.0    38   135    92   213    85   218 0.51 -
ID=PSME_00010460     -           1691 64104at3193          -            373     0.021   15.4   0.5   2   2    0.0012      0.69   10.4   0.1   280   335   485   541   427   557 0.75 -
ID=PSME_00024625     -            235 64104at3193          -            373     0.021   15.4   0.2   1   2         2   1.2e+03   -0.3   0.1    70   150     6   100     3   129 0.53 -
ID=PSME_00024625     -            235 64104at3193          -            373     0.021   15.4   0.2   2   2   0.00015     0.089   13.3   0.0   300   348   161   209   147   223 0.82 -
ID=PSME_00043919     -             95 64104at3193          -            373     0.038   14.5   0.0   1   1   7.3e-05     0.043   14.3   0.0   261   340     2    85     1    93 0.73 -
ID=PSME_00048282     -            239 64104at3193          -            373      0.11   13.0   0.0   1   1   0.00024      0.14   12.6   0.0   298   332   148   182   144   207 0.91 -
ID=PSME_00036183     -            344 64104at3193          -            373      0.14   12.7   0.0   1   1   0.00033      0.19   12.2   0.0     5    87   182   265   179   326 0.78 -
ID=PSME_00040259     -            170 64104at3193          -            373      0.14   12.7   0.0   1   1   0.00025      0.15   12.5   0.0   248   300    53   106    43   146 0.86 -
ID=PSME_00022970     -           1012 64104at3193          -            373      0.23   12.0   0.0   1   1   0.00069      0.41   11.1   0.0    32   136    83   193    78   198 0.80 -
ID=PSME_00040391     -            195 64104at3193          -            373      0.24   11.9   0.0   1   1   0.00052      0.31   11.5   0.0   282   335    24    78    16   102 0.79 -
ID=PSME_00049369     -            166 64104at3193          -            373      0.41   11.1   0.0   1   1   0.00071      0.42   11.1   0.0   107   159    67   125    20   145 0.81 -
ID=PSME_00011638     -            424 64104at3193          -            373      0.51   10.8   0.0   1   1    0.0016      0.93   10.0   0.0   128   155   381   408   373   412 0.90 -
ID=PSME_00033701     -            891 64104at3193          -            373      0.54   10.7   0.0   1   2      0.23   1.4e+02    2.8   0.0    41    58   466   483   445   492 0.73 -
ID=PSME_00033701     -            891 64104at3193          -            373      0.54   10.7   0.0   2   2     0.041        24    5.3   0.0    41    58   673   690   651   709 0.74 -
ID=PSME_00034496     -            230 64104at3193          -            373      0.56   10.7   0.1   1   1    0.0013      0.77   10.2   0.1   127   152    92   117    80   134 0.82 -
#
# Program:         hmmsearch
# Version:         3.2.1 (June 2018)
# Pipeline mode:   SEARCH
# Query file:      /isg/shared/databases/BUSCO/odb10/embryophyta_odb10/hmms/64104at3193.hmm
# Target file:     /labs/Wegrzyn/ConiferGenomes/Psme/analysis/SURF_annotation/analyze_orig_maker/gfacs/filtered/maker_genes.fasta.faa
# Option settings: /usr/local/bin/hmmsearch --domtblout /labs/Wegrzyn/ConiferGenomes/Psme/analysis/SURF_annotation/analyze_orig_maker/busco/maker/run_embryophyta_odb10/hmmer_output/64104at3193.out --cpu 1 /isg/shared/databases/BUSCO/odb10/embryophyta_odb10/hmms/64104at3193.hmm /labs/Wegrzyn/ConiferGenomes/Psme/analysis/SURF_annotation/analyze_orig_maker/gfacs/filtered/maker_genes.fasta.faa 
# Current dir:     /labs/Wegrzyn/ConiferGenomes/Psme/analysis/SURF_annotation/analyze_orig_maker/busco
# Date:            Fri Jul 10 13:55:16 2020
# [ok]
