#                                                                            --- full sequence --- -------------- this domain -------------   hmm coord   ali coord   env coord
# target name        accession   tlen query name           accession   qlen   E-value  score  bias   #  of  c-Evalue  i-Evalue  score  bias  from    to  from    to  from    to  acc description of target
#------------------- ---------- ----- -------------------- ---------- ----- --------- ------ ----- --- --- --------- --------- ------ ----- ----- ----- ----- ----- ----- ----- ---- ---------------------
ID=PSME_00046175     -            427 6412at3193           -           1074   4.1e-85  287.8   0.2   1   2   1.2e-77   7.3e-75  253.9   0.1   774  1000    30   274    15   283 0.89 -
ID=PSME_00046175     -            427 6412at3193           -           1074   4.1e-85  287.8   0.2   2   2   1.5e-10     9e-08   31.7   0.0  1009  1052   312   355   298   375 0.87 -
ID=PSME_00005061     -            487 6412at3193           -           1074   1.3e-82  279.6   0.1   1   2   1.2e-75   7.4e-73  247.2   0.1   774   999    94   337    78   347 0.88 -
ID=PSME_00005061     -            487 6412at3193           -           1074   1.3e-82  279.6   0.1   2   2   4.4e-10   2.7e-07   30.1   0.0  1009  1048   375   414   358   430 0.88 -
ID=PSME_00003755     -            348 6412at3193           -           1074   1.5e-82  279.3   0.4   1   2   4.8e-74   2.9e-71  241.9   0.2   776  1001    15   258     5   267 0.89 -
ID=PSME_00003755     -            348 6412at3193           -           1074   1.5e-82  279.3   0.4   2   2   1.1e-11   6.5e-09   35.5   0.0  1009  1059   294   344   275   347 0.89 -
ID=PSME_00019801     -            901 6412at3193           -           1074   5.7e-81  274.1   0.2   1   1   2.4e-83   1.5e-80  272.7   0.2   350  1053   114   821   112   841 0.78 -
ID=PSME_00050008     -            408 6412at3193           -           1074   2.6e-79  268.6   0.2   1   2   5.1e-72   3.1e-69  235.2   0.1   774  1001    16   261     5   269 0.89 -
ID=PSME_00050008     -            408 6412at3193           -           1074   2.6e-79  268.6   0.2   2   2   2.1e-10   1.3e-07   31.2   0.0  1009  1052   297   340   280   360 0.87 -
ID=PSME_00028083     -            385 6412at3193           -           1074   3.4e-78  264.9   0.2   1   2   3.8e-72   2.3e-69  235.6   0.2   785  1001     8   242     3   250 0.88 -
ID=PSME_00028083     -            385 6412at3193           -           1074   3.4e-78  264.9   0.2   2   2   3.7e-09   2.3e-06   27.1   0.0  1009  1054   278   323   261   341 0.86 -
ID=PSME_00019159     -            379 6412at3193           -           1074     3e-77  261.7   0.1   1   2   2.4e-72   1.5e-69  236.3   0.1   773  1001    10   256     6   264 0.90 -
ID=PSME_00019159     -            379 6412at3193           -           1074     3e-77  261.7   0.1   2   2   4.9e-08     3e-05   23.4   0.0  1009  1053   292   336   278   355 0.84 -
ID=PSME_00030897     -            379 6412at3193           -           1074   8.3e-77  260.3   0.1   1   2   3.8e-70   2.3e-67  229.0   0.1   774  1001    11   256     6   269 0.89 -
ID=PSME_00030897     -            379 6412at3193           -           1074   8.3e-77  260.3   0.1   2   2   9.5e-10   5.8e-07   29.1   0.0  1009  1053   292   336   271   354 0.87 -
ID=PSME_00034209     -            606 6412at3193           -           1074   9.5e-73  246.9   0.0   1   2   3.2e-66     2e-63  216.0   0.0   774  1001   135   375   109   385 0.87 -
ID=PSME_00034209     -            606 6412at3193           -           1074   9.5e-73  246.9   0.0   2   2   1.3e-09   7.9e-07   28.6   0.0  1009  1048   411   450   397   468 0.87 -
ID=PSME_00004756     -            264 6412at3193           -           1074   1.5e-72  246.2   1.2   1   2   2.4e-26   1.5e-23   84.0   0.1   367   434     4    72     1    89 0.91 -
ID=PSME_00004756     -            264 6412at3193           -           1074   1.5e-72  246.2   1.2   2   2   6.9e-49   4.2e-46  158.6   0.1   434   560   105   250    93   256 0.84 -
ID=PSME_00018810     -            344 6412at3193           -           1074   2.7e-72  245.3   0.5   1   2   1.9e-67   1.2e-64  220.1   0.3   804  1001    18   229     9   239 0.89 -
ID=PSME_00018810     -            344 6412at3193           -           1074   2.7e-72  245.3   0.5   2   2   4.9e-08     3e-05   23.4   0.0  1009  1041   265   297   254   308 0.92 -
ID=PSME_00020305     -            523 6412at3193           -           1074   5.2e-72  244.4   4.2   1   3   1.5e-55     9e-53  180.7   0.1   774   958    13   215     7   220 0.85 -
ID=PSME_00020305     -            523 6412at3193           -           1074   5.2e-72  244.4   4.2   2   3   4.3e-11   2.6e-08   33.5   0.8   957  1000   253   296   250   305 0.93 -
ID=PSME_00020305     -            523 6412at3193           -           1074   5.2e-72  244.4   4.2   3   3   8.6e-10   5.2e-07   29.2   0.0  1009  1054   333   378   316   386 0.87 -
ID=PSME_00013934     -            366 6412at3193           -           1074   7.9e-72  243.8   0.5   1   2   1.9e-64   1.2e-61  210.1   0.2   774  1001     3   243     1   251 0.88 -
ID=PSME_00013934     -            366 6412at3193           -           1074   7.9e-72  243.8   0.5   2   2   1.4e-10   8.7e-08   31.8   0.0  1009  1052   279   322   268   341 0.88 -
ID=PSME_00033946     -            391 6412at3193           -           1074   2.1e-70  239.1   0.4   1   2   1.1e-62   6.6e-60  204.4   0.2   774  1001    10   245     6   253 0.87 -
ID=PSME_00033946     -            391 6412at3193           -           1074   2.1e-70  239.1   0.4   2   2   8.5e-11   5.2e-08   32.5   0.0  1009  1055   281   327   263   346 0.84 -
ID=PSME_00009532     -            372 6412at3193           -           1074   6.1e-70  237.6   0.2   1   2   3.3e-64     2e-61  209.4   0.2   808  1001    14   225     9   234 0.83 -
ID=PSME_00009532     -            372 6412at3193           -           1074   6.1e-70  237.6   0.2   2   2   7.6e-09   4.7e-06   26.0   0.0  1008  1048   260   300   239   323 0.84 -
ID=PSME_00049154     -            375 6412at3193           -           1074   8.8e-67  227.1   0.6   1   2   1.9e-58   1.1e-55  190.3   0.6   774  1001    11   238     6   246 0.88 -
ID=PSME_00049154     -            375 6412at3193           -           1074   8.8e-67  227.1   0.6   2   2   6.6e-10     4e-07   29.6   0.0  1009  1045   274   310   259   336 0.86 -
ID=PSME_00039427     -            464 6412at3193           -           1074   1.2e-63  216.7   0.1   1   1   1.2e-65   7.1e-63  214.2   0.1   774  1046   113   389   107   408 0.82 -
ID=PSME_00013570     -            565 6412at3193           -           1074   1.5e-63  216.4   1.1   1   3   1.8e-49   1.1e-46  160.6   0.0   774   958   176   360   160   365 0.91 -
ID=PSME_00013570     -            565 6412at3193           -           1074   1.5e-63  216.4   1.1   2   3   1.6e-09   9.9e-07   28.3   0.3   957  1001   398   442   395   451 0.92 -
ID=PSME_00013570     -            565 6412at3193           -           1074   1.5e-63  216.4   1.1   3   3     2e-08   1.2e-05   24.6   0.0  1009  1054   478   523   459   541 0.85 -
ID=PSME_00004757     -            203 6412at3193           -           1074   2.1e-63  215.9   0.0   1   1   4.1e-66   2.5e-63  215.7   0.0   590   744     4   165     1   171 0.94 -
ID=PSME_00046660     -            377 6412at3193           -           1074   8.5e-63  213.9   1.8   1   3   3.2e-35   1.9e-32  113.4   0.1   774   914    13   171     8   174 0.86 -
ID=PSME_00046660     -            377 6412at3193           -           1074   8.5e-63  213.9   1.8   2   3   2.6e-19   1.6e-16   60.7   0.1   940  1001   174   235   171   243 0.95 -
ID=PSME_00046660     -            377 6412at3193           -           1074   8.5e-63  213.9   1.8   3   3   1.6e-12   9.9e-10   38.2   0.0  1009  1064   271   326   258   335 0.86 -
ID=PSME_00007918     -            279 6412at3193           -           1074   3.7e-57  195.2   2.0   1   2   3.7e-49   2.3e-46  159.5   0.0   821   958    12   153     5   158 0.92 -
ID=PSME_00007918     -            279 6412at3193           -           1074   3.7e-57  195.2   2.0   2   2   1.9e-11   1.2e-08   34.7   1.0   957  1001   191   235   188   243 0.92 -
ID=PSME_00002849     -            365 6412at3193           -           1074   1.7e-56  193.0   4.8   1   2   6.9e-41   4.2e-38  132.2   0.1   786   930    16   178     6   179 0.84 -
ID=PSME_00002849     -            365 6412at3193           -           1074   1.7e-56  193.0   4.8   2   2   1.8e-18   1.1e-15   57.9   1.8   957  1052   174   297   172   316 0.73 -
ID=PSME_00032136     -            466 6412at3193           -           1074   8.1e-53  180.9   0.1   1   2   1.2e-45   7.2e-43  147.9   0.0   882  1001   174   293   161   302 0.95 -
ID=PSME_00032136     -            466 6412at3193           -           1074   8.1e-53  180.9   0.1   2   2   2.4e-10   1.5e-07   31.0   0.0  1009  1048   329   368   309   393 0.80 -
ID=PSME_00013092     -            267 6412at3193           -           1074   2.3e-52  179.4   0.3   1   2   9.5e-45   5.8e-42  144.9   0.2   882  1001     1   120     1   128 0.97 -
ID=PSME_00013092     -            267 6412at3193           -           1074   2.3e-52  179.4   0.3   2   2   7.5e-11   4.6e-08   32.7   0.0  1009  1053   156   200   146   219 0.87 -
ID=PSME_00015374     -            334 6412at3193           -           1074   5.9e-52  178.0   0.2   1   1   2.6e-54   1.6e-51  176.6   0.2   854  1048    81   261    51   280 0.84 -
ID=PSME_00033797     -            341 6412at3193           -           1074   4.4e-48  165.2   0.1   1   1   1.2e-50   7.1e-48  164.5   0.1   805   959    64   236    42   251 0.80 -
ID=PSME_00038309     -            352 6412at3193           -           1074   9.2e-48  164.1   0.0   1   1   2.6e-50   1.6e-47  163.4   0.0   774   943    13   200     6   212 0.87 -
ID=PSME_00004753     -            566 6412at3193           -           1074   5.5e-45  154.9  22.7   1   4   9.2e-26   5.6e-23   82.1   0.2    10   133    33   157    24   186 0.69 -
ID=PSME_00004753     -            566 6412at3193           -           1074   5.5e-45  154.9  22.7   2   4     0.004       2.4    7.1   6.0   124   173   201   254   189   271 0.58 -
ID=PSME_00004753     -            566 6412at3193           -           1074   5.5e-45  154.9  22.7   3   4      0.19   1.2e+02    1.6   0.0   167   186   335   354   290   357 0.83 -
ID=PSME_00004753     -            566 6412at3193           -           1074   5.5e-45  154.9  22.7   4   4   1.3e-21   8.2e-19   68.3   3.5   186   263   491   550   419   556 0.86 -
ID=PSME_00004758     -             76 6412at3193           -           1074   7.2e-42  144.6   0.4   1   1   1.3e-44   7.8e-42  144.5   0.4   885   957     3    75     1    75 0.99 -
ID=PSME_00031254     -            330 6412at3193           -           1074   5.2e-41  141.8   4.6   1   3   1.1e-24   6.7e-22   78.5   0.1   774   885    13   142     8   144 0.80 -
ID=PSME_00031254     -            330 6412at3193           -           1074   5.2e-41  141.8   4.6   2   3   1.3e-10   8.2e-08   31.9   0.8   960  1001   142   183   142   191 0.93 -
ID=PSME_00031254     -            330 6412at3193           -           1074   5.2e-41  141.8   4.6   3   3   7.7e-11   4.7e-08   32.7   0.0  1009  1053   219   263   201   282 0.86 -
ID=PSME_00038897     -            310 6412at3193           -           1074   2.9e-40  139.3   0.1   1   2   1.2e-32   7.5e-30  104.8   0.0   884   981     2    99     1   109 0.97 -
ID=PSME_00038897     -            310 6412at3193           -           1074   2.9e-40  139.3   0.1   2   2   7.9e-11   4.8e-08   32.6   0.0  1005  1054   154   204   124   211 0.81 -
ID=PSME_00045960     -            533 6412at3193           -           1074   4.1e-40  138.8   0.3   1   2   5.3e-24   3.2e-21   76.2   0.1   774   885   229   358   216   360 0.79 -
ID=PSME_00045960     -            533 6412at3193           -           1074   4.1e-40  138.8   0.3   2   2   1.3e-19   8.2e-17   61.7   0.0   924  1045   356   463   355   489 0.84 -
ID=PSME_00004759     -            103 6412at3193           -           1074   3.6e-39  135.7   1.5   1   1   6.8e-42   4.2e-39  135.5   1.5   958  1035    12    89     8   101 0.95 -
ID=PSME_00043455     -            272 6412at3193           -           1074   6.1e-37  128.3   0.1   1   1   1.8e-39   1.1e-36  127.4   0.1   774   923    94   261    78   266 0.84 -
ID=PSME_00032571     -            191 6412at3193           -           1074   4.6e-35  122.1   0.0   1   1   1.5e-37   8.8e-35  121.1   0.0   775   921    14   178     7   189 0.84 -
ID=PSME_00043896     -            433 6412at3193           -           1074   6.3e-35  121.6   0.1   1   1   1.9e-37   1.2e-34  120.7   0.1   774   923   255   422   239   429 0.84 -
ID=PSME_00021822     -            243 6412at3193           -           1074   3.8e-34  119.1   2.1   1   3   1.4e-18   8.8e-16   58.2   0.0   885   939     1    55     1    58 0.97 -
ID=PSME_00021822     -            243 6412at3193           -           1074   3.8e-34  119.1   2.1   2   3   9.7e-11   5.9e-08   32.3   0.7   960  1000    55    95    54   101 0.94 -
ID=PSME_00021822     -            243 6412at3193           -           1074   3.8e-34  119.1   2.1   3   3   1.4e-09   8.6e-07   28.5   0.0  1009  1053   132   176   121   192 0.86 -
ID=PSME_00019253     -            191 6412at3193           -           1074   1.7e-33  116.9   0.0   1   1   4.4e-36   2.7e-33  116.2   0.0   774   923    13   180     8   186 0.84 -
ID=PSME_00015196     -            304 6412at3193           -           1074   3.1e-32  112.7   0.0   1   1   7.8e-35   4.8e-32  112.1   0.0   768   924   119   294   106   301 0.81 -
ID=PSME_00004754     -            106 6412at3193           -           1074   2.9e-29  102.9   0.3   1   1   5.7e-32   3.5e-29  102.6   0.3   263   315    53   105    48   105 0.97 -
ID=PSME_00026504     -            162 6412at3193           -           1074   4.4e-26   92.4   0.0   1   1   8.5e-29   5.2e-26   92.1   0.0   875  1026     1   157     1   158 0.91 -
ID=PSME_00033606     -             93 6412at3193           -           1074   1.8e-24   87.0   0.2   1   1   3.3e-27     2e-24   86.8   0.2   847   931     2    87     1    91 0.91 -
ID=PSME_00055759     -            160 6412at3193           -           1074   9.1e-22   78.1   0.0   1   1   2.4e-24   1.5e-21   77.4   0.0   774   885    13   142     5   149 0.81 -
ID=PSME_00011263     -            943 6412at3193           -           1074   2.8e-19   69.8   0.0   1   1   6.6e-22     4e-19   69.3   0.0   847  1044   673   864   658   893 0.86 -
ID=PSME_00048248     -            138 6412at3193           -           1074   2.9e-19   69.8   0.1   1   1   8.4e-22   5.1e-19   69.0   0.1   788   884     5   119     2   122 0.79 -
ID=PSME_00025175     -            267 6412at3193           -           1074   1.5e-18   67.4   0.1   1   1   6.2e-21   3.8e-18   66.1   0.1   774   885    13   142     4   150 0.80 -
ID=PSME_00043763     -            466 6412at3193           -           1074   1.8e-18   67.1   0.1   1   2   2.5e-13   1.6e-10   40.9   0.0   917   965   285   333   277   345 0.91 -
ID=PSME_00043763     -            466 6412at3193           -           1074   1.8e-18   67.1   0.1   2   2   2.6e-08   1.6e-05   24.3   0.0  1009  1047   354   392   342   411 0.85 -
ID=PSME_00046487     -            268 6412at3193           -           1074   1.6e-17   64.0   1.2   1   2   7.4e-11   4.5e-08   32.7   0.8   960  1001     3    44     1    52 0.93 -
ID=PSME_00046487     -            268 6412at3193           -           1074   1.6e-17   64.0   1.2   2   2     6e-10   3.6e-07   29.7   0.0  1009  1044    80   115    68   128 0.89 -
ID=PSME_00004755     -             96 6412at3193           -           1074   1.9e-17   63.7   0.4   1   1   5.6e-20   3.4e-17   62.9   0.4   314   367     3    70     2    75 0.92 -
ID=PSME_00035591     -            564 6412at3193           -           1074     2e-17   63.7  13.4   1   1   3.3e-20     2e-17   63.7  13.4    46   175   146   278   112   315 0.58 -
ID=PSME_00025741     -           2117 6412at3193           -           1074   2.4e-15   56.8   0.1   1   1   6.7e-18   4.1e-15   56.0   0.1    38   111   434   507   402   539 0.81 -
ID=PSME_00053431     -            401 6412at3193           -           1074   2.6e-15   56.7   0.1   1   1   6.1e-18   3.7e-15   56.2   0.1   921  1051     1   125     1   140 0.83 -
ID=PSME_00017304     -            406 6412at3193           -           1074     3e-15   56.5   0.0   1   1   8.2e-18     5e-15   55.7   0.0   786   885   274   391   256   397 0.81 -
ID=PSME_00055823     -            275 6412at3193           -           1074   1.8e-14   53.9   0.1   1   1   3.4e-17   2.1e-14   53.7   0.1   179   239   212   275   178   275 0.92 -
ID=PSME_00006462     -            998 6412at3193           -           1074   1.9e-14   53.8  10.1   1   1   5.1e-17   3.1e-14   53.1  10.1    20   173   735   887   670   938 0.76 -
ID=PSME_00009625     -            140 6412at3193           -           1074   3.9e-14   52.8   1.7   1   1   7.7e-17   4.7e-14   52.5   1.7    60   133    11    83     5   104 0.77 -
ID=PSME_00019803     -            374 6412at3193           -           1074   5.9e-14   52.2   0.3   1   1   1.4e-16   8.7e-14   51.6   0.3   487   576   276   365   259   371 0.84 -
ID=PSME_00051039     -            174 6412at3193           -           1074     1e-13   51.4   0.1   1   1   2.1e-16   1.2e-13   51.1   0.1   820   884   106   174    94   174 0.86 -
ID=PSME_00043073     -           1672 6412at3193           -           1074   2.7e-13   50.0   2.0   1   1   6.7e-16   4.1e-13   49.4   2.0    59   159   160   276   115   320 0.59 -
ID=PSME_00043050     -             71 6412at3193           -           1074   9.5e-12   44.9   0.1   1   1   1.6e-14     1e-11   44.8   0.1   843   886     5    54     2    64 0.86 -
ID=PSME_00038896     -            264 6412at3193           -           1074   2.2e-10   40.4   0.0   1   2   1.4e-10   8.7e-08   31.8   0.0   504   557     1    54     1    62 0.93 -
ID=PSME_00038896     -            264 6412at3193           -           1074   2.2e-10   40.4   0.0   2   2    0.0049         3    6.8   0.0   572   725   104   261    90   263 0.74 -
ID=PSME_00033733     -            282 6412at3193           -           1074   1.1e-08   34.8   0.9   1   2       1.4   8.4e+02   -1.3   0.2   141   202   125   186    82   191 0.78 -
ID=PSME_00033733     -            282 6412at3193           -           1074   1.1e-08   34.8   0.9   2   2   2.5e-11   1.5e-08   34.3   0.3    41   118   202   279   156   282 0.76 -
ID=PSME_00019252     -            129 6412at3193           -           1074   1.1e-08   34.7   0.0   1   1   1.9e-11   1.2e-08   34.7   0.0  1008  1055    41    88    21   106 0.82 -
ID=PSME_00010164     -            500 6412at3193           -           1074   1.6e-08   34.2   0.0   1   1   3.8e-11   2.3e-08   33.7   0.0    59   112   418   471   404   492 0.86 -
ID=PSME_00015197     -             81 6412at3193           -           1074   9.4e-08   31.7   0.0   1   1   1.5e-10   9.4e-08   31.7   0.0  1009  1045    42    78    21    80 0.88 -
ID=PSME_00032570     -            132 6412at3193           -           1074   1.3e-07   31.1   0.0   1   1   2.4e-10   1.5e-07   31.0   0.0  1009  1053    45    89    25   108 0.86 -
ID=PSME_00048247     -            153 6412at3193           -           1074   5.2e-07   29.2   0.0   1   1   9.8e-10   5.9e-07   29.0   0.0  1008  1052    41    85    23   107 0.79 -
ID=PSME_00040594     -             81 6412at3193           -           1074   5.8e-07   29.0   0.0   1   1   9.6e-10   5.8e-07   29.0   0.0  1009  1045    42    78    22    80 0.87 -
ID=PSME_00014292     -             81 6412at3193           -           1074   8.8e-07   28.4   0.0   1   1   1.4e-09   8.8e-07   28.4   0.0  1009  1044    42    77    21    80 0.87 -
ID=PSME_00004295     -            336 6412at3193           -           1074   2.6e-06   26.9   0.0   1   1   7.2e-09   4.4e-06   26.1   0.0  1009  1047   297   335   278   336 0.88 -
ID=PSME_00029668     -            177 6412at3193           -           1074   1.8e-05   24.1   0.0   1   1   2.9e-08   1.8e-05   24.1   0.0   492   588     1   102     1   162 0.84 -
ID=PSME_00047506     -            129 6412at3193           -           1074   5.7e-05   22.4   0.0   1   1     1e-07   6.2e-05   22.3   0.0  1009  1053    42    86    23   105 0.85 -
ID=PSME_00017539     -            443 6412at3193           -           1074   0.00016   21.0   0.4   1   3       9.2   5.6e+03   -4.0  10.6    92   200     1   119     1   133 0.59 -
ID=PSME_00017539     -            443 6412at3193           -           1074   0.00016   21.0   0.4   2   3       7.1   4.3e+03   -3.6   2.4   143   198   157   213   116   244 0.50 -
ID=PSME_00017539     -            443 6412at3193           -           1074   0.00016   21.0   0.4   3   3   2.6e-07   0.00016   21.0   0.4    37   139   285   392   244   423 0.68 -
ID=PSME_00054584     -            243 6412at3193           -           1074   0.00019   20.7   0.7   1   1   3.5e-07   0.00021   20.5   0.7    37   149    91   206    46   231 0.64 -
ID=PSME_00042340     -            468 6412at3193           -           1074   0.00044   19.5   1.6   1   2       5.4   3.3e+03   -3.3   9.0    92   200     1   119     1   127 0.56 -
ID=PSME_00042340     -            468 6412at3193           -           1074   0.00044   19.5   1.6   2   2   7.2e-07   0.00044   19.5   1.6    42   144   315   419   293   450 0.62 -
ID=PSME_00001494     -            282 6412at3193           -           1074   0.00063   19.0   0.9   1   2       3.6   2.2e+03   -2.7   2.3   121   174    13    64     3   113 0.51 -
ID=PSME_00001494     -            282 6412at3193           -           1074   0.00063   19.0   0.9   2   2     1e-06   0.00063   19.0   0.9    38   148   126   239    88   265 0.64 -
ID=PSME_00052993     -            415 6412at3193           -           1074    0.0011   18.2   1.2   1   1   1.8e-06    0.0011   18.2   1.2    38   148   258   371   224   397 0.64 -
ID=PSME_00044265     -            468 6412at3193           -           1074    0.0012   18.1   0.9   1   2       7.1   4.3e+03   -3.6   9.2    92   200     1   119     1   127 0.56 -
ID=PSME_00044265     -            468 6412at3193           -           1074    0.0012   18.1   0.9   2   2   1.9e-06    0.0012   18.1   0.9    38   148   311   424   278   450 0.65 -
ID=PSME_00054610     -            203 6412at3193           -           1074    0.0012   18.1   0.9   1   1   2.1e-06    0.0013   18.0   0.8    38   131    92   187    48   203 0.66 -
ID=PSME_00001247     -            612 6412at3193           -           1074    0.0038   16.4   1.0   1   1   6.3e-06    0.0038   16.4   1.0    38   154   144   263   111   290 0.64 -
ID=PSME_00049583     -            479 6412at3193           -           1074    0.0043   16.2   1.6   1   2      0.28   1.7e+02    1.0   9.8    88   200     8   130     2   139 0.62 -
ID=PSME_00049583     -            479 6412at3193           -           1074    0.0043   16.2   1.6   2   2     7e-06    0.0043   16.2   1.6    37   161   321   448   279   461 0.64 -
ID=PSME_00054118     -            399 6412at3193           -           1074    0.0045   16.2   0.8   1   2         2   1.2e+03   -1.8   1.8   129   198    29   101    10   112 0.41 -
ID=PSME_00054118     -            399 6412at3193           -           1074    0.0045   16.2   0.8   2   2   7.4e-06    0.0045   16.2   0.8    37   114   272   347   230   392 0.74 -
ID=PSME_00001768     -            394 6412at3193           -           1074    0.0048   16.1   6.1   1   1     1e-05    0.0061   15.7   6.1    17   177    60   227    46   256 0.62 -
ID=PSME_00016618     -            259 6412at3193           -           1074     0.022   13.9   5.3   1   1   5.1e-05     0.031   13.4   5.3    74   179   115   224   106   234 0.76 -
ID=PSME_00013466     -            324 6412at3193           -           1074     0.028   13.6   0.0   1   2       7.2   4.4e+03   -3.7   0.6   106   155    93   140    89   155 0.63 -
ID=PSME_00013466     -            324 6412at3193           -           1074     0.028   13.6   0.0   2   2   4.5e-05     0.028   13.6   0.0    37    87   268   318   231   323 0.72 -
ID=PSME_00049143     -            194 6412at3193           -           1074     0.069   12.2   0.3   1   1   0.00012     0.074   12.1   0.3   122   165   145   189   102   193 0.69 -
ID=PSME_00045806     -            128 6412at3193           -           1074      0.96    8.4   3.7   1   1     0.002       1.2    8.1   3.7   110   166    67   121    48   126 0.61 -
ID=PSME_00028751     -            786 6412at3193           -           1074       1.2    8.2   4.7   1   1    0.0026       1.6    7.7   4.7   125   180    15    75     6   105 0.66 -
ID=PSME_00046540     -            144 6412at3193           -           1074       2.5    7.1   3.7   1   1    0.0051       3.1    6.8   3.7   103   167    70   129    60   137 0.61 -
ID=PSME_00034153     -            192 6412at3193           -           1074       6.4    5.7  17.9   1   1     0.013         8    5.4  17.9    91   180    55   144    34   153 0.73 -
#
# Program:         hmmsearch
# Version:         3.2.1 (June 2018)
# Pipeline mode:   SEARCH
# Query file:      /isg/shared/databases/BUSCO/odb10/embryophyta_odb10/hmms/6412at3193.hmm
# Target file:     /labs/Wegrzyn/ConiferGenomes/Psme/analysis/SURF_annotation/analyze_orig_maker/gfacs/filtered/maker_genes.fasta.faa
# Option settings: /usr/local/bin/hmmsearch --domtblout /labs/Wegrzyn/ConiferGenomes/Psme/analysis/SURF_annotation/analyze_orig_maker/busco/maker/run_embryophyta_odb10/hmmer_output/6412at3193.out --cpu 1 /isg/shared/databases/BUSCO/odb10/embryophyta_odb10/hmms/6412at3193.hmm /labs/Wegrzyn/ConiferGenomes/Psme/analysis/SURF_annotation/analyze_orig_maker/gfacs/filtered/maker_genes.fasta.faa 
# Current dir:     /labs/Wegrzyn/ConiferGenomes/Psme/analysis/SURF_annotation/analyze_orig_maker/busco
# Date:            Fri Jul 10 13:55:35 2020
# [ok]
