#                                                                            --- full sequence --- -------------- this domain -------------   hmm coord   ali coord   env coord
# target name        accession   tlen query name           accession   qlen   E-value  score  bias   #  of  c-Evalue  i-Evalue  score  bias  from    to  from    to  from    to  acc description of target
#------------------- ---------- ----- -------------------- ---------- ----- --------- ------ ----- --- --- --------- --------- ------ ----- ----- ----- ----- ----- ----- ----- ---- ---------------------
ID=PSME_00009870     -            583 64856at3193          -            365  1.2e-203  677.3   0.0   1   1  5.4e-207  2.4e-203  676.3   0.0     1   365    70   458    70   458 0.94 -
ID=PSME_00048018     -            492 64856at3193          -            365    3e-156  521.3   0.0   1   4   1.5e-44   7.1e-41  141.8   0.0   136   239     3   108     1   114 0.95 -
ID=PSME_00048018     -            492 64856at3193          -            365    3e-156  521.3   0.0   2   4   1.2e-40   5.6e-37  128.9   0.0    25   148   115   248   106   249 0.93 -
ID=PSME_00048018     -            492 64856at3193          -            365    3e-156  521.3   0.0   3   4   3.3e-07    0.0015   18.9   0.0   212   241   248   279   247   281 0.87 -
ID=PSME_00048018     -            492 64856at3193          -            365    3e-156  521.3   0.0   4   4   6.9e-71   3.1e-67  228.5   0.0     8   202   283   491   280   491 0.95 -
ID=PSME_00051045     -            317 64856at3193          -            365  1.4e-138  463.2   0.0   1   1  4.4e-142    2e-138  462.7   0.0    35   278    41   303    20   310 0.92 -
ID=PSME_00028642     -            536 64856at3193          -            365    4e-131  438.7   0.0   1   1  1.1e-134  5.2e-131  438.3   0.0     1   359    58   453    58   457 0.92 -
ID=PSME_00002345     -            451 64856at3193          -            365  4.7e-109  366.1   0.0   1   1  1.4e-112  6.5e-109  365.6   0.0     5   359    38   435    35   440 0.89 -
ID=PSME_00006924     -            202 64856at3193          -            365   3.2e-87  294.2   0.0   1   1   9.5e-91   4.3e-87  293.8   0.0   143   310     8   189     5   199 0.91 -
ID=PSME_00045526     -            171 64856at3193          -            365   6.4e-66  224.1   0.0   1   1   1.6e-69   7.3e-66  224.0   0.0   150   270     1   131     1   161 0.93 -
ID=PSME_00033586     -            679 64856at3193          -            365   2.7e-59  202.4   0.1   1   3   3.6e-48   1.7e-44  153.7   0.0    43   179     2   148     1   152 0.93 -
ID=PSME_00033586     -            679 64856at3193          -            365   2.7e-59  202.4   0.1   2   3   0.00018      0.81    9.9   0.0   224   243   153   172   148   186 0.85 -
ID=PSME_00033586     -            679 64856at3193          -            365   2.7e-59  202.4   0.1   3   3   3.5e-12   1.6e-08   35.3   0.0    45    96   226   287   217   291 0.84 -
ID=PSME_00033587     -            235 64856at3193          -            365   1.2e-57  196.9   0.2   1   2   2.8e-56   1.3e-52  180.4   0.0    90   240    48   200    37   202 0.96 -
ID=PSME_00033587     -            235 64856at3193          -            365   1.2e-57  196.9   0.2   2   2     5e-06     0.023   15.0   0.0     7    33   204   234   201   234 0.90 -
ID=PSME_00019020     -            207 64856at3193          -            365     3e-23   83.7   0.1   1   2     5e-07    0.0023   18.3   0.0    60    82   128   150   114   160 0.79 -
ID=PSME_00019020     -            207 64856at3193          -            365     3e-23   83.7   0.1   2   2     8e-21   3.7e-17   63.7   0.0   156   201   160   205   154   206 0.95 -
ID=PSME_00018221     -            524 64856at3193          -            365   4.2e-21   76.7   0.1   1   1   1.6e-24   7.1e-21   75.9   0.1   314   364   284   339   273   340 0.89 -
ID=PSME_00006923     -             63 64856at3193          -            365   6.5e-16   59.6   0.1   1   1   1.6e-19   7.5e-16   59.4   0.1   318   360     1    48     1    51 0.89 -
#
# Program:         hmmsearch
# Version:         3.2.1 (June 2018)
# Pipeline mode:   SEARCH
# Query file:      /isg/shared/databases/BUSCO/odb10/embryophyta_odb10/hmms/64856at3193.hmm
# Target file:     /labs/Wegrzyn/ConiferGenomes/Psme/analysis/SURF_annotation/analyze_orig_maker/gfacs/filtered/maker_genes.fasta.faa
# Option settings: /usr/local/bin/hmmsearch --domtblout /labs/Wegrzyn/ConiferGenomes/Psme/analysis/SURF_annotation/analyze_orig_maker/busco/maker/run_embryophyta_odb10/hmmer_output/64856at3193.out --cpu 1 /isg/shared/databases/BUSCO/odb10/embryophyta_odb10/hmms/64856at3193.hmm /labs/Wegrzyn/ConiferGenomes/Psme/analysis/SURF_annotation/analyze_orig_maker/gfacs/filtered/maker_genes.fasta.faa 
# Current dir:     /labs/Wegrzyn/ConiferGenomes/Psme/analysis/SURF_annotation/analyze_orig_maker/busco
# Date:            Fri Jul 10 13:55:17 2020
# [ok]
