#                                                                            --- full sequence --- -------------- this domain -------------   hmm coord   ali coord   env coord
# target name        accession   tlen query name           accession   qlen   E-value  score  bias   #  of  c-Evalue  i-Evalue  score  bias  from    to  from    to  from    to  acc description of target
#------------------- ---------- ----- -------------------- ---------- ----- --------- ------ ----- --- --- --------- --------- ------ ----- ----- ----- ----- ----- ----- ----- ---- ---------------------
ID=PSME_00046175     -            427 64974at3193          -            746  3.7e-133  446.6   4.4   1   2  5.1e-107  4.4e-104  350.4   2.0   444   657    26   277     8   281 0.86 -
ID=PSME_00046175     -            427 64974at3193          -            746  3.7e-133  446.6   4.4   2   2   8.3e-30   7.1e-27   95.2   0.0   657   746   308   413   296   413 0.84 -
ID=PSME_00050008     -            408 64974at3193          -            746    3e-126  423.7   5.6   1   2  4.1e-101   3.5e-98  330.9   2.5   445   656    13   262     5   266 0.88 -
ID=PSME_00050008     -            408 64974at3193          -            746    3e-126  423.7   5.6   2   2   5.6e-29   4.8e-26   92.4   0.1   657   746   293   398   277   398 0.83 -
ID=PSME_00028083     -            385 64974at3193          -            746  3.7e-121  406.9   5.5   1   2   1.8e-98   1.5e-95  322.2   2.4   458   656     7   243     2   248 0.84 -
ID=PSME_00028083     -            385 64974at3193          -            746  3.7e-121  406.9   5.5   2   2   3.4e-26   2.9e-23   83.2   0.1   657   745   274   374   258   375 0.84 -
ID=PSME_00030897     -            379 64974at3193          -            746  1.1e-117  395.4   7.5   1   2   1.7e-96   1.5e-93  315.6   4.8   445   656     8   257     5   260 0.87 -
ID=PSME_00030897     -            379 64974at3193          -            746  1.1e-117  395.4   7.5   2   2   1.7e-24   1.5e-21   77.6   0.0   657   725   288   359   272   365 0.91 -
ID=PSME_00009532     -            372 64974at3193          -            746  1.2e-116  392.0   2.6   1   2   3.4e-93   2.9e-90  304.7   0.8   488   656    42   226    36   231 0.92 -
ID=PSME_00009532     -            372 64974at3193          -            746  1.2e-116  392.0   2.6   2   2   2.8e-27   2.4e-24   86.8   0.0   656   746   256   362   240   362 0.80 -
ID=PSME_00019159     -            379 64974at3193          -            746  2.7e-116  390.8   4.3   1   2   1.1e-96   9.8e-94  316.2   2.5   445   656     8   257     4   262 0.88 -
ID=PSME_00019159     -            379 64974at3193          -            746  2.7e-116  390.8   4.3   2   2     4e-23   3.4e-20   73.1   0.0   658   725   289   359   275   366 0.92 -
ID=PSME_00005061     -            487 64974at3193          -            746  1.4e-115  388.5   3.4   1   2  3.6e-102   3.1e-99  334.4   1.9   444   656    90   340    78   345 0.87 -
ID=PSME_00005061     -            487 64974at3193          -            746  1.4e-115  388.5   3.4   2   2   7.2e-17   6.2e-14   52.4   0.0   657   707   371   421   355   439 0.85 -
ID=PSME_00033946     -            391 64974at3193          -            746  3.5e-114  383.8   6.6   1   2   1.1e-89   9.8e-87  293.1   2.8   445   656     7   246     5   251 0.87 -
ID=PSME_00033946     -            391 64974at3193          -            746  3.5e-114  383.8   6.6   2   2   1.4e-28   1.2e-25   91.1   0.1   657   746   277   382   261   382 0.83 -
ID=PSME_00003755     -            348 64974at3193          -            746  8.2e-114  382.6   5.1   1   2   3.8e-99   3.2e-96  324.4   3.0   445   656    10   259     3   263 0.88 -
ID=PSME_00003755     -            348 64974at3193          -            746  8.2e-114  382.6   5.1   2   2   3.1e-18   2.6e-15   56.9   0.0   652   705   284   338   275   346 0.87 -
ID=PSME_00013934     -            366 64974at3193          -            746  9.7e-111  372.4   6.5   1   2   3.1e-88   2.7e-85  288.3   3.9   447   656     2   244     1   249 0.88 -
ID=PSME_00013934     -            366 64974at3193          -            746  9.7e-111  372.4   6.5   2   2   2.7e-26   2.3e-23   83.5   0.0   652   725   270   346   256   352 0.89 -
ID=PSME_00013570     -            565 64974at3193          -            746  1.7e-108  365.1   6.6   1   3     9e-70   7.7e-67  227.3   0.2   445   613   173   361   161   368 0.87 -
ID=PSME_00013570     -            565 64974at3193          -            746  1.7e-108  365.1   6.6   2   3   1.1e-20   9.2e-18   65.0   0.5   611   656   398   443   384   448 0.90 -
ID=PSME_00013570     -            565 64974at3193          -            746  1.7e-108  365.1   6.6   3   3   1.2e-23     1e-20   74.8   0.0   657   725   474   545   458   550 0.91 -
ID=PSME_00034209     -            606 64974at3193          -            746  1.5e-107  361.9   5.0   1   2   5.4e-95   4.6e-92  310.7   3.6   444   656   131   376   112   382 0.86 -
ID=PSME_00034209     -            606 64974at3193          -            746  1.5e-107  361.9   5.0   2   2   1.2e-15   1.1e-12   48.3   0.0   657   705   407   455   394   477 0.82 -
ID=PSME_00049154     -            375 64974at3193          -            746  2.3e-107  361.3  10.5   1   2   1.2e-80     1e-77  263.3   7.6   445   656     8   239     4   244 0.87 -
ID=PSME_00049154     -            375 64974at3193          -            746  2.3e-107  361.3  10.5   2   2   7.8e-29   6.7e-26   91.9   0.0   657   745   270   374   254   374 0.83 -
ID=PSME_00018810     -            344 64974at3193          -            746  8.9e-106  356.0   3.9   1   2     2e-95   1.8e-92  312.1   1.2   488   656    50   230    44   235 0.95 -
ID=PSME_00018810     -            344 64974at3193          -            746  8.9e-106  356.0   3.9   2   2   4.3e-14   3.7e-11   43.2   0.1   653   697   257   301   246   334 0.80 -
ID=PSME_00020305     -            523 64974at3193          -            746    4e-105  353.9  12.8   1   3     2e-71   1.7e-68  232.8   3.3   445   613    10   216     7   223 0.87 -
ID=PSME_00020305     -            523 64974at3193          -            746    4e-105  353.9  12.8   2   3     3e-22   2.6e-19   70.2   1.0   611   656   253   298   239   302 0.90 -
ID=PSME_00020305     -            523 64974at3193          -            746    4e-105  353.9  12.8   3   3   1.5e-17   1.3e-14   54.6   0.0   657   704   329   376   313   381 0.92 -
ID=PSME_00046660     -            377 64974at3193          -            746  5.1e-101  340.3   9.8   1   3   1.7e-43   1.5e-40  140.4   0.5   445   570    10   173     6   174 0.84 -
ID=PSME_00046660     -            377 64974at3193          -            746  5.1e-101  340.3   9.8   2   3   1.1e-34   9.3e-32  111.3   0.6   594   656   174   236   171   241 0.96 -
ID=PSME_00046660     -            377 64974at3193          -            746  5.1e-101  340.3   9.8   3   3   3.9e-29   3.3e-26   93.0   0.1   651   746   261   372   248   372 0.82 -
ID=PSME_00002849     -            365 64974at3193          -            746   6.9e-94  316.7  14.2   1   3   4.4e-52   3.8e-49  168.8   3.9   454   586    10   180     3   180 0.82 -
ID=PSME_00002849     -            365 64974at3193          -            746   6.9e-94  316.7  14.2   2   3   4.4e-21   3.8e-18   66.3   1.6   612   656   175   219   174   225 0.94 -
ID=PSME_00002849     -            365 64974at3193          -            746   6.9e-94  316.7  14.2   3   3   1.3e-28   1.1e-25   91.3   0.0   657   746   250   355   234   355 0.83 -
ID=PSME_00013092     -            267 64974at3193          -            746   1.4e-93  315.8   4.0   1   2     1e-67     9e-65  220.5   1.5   537   656     1   121     1   126 0.98 -
ID=PSME_00013092     -            267 64974at3193          -            746   1.4e-93  315.8   4.0   2   2   5.5e-30   4.7e-27   95.7   0.0   657   746   152   257   136   257 0.83 -
ID=PSME_00039427     -            464 64974at3193          -            746   4.5e-87  294.2   3.5   1   1   1.4e-88   1.2e-85  289.5   3.5   444   705   109   396    76   418 0.81 -
ID=PSME_00007918     -            279 64974at3193          -            746   1.5e-86  292.4   8.4   1   2   4.9e-69   4.2e-66  224.9   1.2   488   613    13   154     8   161 0.91 -
ID=PSME_00007918     -            279 64974at3193          -            746   1.5e-86  292.4   8.4   2   2   1.3e-22   1.1e-19   71.4   1.1   611   656   191   236   178   241 0.90 -
ID=PSME_00032136     -            466 64974at3193          -            746   2.6e-80  271.8   2.2   1   2   2.9e-67   2.5e-64  219.0   1.2   536   656   173   294   166   299 0.97 -
ID=PSME_00032136     -            466 64974at3193          -            746   2.6e-80  271.8   2.2   2   2   1.1e-16   9.8e-14   51.7   0.0   657   701   325   369   309   378 0.91 -
ID=PSME_00015374     -            334 64974at3193          -            746   2.8e-73  248.6   2.7   1   1   2.3e-75     2e-72  245.8   2.7   510   703    82   264    76   292 0.86 -
ID=PSME_00031254     -            330 64974at3193          -            746   7.6e-73  247.2  11.1   1   3   2.3e-28   1.9e-25   90.4   0.4   445   540    10   142     5   142 0.80 -
ID=PSME_00031254     -            330 64974at3193          -            746   7.6e-73  247.2  11.1   2   3   4.4e-21   3.8e-18   66.3   1.7   614   656   142   184   141   188 0.96 -
ID=PSME_00031254     -            330 64974at3193          -            746   7.6e-73  247.2  11.1   3   3   5.9e-30     5e-27   95.7   0.1   657   746   215   320   199   320 0.83 -
ID=PSME_00019801     -            901 64974at3193          -            746   7.2e-71  240.6   2.8   1   2   1.1e-15   9.6e-13   48.4   1.1   183   385   107   346    90   418 0.69 -
ID=PSME_00019801     -            901 64974at3193          -            746   7.2e-71  240.6   2.8   2   2   1.6e-58   1.4e-55  190.1   0.0   449   707   527   823   484   840 0.76 -
ID=PSME_00045960     -            533 64974at3193          -            746     4e-68  231.6   4.6   1   2   2.9e-28   2.5e-25   90.0   0.3   444   539   225   357   203   359 0.78 -
ID=PSME_00045960     -            533 64974at3193          -            746     4e-68  231.6   4.6   2   2   7.8e-44   6.7e-41  141.5   0.6   579   746   357   528   356   528 0.80 -
ID=PSME_00021822     -            243 64974at3193          -            746   1.5e-66  226.4  10.4   1   3   1.9e-25   1.6e-22   80.8   0.7   540   593     1    55     1    56 0.98 -
ID=PSME_00021822     -            243 64974at3193          -            746   1.5e-66  226.4  10.4   2   3   1.6e-21   1.3e-18   67.8   1.4   614   656    55    97    54   102 0.96 -
ID=PSME_00021822     -            243 64974at3193          -            746   1.5e-66  226.4  10.4   3   3   7.5e-27   6.4e-24   85.4   0.0   656   746   127   233   110   233 0.82 -
ID=PSME_00033797     -            341 64974at3193          -            746   2.2e-66  225.8   1.1   1   1   3.7e-69   3.2e-66  225.3   1.1   487   613    94   236    87   243 0.91 -
ID=PSME_00038309     -            352 64974at3193          -            746   3.1e-60  205.5   1.9   1   1     1e-62   8.7e-60  204.0   1.9   445   598    10   201     4   227 0.85 -
ID=PSME_00043455     -            272 64974at3193          -            746   8.3e-47  161.1   1.7   1   1   5.4e-49   4.6e-46  158.6   1.7   445   572    91   256    79   262 0.82 -
ID=PSME_00043896     -            433 64974at3193          -            746     2e-44  153.2   0.6   1   1   7.9e-47   6.8e-44  151.4   0.6   445   572   252   417   241   423 0.82 -
ID=PSME_00032571     -            191 64974at3193          -            746   9.3e-43  147.7   1.0   1   1   5.8e-45     5e-42  145.3   1.0   445   572    10   175     4   182 0.81 -
ID=PSME_00019253     -            191 64974at3193          -            746   3.7e-42  145.7   1.2   1   1   1.9e-44   1.6e-41  143.6   1.2   445   572    10   175     4   182 0.82 -
ID=PSME_00015196     -            304 64974at3193          -            746   3.5e-40  139.1   0.5   1   1   1.7e-42   1.4e-39  137.1   0.5   445   572   123   288   110   294 0.79 -
ID=PSME_00038897     -            310 64974at3193          -            746   5.8e-39  135.1   0.1   1   2   2.7e-33   2.3e-30  106.7   0.0   540   635     3    99     1   112 0.92 -
ID=PSME_00038897     -            310 64974at3193          -            746   5.8e-39  135.1   0.1   2   2   5.1e-09   4.4e-06   26.4   0.0   657   707   155   205   145   234 0.77 -
ID=PSME_00046487     -            268 64974at3193          -            746   1.3e-34  120.8   5.5   1   3   6.3e-22   5.4e-19   69.1   1.3   614   656     3    45     1    50 0.95 -
ID=PSME_00046487     -            268 64974at3193          -            746   1.3e-34  120.8   5.5   2   3   3.2e-17   2.7e-14   53.6   0.0   652   716    71   136    57   163 0.76 -
ID=PSME_00046487     -            268 64974at3193          -            746   1.3e-34  120.8   5.5   3   3       6.2   5.3e+03   -3.6   0.1    89   113   209   237   197   257 0.79 -
ID=PSME_00043763     -            466 64974at3193          -            746   3.3e-33  116.1   0.9   1   2   3.3e-21   2.8e-18   66.7   0.4   571   619   285   333   276   340 0.90 -
ID=PSME_00043763     -            466 64974at3193          -            746   3.3e-33  116.1   0.9   2   2   1.6e-15   1.4e-12   47.9   0.0   652   705   344   398   335   420 0.80 -
ID=PSME_00004758     -             76 64974at3193          -            746   2.1e-26   93.6   0.0   1   1   2.6e-29   2.2e-26   93.5   0.0   540   611     3    75     1    75 0.96 -
ID=PSME_00055823     -            275 64974at3193          -            746   1.3e-25   91.0   1.5   1   1   2.5e-28   2.1e-25   90.3   1.5    18    81   212   275   208   275 0.97 -
ID=PSME_00055759     -            160 64974at3193          -            746   1.7e-25   90.6   0.6   1   1   9.1e-28   7.8e-25   88.4   0.6   445   543    10   145     4   152 0.79 -
ID=PSME_00025175     -            267 64974at3193          -            746   1.3e-24   87.7   0.7   1   1     2e-26   1.7e-23   84.0   0.7   445   541    10   143     3   158 0.79 -
ID=PSME_00048247     -            153 64974at3193          -            746   5.3e-24   85.7   0.0   1   1     1e-26   8.6e-24   85.0   0.0   657   746    38   143    22   143 0.83 -
ID=PSME_00019252     -            129 64974at3193          -            746   1.5e-23   84.2   0.0   1   1     2e-26   1.7e-23   84.0   0.0   656   725    37   109    20   120 0.90 -
ID=PSME_00032570     -            132 64974at3193          -            746   4.1e-23   82.7   0.2   1   2       4.4   3.8e+03   -3.1   0.1   647   656     1    10     1    12 0.85 -
ID=PSME_00032570     -            132 64974at3193          -            746   4.1e-23   82.7   0.2   2   2   6.9e-26   5.9e-23   82.2   0.0   657   725    41   112    23   119 0.91 -
ID=PSME_00048248     -            138 64974at3193          -            746   1.1e-22   81.4   0.3   1   1   6.3e-25   5.4e-22   79.0   0.3   462   541     5   121     2   129 0.75 -
ID=PSME_00033606     -             93 64974at3193          -            746   1.1e-21   78.0   0.1   1   1   1.6e-24   1.4e-21   77.7   0.1   512   587    13    89     2    91 0.90 -
ID=PSME_00004759     -            103 64974at3193          -            746     4e-21   76.1   0.3   1   1   5.6e-24   4.8e-21   75.9   0.3   612   687    12    89     7    99 0.91 -
ID=PSME_00047506     -            129 64974at3193          -            746   3.5e-20   73.0   0.0   1   1   4.7e-23   4.1e-20   72.8   0.0   657   725    38   109    22   117 0.91 -
ID=PSME_00026504     -            162 64974at3193          -            746     3e-19   69.9   0.2   1   1     4e-22   3.4e-19   69.8   0.2   532   679     3   158     1   158 0.88 -
ID=PSME_00004756     -            264 64974at3193          -            746   4.3e-19   69.5   0.0   1   3   0.00091      0.78    9.1   0.0   207   268     4    61     2    98 0.82 -
ID=PSME_00004756     -            264 64974at3193          -            746   4.3e-19   69.5   0.0   2   3       1.2     1e+03   -1.3   0.0   256   290   110   144    64   159 0.76 -
ID=PSME_00004756     -            264 64974at3193          -            746   4.3e-19   69.5   0.0   3   3   2.1e-18   1.8e-15   57.5   0.0   299   370   177   251   160   257 0.89 -
ID=PSME_00051039     -            174 64974at3193          -            746   6.4e-19   68.9   0.1   1   1   9.8e-22   8.4e-19   68.5   0.1   487   539   107   174   101   174 0.83 -
ID=PSME_00011263     -            943 64974at3193          -            746     7e-19   68.7   0.0   1   1   1.3e-21   1.1e-18   68.1   0.0   502   697   674   865   670   916 0.84 -
ID=PSME_00017304     -            406 64974at3193          -            746   8.9e-19   68.4   0.2   1   1   3.4e-21   2.9e-18   66.7   0.2   444   543   258   394   242   400 0.76 -
ID=PSME_00043050     -             71 64974at3193          -            746   4.2e-15   56.2   0.1   1   1   5.5e-18   4.7e-15   56.1   0.1   501   543     7    56     2    63 0.87 -
ID=PSME_00053431     -            401 64974at3193          -            746   5.9e-14   52.5   0.0   1   1     9e-17   7.7e-14   52.1   0.0   576   718     2   140     1   160 0.87 -
ID=PSME_00004295     -            336 64974at3193          -            746   1.7e-13   50.9   0.4   1   3       2.9   2.5e+03   -2.5   0.0   207   241    68   102    59   125 0.59 -
ID=PSME_00004295     -            336 64974at3193          -            746   1.7e-13   50.9   0.4   2   3      0.29   2.5e+02    0.8   0.0   642   655   248   261   237   265 0.82 -
ID=PSME_00004295     -            336 64974at3193          -            746   1.7e-13   50.9   0.4   3   3   2.2e-15   1.9e-12   47.5   0.0   652   700   287   336   277   336 0.89 -
ID=PSME_00014292     -             81 64974at3193          -            746   1.1e-12   48.2   0.0   1   1   1.3e-15   1.1e-12   48.2   0.0   656   699    37    80    20    80 0.89 -
ID=PSME_00015197     -             81 64974at3193          -            746   3.4e-12   46.6   0.0   1   1     4e-15   3.4e-12   46.6   0.0   656   699    37    80    20    80 0.89 -
ID=PSME_00040594     -             81 64974at3193          -            746   3.9e-12   46.4   0.0   1   1   4.9e-15   4.2e-12   46.3   0.0   657   699    38    80    24    80 0.89 -
ID=PSME_00019803     -            374 64974at3193          -            746   1.7e-11   44.3   0.8   1   1   3.1e-14   2.6e-11   43.7   0.8   184   368   170   349   153   367 0.79 -
ID=PSME_00004753     -            566 64974at3193          -            746   6.2e-08   32.5   0.3   1   1   3.2e-09   2.8e-06   27.1   0.3    29   102   492   547   475   552 0.90 -
ID=PSME_00038896     -            264 64974at3193          -            746   2.6e-07   30.5   0.0   1   1     5e-10   4.3e-07   29.8   0.0   318   368     3    56     1    74 0.82 -
ID=PSME_00029668     -            177 64974at3193          -            746   4.3e-06   26.5   0.0   1   1     5e-09   4.3e-06   26.5   0.0   321   370    26    75     1   150 0.73 -
ID=PSME_00004754     -            106 64974at3193          -            746    0.0022   17.5   0.0   1   1   3.3e-06    0.0028   17.2   0.0   108   152    53    97    49   103 0.89 -
ID=PSME_00004755     -             96 64974at3193          -            746     0.099   12.0   0.0   1   1   0.00013      0.11   11.8   0.0   152   207     3    70     1    73 0.76 -
#
# Program:         hmmsearch
# Version:         3.2.1 (June 2018)
# Pipeline mode:   SEARCH
# Query file:      /isg/shared/databases/BUSCO/odb10/embryophyta_odb10/hmms/64974at3193.hmm
# Target file:     /labs/Wegrzyn/ConiferGenomes/Psme/analysis/SURF_annotation/analyze_orig_maker/gfacs/filtered/maker_genes.fasta.faa
# Option settings: /usr/local/bin/hmmsearch --domtblout /labs/Wegrzyn/ConiferGenomes/Psme/analysis/SURF_annotation/analyze_orig_maker/busco/maker/run_embryophyta_odb10/hmmer_output/64974at3193.out --cpu 1 /isg/shared/databases/BUSCO/odb10/embryophyta_odb10/hmms/64974at3193.hmm /labs/Wegrzyn/ConiferGenomes/Psme/analysis/SURF_annotation/analyze_orig_maker/gfacs/filtered/maker_genes.fasta.faa 
# Current dir:     /labs/Wegrzyn/ConiferGenomes/Psme/analysis/SURF_annotation/analyze_orig_maker/busco
# Date:            Fri Jul 10 13:55:22 2020
# [ok]
