#                                                                            --- full sequence --- -------------- this domain -------------   hmm coord   ali coord   env coord
# target name        accession   tlen query name           accession   qlen   E-value  score  bias   #  of  c-Evalue  i-Evalue  score  bias  from    to  from    to  from    to  acc description of target
#------------------- ---------- ----- -------------------- ---------- ----- --------- ------ ----- --- --- --------- --------- ------ ----- ----- ----- ----- ----- ----- ----- ---- ---------------------
ID=PSME_00000133     -            596 65268at3193          -            495    2e-258  859.2   5.8   1   2   2.4e-99   3.3e-95  320.9   0.0     1   177    10   191    10   208 0.96 -
ID=PSME_00000133     -            596 65268at3193          -            495    2e-258  859.2   5.8   2   2  3.1e-163  4.2e-159  531.6   5.4   192   495   269   595   266   595 0.94 -
ID=PSME_00005440     -            295 65268at3193          -            495   3.4e-12   47.1   0.0   1   1   3.3e-16   4.6e-12   46.6   0.0    57   177    70   187    56   189 0.87 -
ID=PSME_00013260     -            269 65268at3193          -            495     0.011   15.7   0.2   1   1     1e-06     0.014   15.3   0.2   403   489    67   151    61   153 0.87 -
ID=PSME_00052841     -            102 65268at3193          -            495      0.05   13.5   0.3   1   1     4e-06     0.054   13.4   0.3   404   489    15    98     5   100 0.84 -
#
# Program:         hmmsearch
# Version:         3.2.1 (June 2018)
# Pipeline mode:   SEARCH
# Query file:      /isg/shared/databases/BUSCO/odb10/embryophyta_odb10/hmms/65268at3193.hmm
# Target file:     /labs/Wegrzyn/ConiferGenomes/Psme/analysis/SURF_annotation/analyze_orig_maker/gfacs/filtered/maker_genes.fasta.faa
# Option settings: /usr/local/bin/hmmsearch --domtblout /labs/Wegrzyn/ConiferGenomes/Psme/analysis/SURF_annotation/analyze_orig_maker/busco/maker/run_embryophyta_odb10/hmmer_output/65268at3193.out --cpu 1 /isg/shared/databases/BUSCO/odb10/embryophyta_odb10/hmms/65268at3193.hmm /labs/Wegrzyn/ConiferGenomes/Psme/analysis/SURF_annotation/analyze_orig_maker/gfacs/filtered/maker_genes.fasta.faa 
# Current dir:     /labs/Wegrzyn/ConiferGenomes/Psme/analysis/SURF_annotation/analyze_orig_maker/busco
# Date:            Fri Jul 10 13:55:19 2020
# [ok]
