#                                                                            --- full sequence --- -------------- this domain -------------   hmm coord   ali coord   env coord
# target name        accession   tlen query name           accession   qlen   E-value  score  bias   #  of  c-Evalue  i-Evalue  score  bias  from    to  from    to  from    to  acc description of target
#------------------- ---------- ----- -------------------- ---------- ----- --------- ------ ----- --- --- --------- --------- ------ ----- ----- ----- ----- ----- ----- ----- ---- ---------------------
ID=PSME_00023444     -            349 67201at3193          -            402  3.5e-133  445.9   0.1   1   2   3.4e-48   6.2e-44  152.0   0.0    37   127     7   106     1   110 0.90 -
ID=PSME_00023444     -            349 67201at3193          -            402  3.5e-133  445.9   0.1   2   2     3e-88   5.6e-84  283.9   0.1   125   303   132   340   121   344 0.90 -
ID=PSME_00000549     -            210 67201at3193          -            402     5e-06   27.2   0.0   1   1   3.6e-10   6.7e-06   26.8   0.0    42   151    80   177    71   186 0.80 -
ID=PSME_00040104     -            387 67201at3193          -            402      0.15   12.5   0.1   1   2    0.0017        30    4.9   0.0   287   341    91   145    79   149 0.87 -
ID=PSME_00040104     -            387 67201at3193          -            402      0.15   12.5   0.1   2   2    0.0011        20    5.5   0.0   287   341   236   290   227   303 0.86 -
#
# Program:         hmmsearch
# Version:         3.2.1 (June 2018)
# Pipeline mode:   SEARCH
# Query file:      /isg/shared/databases/BUSCO/odb10/embryophyta_odb10/hmms/67201at3193.hmm
# Target file:     /labs/Wegrzyn/ConiferGenomes/Psme/analysis/SURF_annotation/analyze_orig_maker/gfacs/filtered/maker_genes.fasta.faa
# Option settings: /usr/local/bin/hmmsearch --domtblout /labs/Wegrzyn/ConiferGenomes/Psme/analysis/SURF_annotation/analyze_orig_maker/busco/maker/run_embryophyta_odb10/hmmer_output/67201at3193.out --cpu 1 /isg/shared/databases/BUSCO/odb10/embryophyta_odb10/hmms/67201at3193.hmm /labs/Wegrzyn/ConiferGenomes/Psme/analysis/SURF_annotation/analyze_orig_maker/gfacs/filtered/maker_genes.fasta.faa 
# Current dir:     /labs/Wegrzyn/ConiferGenomes/Psme/analysis/SURF_annotation/analyze_orig_maker/busco
# Date:            Fri Jul 10 13:55:21 2020
# [ok]
