#                                                                            --- full sequence --- -------------- this domain -------------   hmm coord   ali coord   env coord
# target name        accession   tlen query name           accession   qlen   E-value  score  bias   #  of  c-Evalue  i-Evalue  score  bias  from    to  from    to  from    to  acc description of target
#------------------- ---------- ----- -------------------- ---------- ----- --------- ------ ----- --- --- --------- --------- ------ ----- ----- ----- ----- ----- ----- ----- ---- ---------------------
ID=PSME_00005831     -            758 67313at3193          -            607  1.7e-129  434.4  19.1   1   4   3.8e-26   4.1e-22   79.7   0.2   166   247    38   122    15   143 0.80 -
ID=PSME_00005831     -            758 67313at3193          -            607  1.7e-129  434.4  19.1   2   4   1.9e-24   2.1e-20   74.1   0.0   256   321   243   309   238   321 0.92 -
ID=PSME_00005831     -            758 67313at3193          -            607  1.7e-129  434.4  19.1   3   4   3.6e-82   3.9e-78  264.8   6.7   319   578   331   649   311   658 0.83 -
ID=PSME_00005831     -            758 67313at3193          -            607  1.7e-129  434.4  19.1   4   4   5.3e-08   0.00059   19.8   0.7   559   607   653   703   644   703 0.84 -
ID=PSME_00024129     -            162 67313at3193          -            607      0.19   11.5   1.7   1   2   0.00065       7.1    6.3   0.1    97   129     8    40     5    53 0.91 -
ID=PSME_00024129     -            162 67313at3193          -            607      0.19   11.5   1.7   2   2    0.0019        21    4.8   0.1    92   127   117   152   110   157 0.90 -
ID=PSME_00048725     -            121 67313at3193          -            607      0.31   10.8   0.0   1   1   3.6e-05       0.4   10.4   0.0    95   132    17    54     9    70 0.83 -
ID=PSME_00020117     -            367 67313at3193          -            607      0.68    9.7   1.9   1   1   8.2e-05       0.9    9.3   1.9   478   566   169   262   162   291 0.81 -
ID=PSME_00033850     -            154 67313at3193          -            607       1.9    8.2  11.0   1   1   0.00019         2    8.1  11.0   472   602    17   149     2   153 0.78 -
#
# Program:         hmmsearch
# Version:         3.2.1 (June 2018)
# Pipeline mode:   SEARCH
# Query file:      /isg/shared/databases/BUSCO/odb10/embryophyta_odb10/hmms/67313at3193.hmm
# Target file:     /labs/Wegrzyn/ConiferGenomes/Psme/analysis/SURF_annotation/analyze_orig_maker/gfacs/filtered/maker_genes.fasta.faa
# Option settings: /usr/local/bin/hmmsearch --domtblout /labs/Wegrzyn/ConiferGenomes/Psme/analysis/SURF_annotation/analyze_orig_maker/busco/maker/run_embryophyta_odb10/hmmer_output/67313at3193.out --cpu 1 /isg/shared/databases/BUSCO/odb10/embryophyta_odb10/hmms/67313at3193.hmm /labs/Wegrzyn/ConiferGenomes/Psme/analysis/SURF_annotation/analyze_orig_maker/gfacs/filtered/maker_genes.fasta.faa 
# Current dir:     /labs/Wegrzyn/ConiferGenomes/Psme/analysis/SURF_annotation/analyze_orig_maker/busco
# Date:            Fri Jul 10 13:55:22 2020
# [ok]
