#                                                                            --- full sequence --- -------------- this domain -------------   hmm coord   ali coord   env coord
# target name        accession   tlen query name           accession   qlen   E-value  score  bias   #  of  c-Evalue  i-Evalue  score  bias  from    to  from    to  from    to  acc description of target
#------------------- ---------- ----- -------------------- ---------- ----- --------- ------ ----- --- --- --------- --------- ------ ----- ----- ----- ----- ----- ----- ----- ---- ---------------------
ID=PSME_00002009     -            447 67674at3193          -            388  8.6e-116  388.8  11.8   1   3   1.3e-21   3.6e-17   64.1   2.1    59   103    59   103    46   104 0.87 -
ID=PSME_00002009     -            447 67674at3193          -            388  8.6e-116  388.8  11.8   2   3   2.7e-32   7.3e-28   99.3   0.0   131   191   103   163   102   171 0.96 -
ID=PSME_00002009     -            447 67674at3193          -            388  8.6e-116  388.8  11.8   3   3   4.1e-70   1.1e-65  223.8   0.8   194   353   254   408   248   423 0.87 -
ID=PSME_00002011     -             68 67674at3193          -            388   2.3e-06   28.6   0.0   1   1   9.7e-11   2.7e-06   28.3   0.0   352   388     5    47     2    47 0.83 -
#
# Program:         hmmsearch
# Version:         3.2.1 (June 2018)
# Pipeline mode:   SEARCH
# Query file:      /isg/shared/databases/BUSCO/odb10/embryophyta_odb10/hmms/67674at3193.hmm
# Target file:     /labs/Wegrzyn/ConiferGenomes/Psme/analysis/SURF_annotation/analyze_orig_maker/gfacs/filtered/maker_genes.fasta.faa
# Option settings: /usr/local/bin/hmmsearch --domtblout /labs/Wegrzyn/ConiferGenomes/Psme/analysis/SURF_annotation/analyze_orig_maker/busco/maker/run_embryophyta_odb10/hmmer_output/67674at3193.out --cpu 1 /isg/shared/databases/BUSCO/odb10/embryophyta_odb10/hmms/67674at3193.hmm /labs/Wegrzyn/ConiferGenomes/Psme/analysis/SURF_annotation/analyze_orig_maker/gfacs/filtered/maker_genes.fasta.faa 
# Current dir:     /labs/Wegrzyn/ConiferGenomes/Psme/analysis/SURF_annotation/analyze_orig_maker/busco
# Date:            Fri Jul 10 13:55:23 2020
# [ok]
