#                                                                            --- full sequence --- -------------- this domain -------------   hmm coord   ali coord   env coord
# target name        accession   tlen query name           accession   qlen   E-value  score  bias   #  of  c-Evalue  i-Evalue  score  bias  from    to  from    to  from    to  acc description of target
#------------------- ---------- ----- -------------------- ---------- ----- --------- ------ ----- --- --- --------- --------- ------ ----- ----- ----- ----- ----- ----- ----- ---- ---------------------
ID=PSME_00034135     -           1066 67893at3193          -            313     3e-31  110.3   4.1   1   3   9.5e-07     0.001   19.9   0.1     4    34    60    90    57    99 0.83 -
ID=PSME_00034135     -           1066 67893at3193          -            313     3e-31  110.3   4.1   2   3   4.1e-12   4.5e-09   37.5   1.2    24   179   118   275   110   280 0.86 -
ID=PSME_00034135     -           1066 67893at3193          -            313     3e-31  110.3   4.1   3   3   1.3e-16   1.4e-13   52.3   0.0   210   312   279   392   275   393 0.84 -
ID=PSME_00017790     -            888 67893at3193          -            313   1.5e-28  101.5   3.8   1   2   5.9e-14   6.5e-11   43.5   1.5    57   179    66   194    50   198 0.84 -
ID=PSME_00017790     -            888 67893at3193          -            313   1.5e-28  101.5   3.8   2   2   1.1e-18   1.2e-15   59.1   0.2   210   312   198   311   190   312 0.84 -
ID=PSME_00023662     -            638 67893at3193          -            313   6.7e-28   99.3  14.9   1   2   6.6e-17   7.3e-14   53.2   7.6    10   179   124   310   120   314 0.76 -
ID=PSME_00023662     -            638 67893at3193          -            313   6.7e-28   99.3  14.9   2   2   4.3e-16   4.7e-13   50.6   1.0   210   312   314   430   310   431 0.83 -
ID=PSME_00027792     -           1185 67893at3193          -            313   4.4e-27   96.7   7.1   1   2   1.7e-14   1.8e-11   45.3   1.6    12   179   179   366   173   371 0.75 -
ID=PSME_00027792     -           1185 67893at3193          -            313   4.4e-27   96.7   7.1   2   2   2.9e-17   3.2e-14   54.4   0.4   210   312   370   484   366   485 0.85 -
ID=PSME_00004345     -            604 67893at3193          -            313     3e-24   87.3  13.8   1   2   4.7e-12   5.2e-09   37.3  11.3    11   179    95   280    91   285 0.73 -
ID=PSME_00004345     -            604 67893at3193          -            313     3e-24   87.3  13.8   2   2   4.4e-16   4.8e-13   50.5   0.1   210   312   284   400   280   401 0.84 -
ID=PSME_00033218     -           1175 67893at3193          -            313   4.4e-24   86.8   7.3   1   3      0.76   8.4e+02    0.5   0.1   173   202   127   156   112   171 0.79 -
ID=PSME_00033218     -           1175 67893at3193          -            313   4.4e-24   86.8   7.3   2   3   1.7e-11   1.8e-08   35.5   0.8    13   179   538   724   534   730 0.75 -
ID=PSME_00033218     -           1175 67893at3193          -            313   4.4e-24   86.8   7.3   3   3   6.5e-17   7.2e-14   53.3   0.1   210   312   728   842   725   843 0.84 -
ID=PSME_00036644     -            658 67893at3193          -            313   1.4e-22   81.9   0.6   1   2   2.2e-11   2.4e-08   35.1   0.1    19   180     2   183     1   189 0.71 -
ID=PSME_00036644     -            658 67893at3193          -            313   1.4e-22   81.9   0.6   2   2   1.3e-14   1.4e-11   45.7   0.0   209   312   185   300   182   301 0.85 -
ID=PSME_00035321     -            372 67893at3193          -            313   1.4e-22   81.8   5.8   1   2     2e-16   2.2e-13   51.7   3.2    13   182    34   227    31   230 0.76 -
ID=PSME_00035321     -            372 67893at3193          -            313   1.4e-22   81.8   5.8   2   2   2.7e-10   2.9e-07   31.5   0.0   210   301   228   332   226   337 0.81 -
ID=PSME_00004268     -            707 67893at3193          -            313   4.7e-22   80.1  13.7   1   2   6.7e-12   7.4e-09   36.8  10.4    12   183    90   264    85   266 0.80 -
ID=PSME_00004268     -            707 67893at3193          -            313   4.7e-22   80.1  13.7   2   2     3e-14   3.2e-11   44.5   0.1   209   312   263   380   262   381 0.82 -
ID=PSME_00039528     -            718 67893at3193          -            313   1.5e-21   78.5   7.0   1   2     5e-16   5.5e-13   50.3   1.7    13   182    43   229    41   232 0.77 -
ID=PSME_00039528     -            718 67893at3193          -            313   1.5e-21   78.5   7.0   2   2   1.7e-10   1.8e-07   32.2   0.3   208   311   228   342   226   344 0.81 -
ID=PSME_00023050     -            245 67893at3193          -            313   1.7e-18   68.4   0.1   1   2   3.1e-21   3.5e-18   67.4   0.0   189   260     5    86     1    90 0.83 -
ID=PSME_00023050     -            245 67893at3193          -            313   1.7e-18   68.4   0.1   2   2       8.7   9.6e+03   -3.0   0.0    86   111   167   192   162   205 0.56 -
ID=PSME_00043119     -            417 67893at3193          -            313   4.1e-18   67.2   9.8   1   3   3.1e-10   3.4e-07   31.3   0.1    13   102    50   153    47   160 0.81 -
ID=PSME_00043119     -            417 67893at3193          -            313   4.1e-18   67.2   9.8   2   3   4.1e-05     0.045   14.5   3.3   113   180   189   259   176   264 0.77 -
ID=PSME_00043119     -            417 67893at3193          -            313   4.1e-18   67.2   9.8   3   3   4.2e-08   4.6e-05   24.3   0.1   209   299   261   368   258   376 0.75 -
ID=PSME_00026030     -            728 67893at3193          -            313   8.6e-18   66.1   0.1   1   2   4.9e-06    0.0054   17.5   0.0    11   102   248   355   238   368 0.73 -
ID=PSME_00026030     -            728 67893at3193          -            313   8.6e-18   66.1   0.1   2   2   1.1e-14   1.2e-11   45.9   0.0   204   312   605   723   584   724 0.83 -
ID=PSME_00004447     -           1070 67893at3193          -            313   1.1e-16   62.5   1.1   1   5   1.9e-05      0.02   15.6   0.0     9    39   227   257   221   285 0.73 -
ID=PSME_00004447     -           1070 67893at3193          -            313   1.1e-16   62.5   1.1   2   5     0.031        34    5.0   0.0    62   102   303   343   295   354 0.88 -
ID=PSME_00004447     -           1070 67893at3193          -            313   1.1e-16   62.5   1.1   3   5      0.14   1.6e+02    2.9   0.1   119   151   390   421   381   426 0.82 -
ID=PSME_00004447     -           1070 67893at3193          -            313   1.1e-16   62.5   1.1   4   5      0.41   4.5e+02    1.4   0.0   154   181   737   767   726   807 0.78 -
ID=PSME_00004447     -           1070 67893at3193          -            313   1.1e-16   62.5   1.1   5   5   4.3e-10   4.7e-07   30.9   0.0   208   258  1016  1066   998  1068 0.90 -
ID=PSME_00011255     -           1191 67893at3193          -            313   5.2e-16   60.3   1.7   1   2   2.2e-13   2.4e-10   41.7   1.6    12   180   178   353   171   366 0.78 -
ID=PSME_00011255     -           1191 67893at3193          -            313   5.2e-16   60.3   1.7   2   2     6e-06    0.0066   17.2   0.0   211   294   357   456   353   461 0.75 -
ID=PSME_00012734     -            136 67893at3193          -            313   1.4e-15   58.9   0.1   1   1   1.5e-18   1.7e-15   58.6   0.1   209   312    20   135    14   135 0.84 -
ID=PSME_00002264     -            538 67893at3193          -            313   1.6e-15   58.7   3.6   1   3   9.2e-08    0.0001   23.2   0.1    13    40   233   260   225   266 0.90 -
ID=PSME_00002264     -            538 67893at3193          -            313   1.6e-15   58.7   3.6   2   3         8   8.8e+03   -2.9   0.1    82   101   337   356   336   358 0.89 -
ID=PSME_00002264     -            538 67893at3193          -            313   1.6e-15   58.7   3.6   3   3   1.1e-11   1.3e-08   36.0   0.1   210   312   421   536   411   537 0.77 -
ID=PSME_00004309     -            316 67893at3193          -            313     4e-14   54.1   5.8   1   3    0.0032       3.6    8.3   0.0    61   104    12    55     6    89 0.74 -
ID=PSME_00004309     -            316 67893at3193          -            313     4e-14   54.1   5.8   2   3   0.00057      0.62   10.8   1.7   119   180    95   159    70   165 0.80 -
ID=PSME_00004309     -            316 67893at3193          -            313     4e-14   54.1   5.8   3   3   6.6e-12   7.3e-09   36.8   0.0   209   300   161   265   158   273 0.82 -
ID=PSME_00047408     -            298 67893at3193          -            313   2.2e-13   51.7  10.6   1   3    0.0045         5    7.8   0.0    60   101    15    56     6    86 0.85 -
ID=PSME_00047408     -            298 67893at3193          -            313   2.2e-13   51.7  10.6   2   3   0.00025      0.27   11.9   4.1   117   179    96   161    56   166 0.79 -
ID=PSME_00047408     -            298 67893at3193          -            313   2.2e-13   51.7  10.6   3   3   1.2e-11   1.4e-08   35.9   0.5   208   300   163   268   159   274 0.82 -
ID=PSME_00016988     -            556 67893at3193          -            313   1.7e-12   48.8   5.9   1   3   1.1e-06    0.0012   19.7   0.0    12   180   105   282   100   286 0.73 -
ID=PSME_00016988     -            556 67893at3193          -            313   1.7e-12   48.8   5.9   2   3   2.9e-06    0.0032   18.3   0.0   210   262   285   338   281   341 0.88 -
ID=PSME_00016988     -            556 67893at3193          -            313   1.7e-12   48.8   5.9   3   3   0.00032      0.36   11.5   0.5   256   280   383   407   373   410 0.92 -
ID=PSME_00051684     -            235 67893at3193          -            313   2.8e-12   48.0   1.2   1   2     0.036        40    4.8   0.1   138   182    19    67     7    70 0.73 -
ID=PSME_00051684     -            235 67893at3193          -            313   2.8e-12   48.0   1.2   2   2   5.7e-15   6.2e-12   46.9   0.5   187   312    47   184    33   185 0.78 -
ID=PSME_00053143     -            355 67893at3193          -            313   5.5e-12   47.1   1.9   1   1   9.3e-15     1e-11   46.2   1.9   209   312   212   329   175   330 0.85 -
ID=PSME_00052410     -            225 67893at3193          -            313   1.6e-11   45.6   0.1   1   1   2.5e-14   2.7e-11   44.8   0.1   193   312    43   174    27   175 0.79 -
ID=PSME_00019988     -            111 67893at3193          -            313   6.8e-11   43.5   0.0   1   1   7.5e-14   8.2e-11   43.2   0.0   210   296     6   104     2   110 0.80 -
ID=PSME_00013420     -            636 67893at3193          -            313   9.1e-11   43.1  11.0   1   2   5.3e-06    0.0059   17.4   6.9    12   182     2   192     1   195 0.74 -
ID=PSME_00013420     -            636 67893at3193          -            313   9.1e-11   43.1  11.0   2   2   1.4e-09   1.5e-06   29.2   0.2   198   302   183   299   178   310 0.79 -
ID=PSME_00006859     -            914 67893at3193          -            313   1.8e-09   38.8   0.1   1   2   3.6e-05      0.04   14.7   0.0    13   171   214   374   210   382 0.76 -
ID=PSME_00006859     -            914 67893at3193          -            313   1.8e-09   38.8   0.1   2   2     2e-07   0.00022   22.1   0.0   202   297   380   495   366   502 0.71 -
ID=PSME_00008044     -           1122 67893at3193          -            313   6.2e-09   37.0   0.2   1   1   3.4e-08   3.7e-05   24.6   0.2   173   298   346   487   201   493 0.70 -
ID=PSME_00046752     -            311 67893at3193          -            313     4e-08   34.4   0.2   1   1   4.9e-11   5.4e-08   33.9   0.2   239   311   197   284   157   286 0.76 -
ID=PSME_00028951     -            405 67893at3193          -            313     1e-07   33.0   0.4   1   2       1.1   1.2e+03    0.0   0.2   139   189   117   172   105   179 0.69 -
ID=PSME_00028951     -            405 67893at3193          -            313     1e-07   33.0   0.4   2   2   9.6e-11     1e-07   33.0   0.4   240   312   172   259   164   260 0.82 -
ID=PSME_00040703     -            238 67893at3193          -            313   1.1e-07   33.0   0.0   1   1   1.9e-10   2.1e-07   32.0   0.0    11   102    88   196    80   201 0.79 -
ID=PSME_00048355     -            247 67893at3193          -            313   1.1e-07   32.9   0.3   1   1   1.6e-10   1.7e-07   32.3   0.3   229   312   123   221   117   222 0.82 -
ID=PSME_00056766     -            188 67893at3193          -            313   1.3e-07   32.7   3.3   1   2   0.00069      0.76   10.5   1.0   154   206    10    66     2    82 0.74 -
ID=PSME_00056766     -            188 67893at3193          -            313   1.3e-07   32.7   3.3   2   2   8.3e-10   9.1e-07   29.9   1.7   206   301    38   146    20   161 0.79 -
ID=PSME_00043331     -            300 67893at3193          -            313   3.2e-07   31.4   6.7   1   2      0.13   1.5e+02    3.0   0.1    60    99    62   103    48   112 0.80 -
ID=PSME_00043331     -            300 67893at3193          -            313   3.2e-07   31.4   6.7   2   2     5e-09   5.5e-06   27.4   3.2   259   312   191   249   131   250 0.91 -
ID=PSME_00005491     -            428 67893at3193          -            313   7.1e-07   30.3   0.8   1   2   9.8e-09   1.1e-05   26.4   0.5    10   165    98   270    92   281 0.67 -
ID=PSME_00005491     -            428 67893at3193          -            313   7.1e-07   30.3   0.8   2   2      0.43   4.7e+02    1.3   0.0   212   257   288   334   280   341 0.83 -
ID=PSME_00005013     -            338 67893at3193          -            313   7.2e-07   30.3   0.1   1   1   1.1e-09   1.2e-06   29.6   0.1   208   278    34   112    15   132 0.80 -
ID=PSME_00049072     -            227 67893at3193          -            313   3.3e-06   28.1   0.1   1   1   4.4e-09   4.8e-06   27.5   0.1   210   278     6    82     2   102 0.82 -
ID=PSME_00002354     -           1084 67893at3193          -            313   2.3e-05   25.3   0.0   1   2   5.6e-05     0.061   14.1   0.1    12   173   221   384   217   391 0.71 -
ID=PSME_00002354     -           1084 67893at3193          -            313   2.3e-05   25.3   0.0   2   2    0.0002      0.22   12.2   0.0   182   295   371   485   326   494 0.74 -
ID=PSME_00048690     -            279 67893at3193          -            313   0.00012   23.0   0.0   1   1     2e-07   0.00022   22.1   0.0    11   102   137   228   128   244 0.81 -
ID=PSME_00011376     -            237 67893at3193          -            313   0.00015   22.6   1.0   1   1   1.9e-07   0.00021   22.2   1.0    12    99   107   199   101   217 0.77 -
ID=PSME_00044525     -            237 67893at3193          -            313   0.00024   22.0   0.8   1   1     3e-07   0.00032   21.5   0.8    11    98   140   232   132   236 0.71 -
ID=PSME_00050212     -            202 67893at3193          -            313   0.00041   21.2   0.4   1   1   5.2e-07   0.00057   20.7   0.4    12    97   106   196   100   197 0.77 -
ID=PSME_00037802     -            249 67893at3193          -            313   0.00081   20.2   0.2   1   1     1e-06    0.0011   19.8   0.2    12   101   111   204   105   227 0.80 -
ID=PSME_00013715     -            203 67893at3193          -            313    0.0065   17.3   0.6   1   1   8.1e-06    0.0089   16.8   0.6    12    83   107   181   101   201 0.69 -
ID=PSME_00041959     -            421 67893at3193          -            313     0.012   16.4   2.5   1   3      0.88   9.7e+02    0.3   0.0   162   211    26    75    13    91 0.80 -
ID=PSME_00041959     -            421 67893at3193          -            313     0.012   16.4   2.5   2   3    0.0026       2.9    8.6   1.0   134   226    90   192    80   215 0.68 -
ID=PSME_00041959     -            421 67893at3193          -            313     0.012   16.4   2.5   3   3     0.053        58    4.3   0.0   160   222   312   375   275   380 0.76 -
ID=PSME_00051712     -            238 67893at3193          -            313     0.029   15.1   0.6   1   1   3.5e-05     0.038   14.7   0.6    13   100   107   198   100   223 0.74 -
ID=PSME_00023056     -            326 67893at3193          -            313     0.068   13.9   0.7   1   3    0.0023       2.5    8.8   0.1   166   225     5    64     2    76 0.84 -
ID=PSME_00023056     -            326 67893at3193          -            313     0.068   13.9   0.7   2   3       2.9   3.2e+03   -1.4   0.0   198   216    80    98    67   143 0.65 -
ID=PSME_00023056     -            326 67893at3193          -            313     0.068   13.9   0.7   3   3      0.24   2.6e+02    2.1   0.0   159   207   197   243   172   265 0.56 -
ID=PSME_00018624     -            133 67893at3193          -            313      0.22   12.3   0.4   1   1   0.00039      0.43   11.3   0.2   160   224    22    86     2    99 0.57 -
ID=PSME_00022892     -            430 67893at3193          -            313      0.26   12.0   3.1   1   3       4.7   5.2e+03   -2.1   0.0    52    69    50    67    36    74 0.78 -
ID=PSME_00022892     -            430 67893at3193          -            313      0.26   12.0   3.1   2   3      0.44   4.9e+02    1.2   0.1   167   221   153   217   126   219 0.57 -
ID=PSME_00022892     -            430 67893at3193          -            313      0.26   12.0   3.1   3   3   0.00073       0.8   10.4   0.1   147   223   316   391   287   407 0.84 -
ID=PSME_00027347     -             65 67893at3193          -            313      0.49   11.1   3.8   1   1   0.00045       0.5   11.1   3.8   160   199     7    45     2    63 0.78 -
ID=PSME_00002048     -            236 67893at3193          -            313      0.52   11.0   0.1   1   1   0.00062      0.68   10.6   0.1    13    39   142   168   136   199 0.73 -
#
# Program:         hmmsearch
# Version:         3.2.1 (June 2018)
# Pipeline mode:   SEARCH
# Query file:      /isg/shared/databases/BUSCO/odb10/embryophyta_odb10/hmms/67893at3193.hmm
# Target file:     /labs/Wegrzyn/ConiferGenomes/Psme/analysis/SURF_annotation/analyze_orig_maker/gfacs/filtered/maker_genes.fasta.faa
# Option settings: /usr/local/bin/hmmsearch --domtblout /labs/Wegrzyn/ConiferGenomes/Psme/analysis/SURF_annotation/analyze_orig_maker/busco/maker/run_embryophyta_odb10/hmmer_output/67893at3193.out --cpu 1 /isg/shared/databases/BUSCO/odb10/embryophyta_odb10/hmms/67893at3193.hmm /labs/Wegrzyn/ConiferGenomes/Psme/analysis/SURF_annotation/analyze_orig_maker/gfacs/filtered/maker_genes.fasta.faa 
# Current dir:     /labs/Wegrzyn/ConiferGenomes/Psme/analysis/SURF_annotation/analyze_orig_maker/busco
# Date:            Fri Jul 10 13:55:24 2020
# [ok]
