#                                                                            --- full sequence --- -------------- this domain -------------   hmm coord   ali coord   env coord
# target name        accession   tlen query name           accession   qlen   E-value  score  bias   #  of  c-Evalue  i-Evalue  score  bias  from    to  from    to  from    to  acc description of target
#------------------- ---------- ----- -------------------- ---------- ----- --------- ------ ----- --- --- --------- --------- ------ ----- ----- ----- ----- ----- ----- ----- ---- ---------------------
ID=PSME_00018239     -            359 68087at3193          -            471   1.6e-59  203.6   0.1   1   1   1.6e-63   2.2e-59  203.1   0.1   273   412    19   175     1   184 0.86 -
ID=PSME_00031844     -            161 68087at3193          -            471   5.1e-32  112.9  11.7   1   1   4.5e-36   6.2e-32  112.6  11.7   101   218     1   132     1   139 0.85 -
ID=PSME_00031845     -            109 68087at3193          -            471   1.2e-29  105.1   1.0   1   1   9.9e-34   1.4e-29  104.9   1.0     2    95    11   107    10   108 0.93 -
ID=PSME_00000680     -            708 68087at3193          -            471     1e-07   32.8   2.2   1   1     1e-11   1.4e-07   32.3   2.2   143   198   641   706   619   707 0.77 -
#
# Program:         hmmsearch
# Version:         3.2.1 (June 2018)
# Pipeline mode:   SEARCH
# Query file:      /isg/shared/databases/BUSCO/odb10/embryophyta_odb10/hmms/68087at3193.hmm
# Target file:     /labs/Wegrzyn/ConiferGenomes/Psme/analysis/SURF_annotation/analyze_orig_maker/gfacs/filtered/maker_genes.fasta.faa
# Option settings: /usr/local/bin/hmmsearch --domtblout /labs/Wegrzyn/ConiferGenomes/Psme/analysis/SURF_annotation/analyze_orig_maker/busco/maker/run_embryophyta_odb10/hmmer_output/68087at3193.out --cpu 1 /isg/shared/databases/BUSCO/odb10/embryophyta_odb10/hmms/68087at3193.hmm /labs/Wegrzyn/ConiferGenomes/Psme/analysis/SURF_annotation/analyze_orig_maker/gfacs/filtered/maker_genes.fasta.faa 
# Current dir:     /labs/Wegrzyn/ConiferGenomes/Psme/analysis/SURF_annotation/analyze_orig_maker/busco
# Date:            Fri Jul 10 13:55:24 2020
# [ok]
