#                                                                            --- full sequence --- -------------- this domain -------------   hmm coord   ali coord   env coord
# target name        accession   tlen query name           accession   qlen   E-value  score  bias   #  of  c-Evalue  i-Evalue  score  bias  from    to  from    to  from    to  acc description of target
#------------------- ---------- ----- -------------------- ---------- ----- --------- ------ ----- --- --- --------- --------- ------ ----- ----- ----- ----- ----- ----- ----- ---- ---------------------
ID=PSME_00035951     -            294 68974at3193          -            377   2.3e-32  114.3   0.2   1   2       1.3   1.2e+04   -3.3   0.0   260   276   136   152   127   160 0.80 -
ID=PSME_00035951     -            294 68974at3193          -            377   2.3e-32  114.3   0.2   2   2   4.7e-36   4.3e-32  113.3   0.1   274   367   193   290   180   293 0.91 -
ID=PSME_00042803     -            459 68974at3193          -            377   2.6e-25   91.0   3.6   1   3      0.11     1e+03    0.3   0.0   253   277   174   198   165   207 0.87 -
ID=PSME_00042803     -            459 68974at3193          -            377   2.6e-25   91.0   3.6   2   3   1.1e-21   9.8e-18   66.1   0.1   274   343   237   308   226   331 0.83 -
ID=PSME_00042803     -            459 68974at3193          -            377   2.6e-25   91.0   3.6   3   3   6.1e-09   5.6e-05   24.1   0.2   338   367   331   361   312   369 0.79 -
ID=PSME_00046397     -            202 68974at3193          -            377   2.2e-24   88.0   0.1   1   2      0.15   1.4e+03   -0.2   0.0   256   276    51    71    25    85 0.78 -
ID=PSME_00046397     -            202 68974at3193          -            377   2.2e-24   88.0   0.1   2   2     1e-27   9.5e-24   85.9   0.0   274   367   112   200   105   202 0.92 -
ID=PSME_00001953     -            448 68974at3193          -            377   1.1e-17   66.0   0.5   1   1   1.8e-21   1.6e-17   65.4   0.5   113   238   280   408   262   439 0.79 -
ID=PSME_00044372     -            251 68974at3193          -            377   8.7e-17   63.0   4.6   1   3      0.22     2e+03   -0.7   0.0   254   276   112   134   100   146 0.83 -
ID=PSME_00044372     -            251 68974at3193          -            377   8.7e-17   63.0   4.6   2   3   2.2e-12     2e-08   35.4   0.1   274   319   174   221   163   222 0.90 -
ID=PSME_00044372     -            251 68974at3193          -            377   8.7e-17   63.0   4.6   3   3   2.5e-10   2.3e-06   28.7   0.4   340   367   222   249   221   251 0.95 -
ID=PSME_00045867     -            302 68974at3193          -            377      0.11   13.2   0.1   1   2      0.38   3.5e+03   -1.5   0.0   256   276   203   223   198   233 0.83 -
ID=PSME_00045867     -            302 68974at3193          -            377      0.11   13.2   0.1   2   2     5e-05      0.46   11.2   0.0   274   304   263   293   252   297 0.87 -
#
# Program:         hmmsearch
# Version:         3.2.1 (June 2018)
# Pipeline mode:   SEARCH
# Query file:      /isg/shared/databases/BUSCO/odb10/embryophyta_odb10/hmms/68974at3193.hmm
# Target file:     /labs/Wegrzyn/ConiferGenomes/Psme/analysis/SURF_annotation/analyze_orig_maker/gfacs/filtered/maker_genes.fasta.faa
# Option settings: /usr/local/bin/hmmsearch --domtblout /labs/Wegrzyn/ConiferGenomes/Psme/analysis/SURF_annotation/analyze_orig_maker/busco/maker/run_embryophyta_odb10/hmmer_output/68974at3193.out --cpu 1 /isg/shared/databases/BUSCO/odb10/embryophyta_odb10/hmms/68974at3193.hmm /labs/Wegrzyn/ConiferGenomes/Psme/analysis/SURF_annotation/analyze_orig_maker/gfacs/filtered/maker_genes.fasta.faa 
# Current dir:     /labs/Wegrzyn/ConiferGenomes/Psme/analysis/SURF_annotation/analyze_orig_maker/busco
# Date:            Fri Jul 10 13:55:25 2020
# [ok]
