#                                                                            --- full sequence --- -------------- this domain -------------   hmm coord   ali coord   env coord
# target name        accession   tlen query name           accession   qlen   E-value  score  bias   #  of  c-Evalue  i-Evalue  score  bias  from    to  from    to  from    to  acc description of target
#------------------- ---------- ----- -------------------- ---------- ----- --------- ------ ----- --- --- --------- --------- ------ ----- ----- ----- ----- ----- ----- ----- ---- ---------------------
ID=PSME_00005514     -            400 69003at3193          -            431   1.7e-58  199.9   0.7   1   1   9.6e-62   1.1e-57  197.3   0.7    30   418    14   388     2   395 0.92 -
ID=PSME_00039104     -            349 69003at3193          -            431   1.7e-21   78.0   0.3   1   2   0.00055         6    7.0   0.0     7    31   250   274   244   282 0.82 -
ID=PSME_00039104     -            349 69003at3193          -            431   1.7e-21   78.0   0.3   2   2   6.7e-23   7.3e-19   69.3   0.1    24    78   293   347   278   348 0.90 -
ID=PSME_00048110     -            190 69003at3193          -            431   5.5e-13   50.0   0.1   1   1   6.1e-17   6.6e-13   49.7   0.1   111   196     2    87     1   100 0.95 -
ID=PSME_00054603     -             96 69003at3193          -            431      0.01   16.1   0.1   1   1   9.5e-07      0.01   16.1   0.1   334   386     1    54     1    76 0.88 -
ID=PSME_00024491     -            236 69003at3193          -            431      0.49   10.6   0.0   1   1   6.1e-05      0.67   10.1   0.0   220   267   152   199   144   230 0.83 -
#
# Program:         hmmsearch
# Version:         3.2.1 (June 2018)
# Pipeline mode:   SEARCH
# Query file:      /isg/shared/databases/BUSCO/odb10/embryophyta_odb10/hmms/69003at3193.hmm
# Target file:     /labs/Wegrzyn/ConiferGenomes/Psme/analysis/SURF_annotation/analyze_orig_maker/gfacs/filtered/maker_genes.fasta.faa
# Option settings: /usr/local/bin/hmmsearch --domtblout /labs/Wegrzyn/ConiferGenomes/Psme/analysis/SURF_annotation/analyze_orig_maker/busco/maker/run_embryophyta_odb10/hmmer_output/69003at3193.out --cpu 1 /isg/shared/databases/BUSCO/odb10/embryophyta_odb10/hmms/69003at3193.hmm /labs/Wegrzyn/ConiferGenomes/Psme/analysis/SURF_annotation/analyze_orig_maker/gfacs/filtered/maker_genes.fasta.faa 
# Current dir:     /labs/Wegrzyn/ConiferGenomes/Psme/analysis/SURF_annotation/analyze_orig_maker/busco
# Date:            Fri Jul 10 13:55:26 2020
# [ok]
