#                                                                            --- full sequence --- -------------- this domain -------------   hmm coord   ali coord   env coord
# target name        accession   tlen query name           accession   qlen   E-value  score  bias   #  of  c-Evalue  i-Evalue  score  bias  from    to  from    to  from    to  acc description of target
#------------------- ---------- ----- -------------------- ---------- ----- --------- ------ ----- --- --- --------- --------- ------ ----- ----- ----- ----- ----- ----- ----- ---- ---------------------
ID=PSME_00010814     -            597 70143at3193          -            439  1.8e-250  832.4   0.0   1   1  5.6e-253  2.6e-250  831.9   0.0     5   425   110   546   107   560 0.95 -
ID=PSME_00017714     -            628 70143at3193          -            439  1.5e-243  809.7   0.0   1   1  4.4e-246    2e-243  809.2   0.0     9   423    43   477    36   491 0.95 -
ID=PSME_00040415     -            761 70143at3193          -            439  1.7e-159  532.7   0.0   1   1  4.9e-162  2.2e-159  532.3   0.0    40   431   155   558   149   566 0.94 -
ID=PSME_00034125     -            870 70143at3193          -            439  1.6e-156  522.9   0.0   1   1  4.8e-159  2.2e-156  522.4   0.0    41   422   196   589   188   602 0.95 -
ID=PSME_00046222     -            855 70143at3193          -            439  9.9e-138  460.9   0.3   1   1  3.1e-140  1.4e-137  460.4   0.3    24   423   221   637   206   644 0.94 -
ID=PSME_00013357     -           1195 70143at3193          -            439  1.7e-136  456.9   0.1   1   1  5.4e-139  2.5e-136  456.3   0.1     7   420   478   909   472   917 0.93 -
ID=PSME_00013617     -           1440 70143at3193          -            439    4e-134  449.0   0.1   1   1  1.2e-136  5.7e-134  448.5   0.1     8   420   619  1048   612  1056 0.93 -
ID=PSME_00036706     -            640 70143at3193          -            439  1.9e-111  374.3   0.0   1   1  5.6e-114  2.6e-111  373.9   0.0    39   423   147   560   126   573 0.87 -
ID=PSME_00010735     -            620 70143at3193          -            439    2e-109  367.6   0.0   1   1  5.7e-112  2.6e-109  367.3   0.0    46   424   155   558   116   568 0.85 -
ID=PSME_00034692     -            661 70143at3193          -            439  1.3e-105  355.0   0.0   1   1    4e-108  1.8e-105  354.6   0.0    24   422   150   586   144   601 0.85 -
ID=PSME_00012859     -            635 70143at3193          -            439  2.9e-101  340.7   0.1   1   1  9.7e-104  4.5e-101  340.1   0.1    34   422   159   567   147   570 0.90 -
ID=PSME_00043222     -            470 70143at3193          -            439   7.9e-82  276.7   0.3   1   1   3.6e-84   1.7e-81  275.6   0.3   159   422    28   294    25   299 0.96 -
ID=PSME_00039428     -            658 70143at3193          -            439   4.8e-75  254.4   0.1   1   1   1.4e-77   6.7e-75  253.9   0.1    75   407   166   507   160   516 0.90 -
ID=PSME_00041255     -            553 70143at3193          -            439   1.9e-71  242.5   0.0   1   1   5.7e-74   2.6e-71  242.0   0.0    35   421   120   521   117   528 0.89 -
ID=PSME_00039230     -            553 70143at3193          -            439   3.7e-71  241.5   0.0   1   1   1.1e-73   5.1e-71  241.1   0.0    35   421   120   521   117   528 0.89 -
ID=PSME_00043687     -            413 70143at3193          -            439   1.3e-65  223.2   0.4   1   1   3.8e-68   1.8e-65  222.8   0.4    78   411    56   393    39   401 0.89 -
ID=PSME_00037049     -            308 70143at3193          -            439   1.4e-65  223.1   0.0   1   1   3.8e-68   1.7e-65  222.9   0.0   202   422     2   234     1   244 0.88 -
ID=PSME_00000892     -            412 70143at3193          -            439   2.3e-65  222.4   0.3   1   1   6.6e-68     3e-65  222.1   0.3    78   411    55   392    28   401 0.89 -
ID=PSME_00049527     -            414 70143at3193          -            439   2.4e-64  219.1   0.2   1   1   6.7e-67   3.1e-64  218.7   0.2    78   411    57   394    24   403 0.87 -
ID=PSME_00047883     -            410 70143at3193          -            439   5.2e-63  214.7   0.4   1   1   1.5e-65   6.7e-63  214.3   0.4    78   411    52   390    34   403 0.87 -
ID=PSME_00041552     -            451 70143at3193          -            439   6.6e-63  214.4   0.3   1   1   1.9e-65   8.9e-63  213.9   0.3    78   411    93   431    71   444 0.87 -
ID=PSME_00047834     -            410 70143at3193          -            439   6.7e-63  214.3   0.3   1   1   1.9e-65   8.7e-63  213.9   0.3    78   411    52   390    32   403 0.87 -
ID=PSME_00013820     -            716 70143at3193          -            439   1.9e-62  212.8   0.0   1   1   5.8e-65   2.7e-62  212.3   0.0    55   393    97   442    80   468 0.84 -
ID=PSME_00047772     -            410 70143at3193          -            439   5.2e-62  211.4   0.4   1   1   1.5e-64   6.8e-62  211.0   0.4    80   411    54   390    33   403 0.88 -
ID=PSME_00019301     -            459 70143at3193          -            439     4e-61  208.5   0.0   1   1   1.1e-63   5.2e-61  208.1   0.0    78   420   101   442    77   448 0.87 -
ID=PSME_00017078     -            795 70143at3193          -            439     1e-60  207.1   0.0   1   1   3.4e-63   1.5e-60  206.5   0.0    78   411    96   441    81   461 0.85 -
ID=PSME_00029838     -            502 70143at3193          -            439   2.2e-60  206.0   0.0   1   1   6.5e-63     3e-60  205.6   0.0    78   419   144   484   111   489 0.87 -
ID=PSME_00013579     -            522 70143at3193          -            439   1.6e-56  193.3   0.1   1   1   4.4e-59     2e-56  193.0   0.1    77   404    73   407    30   422 0.89 -
ID=PSME_00039978     -            439 70143at3193          -            439   1.8e-55  189.8   0.0   1   1   4.7e-58   2.2e-55  189.6   0.0    78   416    72   416    16   425 0.88 -
ID=PSME_00034714     -            387 70143at3193          -            439   1.2e-54  187.1   1.7   1   2   2.8e-32   1.3e-29  104.6   0.3    76   267    54   247    25   250 0.84 -
ID=PSME_00034714     -            387 70143at3193          -            439   1.2e-54  187.1   1.7   2   2     3e-25   1.4e-22   81.4   0.0   308   411   250   367   246   375 0.87 -
ID=PSME_00041551     -            330 70143at3193          -            439   3.1e-52  179.2   0.5   1   1   8.4e-55   3.9e-52  178.9   0.5   159   411    56   310    30   323 0.88 -
ID=PSME_00042380     -            288 70143at3193          -            439   1.5e-50  173.6   0.9   1   1   4.1e-53   1.9e-50  173.3   0.9   160   408    15   265     7   279 0.89 -
ID=PSME_00039979     -            347 70143at3193          -            439   3.3e-50  172.5   0.1   1   1   8.4e-53   3.9e-50  172.3   0.1   100   416     2   324     1   333 0.87 -
ID=PSME_00047178     -            423 70143at3193          -            439   1.8e-48  166.8   0.1   1   2   1.6e-37   7.4e-35  121.9   0.1   148   288    94   237    61   242 0.85 -
ID=PSME_00047178     -            423 70143at3193          -            439   1.8e-48  166.8   0.1   2   2   1.8e-13   8.1e-11   42.7   0.0   355   420   246   310   240   318 0.91 -
ID=PSME_00055275     -            274 70143at3193          -            439   6.2e-48  165.0   0.7   1   1   1.7e-50   7.9e-48  164.6   0.7   176   411    16   254     9   267 0.89 -
ID=PSME_00013759     -            610 70143at3193          -            439   1.1e-47  164.2   0.0   1   2   9.4e-26   4.3e-23   83.1   0.1    75   196   154   281   145   288 0.88 -
ID=PSME_00013759     -            610 70143at3193          -            439   1.1e-47  164.2   0.0   2   2   1.6e-24   7.6e-22   79.0   0.0   231   411   289   474   279   486 0.85 -
ID=PSME_00017117     -            639 70143at3193          -            439   1.6e-43  150.5   0.2   1   2     1e-24   4.7e-22   79.7   0.0     5   229   126   374   122   382 0.78 -
ID=PSME_00017117     -            639 70143at3193          -            439   1.6e-43  150.5   0.2   2   2   4.4e-21     2e-18   67.7   0.1   292   402   489   599   397   617 0.87 -
ID=PSME_00015686     -            849 70143at3193          -            439   1.7e-42  147.1   1.0   1   2   4.4e-25     2e-22   80.9   0.2    76   227   228   408   214   415 0.75 -
ID=PSME_00015686     -            849 70143at3193          -            439   1.7e-42  147.1   1.0   2   2   2.6e-19   1.2e-16   61.9   0.0   289   403   530   644   489   662 0.78 -
ID=PSME_00049369     -            166 70143at3193          -            439     3e-42  146.3   0.0   1   1   7.7e-45   3.6e-42  146.0   0.0   120   267     2   159     1   164 0.89 -
ID=PSME_00014730     -            155 70143at3193          -            439   3.9e-40  139.3   0.3   1   1     1e-42   4.7e-40  139.0   0.3   139   279     2   149     1   153 0.89 -
ID=PSME_00017596     -            281 70143at3193          -            439   9.5e-40  138.0   0.0   1   1   2.8e-42   1.3e-39  137.6   0.0   319   422     8   111     3   121 0.97 -
ID=PSME_00041256     -            266 70143at3193          -            439   2.5e-38  133.3   0.0   1   2   2.2e-21     1e-18   68.7   0.1   131   222    11   107     2   111 0.90 -
ID=PSME_00041256     -            266 70143at3193          -            439   2.5e-38  133.3   0.0   2   2   1.5e-19   6.9e-17   62.7   0.0   300   421   112   234   109   240 0.95 -
ID=PSME_00043843     -            307 70143at3193          -            439     4e-35  122.8   0.0   1   1   1.1e-37   4.9e-35  122.5   0.0    75   250    65   245    48   305 0.83 -
ID=PSME_00028267     -            194 70143at3193          -            439   5.7e-35  122.3   0.0   1   1   1.4e-37   6.3e-35  122.1   0.0    76   263     4   193     1   194 0.92 -
ID=PSME_00032141     -            428 70143at3193          -            439     6e-34  118.9   0.1   1   1   7.8e-36   3.6e-33  116.4   0.1   136   372   111   375    99   384 0.80 -
ID=PSME_00055514     -            174 70143at3193          -            439   1.6e-33  117.5   0.3   1   2   5.3e-11   2.4e-08   34.5   0.1   160   221    15    75     7    75 0.90 -
ID=PSME_00055514     -            174 70143at3193          -            439   1.6e-33  117.5   0.3   2   2   2.2e-26   9.9e-24   85.2   0.0   328   412    71   155    70   169 0.94 -
ID=PSME_00027093     -            219 70143at3193          -            439   1.6e-32  114.2   0.2   1   2   9.7e-11   4.5e-08   33.7   0.1   160   221    60   120    46   122 0.90 -
ID=PSME_00027093     -            219 70143at3193          -            439   1.6e-32  114.2   0.2   2   2   1.2e-25   5.7e-23   82.7   0.0   328   411   116   199   115   213 0.94 -
ID=PSME_00024625     -            235 70143at3193          -            439   3.4e-31  109.8   1.4   1   3     7e-11   3.2e-08   34.1   0.2   135   208     5    83     1    89 0.82 -
ID=PSME_00024625     -            235 70143at3193          -            439   3.4e-31  109.8   1.4   2   3     0.086        40    4.2   0.0   236   267    88   119    84   123 0.88 -
ID=PSME_00024625     -            235 70143at3193          -            439   3.4e-31  109.8   1.4   3   3   1.6e-22   7.3e-20   72.5   0.1   293   411   106   215    97   222 0.89 -
ID=PSME_00050148     -            238 70143at3193          -            439   8.6e-31  108.5   0.0   1   1   2.4e-33   1.1e-30  108.2   0.0   298   420    77   199    55   204 0.90 -
ID=PSME_00018498     -            348 70143at3193          -            439   5.2e-30  105.9   0.0   1   1   1.5e-32     7e-30  105.5   0.0   179   398    10   237     7   258 0.82 -
ID=PSME_00048644     -            249 70143at3193          -            439   3.7e-26   93.2   0.2   1   2     8e-07   0.00037   20.8   0.2   160   221    90   150    77   151 0.90 -
ID=PSME_00048644     -            249 70143at3193          -            439   3.7e-26   93.2   0.2   2   2   3.3e-23   1.5e-20   74.8   0.0   328   411   146   229   145   242 0.94 -
ID=PSME_00002746     -            234 70143at3193          -            439   1.2e-24   88.2   0.0   1   1   3.3e-27   1.5e-24   87.9   0.0   231   404    11   196     5   214 0.84 -
ID=PSME_00043842     -            117 70143at3193          -            439   1.7e-23   84.5   0.0   1   1     4e-26   1.8e-23   84.4   0.0   312   402    21   111     8   115 0.91 -
ID=PSME_00014729     -            167 70143at3193          -            439   4.4e-23   83.1   0.0   1   1   1.2e-25   5.6e-23   82.8   0.0   319   422     8   110     2   119 0.93 -
ID=PSME_00045197     -            225 70143at3193          -            439   3.3e-22   80.2   0.0   1   1   8.4e-25   3.8e-22   80.0   0.0    78   244    55   224    34   225 0.84 -
ID=PSME_00017686     -            235 70143at3193          -            439   1.1e-21   78.4   0.0   1   2   0.00051      0.24   11.5   0.0    78   116    96   134    86   144 0.90 -
ID=PSME_00017686     -            235 70143at3193          -            439   1.1e-21   78.4   0.0   2   2   3.1e-20   1.4e-17   65.0   0.0   343   411   147   215   140   225 0.93 -
ID=PSME_00036962     -            389 70143at3193          -            439   3.7e-21   76.8   2.0   1   2   6.2e-23   2.8e-20   73.8   0.5   216   401    78   276    61   291 0.78 -
ID=PSME_00036962     -            389 70143at3193          -            439   3.7e-21   76.8   2.0   2   2      0.12        56    3.7   0.1   218   317   278   384   275   388 0.61 -
ID=PSME_00055119     -            133 70143at3193          -            439   4.9e-20   73.1   0.0   1   1   1.5e-22   6.7e-20   72.6   0.0     6    73    41   111    36   124 0.90 -
ID=PSME_00052722     -            200 70143at3193          -            439   5.2e-20   73.0   0.0   1   1   1.3e-22     6e-20   72.8   0.0    78   221    55   200    30   200 0.86 -
ID=PSME_00049494     -            220 70143at3193          -            439   7.5e-20   72.5   0.1   1   1     2e-22   9.3e-20   72.1   0.1    78   221    46   191    29   194 0.85 -
ID=PSME_00030804     -            574 70143at3193          -            439   1.4e-19   71.5   0.0   1   1   4.5e-22   2.1e-19   71.0   0.0    74   161   265   353   259   357 0.90 -
ID=PSME_00021425     -            133 70143at3193          -            439   4.8e-19   69.8   0.1   1   1   1.5e-21     7e-19   69.2   0.1    11    75    46   113    43   124 0.92 -
ID=PSME_00012178     -            196 70143at3193          -            439   4.6e-18   66.6   0.0   1   1   1.3e-20   5.9e-18   66.2   0.0    11    75    38   105    29   120 0.88 -
ID=PSME_00049962     -            144 70143at3193          -            439   1.3e-17   65.1   0.0   1   1   3.3e-20   1.5e-17   64.9   0.0   289   406    21   140     8   142 0.84 -
ID=PSME_00043304     -            133 70143at3193          -            439   4.5e-17   63.3   0.0   1   1   1.2e-19   5.6e-17   63.0   0.0     9    75    44   113    37   124 0.89 -
ID=PSME_00050161     -            434 70143at3193          -            439   1.3e-16   61.7   0.0   1   1   4.2e-19   1.9e-16   61.2   0.0   332   422   304   390   296   403 0.92 -
ID=PSME_00048514     -            458 70143at3193          -            439     2e-16   61.2   0.0   1   1   6.3e-19   2.9e-16   60.6   0.0   332   422   328   414   322   427 0.93 -
ID=PSME_00051106     -            329 70143at3193          -            439   6.1e-16   59.6   0.0   1   1   1.9e-18   8.6e-16   59.1   0.0   332   422   199   285   192   298 0.92 -
ID=PSME_00048066     -            454 70143at3193          -            439   7.9e-16   59.2   0.0   1   1   2.5e-18   1.1e-15   58.7   0.0   332   423   324   411   317   426 0.91 -
ID=PSME_00050090     -            269 70143at3193          -            439   2.3e-15   57.7   0.0   1   1   7.1e-18   3.3e-15   57.2   0.0   331   422   138   225   128   238 0.92 -
ID=PSME_00049912     -            458 70143at3193          -            439   3.7e-15   57.0   0.0   1   1   1.2e-17   5.3e-15   56.5   0.0   332   422   328   414   321   427 0.93 -
ID=PSME_00010415     -            436 70143at3193          -            439   5.5e-14   53.1   0.0   1   1   1.8e-16   8.2e-14   52.6   0.0   332   389    77   134    63   171 0.93 -
ID=PSME_00021159     -            329 70143at3193          -            439   5.6e-14   53.1   0.0   1   1   1.7e-16   7.7e-14   52.6   0.0   330   422   197   285   192   298 0.93 -
ID=PSME_00036350     -            213 70143at3193          -            439   6.8e-14   52.8   0.1   1   1   1.9e-16   8.6e-14   52.5   0.1   294   408    70   193    55   202 0.77 -
ID=PSME_00045843     -            329 70143at3193          -            439   1.9e-13   51.3   0.0   1   1   5.7e-16   2.6e-13   50.9   0.0   333   422   200   285   192   299 0.92 -
ID=PSME_00006013     -           1155 70143at3193          -            439   4.3e-13   50.2   0.0   1   1   2.4e-15   1.1e-12   48.8   0.0   105   401   632   943   621   954 0.75 -
ID=PSME_00010460     -           1691 70143at3193          -            439   8.6e-13   49.2   0.0   1   2   5.6e-06    0.0026   17.9   0.0    99   211    97   215    85   225 0.76 -
ID=PSME_00010460     -           1691 70143at3193          -            439   8.6e-13   49.2   0.0   2   2   3.1e-09   1.4e-06   28.7   0.0   336   391   485   540   473   575 0.79 -
ID=PSME_00018597     -            247 70143at3193          -            439   1.4e-12   48.5   0.1   1   1   3.5e-15   1.6e-12   48.3   0.1   297   401   125   231    28   243 0.79 -
ID=PSME_00043223     -             61 70143at3193          -            439   2.2e-12   47.9   0.0   1   1   5.1e-15   2.3e-12   47.8   0.0   216   273     1    59     1    60 0.95 -
ID=PSME_00018596     -            233 70143at3193          -            439   2.4e-12   47.7   0.0   1   1   6.3e-15   2.9e-12   47.5   0.0   298   401   112   217    75   230 0.84 -
ID=PSME_00044513     -            390 70143at3193          -            439   3.6e-12   47.1   0.0   1   1   1.1e-14   5.2e-12   46.6   0.0   333   389   200   256   192   263 0.94 -
ID=PSME_00011616     -            112 70143at3193          -            439   1.4e-11   45.2   0.0   1   1   3.7e-14   1.7e-11   44.9   0.0   324   383    43   102    38   108 0.95 -
ID=PSME_00049040     -             79 70143at3193          -            439   2.2e-11   44.5   0.0   1   1   5.2e-14   2.4e-11   44.4   0.0   238   310     2    78     1    78 0.90 -
ID=PSME_00043919     -             95 70143at3193          -            439   1.9e-10   41.5   0.0   1   1   4.3e-13     2e-10   41.4   0.0   316   401     2    89     1    94 0.84 -
ID=PSME_00049025     -            189 70143at3193          -            439   6.8e-10   39.6   0.0   1   1   1.6e-12   7.4e-10   39.5   0.0   298   399    78   181    25   187 0.85 -
ID=PSME_00028651     -            123 70143at3193          -            439   1.3e-09   38.7   0.1   1   1   4.9e-12   2.3e-09   37.9   0.1   108   201     2   111     1   117 0.71 -
ID=PSME_00012902     -            369 70143at3193          -            439   3.5e-08   34.0   0.0   1   1   9.6e-11   4.4e-08   33.7   0.0   203   404    91   297    49   322 0.89 -
ID=PSME_00043874     -            113 70143at3193          -            439   4.6e-08   33.6   0.2   1   1   1.2e-10   5.5e-08   33.4   0.2   136   207    15    91    11   100 0.81 -
ID=PSME_00027092     -            134 70143at3193          -            439   6.2e-08   33.2   0.1   1   1   1.7e-10   7.7e-08   32.9   0.1    79   185    17   125     9   130 0.77 -
ID=PSME_00028653     -             93 70143at3193          -            439   2.6e-06   27.9   0.0   1   1   5.9e-09   2.7e-06   27.8   0.0    34    87    36    92    19    92 0.92 -
ID=PSME_00036351     -            134 70143at3193          -            439   5.4e-06   26.8   0.0   1   1   1.3e-08   5.9e-06   26.7   0.0   157   248    12   104     3   124 0.88 -
ID=PSME_00051440     -            299 70143at3193          -            439   7.7e-06   26.3   0.0   1   1   2.4e-08   1.1e-05   25.8   0.0   180   227     7    54     3    65 0.90 -
ID=PSME_00048282     -            239 70143at3193          -            439   1.7e-05   25.2   0.0   1   1   4.9e-08   2.3e-05   24.7   0.0   353   422   146   211   141   224 0.91 -
ID=PSME_00040391     -            195 70143at3193          -            439   1.8e-05   25.1   0.0   1   1     6e-08   2.7e-05   24.5   0.0   336   396    22    82    18    97 0.89 -
ID=PSME_00021366     -            245 70143at3193          -            439   8.5e-05   22.9   0.0   1   2     0.022        10    6.1   0.0    98   123     2    27     1    73 0.80 -
ID=PSME_00021366     -            245 70143at3193          -            439   8.5e-05   22.9   0.0   2   2     4e-05     0.018   15.2   0.0   281   353   144   215    81   227 0.90 -
ID=PSME_00009840     -            353 70143at3193          -            439   0.00012   22.3   0.1   1   1   4.4e-07    0.0002   21.6   0.1   378   411    56    89    47   109 0.82 -
ID=PSME_00043875     -             76 70143at3193          -            439   0.00013   22.3   0.0   1   1   2.8e-07   0.00013   22.3   0.0   364   389    37    62     7    71 0.81 -
ID=PSME_00043918     -            322 70143at3193          -            439    0.0013   19.0   0.1   1   1   3.4e-06    0.0016   18.7   0.1   217   350   182   320   169   321 0.65 -
ID=PSME_00028652     -            114 70143at3193          -            439    0.0034   17.6   0.0   1   1     9e-06    0.0041   17.3   0.0   101   155     1    60     1    68 0.78 -
ID=PSME_00015826     -            739 70143at3193          -            439    0.0044   17.2   0.0   1   1   1.5e-05    0.0071   16.5   0.0   275   386   289   410   267   416 0.82 -
ID=PSME_00041257     -            203 70143at3193          -            439    0.0045   17.2   0.0   1   1   1.3e-05     0.006   16.7   0.0    35   103   124   195   121   199 0.85 -
ID=PSME_00034496     -            230 70143at3193          -            439    0.0052   16.9   0.1   1   1   1.5e-05     0.007   16.5   0.1   185   227    76   118    59   129 0.88 -
ID=PSME_00021600     -            149 70143at3193          -            439    0.0057   16.8   0.0   1   1   1.5e-05    0.0069   16.6   0.0   371   407    85   121    72   142 0.81 -
ID=PSME_00008239     -            240 70143at3193          -            439     0.012   15.7   0.0   1   1   2.8e-05     0.013   15.7   0.0   286   373   114   201    25   211 0.84 -
ID=PSME_00036183     -            344 70143at3193          -            439     0.012   15.7   0.0   1   1     4e-05     0.018   15.2   0.0    77   213   197   328   181   340 0.78 -
ID=PSME_00035120     -            369 70143at3193          -            439     0.029   14.5   0.0   1   1   9.5e-05     0.044   13.9   0.0   319   418   197   294   181   311 0.76 -
ID=PSME_00052442     -             75 70143at3193          -            439     0.044   13.9   0.1   1   1   0.00011     0.051   13.7   0.1   135   188    14    72    11    74 0.81 -
ID=PSME_00000758     -            214 70143at3193          -            439     0.048   13.8   0.0   1   1   0.00013      0.06   13.4   0.0    81   210    71   202    54   209 0.67 -
ID=PSME_00021462     -            449 70143at3193          -            439     0.082   13.0   0.0   1   1   0.00026      0.12   12.5   0.0   216   251   133   168   125   223 0.87 -
ID=PSME_00039216     -            279 70143at3193          -            439       0.1   12.7   0.0   1   1    0.0003      0.14   12.3   0.0   182   230    92   139    83   165 0.84 -
ID=PSME_00013019     -            239 70143at3193          -            439       0.1   12.7   0.0   1   2       2.7   1.2e+03   -0.8   0.0   369   386    33    50    28    59 0.88 -
ID=PSME_00013019     -            239 70143at3193          -            439       0.1   12.7   0.0   2   2   0.00091      0.42   10.7   0.0    99   216    76   194    51   203 0.66 -
ID=PSME_00035640     -            443 70143at3193          -            439      0.11   12.6   0.0   1   1   0.00036      0.17   12.0   0.0   325   361   102   138    94   149 0.91 -
ID=PSME_00023747     -            100 70143at3193          -            439      0.13   12.4   0.1   1   2    0.0035       1.6    8.8   0.1   100   148     4    52     1    54 0.73 -
ID=PSME_00023747     -            100 70143at3193          -            439      0.13   12.4   0.1   2   2     0.048        22    5.0   0.0   177   211    49    83    45    92 0.90 -
ID=PSME_00007417     -            923 70143at3193          -            439      0.14   12.2   0.0   1   2      0.42   1.9e+02    1.9   0.0   295   333   162   199   145   219 0.78 -
ID=PSME_00007417     -            923 70143at3193          -            439      0.14   12.2   0.0   2   2    0.0087         4    7.4   0.0   336   399   362   422   326   432 0.80 -
ID=PSME_00014006     -             75 70143at3193          -            439      0.15   12.1   0.0   1   1   0.00035      0.16   12.1   0.0   280   336    13    68     4    73 0.88 -
ID=PSME_00015305     -            179 70143at3193          -            439      0.15   12.1   0.0   1   1   0.00048      0.22   11.6   0.0   185   200    75    90    71    98 0.91 -
ID=PSME_00001767     -            832 70143at3193          -            439       0.2   11.7   0.0   1   1   0.00094      0.43   10.6   0.0   274   387   568   691   562   728 0.80 -
ID=PSME_00004162     -            110 70143at3193          -            439      0.45   10.6   0.1   1   1    0.0011      0.49   10.5   0.1   187   237     2    52     1    68 0.86 -
ID=PSME_00044952     -            127 70143at3193          -            439      0.54   10.3   0.0   1   1    0.0012      0.54   10.3   0.0   231   251     6    26     1    68 0.89 -
#
# Program:         hmmsearch
# Version:         3.2.1 (June 2018)
# Pipeline mode:   SEARCH
# Query file:      /isg/shared/databases/BUSCO/odb10/embryophyta_odb10/hmms/70143at3193.hmm
# Target file:     /labs/Wegrzyn/ConiferGenomes/Psme/analysis/SURF_annotation/analyze_orig_maker/gfacs/filtered/maker_genes.fasta.faa
# Option settings: /usr/local/bin/hmmsearch --domtblout /labs/Wegrzyn/ConiferGenomes/Psme/analysis/SURF_annotation/analyze_orig_maker/busco/maker/run_embryophyta_odb10/hmmer_output/70143at3193.out --cpu 1 /isg/shared/databases/BUSCO/odb10/embryophyta_odb10/hmms/70143at3193.hmm /labs/Wegrzyn/ConiferGenomes/Psme/analysis/SURF_annotation/analyze_orig_maker/gfacs/filtered/maker_genes.fasta.faa 
# Current dir:     /labs/Wegrzyn/ConiferGenomes/Psme/analysis/SURF_annotation/analyze_orig_maker/busco
# Date:            Fri Jul 10 13:55:34 2020
# [ok]
