#                                                                            --- full sequence --- -------------- this domain -------------   hmm coord   ali coord   env coord
# target name        accession   tlen query name           accession   qlen   E-value  score  bias   #  of  c-Evalue  i-Evalue  score  bias  from    to  from    to  from    to  acc description of target
#------------------- ---------- ----- -------------------- ---------- ----- --------- ------ ----- --- --- --------- --------- ------ ----- ----- ----- ----- ----- ----- ----- ---- ---------------------
ID=PSME_00027590     -            318 71031at3193          -            437   2.8e-34  120.5   9.5   1   1     1e-32   2.2e-30  107.7   9.5   119   435    14   314     3   316 0.88 -
ID=PSME_00003170     -            812 71031at3193          -            437   6.4e-21   76.5   0.1   1   2   2.1e-14   4.7e-12   47.3   0.5   180   356    13   182    11   187 0.88 -
ID=PSME_00003170     -            812 71031at3193          -            437   6.4e-21   76.5   0.1   2   2     9e-08     2e-05   25.4   0.0   180   265   182   264   179   276 0.85 -
ID=PSME_00005685     -            234 71031at3193          -            437   8.3e-21   76.1   4.3   1   3   1.8e-06   0.00041   21.1   0.1   107   156     3    53     1    69 0.87 -
ID=PSME_00005685     -            234 71031at3193          -            437   8.3e-21   76.1   4.3   2   3   1.4e-10   3.2e-08   34.7   0.2   274   354    67   145    57   149 0.88 -
ID=PSME_00005685     -            234 71031at3193          -            437   8.3e-21   76.1   4.3   3   3   5.9e-06    0.0013   19.5   0.0   274   336   151   212   146   218 0.81 -
ID=PSME_00009687     -            655 71031at3193          -            437   8.6e-20   72.8   7.2   1   5   7.1e-05     0.016   15.9   0.5   294   347    78   129    65   138 0.84 -
ID=PSME_00009687     -            655 71031at3193          -            437   8.6e-20   72.8   7.2   2   5   8.1e-07   0.00018   22.3   0.1   273   357    99   181    93   185 0.88 -
ID=PSME_00009687     -            655 71031at3193          -            437   8.6e-20   72.8   7.2   3   5   0.00014     0.031   14.9   0.0   282   347   150   213   139   217 0.87 -
ID=PSME_00009687     -            655 71031at3193          -            437   8.6e-20   72.8   7.2   4   5     3e-11   6.6e-09   36.9   0.1   212   353   339   474   335   489 0.86 -
ID=PSME_00009687     -            655 71031at3193          -            437   8.6e-20   72.8   7.2   5   5     0.081        18    5.8   0.0   127   153   480   506   474   513 0.77 -
ID=PSME_00007745     -            817 71031at3193          -            437   2.5e-19   71.3   0.4   1   2   1.2e-14   2.7e-12   48.1   0.7   180   357    29   199    27   207 0.86 -
ID=PSME_00007745     -            817 71031at3193          -            437   2.5e-19   71.3   0.4   2   2   4.5e-06     0.001   19.8   0.0   180   249   198   265   195   282 0.81 -
ID=PSME_00051512     -           1207 71031at3193          -            437     7e-19   69.8   2.0   1   3   7.4e-12   1.6e-09   38.9   0.2   183   349     8   166     1   173 0.85 -
ID=PSME_00051512     -           1207 71031at3193          -            437     7e-19   69.8   2.0   2   3   0.00024     0.053   14.1   0.0   182   237   202   257   177   259 0.89 -
ID=PSME_00051512     -           1207 71031at3193          -            437     7e-19   69.8   2.0   3   3   2.7e-06   0.00059   20.6   0.1   179   249   243   311   241   316 0.90 -
ID=PSME_00041381     -            794 71031at3193          -            437   1.5e-18   68.7   1.9   1   2   4.7e-17     1e-14   56.0   0.3   262   434   465   637   460   639 0.83 -
ID=PSME_00041381     -            794 71031at3193          -            437   1.5e-18   68.7   1.9   2   2    0.0012      0.27   11.8   0.1   229   343   653   767   644   773 0.73 -
ID=PSME_00016934     -            396 71031at3193          -            437     4e-18   67.3   0.3   1   4    0.0013      0.29   11.7   0.0   124   158    21    55    13    62 0.92 -
ID=PSME_00016934     -            396 71031at3193          -            437     4e-18   67.3   0.3   2   4   3.2e-06   0.00071   20.3   0.1   281   366    32   118    30   140 0.76 -
ID=PSME_00016934     -            396 71031at3193          -            437     4e-18   67.3   0.3   3   4      0.29        65    4.0   0.0   326   391   121   182   111   196 0.74 -
ID=PSME_00016934     -            396 71031at3193          -            437     4e-18   67.3   0.3   4   4   6.8e-11   1.5e-08   35.7   0.0   321   433   197   310   191   314 0.91 -
ID=PSME_00024193     -           1216 71031at3193          -            437   7.6e-18   66.4   2.3   1   3   4.4e-10   9.8e-08   33.0   0.9   185   351    10   168     3   175 0.84 -
ID=PSME_00024193     -           1216 71031at3193          -            437   7.6e-18   66.4   2.3   2   3     0.011       2.5    8.6   0.0   182   218   202   238   178   241 0.86 -
ID=PSME_00024193     -           1216 71031at3193          -            437   7.6e-18   66.4   2.3   3   3   4.2e-06   0.00092   19.9   0.1   179   249   243   311   240   316 0.90 -
ID=PSME_00004465     -            525 71031at3193          -            437   5.5e-16   60.2   1.3   1   4     0.016       3.6    8.1   0.2   293   341    41    87    27    92 0.77 -
ID=PSME_00004465     -            525 71031at3193          -            437   5.5e-16   60.2   1.3   2   4   0.00013     0.029   15.0   0.0   284   347    95   156    87   161 0.88 -
ID=PSME_00004465     -            525 71031at3193          -            437   5.5e-16   60.2   1.3   3   4   3.4e-07   7.6e-05   23.5   0.1   211   354   276   420   273   431 0.78 -
ID=PSME_00004465     -            525 71031at3193          -            437   5.5e-16   60.2   1.3   4   4     0.011       2.4    8.7   0.0   138   213   436   508   432   513 0.86 -
ID=PSME_00011743     -            275 71031at3193          -            437   8.6e-16   59.6   0.7   1   1   1.6e-17   3.5e-15   57.6   0.7   183   360    36   205    28   212 0.87 -
ID=PSME_00014453     -            610 71031at3193          -            437   1.5e-14   55.5   5.3   1   3      0.14        31    5.0   0.0   272   326   138   190   125   202 0.78 -
ID=PSME_00014453     -            610 71031at3193          -            437   1.5e-14   55.5   5.3   2   3   3.8e-05    0.0085   16.8   0.3   291   347   201   255   195   259 0.87 -
ID=PSME_00014453     -            610 71031at3193          -            437   1.5e-14   55.5   5.3   3   3   2.1e-10   4.6e-08   34.1   0.2   242   433   390   573   346   577 0.81 -
ID=PSME_00000602     -            950 71031at3193          -            437   1.7e-14   55.3  10.0   1   1   5.2e-16   1.1e-13   52.6   7.3    85   434   494   814   466   814 0.81 -
ID=PSME_00015328     -            220 71031at3193          -            437   3.3e-14   54.4   0.4   1   2     8e-08   1.8e-05   25.6   0.1   186   302    16   128     6   133 0.83 -
ID=PSME_00015328     -            220 71031at3193          -            437   3.3e-14   54.4   0.4   2   2   5.4e-08   1.2e-05   26.2   0.0   183   260   141   218   136   219 0.82 -
ID=PSME_00014235     -            413 71031at3193          -            437   6.7e-14   53.4   3.1   1   3     3e-08   6.8e-06   27.0   0.5   296   433    22   153    12   154 0.84 -
ID=PSME_00014235     -            413 71031at3193          -            437   6.7e-14   53.4   3.1   2   3   2.2e-05    0.0049   17.6   0.0   287   354   289   351   230   361 0.83 -
ID=PSME_00014235     -            413 71031at3193          -            437   6.7e-14   53.4   3.1   3   3      0.77   1.7e+02    2.6   0.0   138   157   367   386   353   393 0.87 -
ID=PSME_00054687     -            317 71031at3193          -            437     2e-13   51.8   8.7   1   5       1.5   3.3e+02    1.7   0.0   309   347     7    45     2    49 0.75 -
ID=PSME_00054687     -            317 71031at3193          -            437     2e-13   51.8   8.7   2   5   9.5e-10   2.1e-07   31.9   0.1   276   346    65   133    56   143 0.90 -
ID=PSME_00054687     -            317 71031at3193          -            437     2e-13   51.8   8.7   3   5   3.5e-05    0.0077   16.9   0.5   262   352   138   228   133   242 0.80 -
ID=PSME_00054687     -            317 71031at3193          -            437     2e-13   51.8   8.7   4   5   0.00051      0.11   13.1   0.1   274   353   194   269   183   284 0.84 -
ID=PSME_00054687     -            317 71031at3193          -            437     2e-13   51.8   8.7   5   5      0.61   1.4e+02    2.9   0.1   330   353   246   269   236   315 0.56 -
ID=PSME_00016314     -            482 71031at3193          -            437   8.8e-13   49.7   1.8   1   3   5.8e-05     0.013   16.2   0.1   203   303   181   278   177   284 0.84 -
ID=PSME_00016314     -            482 71031at3193          -            437   8.8e-13   49.7   1.8   2   3   2.8e-09   6.2e-07   30.4   0.0   177   314   285   416   278   442 0.81 -
ID=PSME_00016314     -            482 71031at3193          -            437   8.8e-13   49.7   1.8   3   3       3.3   7.3e+02    0.5   0.0   277   301   456   480   430   481 0.65 -
ID=PSME_00013038     -            683 71031at3193          -            437   8.9e-13   49.7   3.1   1   4     0.099        22    5.5   0.0   121   149    50    78    29    85 0.84 -
ID=PSME_00013038     -            683 71031at3193          -            437   8.9e-13   49.7   3.1   2   4   3.3e-06   0.00072   20.3   0.1   274   349   197   273   120   287 0.81 -
ID=PSME_00013038     -            683 71031at3193          -            437   8.9e-13   49.7   3.1   3   4     0.077        17    5.9   0.0   246   306   475   533   447   537 0.68 -
ID=PSME_00013038     -            683 71031at3193          -            437   8.9e-13   49.7   3.1   4   4    0.0011      0.24   12.0   0.1   274   346   544   615   539   617 0.70 -
ID=PSME_00012180     -            596 71031at3193          -            437   9.2e-13   49.6   5.7   1   3   2.5e-12   5.6e-10   40.4   1.7   171   348   249   422    89   435 0.92 -
ID=PSME_00012180     -            596 71031at3193          -            437   9.2e-13   49.6   5.7   2   3       2.2   4.9e+02    1.1   0.0   129   162   445   476   432   483 0.75 -
ID=PSME_00012180     -            596 71031at3193          -            437   9.2e-13   49.6   5.7   3   3     0.024       5.4    7.5   0.0   131   155   493   517   486   521 0.92 -
ID=PSME_00001956     -            795 71031at3193          -            437     1e-12   49.5   1.1   1   2     0.016       3.5    8.2   0.1   233   303   460   528   455   533 0.77 -
ID=PSME_00001956     -            795 71031at3193          -            437     1e-12   49.5   1.1   2   2   2.2e-11   4.8e-09   37.4   0.0   177   351   535   700   531   720 0.88 -
ID=PSME_00031008     -            598 71031at3193          -            437   1.3e-12   49.1   0.0   1   1   2.1e-14   4.7e-12   47.3   0.0   191   434    27   267    25   270 0.87 -
ID=PSME_00001102     -            981 71031at3193          -            437   1.4e-12   49.0   0.1   1   2      0.19        42    4.6   0.1   273   346    33   106    21   114 0.65 -
ID=PSME_00001102     -            981 71031at3193          -            437   1.4e-12   49.0   0.1   2   2   3.1e-14   6.9e-12   46.7   0.0   197   434    47   283    42   286 0.87 -
ID=PSME_00044122     -            268 71031at3193          -            437   2.2e-12   48.4   0.0   1   2   6.7e-10   1.5e-07   32.4   0.0   227   357    18   142    11   148 0.83 -
ID=PSME_00044122     -            268 71031at3193          -            437   2.2e-12   48.4   0.0   2   2   0.00031     0.069   13.8   0.0   231   304   147   217   144   221 0.79 -
ID=PSME_00016646     -            363 71031at3193          -            437   3.7e-12   47.6   0.5   1   2    0.0027      0.61   10.7   0.0   273   352    72   148    64   157 0.82 -
ID=PSME_00016646     -            363 71031at3193          -            437   3.7e-12   47.6   0.5   2   2   1.1e-10   2.5e-08   35.0   0.1   183   359   155   331   150   340 0.82 -
ID=PSME_00048532     -            614 71031at3193          -            437   3.7e-12   47.6   4.3   1   5     0.094        21    5.6   0.1   294   319   172   197   160   200 0.83 -
ID=PSME_00048532     -            614 71031at3193          -            437   3.7e-12   47.6   4.3   2   5   2.9e-06   0.00065   20.5   0.1   273   358   193   276   185   283 0.87 -
ID=PSME_00048532     -            614 71031at3193          -            437   3.7e-12   47.6   4.3   3   5       1.6   3.7e+02    1.5   0.0   182   213   276   307   268   314 0.86 -
ID=PSME_00048532     -            614 71031at3193          -            437   3.7e-12   47.6   4.3   4   5   1.9e-05    0.0041   17.8   0.0   220   354   436   571   425   582 0.72 -
ID=PSME_00048532     -            614 71031at3193          -            437   3.7e-12   47.6   4.3   5   5       1.3     3e+02    1.8   0.0   138   157   587   606   574   611 0.87 -
ID=PSME_00008859     -           1082 71031at3193          -            437     1e-11   46.1   6.4   1   3    0.0092         2    8.9   0.3    59   158   430   532   417   556 0.61 -
ID=PSME_00008859     -           1082 71031at3193          -            437     1e-11   46.1   6.4   2   3   0.00094      0.21   12.2   0.1   288   351   626   687   608   692 0.79 -
ID=PSME_00008859     -           1082 71031at3193          -            437     1e-11   46.1   6.4   3   3   3.7e-08   8.1e-06   26.7   0.1   227   347   693   818   685   823 0.80 -
ID=PSME_00044539     -            487 71031at3193          -            437   1.4e-11   45.7   1.3   1   3     0.004      0.88   10.1   0.1   291   346    27    80     3    92 0.75 -
ID=PSME_00044539     -            487 71031at3193          -            437   1.4e-11   45.7   1.3   2   3   5.7e-05     0.013   16.2   0.0   282   347   102   165    91   170 0.88 -
ID=PSME_00044539     -            487 71031at3193          -            437   1.4e-11   45.7   1.3   3   3   9.3e-05     0.021   15.5   0.0   211   349   277   416   261   420 0.76 -
ID=PSME_00016635     -            729 71031at3193          -            437   1.7e-11   45.4   0.0   1   1   2.1e-13   4.7e-11   44.0   0.0   197   434   115   351   108   354 0.87 -
ID=PSME_00040762     -            835 71031at3193          -            437   2.3e-11   45.0   0.0   1   2   3.8e-09   8.5e-07   30.0   0.0   126   311   397   560   386   564 0.80 -
ID=PSME_00040762     -            835 71031at3193          -            437   2.3e-11   45.0   0.0   2   2   0.00099      0.22   12.1   0.0   182   246   563   625   556   633 0.83 -
ID=PSME_00007486     -            456 71031at3193          -            437   2.9e-11   44.7   0.2   1   3    0.0001     0.022   15.4   0.0   279   352    22    93    10   103 0.87 -
ID=PSME_00007486     -            456 71031at3193          -            437   2.9e-11   44.7   0.2   2   3   0.00021     0.046   14.3   0.0   305   356   142   191   137   206 0.81 -
ID=PSME_00007486     -            456 71031at3193          -            437   2.9e-11   44.7   0.2   3   3       0.9     2e+02    2.4   0.0   132   154   299   321   258   326 0.67 -
ID=PSME_00020195     -            462 71031at3193          -            437   6.7e-11   43.5   0.0   1   2      0.24        53    4.3   0.1   274   346    38   110    24   121 0.65 -
ID=PSME_00020195     -            462 71031at3193          -            437   6.7e-11   43.5   0.0   2   2   2.8e-12   6.3e-10   40.3   0.0   198   428    52   281    46   285 0.85 -
ID=PSME_00009596     -            675 71031at3193          -            437   1.5e-10   42.3   0.0   1   1   9.8e-13   2.2e-10   41.8   0.0   275   434    14   176     5   179 0.88 -
ID=PSME_00020924     -            249 71031at3193          -            437   2.1e-10   41.8   2.0   1   3       1.9   4.3e+02    1.3   0.0   421   435    56    70    34    73 0.72 -
ID=PSME_00020924     -            249 71031at3193          -            437   2.1e-10   41.8   2.0   2   3   5.8e-08   1.3e-05   26.1   0.2   272   351    90   169    77   172 0.85 -
ID=PSME_00020924     -            249 71031at3193          -            437   2.1e-10   41.8   2.0   3   3    0.0006      0.13   12.8   0.0   180   211   177   208   166   211 0.88 -
ID=PSME_00024443     -            461 71031at3193          -            437   2.4e-10   41.7   5.4   1   2   5.7e-08   1.3e-05   26.1   1.4   242   347   223   325   211   345 0.77 -
ID=PSME_00024443     -            461 71031at3193          -            437   2.4e-10   41.7   5.4   2   2   2.7e-05     0.006   17.3   0.2   224   334   346   451   332   459 0.69 -
ID=PSME_00049142     -            504 71031at3193          -            437   2.5e-10   41.6   0.8   1   3   7.4e-09   1.7e-06   29.0   0.1   277   355    26   104     6   113 0.90 -
ID=PSME_00049142     -            504 71031at3193          -            437   2.5e-10   41.6   0.8   2   3     0.038       8.4    6.9   0.0   368   434   179   244   150   247 0.77 -
ID=PSME_00049142     -            504 71031at3193          -            437   2.5e-10   41.6   0.8   3   3       1.1   2.5e+02    2.0   0.1   343   433   273   363   257   367 0.61 -
ID=PSME_00049615     -            187 71031at3193          -            437   2.8e-10   41.4   0.0   1   1   1.6e-12   3.7e-10   41.0   0.0   177   351     5   170     3   175 0.88 -
ID=PSME_00013937     -            325 71031at3193          -            437     3e-10   41.3   3.8   1   2   1.5e-07   3.3e-05   24.7   1.2   241   347    99   202    76   215 0.78 -
ID=PSME_00013937     -            325 71031at3193          -            437     3e-10   41.3   3.8   2   2   2.9e-05    0.0063   17.2   0.1   265   366   218   317   213   322 0.86 -
ID=PSME_00011504     -            954 71031at3193          -            437   4.9e-10   40.6   0.0   1   1   8.5e-12   1.9e-09   38.7   0.0   123   249    27   154    15   161 0.87 -
ID=PSME_00044301     -            442 71031at3193          -            437   5.3e-10   40.5   0.0   1   1   3.7e-12   8.2e-10   39.9   0.0   276   434    15   176     6   179 0.89 -
ID=PSME_00008005     -            554 71031at3193          -            437   6.3e-10   40.3   2.8   1   3   1.9e-05    0.0042   17.8   0.3   277   347    11    80     2    91 0.79 -
ID=PSME_00008005     -            554 71031at3193          -            437   6.3e-10   40.3   2.8   2   3   4.6e-05      0.01   16.5   0.1   219   354   159   295   149   308 0.76 -
ID=PSME_00008005     -            554 71031at3193          -            437   6.3e-10   40.3   2.8   3   3       0.5   1.1e+02    3.2   0.0   138   160   311   333   297   380 0.79 -
ID=PSME_00024307     -           1014 71031at3193          -            437   1.6e-09   39.0   0.2   1   2      0.78   1.7e+02    2.6   0.3   268   345   200   277   192   281 0.87 -
ID=PSME_00024307     -           1014 71031at3193          -            437   1.6e-09   39.0   0.2   2   2   7.2e-11   1.6e-08   35.6   0.1   199   428   221   449   214   456 0.77 -
ID=PSME_00007492     -           1061 71031at3193          -            437   1.6e-09   38.9   6.7   1   3   3.4e-05    0.0075   17.0   0.0   289   356   358   421   310   465 0.82 -
ID=PSME_00007492     -           1061 71031at3193          -            437   1.6e-09   38.9   6.7   2   3   9.2e-06     0.002   18.8   0.0   291   356   772   834   760   877 0.80 -
ID=PSME_00007492     -           1061 71031at3193          -            437   1.6e-09   38.9   6.7   3   3      0.28        63    4.0   0.2   275   312   917   954   911   970 0.71 -
ID=PSME_00031480     -            676 71031at3193          -            437   1.7e-09   38.8   0.0   1   2   3.5e-07   7.7e-05   23.5   0.0   215   350   251   401   223   406 0.74 -
ID=PSME_00031480     -            676 71031at3193          -            437   1.7e-09   38.8   0.0   2   2   0.00052      0.12   13.0   0.0   183   247   414   479   403   500 0.86 -
ID=PSME_00014903     -            490 71031at3193          -            437   2.8e-09   38.2   0.3   1   3   6.2e-09   1.4e-06   29.3   0.3   278   355    23   100    11   110 0.89 -
ID=PSME_00014903     -            490 71031at3193          -            437   2.8e-09   38.2   0.3   2   3      0.12        26    5.3   0.0   131   156   215   240   162   251 0.60 -
ID=PSME_00014903     -            490 71031at3193          -            437   2.8e-09   38.2   0.3   3   3       9.5   2.1e+03   -1.0   0.0   185   208   333   356   268   369 0.80 -
ID=PSME_00018747     -            675 71031at3193          -            437     3e-09   38.0   6.6   1   5    0.0008      0.18   12.4   0.1   275   352     9    89     2   152 0.85 -
ID=PSME_00018747     -            675 71031at3193          -            437     3e-09   38.0   6.6   2   5   0.00096      0.21   12.2   0.1   273   350   175   255   157   267 0.80 -
ID=PSME_00018747     -            675 71031at3193          -            437     3e-09   38.0   6.6   3   5    0.0019      0.41   11.2   0.1   275   352   289   369   269   380 0.74 -
ID=PSME_00018747     -            675 71031at3193          -            437     3e-09   38.0   6.6   4   5       6.2   1.4e+03   -0.4   0.0   340   390   389   436   380   474 0.69 -
ID=PSME_00018747     -            675 71031at3193          -            437     3e-09   38.0   6.6   5   5       3.2     7e+02    0.6   0.0   132   205   502   573   491   576 0.71 -
ID=PSME_00014505     -            274 71031at3193          -            437   3.4e-09   37.8  10.0   1   3   1.2e-05    0.0026   18.5   2.7   255   347     2    91     1   105 0.72 -
ID=PSME_00014505     -            274 71031at3193          -            437   3.4e-09   37.8  10.0   2   3   5.7e-05     0.013   16.2   0.5   264   365   106   205   102   207 0.84 -
ID=PSME_00014505     -            274 71031at3193          -            437   3.4e-09   37.8  10.0   3   3   3.4e-06   0.00075   20.3   0.2   279   352   163   234   155   244 0.83 -
ID=PSME_00030545     -            524 71031at3193          -            437   3.8e-09   37.7  12.3   1   4     0.002      0.45   11.1   0.0   320   359   240   279   223   286 0.79 -
ID=PSME_00030545     -            524 71031at3193          -            437   3.8e-09   37.7  12.3   2   4      0.16        36    4.8   0.1   326   360   288   322   273   329 0.86 -
ID=PSME_00030545     -            524 71031at3193          -            437   3.8e-09   37.7  12.3   3   4    0.0021      0.46   11.1   0.9   290   355   339   402   332   406 0.86 -
ID=PSME_00030545     -            524 71031at3193          -            437   3.8e-09   37.7  12.3   4   4   6.9e-05     0.015   15.9   4.0   201   345   381   522   379   523 0.75 -
ID=PSME_00011774     -            522 71031at3193          -            437   3.9e-09   37.6   3.4   1   3   0.00076      0.17   12.5   0.2   274   349    93   167    74   173 0.84 -
ID=PSME_00011774     -            522 71031at3193          -            437   3.9e-09   37.6   3.4   2   3   0.00082      0.18   12.4   1.4   286   347   148   235   134   241 0.64 -
ID=PSME_00011774     -            522 71031at3193          -            437   3.9e-09   37.6   3.4   3   3   0.00033     0.074   13.7   0.0   308   434   249   378   243   381 0.80 -
ID=PSME_00040435     -            391 71031at3193          -            437     4e-09   37.6   3.5   1   4   0.00092       0.2   12.2   0.0   372   434   110   172    93   175 0.77 -
ID=PSME_00040435     -            391 71031at3193          -            437     4e-09   37.6   3.5   2   4   1.3e-05     0.003   18.3   0.3   264   365   188   287   182   290 0.85 -
ID=PSME_00040435     -            391 71031at3193          -            437     4e-09   37.6   3.5   3   4   2.2e-06   0.00049   20.9   0.2   279   353   245   317   235   328 0.84 -
ID=PSME_00040435     -            391 71031at3193          -            437     4e-09   37.6   3.5   4   4     0.048        11    6.6   0.1   279   330   287   340   280   346 0.75 -
ID=PSME_00005357     -            440 71031at3193          -            437     1e-08   36.3   8.3   1   2   5.6e-08   1.2e-05   26.1   1.9   275   361   170   253   127   260 0.73 -
ID=PSME_00005357     -            440 71031at3193          -            437     1e-08   36.3   8.3   2   2   0.00076      0.17   12.5   0.5   239   312   261   332   251   346 0.66 -
ID=PSME_00021391     -            613 71031at3193          -            437   1.1e-08   36.1   3.7   1   2   5.9e-05     0.013   16.2   0.2   283   349   137   198    82   214 0.68 -
ID=PSME_00021391     -            613 71031at3193          -            437   1.1e-08   36.1   3.7   2   2   4.8e-06    0.0011   19.8   0.3   283   349   439   500   389   516 0.68 -
ID=PSME_00031092     -            245 71031at3193          -            437   1.4e-08   35.8   0.6   1   2   2.4e-10   5.3e-08   33.9   0.1   190   351     3   155     1   175 0.85 -
ID=PSME_00031092     -            245 71031at3193          -            437   1.4e-08   35.8   0.6   2   2       1.9   4.2e+02    1.3   0.0   276   301   165   190   123   191 0.66 -
ID=PSME_00010333     -            611 71031at3193          -            437   1.5e-08   35.7   0.2   1   3   3.7e-07   8.2e-05   23.4   0.1   253   353   111   211   104   220 0.87 -
ID=PSME_00010333     -            611 71031at3193          -            437   1.5e-08   35.7   0.2   2   3      0.14        31    5.1   0.0   131   156   328   353   272   372 0.63 -
ID=PSME_00010333     -            611 71031at3193          -            437   1.5e-08   35.7   0.2   3   3      0.37        83    3.6   0.0   342   433   381   472   371   476 0.71 -
ID=PSME_00020279     -            350 71031at3193          -            437   1.8e-08   35.5   0.2   1   4   0.00018     0.041   14.5   0.0   200   357    46   113    28   120 0.57 -
ID=PSME_00020279     -            350 71031at3193          -            437   1.8e-08   35.5   0.2   2   4     0.075        17    5.9   0.0   174   244   147   221   139   226 0.70 -
ID=PSME_00020279     -            350 71031at3193          -            437   1.8e-08   35.5   0.2   3   4     0.077        17    5.9   0.1   293   348   227   281   222   294 0.83 -
ID=PSME_00020279     -            350 71031at3193          -            437   1.8e-08   35.5   0.2   4   4      0.29        64    4.0   0.1   135   167   300   332   275   347 0.63 -
ID=PSME_00025081     -            394 71031at3193          -            437   2.5e-08   35.0   5.1   1   3   0.00019     0.041   14.5   0.2   373   434   126   187   107   190 0.74 -
ID=PSME_00025081     -            394 71031at3193          -            437   2.5e-08   35.0   5.1   2   3       1.7   3.8e+02    1.4   0.0   268   301   207   240   199   252 0.73 -
ID=PSME_00025081     -            394 71031at3193          -            437   2.5e-08   35.0   5.1   3   3   5.1e-06    0.0011   19.7   0.2   279   353   260   332   250   341 0.84 -
ID=PSME_00042991     -            522 71031at3193          -            437   2.9e-08   34.8   1.8   1   4   0.00031     0.068   13.8   0.3   294   347    11    62     6    71 0.80 -
ID=PSME_00042991     -            522 71031at3193          -            437   2.9e-08   34.8   1.8   2   4       1.1   2.4e+02    2.1   0.0   138   158    75    95    70   118 0.75 -
ID=PSME_00042991     -            522 71031at3193          -            437   2.9e-08   34.8   1.8   3   4    0.0018      0.41   11.2   0.0   275   354   284   358   271   371 0.86 -
ID=PSME_00042991     -            522 71031at3193          -            437   2.9e-08   34.8   1.8   4   4      0.49   1.1e+02    3.2   0.0   139   160   375   396   363   443 0.77 -
ID=PSME_00034555     -            547 71031at3193          -            437   3.3e-08   34.6   2.5   1   3   8.1e-05     0.018   15.7   1.3    41   211   157   311   135   317 0.63 -
ID=PSME_00034555     -            547 71031at3193          -            437   3.3e-08   34.6   2.5   2   3   3.5e-06   0.00078   20.2   0.2   214   396   229   398   227   416 0.72 -
ID=PSME_00034555     -            547 71031at3193          -            437   3.3e-08   34.6   2.5   3   3      0.47     1e+02    3.3   0.0   202   247   473   519   467   523 0.73 -
ID=PSME_00024119     -            462 71031at3193          -            437   5.1e-08   34.0   0.2   1   3      0.55   1.2e+02    3.1   0.0   136   162   192   218   185   232 0.86 -
ID=PSME_00024119     -            462 71031at3193          -            437   5.1e-08   34.0   0.2   2   3      0.62   1.4e+02    2.9   0.0   198   266   238   305   234   326 0.60 -
ID=PSME_00024119     -            462 71031at3193          -            437   5.1e-08   34.0   0.2   3   3   1.3e-07   2.9e-05   24.9   0.2   325   434   324   433   273   436 0.71 -
ID=PSME_00001515     -            286 71031at3193          -            437     9e-08   33.2   1.2   1   2     0.012       2.6    8.6   0.0   338   356     2    20     1    58 0.79 -
ID=PSME_00001515     -            286 71031at3193          -            437     9e-08   33.2   1.2   2   2   3.4e-06   0.00076   20.2   0.3   190   306   124   234   113   284 0.68 -
ID=PSME_00018931     -            489 71031at3193          -            437   1.2e-07   32.8   0.0   1   3      0.12        26    5.3   0.0    89   146    54   111    27   118 0.75 -
ID=PSME_00018931     -            489 71031at3193          -            437   1.2e-07   32.8   0.0   2   3   2.7e-05    0.0059   17.3   0.0   117   161   130   174   114   180 0.85 -
ID=PSME_00018931     -            489 71031at3193          -            437   1.2e-07   32.8   0.0   3   3     0.075        17    5.9   0.0   131   153   460   482   432   485 0.72 -
ID=PSME_00052167     -            338 71031at3193          -            437   1.3e-07   32.7   0.0   1   2   0.00028     0.063   13.9   0.0   161   245   121   210    16   213 0.81 -
ID=PSME_00052167     -            338 71031at3193          -            437   1.3e-07   32.7   0.0   2   2   2.7e-05    0.0059   17.3   0.0   337   434   215   309   205   311 0.85 -
ID=PSME_00018904     -            656 71031at3193          -            437   1.4e-07   32.5   0.1   1   2   2.6e-07   5.7e-05   23.9   0.2   275   349    59   133    44   144 0.91 -
ID=PSME_00018904     -            656 71031at3193          -            437   1.4e-07   32.5   0.1   2   2     0.077        17    5.9   0.0   130   156   253   279   225   286 0.88 -
ID=PSME_00001105     -            855 71031at3193          -            437   1.5e-07   32.4   0.0   1   1   1.2e-09   2.7e-07   31.6   0.0   275   434    14   176     5   179 0.83 -
ID=PSME_00024143     -            251 71031at3193          -            437   1.7e-07   32.3   0.3   1   2   3.4e-09   7.4e-07   30.1   0.1   187   351     5   160     2   178 0.86 -
ID=PSME_00024143     -            251 71031at3193          -            437   1.7e-07   32.3   0.3   2   2       3.8   8.4e+02    0.3   0.0   281   301   175   195   161   196 0.60 -
ID=PSME_00012603     -            332 71031at3193          -            437   1.7e-07   32.3   5.3   1   3    0.0001     0.022   15.4   0.7   294   347   100   151    88   154 0.81 -
ID=PSME_00012603     -            332 71031at3193          -            437   1.7e-07   32.3   5.3   2   3     3e-06   0.00066   20.4   0.1   273   358   121   204   115   208 0.86 -
ID=PSME_00012603     -            332 71031at3193          -            437   1.7e-07   32.3   5.3   3   3    0.0012      0.26   11.9   0.0   282   347   172   235   163   240 0.87 -
ID=PSME_00031002     -            269 71031at3193          -            437   2.5e-07   31.7   1.1   1   1   1.4e-09   3.2e-07   31.3   1.1   241   348   118   222    94   262 0.80 -
ID=PSME_00018909     -            841 71031at3193          -            437   3.1e-07   31.4   0.4   1   2       1.3   2.9e+02    1.8   0.0   200   264   569   634   555   655 0.63 -
ID=PSME_00018909     -            841 71031at3193          -            437   3.1e-07   31.4   0.4   2   2   2.4e-08   5.4e-06   27.3   0.4   230   398   658   825   643   831 0.81 -
ID=PSME_00002684     -            781 71031at3193          -            437   3.2e-07   31.3   6.4   1   6    0.0004     0.088   13.4   0.6   275   434    37   201    27   203 0.68 -
ID=PSME_00002684     -            781 71031at3193          -            437   3.2e-07   31.3   6.4   2   6   0.00024     0.053   14.2   0.1   321   390   223   293   177   342 0.64 -
ID=PSME_00002684     -            781 71031at3193          -            437   3.2e-07   31.3   6.4   3   6       9.5   2.1e+03   -1.0   0.0   298   349   336   386   300   396 0.64 -
ID=PSME_00002684     -            781 71031at3193          -            437   3.2e-07   31.3   6.4   4   6       2.6   5.9e+02    0.8   0.1   337   390   394   446   332   485 0.61 -
ID=PSME_00002684     -            781 71031at3193          -            437   3.2e-07   31.3   6.4   5   6       6.2   1.4e+03   -0.4   0.0   325   372   515   562   463   592 0.70 -
ID=PSME_00002684     -            781 71031at3193          -            437   3.2e-07   31.3   6.4   6   6       3.7   8.3e+02    0.3   0.0   132   352   711   742   672   756 0.57 -
ID=PSME_00004313     -            429 71031at3193          -            437   3.4e-07   31.3   1.1   1   2     0.031       6.9    7.2   0.1   275   356    68   146    59   151 0.79 -
ID=PSME_00004313     -            429 71031at3193          -            437   3.4e-07   31.3   1.1   2   2     2e-06   0.00045   21.0   0.1   290   359   233   300   227   308 0.84 -
ID=PSME_00017811     -            456 71031at3193          -            437   4.1e-07   31.0   0.0   1   3      0.18        40    4.7   0.0   317   358   179   220   136   230 0.63 -
ID=PSME_00017811     -            456 71031at3193          -            437   4.1e-07   31.0   0.0   2   3     0.062        14    6.2   0.0   174   217   253   296   243   314 0.85 -
ID=PSME_00017811     -            456 71031at3193          -            437   4.1e-07   31.0   0.0   3   3   3.7e-05    0.0082   16.8   0.0   337   434   333   427   288   429 0.81 -
ID=PSME_00022796     -            424 71031at3193          -            437   4.2e-07   30.9   1.4   1   2       1.6   3.4e+02    1.6   0.1   297   358    99   161    82   177 0.62 -
ID=PSME_00022796     -            424 71031at3193          -            437   4.2e-07   30.9   1.4   2   2     2e-08   4.4e-06   27.6   0.1   274   434   204   365   197   367 0.83 -
ID=PSME_00010476     -            192 71031at3193          -            437   4.3e-07   30.9   3.6   1   2   0.00018      0.04   14.6   1.1   298   347     4    52     2    71 0.80 -
ID=PSME_00010476     -            192 71031at3193          -            437   4.3e-07   30.9   3.6   2   2   2.9e-05    0.0064   17.2   0.1   264   367    67   168    61   180 0.84 -
ID=PSME_00024148     -            132 71031at3193          -            437   4.4e-07   30.9   0.3   1   2   1.6e-05    0.0036   18.0   0.0   132   352    50    80    32    94 0.62 -
ID=PSME_00024148     -            132 71031at3193          -            437   4.4e-07   30.9   0.3   2   2   0.00092       0.2   12.2   0.1   125   154    93   122    77   126 0.83 -
ID=PSME_00014973     -            324 71031at3193          -            437   4.5e-07   30.9   0.0   1   1   2.9e-09   6.4e-07   30.4   0.0   177   314     8   138     5   151 0.88 -
ID=PSME_00004967     -           1191 71031at3193          -            437     5e-07   30.7   4.4   1   3   4.2e-05    0.0093   16.6   0.3   221   358   395   551   386   582 0.62 -
ID=PSME_00004967     -           1191 71031at3193          -            437     5e-07   30.7   4.4   2   3      0.21        46    4.5   0.0   241   302   658   718   645   734 0.77 -
ID=PSME_00004967     -           1191 71031at3193          -            437     5e-07   30.7   4.4   3   3     0.043       9.5    6.7   0.1   180   305   976  1105   945  1121 0.78 -
ID=PSME_00016963     -            516 71031at3193          -            437   5.1e-07   30.7   1.8   1   2   1.5e-05    0.0032   18.2   1.1   268   435   230   406   218   408 0.75 -
ID=PSME_00016963     -            516 71031at3193          -            437   5.1e-07   30.7   1.8   2   2    0.0028      0.63   10.6   0.0   372   434   429   490   416   492 0.86 -
ID=PSME_00029486     -            423 71031at3193          -            437   5.5e-07   30.6   0.0   1   2    0.0023       0.5   10.9   0.0   174   225   220   271   211   298 0.75 -
ID=PSME_00029486     -            423 71031at3193          -            437   5.5e-07   30.6   0.0   2   2     3e-05    0.0067   17.1   0.0   337   434   300   394   293   396 0.87 -
ID=PSME_00019641     -            306 71031at3193          -            437   6.5e-07   30.3   5.3   1   2    0.0083       1.8    9.1   3.0   288   434    13   167     3   170 0.73 -
ID=PSME_00019641     -            306 71031at3193          -            437   6.5e-07   30.3   5.3   2   2   1.5e-05    0.0034   18.1   0.0   176   247   174   248   167   260 0.86 -
ID=PSME_00002176     -            912 71031at3193          -            437     8e-07   30.0   0.0   1   1   5.5e-09   1.2e-06   29.4   0.0   121   313   155   349   105   356 0.81 -
ID=PSME_00005552     -           1172 71031at3193          -            437   1.1e-06   29.6   4.7   1   1   1.4e-08   3.2e-06   28.1   4.7   175   348   146   319   115   343 0.83 -
ID=PSME_00005553     -            575 71031at3193          -            437     2e-06   28.7   0.4   1   3   0.00029     0.064   13.9   0.2   262   354   100   191    73   198 0.71 -
ID=PSME_00005553     -            575 71031at3193          -            437     2e-06   28.7   0.4   2   3      0.09        20    5.7   0.0   280   349   159   229   155   262 0.80 -
ID=PSME_00005553     -            575 71031at3193          -            437     2e-06   28.7   0.4   3   3    0.0032      0.71   10.4   0.0   287   359   453   525   424   532 0.80 -
ID=PSME_00025080     -            450 71031at3193          -            437     2e-06   28.7   0.7   1   1   2.3e-08   5.1e-06   27.4   0.4   241   347   299   402   255   435 0.80 -
ID=PSME_00042867     -            492 71031at3193          -            437   2.2e-06   28.6   0.0   1   3      0.62   1.4e+02    2.9   0.0   226   348   214   246   173   264 0.56 -
ID=PSME_00042867     -            492 71031at3193          -            437   2.2e-06   28.6   0.0   2   3     0.011       2.4    8.7   0.0   175   220   290   335   280   367 0.80 -
ID=PSME_00042867     -            492 71031at3193          -            437   2.2e-06   28.6   0.0   3   3   0.00032     0.071   13.7   0.0   336   434   368   463   346   465 0.80 -
ID=PSME_00049658     -            312 71031at3193          -            437   2.3e-06   28.5   0.1   1   2   0.00037     0.081   13.5   0.0   277   349   165   238   136   245 0.83 -
ID=PSME_00049658     -            312 71031at3193          -            437   2.3e-06   28.5   0.1   2   2   0.00053      0.12   13.0   0.0   133   169   269   305   261   308 0.91 -
ID=PSME_00034105     -            325 71031at3193          -            437   2.4e-06   28.5   2.8   1   4    0.0098       2.2    8.8   0.2   272   303    28    59     3    61 0.57 -
ID=PSME_00034105     -            325 71031at3193          -            437   2.4e-06   28.5   2.8   2   4    0.0029      0.64   10.6   0.1   272   340    28    94    21    97 0.79 -
ID=PSME_00034105     -            325 71031at3193          -            437   2.4e-06   28.5   2.8   3   4       1.8     4e+02    1.4   0.0   183   210    71    98    65   116 0.80 -
ID=PSME_00034105     -            325 71031at3193          -            437   2.4e-06   28.5   2.8   4   4   0.00015     0.034   14.8   0.1   225   354   152   282   137   293 0.67 -
ID=PSME_00038141     -            180 71031at3193          -            437   2.6e-06   28.4   1.0   1   1   4.3e-08   9.5e-06   26.5   0.2   233   349    31   141    21   147 0.86 -
ID=PSME_00009187     -            674 71031at3193          -            437   3.1e-06   28.1   0.1   1   2       2.1   4.6e+02    1.2   0.1   286   346    30    88     5   102 0.61 -
ID=PSME_00009187     -            674 71031at3193          -            437   3.1e-06   28.1   0.1   2   2   1.2e-07   2.6e-05   25.1   0.1   269   406    99   237    27   243 0.79 -
ID=PSME_00006448     -            237 71031at3193          -            437     4e-06   27.7   0.0   1   1   2.4e-08   5.2e-06   27.4   0.0   274   362    47   139    39   163 0.75 -
ID=PSME_00017809     -            360 71031at3193          -            437   4.4e-06   27.6   0.0   1   2     0.013       2.9    8.4   0.0   174   245   157   232   147   236 0.77 -
ID=PSME_00017809     -            360 71031at3193          -            437   4.4e-06   27.6   0.0   2   2   2.6e-05    0.0057   17.3   0.1   337   434   237   331   227   333 0.84 -
ID=PSME_00030094     -            492 71031at3193          -            437   4.4e-06   27.6  10.1   1   3       2.3   5.2e+02    1.0   0.0   323   347    16    40     2    44 0.75 -
ID=PSME_00030094     -            492 71031at3193          -            437   4.4e-06   27.6  10.1   2   3    0.0014      0.31   11.6   1.4   297   348   225   275   215   299 0.79 -
ID=PSME_00030094     -            492 71031at3193          -            437   4.4e-06   27.6  10.1   3   3   2.7e-05    0.0061   17.2   0.2   288   353   343   406   329   415 0.84 -
ID=PSME_00014231     -            371 71031at3193          -            437   4.8e-06   27.5   0.5   1   2         4   8.8e+02    0.2   0.0   376   433    99   152    73   155 0.65 -
ID=PSME_00014231     -            371 71031at3193          -            437   4.8e-06   27.5   0.5   2   2   2.3e-07   5.1e-05   24.1   0.5   287   352   222   283   175   338 0.71 -
ID=PSME_00009008     -            569 71031at3193          -            437   5.3e-06   27.3   0.3   1   2       0.3        66    4.0   0.0   172   224    56   110    50   114 0.69 -
ID=PSME_00009008     -            569 71031at3193          -            437   5.3e-06   27.3   0.3   2   2   2.1e-06   0.00047   20.9   0.2   273   390   128   247    98   289 0.69 -
ID=PSME_00031681     -            440 71031at3193          -            437   5.8e-06   27.2   0.0   1   2    0.0077       1.7    9.2   0.0   171   246   233   313   227   318 0.77 -
ID=PSME_00031681     -            440 71031at3193          -            437   5.8e-06   27.2   0.0   2   2   7.6e-05     0.017   15.8   0.0   339   435   319   412   315   414 0.86 -
ID=PSME_00016071     -            515 71031at3193          -            437   6.2e-06   27.1   0.3   1   2   3.3e-05    0.0074   17.0   0.0   318   390    19    90     7   132 0.67 -
ID=PSME_00016071     -            515 71031at3193          -            437   6.2e-06   27.1   0.3   2   2      0.58   1.3e+02    3.0   0.1   320   349   414   443   406   455 0.86 -
ID=PSME_00049720     -             82 71031at3193          -            437   7.9e-06   26.8   0.1   1   2    0.0025      0.56   10.8   0.1   331   353    21    42    12    47 0.80 -
ID=PSME_00049720     -             82 71031at3193          -            437   7.9e-06   26.8   0.1   2   2   0.00013      0.03   15.0   0.0   124   156    45    77    41    80 0.92 -
ID=PSME_00014506     -            333 71031at3193          -            437   8.7e-06   26.6   3.6   1   3      0.38        85    3.6   0.0   273   323    55   103    50   115 0.74 -
ID=PSME_00014506     -            333 71031at3193          -            437   8.7e-06   26.6   3.6   2   3   4.2e-06   0.00092   20.0   0.3   291   347   117   171   110   176 0.87 -
ID=PSME_00014506     -            333 71031at3193          -            437   8.7e-06   26.6   3.6   3   3      0.76   1.7e+02    2.6   0.0   273   310   206   243   187   254 0.78 -
ID=PSME_00021733     -            647 71031at3193          -            437   8.8e-06   26.6   2.0   1   3   2.9e-06   0.00064   20.5   1.5   223   390   130   315   115   365 0.64 -
ID=PSME_00021733     -            647 71031at3193          -            437   8.8e-06   26.6   2.0   2   3       6.4   1.4e+03   -0.4   0.0   325   371   384   430   338   463 0.68 -
ID=PSME_00021733     -            647 71031at3193          -            437   8.8e-06   26.6   2.0   3   3       1.1   2.4e+02    2.1   0.0   287   353   544   609   507   638 0.69 -
ID=PSME_00007357     -            162 71031at3193          -            437     1e-05   26.4   0.1   1   2       1.8     4e+02    1.4   0.0   231   255     3    27     1    33 0.71 -
ID=PSME_00007357     -            162 71031at3193          -            437     1e-05   26.4   0.1   2   2   4.5e-07    0.0001   23.1   0.0   274   344    84   153    76   160 0.86 -
ID=PSME_00035610     -            392 71031at3193          -            437   1.1e-05   26.3   0.1   1   3         6   1.3e+03   -0.3   0.0   141   153    26    38     7    49 0.62 -
ID=PSME_00035610     -            392 71031at3193          -            437   1.1e-05   26.3   0.1   2   3      0.12        27    5.3   0.1    95   147   228   280   214   285 0.73 -
ID=PSME_00035610     -            392 71031at3193          -            437   1.1e-05   26.3   0.1   3   3     3e-05    0.0067   17.1   0.0   183   245   285   345   283   361 0.85 -
ID=PSME_00035269     -            383 71031at3193          -            437   1.1e-05   26.3   0.0   1   1   1.4e-07   3.1e-05   24.8   0.0   280   434   185   343   173   345 0.78 -
ID=PSME_00037056     -            492 71031at3193          -            437   1.1e-05   26.3   0.0   1   1   7.7e-08   1.7e-05   25.7   0.0   281   353    23    93    13   105 0.86 -
ID=PSME_00014113     -            542 71031at3193          -            437   1.1e-05   26.3   0.0   1   3       1.4   3.1e+02    1.7   0.1   332   350   197   215   117   272 0.56 -
ID=PSME_00014113     -            542 71031at3193          -            437   1.1e-05   26.3   0.0   2   3   0.00012     0.028   15.1   0.0   123   165   272   315   260   326 0.81 -
ID=PSME_00014113     -            542 71031at3193          -            437   1.1e-05   26.3   0.0   3   3     0.078        17    5.9   0.0   126   214   319   409   314   414 0.73 -
ID=PSME_00050500     -            314 71031at3193          -            437   1.3e-05   26.0   1.9   1   2      0.03       6.7    7.2   0.0   187   251    12    75     2    83 0.60 -
ID=PSME_00050500     -            314 71031at3193          -            437   1.3e-05   26.0   1.9   2   2   2.3e-05    0.0052   17.5   0.5   179   259    88   166    86   171 0.82 -
ID=PSME_00046033     -            283 71031at3193          -            437   1.5e-05   25.8   0.3   1   1   6.9e-08   1.5e-05   25.8   0.3   241   348   135   239    81   265 0.77 -
ID=PSME_00003075     -            548 71031at3193          -            437   2.1e-05   25.3   1.2   1   3      0.37        83    3.6   0.1   135   160   240   265   214   270 0.88 -
ID=PSME_00003075     -            548 71031at3193          -            437   2.1e-05   25.3   1.2   2   3      0.14        31    5.1   0.0   292   348   301   356   279   364 0.77 -
ID=PSME_00003075     -            548 71031at3193          -            437   2.1e-05   25.3   1.2   3   3   9.7e-06    0.0021   18.7   0.0   176   306   317   442   311   448 0.79 -
ID=PSME_00002097     -           1622 71031at3193          -            437   2.3e-05   25.2   0.0   1   3    0.0051       1.1    9.8   0.0   265   303  1200  1236  1195  1242 0.86 -
ID=PSME_00002097     -           1622 71031at3193          -            437   2.3e-05   25.2   0.0   2   3    0.0064       1.4    9.4   0.0   197   310  1325  1445  1318  1461 0.79 -
ID=PSME_00002097     -           1622 71031at3193          -            437   2.3e-05   25.2   0.0   3   3       1.6   3.5e+02    1.6   0.0   314   345  1589  1620  1514  1621 0.86 -
ID=PSME_00038146     -            422 71031at3193          -            437   2.4e-05   25.1   0.0   1   2      0.02       4.5    7.8   0.0   172   245   216   294   210   300 0.76 -
ID=PSME_00038146     -            422 71031at3193          -            437   2.4e-05   25.1   0.0   2   2   9.4e-05     0.021   15.5   0.0   338   434   300   393   289   395 0.84 -
ID=PSME_00030324     -            583 71031at3193          -            437   2.5e-05   25.1   4.0   1   3      0.47     1e+02    3.3   0.0   181   347   179   211   105   217 0.59 -
ID=PSME_00030324     -            583 71031at3193          -            437   2.5e-05   25.1   4.0   2   3     0.019       4.3    7.9   0.4    99   208   381   490   319   497 0.53 -
ID=PSME_00030324     -            583 71031at3193          -            437   2.5e-05   25.1   4.0   3   3   0.00058      0.13   12.9   0.3   264   367   456   557   451   571 0.82 -
ID=PSME_00051881     -            199 71031at3193          -            437   2.7e-05   25.0   0.0   1   1   2.2e-07   4.9e-05   24.1   0.0   322   361    29    68    14    75 0.86 -
ID=PSME_00044281     -            184 71031at3193          -            437   2.8e-05   25.0   3.6   1   1   1.5e-07   3.2e-05   24.8   3.6   240   378    33   167    19   180 0.66 -
ID=PSME_00008688     -           1666 71031at3193          -            437   4.2e-05   24.4   0.7   1   2       6.1   1.4e+03   -0.4   0.0    27    78   953  1004   940  1025 0.79 -
ID=PSME_00008688     -           1666 71031at3193          -            437   4.2e-05   24.4   0.7   2   2   2.5e-05    0.0056   17.4   0.5   122   175  1416  1469  1402  1599 0.81 -
ID=PSME_00021966     -            294 71031at3193          -            437   4.9e-05   24.1   0.0   1   2   0.00089       0.2   12.3   0.0   205   359    39   187     7   205 0.72 -
ID=PSME_00021966     -            294 71031at3193          -            437   4.9e-05   24.1   0.0   2   2    0.0072       1.6    9.3   0.0   134   161   213   240   209   257 0.69 -
ID=PSME_00017542     -            502 71031at3193          -            437     5e-05   24.1   0.0   1   1   7.5e-06    0.0017   19.1   0.0   125   223   368   453   329   466 0.69 -
ID=PSME_00032329     -            349 71031at3193          -            437   5.9e-05   23.9   5.8   1   2   6.2e-05     0.014   16.1   0.8   244   346   162   262   148   267 0.68 -
ID=PSME_00032329     -            349 71031at3193          -            437   5.9e-05   23.9   5.8   2   2    0.0065       1.4    9.4   0.2   280   335   282   336   273   344 0.69 -
ID=PSME_00010285     -            373 71031at3193          -            437   6.3e-05   23.8   0.1   1   1   1.2e-06   0.00028   21.7   0.1   280   435   171   330   162   332 0.81 -
ID=PSME_00010434     -            523 71031at3193          -            437   6.5e-05   23.7   0.1   1   2     8e-05     0.018   15.7   0.2   271   390    63   184    45   224 0.71 -
ID=PSME_00010434     -            523 71031at3193          -            437   6.5e-05   23.7   0.1   2   2      0.13        28    5.2   0.0   281   392   409   519   383   521 0.72 -
ID=PSME_00019621     -            240 71031at3193          -            437   6.6e-05   23.7   0.0   1   1   3.8e-06   0.00083   20.1   0.0   280   434    53   211    45   213 0.80 -
ID=PSME_00014824     -            450 71031at3193          -            437   6.6e-05   23.7   4.7   1   2     0.036       7.9    7.0   0.1   385   433   218   266   192   270 0.61 -
ID=PSME_00014824     -            450 71031at3193          -            437   6.6e-05   23.7   4.7   2   2   2.9e-05    0.0065   17.1   0.6   270   381   276   384   267   403 0.66 -
ID=PSME_00055135     -            377 71031at3193          -            437   6.7e-05   23.7   0.3   1   3    0.0058       1.3    9.6   0.1   271   354    11    50     3    61 0.58 -
ID=PSME_00055135     -            377 71031at3193          -            437   6.7e-05   23.7   0.3   2   3      0.17        38    4.8   0.0   131   156   166   191   146   200 0.82 -
ID=PSME_00055135     -            377 71031at3193          -            437   6.7e-05   23.7   0.3   3   3      0.17        37    4.8   0.0   341   434   218   311   205   314 0.76 -
ID=PSME_00010284     -            417 71031at3193          -            437     8e-05   23.4   0.0   1   1   3.7e-06   0.00082   20.1   0.0   280   434   233   391   227   393 0.81 -
ID=PSME_00021254     -            444 71031at3193          -            437   8.4e-05   23.4   0.0   1   1   7.6e-07   0.00017   22.4   0.0   179   245   329   401   311   411 0.74 -
ID=PSME_00045677     -            424 71031at3193          -            437   9.2e-05   23.3   0.0   1   3    0.0003     0.067   13.8   0.0   174   245   219   294   210   298 0.80 -
ID=PSME_00045677     -            424 71031at3193          -            437   9.2e-05   23.3   0.0   2   3      0.53   1.2e+02    3.1   0.0   404   435   275   309   264   311 0.76 -
ID=PSME_00045677     -            424 71031at3193          -            437   9.2e-05   23.3   0.0   3   3     0.057        13    6.3   0.0   337   434   299   396   297   399 0.71 -
ID=PSME_00021197     -            611 71031at3193          -            437   0.00012   22.9   0.1   1   2       1.7   3.7e+02    1.5   0.0   183   224    31    75    17    80 0.67 -
ID=PSME_00021197     -            611 71031at3193          -            437   0.00012   22.9   0.1   2   2   7.3e-06    0.0016   19.1   0.1   268   357    90   178    63   206 0.78 -
ID=PSME_00018509     -            527 71031at3193          -            437   0.00013   22.7   0.1   1   2   4.6e-05      0.01   16.5   0.1   262   355    91   181    46   196 0.74 -
ID=PSME_00018509     -            527 71031at3193          -            437   0.00013   22.7   0.1   2   2      0.54   1.2e+02    3.1   0.0   291   353   216   275   207   323 0.57 -
ID=PSME_00046185     -            216 71031at3193          -            437   0.00015   22.6   0.1   1   1   9.8e-07   0.00022   22.0   0.1   283   353   133   199   105   211 0.79 -
ID=PSME_00026630     -            586 71031at3193          -            437   0.00026   21.7   1.4   1   3   0.00063      0.14   12.8   0.0   327   391    16    79     1   118 0.66 -
ID=PSME_00026630     -            586 71031at3193          -            437   0.00026   21.7   1.4   2   3       4.1   9.2e+02    0.2   0.0   325   385   147   206   100   236 0.68 -
ID=PSME_00026630     -            586 71031at3193          -            437   0.00026   21.7   1.4   3   3      0.13        29    5.1   0.1   183   305   410   532   401   542 0.71 -
ID=PSME_00028453     -            207 71031at3193          -            437   0.00028   21.6   1.5   1   2       0.3        66    3.9   0.2   325   346    28    49    13    61 0.60 -
ID=PSME_00028453     -            207 71031at3193          -            437   0.00028   21.6   1.5   2   2   3.8e-05    0.0085   16.8   0.1   264   360    65   159    59   165 0.85 -
ID=PSME_00022718     -            506 71031at3193          -            437   0.00032   21.5   0.3   1   2       2.5   5.5e+02    0.9   0.0   185   213    32    61    17    79 0.69 -
ID=PSME_00022718     -            506 71031at3193          -            437   0.00032   21.5   0.3   2   2   2.8e-05    0.0062   17.2   0.1   265   360    85   182    62   211 0.73 -
ID=PSME_00022731     -            534 71031at3193          -            437   0.00042   21.1   0.2   1   2   0.00068      0.15   12.7   0.1   274   351   129   209    50   248 0.59 -
ID=PSME_00022731     -            534 71031at3193          -            437   0.00042   21.1   0.2   2   2       1.4     3e+02    1.8   0.0   279   346   307   374   277   389 0.73 -
ID=PSME_00037469     -            155 71031at3193          -            437   0.00042   21.1   0.1   1   1   2.4e-06   0.00053   20.8   0.1   291   356    48   111    38   122 0.85 -
ID=PSME_00037330     -            519 71031at3193          -            437   0.00047   20.9   2.0   1   2      0.72   1.6e+02    2.7   0.1   316   345   348   377   328   384 0.55 -
ID=PSME_00037330     -            519 71031at3193          -            437   0.00047   20.9   2.0   2   2   2.6e-05    0.0057   17.3   0.3   264   366   394   494   388   506 0.85 -
ID=PSME_00016647     -            283 71031at3193          -            437    0.0005   20.8   0.1   1   2       1.3   2.8e+02    1.9   0.0   119   157    21    59     5    71 0.67 -
ID=PSME_00016647     -            283 71031at3193          -            437    0.0005   20.8   0.1   2   2    0.0014      0.32   11.6   0.0   169   312   118   251    97   254 0.69 -
ID=PSME_00004692     -            453 71031at3193          -            437   0.00051   20.8   0.1   1   3     0.036         8    7.0   0.1   269   312   236   279   224   330 0.69 -
ID=PSME_00004692     -            453 71031at3193          -            437   0.00051   20.8   0.1   2   3     0.051        11    6.5   0.0   127   159   323   355   312   362 0.80 -
ID=PSME_00004692     -            453 71031at3193          -            437   0.00051   20.8   0.1   3   3      0.22        48    4.4   0.0   122   146   361   385   354   398 0.76 -
ID=PSME_00012692     -            418 71031at3193          -            437   0.00057   20.6   2.0   1   2    0.0093       2.1    8.9   0.0   318   348    86   116    67   125 0.84 -
ID=PSME_00012692     -            418 71031at3193          -            437   0.00057   20.6   2.0   2   2     0.039       8.7    6.9   1.0   286   345   141   225   125   247 0.57 -
ID=PSME_00022364     -            432 71031at3193          -            437   0.00065   20.5   0.2   1   4   0.00065      0.15   12.7   0.0   331   390     5    63     2   112 0.72 -
ID=PSME_00022364     -            432 71031at3193          -            437   0.00065   20.5   0.2   2   4       4.4   9.7e+02    0.1   0.0   325   371   132   178   112   212 0.63 -
ID=PSME_00022364     -            432 71031at3193          -            437   0.00065   20.5   0.2   3   4         2   4.4e+02    1.3   0.0   132   352   362   393   325   404 0.56 -
ID=PSME_00022364     -            432 71031at3193          -            437   0.00065   20.5   0.2   4   4       2.4   5.3e+02    1.0   0.0   319   346   402   429   380   430 0.75 -
ID=PSME_00014349     -            701 71031at3193          -            437   0.00065   20.5   0.3   1   2      0.12        26    5.3   0.2   271   347   103   179    92   189 0.68 -
ID=PSME_00014349     -            701 71031at3193          -            437   0.00065   20.5   0.3   2   2   3.2e-05    0.0071   17.0   0.2   198   355   120   271   115   287 0.87 -
ID=PSME_00025007     -            302 71031at3193          -            437   0.00077   20.2   0.0   1   1   1.3e-05     0.003   18.3   0.0   322   434    23   133     8   139 0.77 -
ID=PSME_00019723     -            286 71031at3193          -            437   0.00084   20.1   3.7   1   2     0.017       3.7    8.1   0.8   298   347     4    52     2    62 0.80 -
ID=PSME_00019723     -            286 71031at3193          -            437   0.00084   20.1   3.7   2   2    0.0006      0.13   12.8   0.1   273   386    63   171    57   190 0.75 -
ID=PSME_00043427     -            246 71031at3193          -            437   0.00085   20.1   0.1   1   1   7.8e-06    0.0017   19.0   0.1   292   349   180   233   171   244 0.76 -
ID=PSME_00039137     -            147 71031at3193          -            437   0.00093   19.9   0.1   1   1   6.9e-06    0.0015   19.2   0.1   335   429    21   116     7   122 0.81 -
ID=PSME_00030768     -            465 71031at3193          -            437   0.00097   19.9   0.0   1   3    0.0016      0.36   11.4   0.0   324   358    25    59     8    84 0.81 -
ID=PSME_00030768     -            465 71031at3193          -            437   0.00097   19.9   0.0   2   3       1.1   2.5e+02    2.1   0.0   133   351   302   331   255   362 0.67 -
ID=PSME_00030768     -            465 71031at3193          -            437   0.00097   19.9   0.0   3   3      0.89     2e+02    2.4   0.0   248   305   393   448   378   457 0.80 -
ID=PSME_00047021     -            388 71031at3193          -            437   0.00099   19.8   0.0   1   2       1.3     3e+02    1.8   0.0   172   245   183   260   178   266 0.74 -
ID=PSME_00047021     -            388 71031at3193          -            437   0.00099   19.8   0.0   2   2   2.8e-05    0.0062   17.2   0.0   297   434   218   359   205   361 0.72 -
ID=PSME_00014010     -            501 71031at3193          -            437     0.001   19.8   0.1   1   3   0.00025     0.055   14.1   0.1   314   390    55   131    33   171 0.68 -
ID=PSME_00014010     -            501 71031at3193          -            437     0.001   19.8   0.1   2   3       4.3   9.6e+02    0.1   0.0   325   355   200   230   177   278 0.74 -
ID=PSME_00014010     -            501 71031at3193          -            437     0.001   19.8   0.1   3   3       1.8     4e+02    1.4   0.0   131   162   429   461   374   475 0.68 -
ID=PSME_00026341     -            229 71031at3193          -            437     0.001   19.8   0.1   1   1     1e-05    0.0023   18.7   0.1   276   434    27   189    17   191 0.81 -
ID=PSME_00031540     -            397 71031at3193          -            437     0.001   19.8   0.0   1   2    0.0042      0.93   10.1   0.0   173   223   196   246   188   275 0.74 -
ID=PSME_00031540     -            397 71031at3193          -            437     0.001   19.8   0.0   2   2      0.02       4.5    7.8   0.1   337   434   277   368   253   371 0.72 -
ID=PSME_00042033     -            378 71031at3193          -            437    0.0011   19.8   0.1   1   1   8.6e-06    0.0019   18.9   0.1   291   353   276   335   269   347 0.75 -
ID=PSME_00018996     -            308 71031at3193          -            437    0.0013   19.5   0.1   1   2    0.0001     0.022   15.4   0.0   322   390    13    80     1   129 0.70 -
ID=PSME_00018996     -            308 71031at3193          -            437    0.0013   19.5   0.1   2   2      0.97   2.2e+02    2.3   0.0   325   397   149   220   133   234 0.70 -
ID=PSME_00008574     -            297 71031at3193          -            437    0.0013   19.5   0.2   1   3       1.9   4.1e+02    1.3   0.0   135   311    76   122    47   171 0.63 -
ID=PSME_00008574     -            297 71031at3193          -            437    0.0013   19.5   0.2   2   3   0.00045     0.099   13.3   0.0   133   160   173   200   152   207 0.83 -
ID=PSME_00008574     -            297 71031at3193          -            437    0.0013   19.5   0.2   3   3         2   4.4e+02    1.2   0.0   130   154   213   237   207   247 0.77 -
ID=PSME_00045044     -            433 71031at3193          -            437    0.0013   19.4   3.0   1   2     0.025       5.7    7.5   0.2   178   209    87   118    81   119 0.92 -
ID=PSME_00045044     -            433 71031at3193          -            437    0.0013   19.4   3.0   2   2    0.0017      0.38   11.3   0.1   180   225   131   175   128   209 0.78 -
ID=PSME_00026539     -            413 71031at3193          -            437    0.0014   19.4   0.2   1   1   1.3e-05    0.0029   18.3   0.2   291   359   292   357   244   369 0.79 -
ID=PSME_00020280     -            460 71031at3193          -            437    0.0015   19.3   0.3   1   1   2.5e-05    0.0055   17.4   0.1   281   434   237   394   222   397 0.78 -
ID=PSME_00024217     -            162 71031at3193          -            437    0.0019   18.9   0.0   1   1   1.3e-05    0.0029   18.3   0.0   122   216    42   150    27   154 0.76 -
ID=PSME_00031935     -            526 71031at3193          -            437    0.0019   18.9   0.9   1   1   1.8e-05    0.0041   17.8   0.1   291   352   450   508   400   521 0.81 -
ID=PSME_00011070     -             70 71031at3193          -            437     0.002   18.8   0.0   1   1     1e-05    0.0022   18.7   0.0   130   188     3    64     1    67 0.82 -
ID=PSME_00032983     -            558 71031at3193          -            437    0.0021   18.7   0.1   1   1     2e-05    0.0043   17.7   0.1   291   349   325   379   318   397 0.77 -
ID=PSME_00024680     -            503 71031at3193          -            437    0.0021   18.7   0.0   1   2   0.00015     0.032   14.9   0.0   317   390    18    90     6   132 0.71 -
ID=PSME_00024680     -            503 71031at3193          -            437    0.0021   18.7   0.0   2   2       2.8   6.1e+02    0.8   0.0   289   352   310   372   281   398 0.65 -
ID=PSME_00026479     -            175 71031at3193          -            437    0.0022   18.7   0.4   1   2         9     2e+03   -0.9   0.0   298   334     4    39     3    48 0.52 -
ID=PSME_00026479     -            175 71031at3193          -            437    0.0022   18.7   0.4   2   2   2.9e-05    0.0065   17.2   0.1   264   370    50   152    44   163 0.79 -
ID=PSME_00020281     -            406 71031at3193          -            437    0.0028   18.4   0.0   1   2      0.13        29    5.1   0.0   175   245   204   278   195   284 0.72 -
ID=PSME_00020281     -            406 71031at3193          -            437    0.0028   18.4   0.0   2   2       1.2   2.6e+02    2.0   0.0   136   167   357   388   343   405 0.54 -
ID=PSME_00019254     -            322 71031at3193          -            437    0.0031   18.2   0.1   1   2   7.8e-05     0.017   15.8   0.0   320   390    21    90     6   139 0.67 -
ID=PSME_00019254     -            322 71031at3193          -            437    0.0031   18.2   0.1   2   2       3.6   7.9e+02    0.4   0.0   325   356   159   190   136   225 0.64 -
ID=PSME_00045477     -            362 71031at3193          -            437    0.0031   18.2   0.0   1   2    0.0065       1.4    9.4   0.0   378   429     2    53     1    56 0.92 -
ID=PSME_00045477     -            362 71031at3193          -            437    0.0031   18.2   0.0   2   2      0.03       6.7    7.2   0.0   392   434    55    97    53   100 0.88 -
ID=PSME_00003503     -            366 71031at3193          -            437    0.0033   18.1   0.1   1   1   2.4e-05    0.0054   17.4   0.1   279   434   178   337   161   339 0.80 -
ID=PSME_00000461     -            538 71031at3193          -            437    0.0033   18.1   2.8   1   4     0.001      0.23   12.1   0.1   273   352    63   145    21   167 0.73 -
ID=PSME_00000461     -            538 71031at3193          -            437    0.0033   18.1   2.8   2   4       4.1   9.2e+02    0.2   0.0   133   158   326   352   321   370 0.67 -
ID=PSME_00000461     -            538 71031at3193          -            437    0.0033   18.1   2.8   3   4       1.5   3.3e+02    1.6   0.1   323   349   369   395   357   409 0.83 -
ID=PSME_00000461     -            538 71031at3193          -            437    0.0033   18.1   2.8   4   4       3.5   7.8e+02    0.4   0.0   253   302   441   489   421   498 0.82 -
ID=PSME_00017357     -            635 71031at3193          -            437    0.0033   18.1   0.6   1   2    0.0027      0.59   10.7   0.5   128   212   553   623   487   624 0.60 -
ID=PSME_00017357     -            635 71031at3193          -            437    0.0033   18.1   0.6   2   2    0.0084       1.9    9.1   0.0   124   163   591   630   586   634 0.73 -
ID=PSME_00009570     -            484 71031at3193          -            437    0.0034   18.1   0.2   1   3    0.0043      0.96   10.0   0.1   273   356    95   179    71   211 0.73 -
ID=PSME_00009570     -            484 71031at3193          -            437    0.0034   18.1   0.2   2   3       5.4   1.2e+03   -0.2   0.0   324   354   279   309   245   317 0.79 -
ID=PSME_00009570     -            484 71031at3193          -            437    0.0034   18.1   0.2   3   3      0.29        64    4.0   0.0   133   166   322   355   313   377 0.84 -
ID=PSME_00032417     -            228 71031at3193          -            437    0.0035   18.0   0.3   1   1   2.1e-05    0.0047   17.6   0.3   292   347   102   156    74   201 0.78 -
ID=PSME_00000474     -            316 71031at3193          -            437    0.0036   18.0   1.6   1   2   0.00061      0.13   12.8   0.3   186   334    22   162    19   219 0.75 -
ID=PSME_00000474     -            316 71031at3193          -            437    0.0036   18.0   1.6   2   2       2.4   5.3e+02    1.0   0.1   288   331   231   272   222   281 0.63 -
ID=PSME_00033595     -            464 71031at3193          -            437    0.0036   18.0  14.1   1   5      0.66   1.5e+02    2.8   0.1   319   347    14    42     2    47 0.84 -
ID=PSME_00033595     -            464 71031at3193          -            437    0.0036   18.0  14.1   2   5       9.2     2e+03   -1.0   0.0   273   309    77   113    61   124 0.78 -
ID=PSME_00033595     -            464 71031at3193          -            437    0.0036   18.0  14.1   3   5      0.25        56    4.2   0.3   316   346   246   276   227   298 0.57 -
ID=PSME_00033595     -            464 71031at3193          -            437    0.0036   18.0  14.1   4   5      0.23        50    4.3   0.2   264   301   292   329   287   342 0.89 -
ID=PSME_00033595     -            464 71031at3193          -            437    0.0036   18.0  14.1   5   5    0.0005      0.11   13.1   0.3   290   353   353   414   340   427 0.84 -
ID=PSME_00038164     -            337 71031at3193          -            437    0.0041   17.8   0.3   1   2   0.00029     0.065   13.9   0.1   329   380    21    72     3   119 0.75 -
ID=PSME_00038164     -            337 71031at3193          -            437    0.0041   17.8   0.3   2   2       2.4   5.3e+02    1.0   0.0   322   391   100   171    89   186 0.68 -
ID=PSME_00045876     -            317 71031at3193          -            437    0.0043   17.7   0.0   1   2   6.9e-05     0.015   15.9   0.0   230   347    11   122     5   126 0.86 -
ID=PSME_00045876     -            317 71031at3193          -            437    0.0043   17.7   0.0   2   2     0.019       4.1    7.9   0.0   180   215    89   124    85   169 0.75 -
ID=PSME_00009375     -            413 71031at3193          -            437    0.0043   17.7   0.2   1   2   0.00046       0.1   13.2   0.1   274   357    57   141    34   165 0.71 -
ID=PSME_00009375     -            413 71031at3193          -            437    0.0043   17.7   0.2   2   2       1.1   2.5e+02    2.0   0.0   278   345   207   274   177   300 0.74 -
ID=PSME_00017810     -            412 71031at3193          -            437    0.0044   17.7   0.0   1   2     0.015       3.3    8.3   0.0   171   245   211   290   205   294 0.74 -
ID=PSME_00017810     -            412 71031at3193          -            437    0.0044   17.7   0.0   2   2     0.024       5.3    7.6   0.0   337   435   295   384   285   386 0.81 -
ID=PSME_00053207     -            162 71031at3193          -            437    0.0044   17.7   0.1   1   2    0.0057       1.3    9.6   0.0   122   163    42    84     2    86 0.70 -
ID=PSME_00053207     -            162 71031at3193          -            437    0.0044   17.7   0.1   2   2   0.00069      0.15   12.6   0.0   123   209    43   143    34   151 0.65 -
ID=PSME_00035897     -            319 71031at3193          -            437    0.0045   17.7   5.4   1   2     9e-05      0.02   15.6   0.6   272   346    87   158    79   164 0.89 -
ID=PSME_00035897     -            319 71031at3193          -            437    0.0045   17.7   5.4   2   2      0.24        53    4.3   0.4   287   345   237   302   170   309 0.64 -
ID=PSME_00000732     -            256 71031at3193          -            437    0.0045   17.7   0.0   1   1     3e-05    0.0066   17.1   0.0   273   339   169   236   157   240 0.77 -
ID=PSME_00035181     -            380 71031at3193          -            437    0.0049   17.6   0.0   1   2   0.00088      0.19   12.3   0.0   174   245   226   301   216   306 0.79 -
ID=PSME_00035181     -            380 71031at3193          -            437    0.0049   17.6   0.0   2   2      0.59   1.3e+02    3.0   0.0   295   346   308   358   303   377 0.64 -
ID=PSME_00026467     -            258 71031at3193          -            437     0.005   17.5   0.0   1   1   7.1e-05     0.016   15.9   0.0   187   347    97   253    90   257 0.83 -
ID=PSME_00036554     -            152 71031at3193          -            437    0.0051   17.5   0.4   1   2       4.2   9.4e+02    0.2   0.1   387   421     4    37     2    48 0.63 -
ID=PSME_00036554     -            152 71031at3193          -            437    0.0051   17.5   0.4   2   2   7.6e-05     0.017   15.8   0.1   274   360    45   129    33   151 0.83 -
ID=PSME_00006857     -            215 71031at3193          -            437    0.0055   17.4   0.0   1   3    0.0043      0.96   10.0   0.0   273   313    29    70     2    81 0.70 -
ID=PSME_00006857     -            215 71031at3193          -            437    0.0055   17.4   0.0   2   3    0.0038      0.84   10.2   0.0   286   313    43    70    24   155 0.62 -
ID=PSME_00006857     -            215 71031at3193          -            437    0.0055   17.4   0.0   3   3      0.31        69    3.9   0.0   125   150   152   177   140   186 0.86 -
ID=PSME_00001329     -            852 71031at3193          -            437    0.0057   17.3   1.2   1   2       0.1        23    5.5   0.0   192   263   125   195   122   200 0.65 -
ID=PSME_00001329     -            852 71031at3193          -            437    0.0057   17.3   1.2   2   2     0.016       3.5    8.2   0.0   182   244   199   260   196   266 0.87 -
ID=PSME_00028869     -            326 71031at3193          -            437    0.0059   17.3   1.1   1   2       0.3        67    3.9   0.0   322   350    37    65    24    75 0.73 -
ID=PSME_00028869     -            326 71031at3193          -            437    0.0059   17.3   1.1   2   2    0.0023      0.52   10.9   0.1   279   380   183   289   170   299 0.65 -
ID=PSME_00042937     -            387 71031at3193          -            437    0.0061   17.3   0.6   1   1   5.8e-05     0.013   16.2   0.3   224   350   214   334   157   345 0.73 -
ID=PSME_00014135     -            293 71031at3193          -            437    0.0065   17.2   0.1   1   1   5.2e-05     0.012   16.3   0.1   241   338   191   285   161   290 0.76 -
ID=PSME_00034168     -            120 71031at3193          -            437     0.008   16.9   1.6   1   1   5.1e-05     0.011   16.4   1.4   298   348     4    53     2    83 0.83 -
ID=PSME_00035005     -            314 71031at3193          -            437    0.0081   16.8   0.0   1   2   0.00019     0.042   14.5   0.0   322   390    23    90     6   131 0.69 -
ID=PSME_00035005     -            314 71031at3193          -            437    0.0081   16.8   0.0   2   2         5   1.1e+03   -0.1   0.0   326   372   160   206   151   241 0.63 -
ID=PSME_00001924     -            318 71031at3193          -            437    0.0082   16.8   0.1   1   1   5.7e-05     0.013   16.2   0.1   281   434   130   289   121   291 0.71 -
ID=PSME_00030661     -            181 71031at3193          -            437    0.0084   16.8   0.1   1   1   5.8e-05     0.013   16.2   0.1   331   435    49   153    10   155 0.74 -
ID=PSME_00005767     -            374 71031at3193          -            437    0.0094   16.6   0.0   1   2   0.00023     0.051   14.2   0.0   328   383   186   239   179   255 0.83 -
ID=PSME_00005767     -            374 71031at3193          -            437    0.0094   16.6   0.0   2   2       6.8   1.5e+03   -0.5   0.0   197   353   294   316   260   338 0.66 -
ID=PSME_00026029     -            556 71031at3193          -            437    0.0094   16.6   0.1   1   2    0.0012      0.27   11.8   0.1   273   356    43   127    14   142 0.75 -
ID=PSME_00026029     -            556 71031at3193          -            437    0.0094   16.6   0.1   2   2       2.6   5.8e+02    0.8   0.0   131   352   450   482   405   496 0.66 -
ID=PSME_00041325     -            305 71031at3193          -            437     0.012   16.2   0.4   1   2   0.00032      0.07   13.8   0.3   316   433    55   170    33   173 0.67 -
ID=PSME_00041325     -            305 71031at3193          -            437     0.012   16.2   0.4   2   2       2.2   4.9e+02    1.1   0.0   322   374   147   199   135   228 0.66 -
ID=PSME_00051515     -            162 71031at3193          -            437     0.016   15.9   0.0   1   1   0.00018      0.04   14.5   0.0   123   215    43   149    34   153 0.70 -
ID=PSME_00045770     -            397 71031at3193          -            437     0.017   15.8   0.0   1   1   0.00052      0.12   13.0   0.0   280   434   205   357   197   360 0.75 -
ID=PSME_00013794     -            129 71031at3193          -            437     0.019   15.6   0.4   1   1   0.00042     0.093   13.3   0.2   277   350    47   123    36   128 0.59 -
ID=PSME_00024324     -            563 71031at3193          -            437      0.02   15.5   0.1   1   1    0.0003     0.066   13.8   0.0   191   263   441   510   415   540 0.74 -
ID=PSME_00005648     -            217 71031at3193          -            437     0.021   15.5   0.2   1   1   9.9e-05     0.022   15.4   0.2   120   220    88   193    12   203 0.72 -
ID=PSME_00014539     -            314 71031at3193          -            437     0.022   15.4   0.6   1   1   0.00022     0.049   14.3   0.1   272   359   108   196    91   204 0.75 -
ID=PSME_00002956     -            437 71031at3193          -            437     0.022   15.4   0.0   1   1   0.00014     0.031   14.9   0.0   378   434     2    58     1    61 0.94 -
ID=PSME_00017008     -            382 71031at3193          -            437     0.023   15.3   0.0   1   1   0.00015     0.032   14.9   0.0   328   390    29    90     8   131 0.68 -
ID=PSME_00017147     -            173 71031at3193          -            437     0.023   15.3   0.5   1   1    0.0012      0.27   11.8   0.2   277   352    67   145    63   157 0.64 -
ID=PSME_00020225     -            253 71031at3193          -            437     0.026   15.2   0.1   1   2       5.6   1.3e+03   -0.3   0.0   184   208   132   156   124   178 0.74 -
ID=PSME_00020225     -            253 71031at3193          -            437     0.026   15.2   0.1   2   2   0.00087      0.19   12.3   0.0   274   312   184   222   168   229 0.79 -
ID=PSME_00040139     -            386 71031at3193          -            437     0.034   14.8   0.0   1   2     0.014       3.1    8.3   0.0   132   164   137   169   114   178 0.87 -
ID=PSME_00040139     -            386 71031at3193          -            437     0.034   14.8   0.0   2   2       0.2        45    4.5   0.0   275   351   176   256   170   264 0.67 -
ID=PSME_00054559     -            361 71031at3193          -            437     0.035   14.8   0.1   1   1    0.0019      0.41   11.2   0.1   238   356    76   184    13   198 0.63 -
ID=PSME_00011021     -            620 71031at3193          -            437     0.037   14.7   1.2   1   2    0.0065       1.4    9.4   0.2   194   293    79   161    72   169 0.62 -
ID=PSME_00011021     -            620 71031at3193          -            437     0.037   14.7   1.2   2   2      0.46     1e+02    3.3   0.0   182   242   140   200   137   209 0.77 -
ID=PSME_00033522     -            393 71031at3193          -            437     0.042   14.5   1.1   1   2    0.0017      0.38   11.3   0.2   274   349    93   167    75   182 0.84 -
ID=PSME_00033522     -            393 71031at3193          -            437     0.042   14.5   1.1   2   2     0.036         8    7.0   0.3   286   311   148   175   142   229 0.77 -
ID=PSME_00043526     -            250 71031at3193          -            437     0.043   14.5   0.3   1   3       1.4   3.1e+02    1.7   0.0   132   164    22    55    19    68 0.63 -
ID=PSME_00043526     -            250 71031at3193          -            437     0.043   14.5   0.3   2   3      0.34        75    3.8   0.1   320   349    63    92    40   106 0.85 -
ID=PSME_00043526     -            250 71031at3193          -            437     0.043   14.5   0.3   3   3      0.06        13    6.2   0.1   248   306   134   190   117   200 0.86 -
ID=PSME_00024129     -            162 71031at3193          -            437     0.048   14.3   1.1   1   2         1   2.3e+02    2.2   0.1   231   257     6    33     1    38 0.56 -
ID=PSME_00024129     -            162 71031at3193          -            437     0.048   14.3   1.1   2   2    0.0022      0.48   11.0   0.1   123   165    43    86    37   149 0.86 -
ID=PSME_00047971     -            399 71031at3193          -            437      0.05   14.3   0.0   1   1   0.00036      0.08   13.6   0.0   227   346   254   377   240   395 0.77 -
ID=PSME_00010135     -            563 71031at3193          -            437      0.05   14.2   1.5   1   2       1.6   3.6e+02    1.5   0.0   182   213    49    81    35    98 0.65 -
ID=PSME_00010135     -            563 71031at3193          -            437      0.05   14.2   1.5   2   2    0.0049       1.1    9.8   0.0   275   356   114   194    99   210 0.69 -
ID=PSME_00018783     -            145 71031at3193          -            437     0.053   14.2   0.3   1   2       4.3   9.6e+02    0.1   0.0   236   259    49    72    10    94 0.67 -
ID=PSME_00018783     -            145 71031at3193          -            437     0.053   14.2   0.3   2   2   0.00061      0.14   12.8   0.1   318   352    88   122    49   134 0.73 -
ID=PSME_00041466     -            272 71031at3193          -            437     0.057   14.1   0.2   1   1    0.0016      0.34   11.5   0.1   329   352    20    43     2    58 0.70 -
ID=PSME_00035593     -            122 71031at3193          -            437     0.057   14.0   0.0   1   1   0.00028     0.062   13.9   0.0   306   352    46    94    21   105 0.73 -
ID=PSME_00034443     -            374 71031at3193          -            437     0.066   13.8   0.0   1   1    0.0007      0.15   12.6   0.0   316   349    33    66    16    79 0.84 -
ID=PSME_00041218     -            401 71031at3193          -            437      0.07   13.8   0.0   1   2     0.066        15    6.1   0.0   175   230   204   259   193   271 0.89 -
ID=PSME_00041218     -            401 71031at3193          -            437      0.07   13.8   0.0   2   2     0.012       2.7    8.5   0.0   281   434   220   361   218   364 0.77 -
ID=PSME_00035639     -             98 71031at3193          -            437     0.079   13.6   0.1   1   1    0.0004      0.09   13.4   0.1   316   351    46    81    28    89 0.76 -
ID=PSME_00007905     -            652 71031at3193          -            437     0.081   13.5   0.5   1   1    0.0017      0.37   11.4   0.4   276   355   374   459   304   551 0.75 -
ID=PSME_00031431     -            303 71031at3193          -            437     0.083   13.5   0.0   1   1   0.00051      0.11   13.1   0.0   187   257   153   223   145   302 0.83 -
ID=PSME_00041969     -            262 71031at3193          -            437     0.094   13.3   0.0   1   2       1.6   3.6e+02    1.5   0.0   236   351     3   126     1   140 0.63 -
ID=PSME_00041969     -            262 71031at3193          -            437     0.094   13.3   0.0   2   2    0.0045         1    9.9   0.0   125   158   183   216   150   231 0.85 -
ID=PSME_00039518     -            413 71031at3193          -            437     0.094   13.3   0.0   1   1   0.00074      0.16   12.5   0.0   316   349    33    66    16    86 0.83 -
ID=PSME_00026538     -            259 71031at3193          -            437     0.095   13.3   0.0   1   1    0.0015      0.33   11.5   0.0   292   351   197   253   188   257 0.76 -
ID=PSME_00010140     -           1404 71031at3193          -            437     0.098   13.3   1.4   1   3      0.83   1.8e+02    2.5   0.1   286   316  1144  1174  1124  1220 0.72 -
ID=PSME_00010140     -           1404 71031at3193          -            437     0.098   13.3   1.4   2   3       1.9   4.2e+02    1.3   0.1   284   309  1239  1264  1199  1313 0.64 -
ID=PSME_00010140     -           1404 71031at3193          -            437     0.098   13.3   1.4   3   3     0.068        15    6.1   0.0   190   255  1326  1395  1311  1403 0.57 -
ID=PSME_00010779     -            383 71031at3193          -            437       0.1   13.2   0.3   1   2    0.0081       1.8    9.1   0.1   276   351    46   124    28   142 0.64 -
ID=PSME_00010779     -            383 71031at3193          -            437       0.1   13.2   0.3   2   2       1.5   3.4e+02    1.6   0.0   324   378   220   274   169   304 0.69 -
ID=PSME_00015089     -            114 71031at3193          -            437      0.11   13.1   0.1   1   1   0.00053      0.12   13.0   0.1   290   342    55   105    32   113 0.84 -
ID=PSME_00031870     -            796 71031at3193          -            437      0.12   13.0   0.4   1   1   0.00082      0.18   12.4   0.4   240   337    86   180    81   194 0.79 -
ID=PSME_00043360     -            260 71031at3193          -            437      0.13   12.9   0.2   1   2     0.024       5.3    7.6   0.1   285   349    40   102    18   118 0.84 -
ID=PSME_00043360     -            260 71031at3193          -            437      0.13   12.9   0.2   2   2       0.4        89    3.5   0.0   251   305   147   199   121   209 0.83 -
ID=PSME_00008817     -             97 71031at3193          -            437      0.15   12.7   0.1   1   1   0.00077      0.17   12.5   0.1   279   340    29    88    20    93 0.73 -
ID=PSME_00020926     -             56 71031at3193          -            437      0.15   12.7   0.0   1   1    0.0073       1.6    9.3   0.0   137   161    25    49    21    54 0.79 -
ID=PSME_00046143     -            334 71031at3193          -            437      0.16   12.6   0.0   1   1     0.013         3    8.4   0.0   176   301   163   305   152   310 0.63 -
ID=PSME_00016538     -            135 71031at3193          -            437      0.16   12.6   0.4   1   1    0.0019      0.43   11.2   0.4   294   340    79   123    63   126 0.79 -
ID=PSME_00011742     -            305 71031at3193          -            437      0.17   12.5   0.1   1   1    0.0012      0.27   11.8   0.1    73   155   213   300   198   303 0.75 -
ID=PSME_00026340     -            287 71031at3193          -            437      0.17   12.4   0.1   1   2      0.16        36    4.8   0.0   404   435   129   163   112   165 0.83 -
ID=PSME_00026340     -            287 71031at3193          -            437      0.17   12.4   0.1   2   2     0.004      0.88   10.1   0.0   338   434   154   247   143   249 0.80 -
ID=PSME_00029554     -            174 71031at3193          -            437      0.18   12.4   0.0   1   1     0.001      0.23   12.0   0.0   261   343    53   137    27   149 0.76 -
ID=PSME_00039628     -            464 71031at3193          -            437      0.19   12.3   0.2   1   1    0.0024      0.54   10.8   0.0   316   349    33    66    16    84 0.83 -
ID=PSME_00023192     -            546 71031at3193          -            437      0.19   12.3   2.1   1   2    0.0044      0.97   10.0   0.5   383   434    87   138    81   141 0.72 -
ID=PSME_00023192     -            546 71031at3193          -            437      0.19   12.3   2.1   2   2         2   4.5e+02    1.2   0.0   264   312   154   201   148   210 0.80 -
ID=PSME_00041236     -            308 71031at3193          -            437      0.19   12.3   0.0   1   1    0.0014      0.31   11.6   0.0   318   349    35    66    16    88 0.84 -
ID=PSME_00026689     -            201 71031at3193          -            437      0.22   12.1   0.1   1   1    0.0048       1.1    9.9   0.1   329   409    30   110    24   149 0.51 -
ID=PSME_00037908     -            515 71031at3193          -            437      0.22   12.1   0.8   1   3       0.6   1.3e+02    2.9   0.0   308   347   110   147   102   151 0.77 -
ID=PSME_00037908     -            515 71031at3193          -            437      0.22   12.1   0.8   2   3     0.061        14    6.2   0.1   264   352   377   464   373   473 0.72 -
ID=PSME_00037908     -            515 71031at3193          -            437      0.22   12.1   0.8   3   3       0.6   1.3e+02    2.9   0.0   126   170   427   472   423   486 0.67 -
ID=PSME_00037503     -            507 71031at3193          -            437      0.23   12.0   0.0   1   1     0.018       3.9    8.0   0.0   228   346   314   436   312   452 0.68 -
ID=PSME_00039843     -            340 71031at3193          -            437      0.23   12.0   0.1   1   1    0.0042      0.92   10.1   0.1   291   343   196   244   189   258 0.81 -
ID=PSME_00021105     -            205 71031at3193          -            437      0.24   12.0   0.1   1   2       7.6   1.7e+03   -0.7   0.0   187   205     4    22     2    43 0.77 -
ID=PSME_00021105     -            205 71031at3193          -            437      0.24   12.0   0.1   2   2     0.019       4.2    7.9   0.0   131   207    59   122    31   133 0.73 -
ID=PSME_00030460     -            393 71031at3193          -            437      0.25   11.9   0.2   1   2     0.043       9.4    6.7   0.1   187   257   156   226   129   230 0.89 -
ID=PSME_00030460     -            393 71031at3193          -            437      0.25   11.9   0.2   2   2      0.52   1.1e+02    3.2   0.0   242   302   276   332   269   346 0.74 -
ID=PSME_00005268     -            284 71031at3193          -            437      0.25   11.9   2.3   1   2     0.014       3.1    8.3   0.2   403   434    84   116    57   119 0.82 -
ID=PSME_00005268     -            284 71031at3193          -            437      0.25   11.9   2.3   2   2      0.54   1.2e+02    3.1   0.1   292   347   150   207   122   215 0.51 -
ID=PSME_00034086     -            152 71031at3193          -            437      0.46   11.0   0.4   1   2      0.02       4.5    7.8   0.2   320   402     9    98     3   101 0.63 -
ID=PSME_00034086     -            152 71031at3193          -            437      0.46   11.0   0.4   2   2      0.31        68    3.9   0.0   248   305    80   135    63   143 0.84 -
ID=PSME_00022297     -            298 71031at3193          -            437      0.51   10.9   0.1   1   2    0.0053       1.2    9.7   0.1   285   402    86   208    61   226 0.68 -
ID=PSME_00022297     -            298 71031at3193          -            437      0.51   10.9   0.1   2   2       5.7   1.3e+03   -0.3   0.0   249   303   191   243   170   250 0.66 -
ID=PSME_00014983     -            236 71031at3193          -            437      0.51   10.9   0.3   1   2      0.26        58    4.1   0.1   164   218   116   172   108   176 0.70 -
ID=PSME_00014983     -            236 71031at3193          -            437      0.51   10.9   0.3   2   2      0.15        34    4.9   0.0   330   353   203   226   192   231 0.85 -
ID=PSME_00004801     -            554 71031at3193          -            437      0.52   10.9   0.2   1   3       1.2   2.7e+02    1.9   0.0   176   245   189   262   177   273 0.72 -
ID=PSME_00004801     -            554 71031at3193          -            437      0.52   10.9   0.2   2   3       8.2   1.8e+03   -0.8   0.0   420   435   343   358   337   370 0.73 -
ID=PSME_00004801     -            554 71031at3193          -            437      0.52   10.9   0.2   3   3      0.27        59    4.1   0.0   378   435   438   503   431   505 0.69 -
ID=PSME_00047152     -            241 71031at3193          -            437      0.52   10.9   0.9   1   2       0.2        45    4.5   0.1   320   349    54    83    46    96 0.85 -
ID=PSME_00047152     -            241 71031at3193          -            437      0.52   10.9   0.9   2   2       1.2   2.7e+02    1.9   0.1   250   305   127   180   117   188 0.78 -
ID=PSME_00014297     -            652 71031at3193          -            437      0.59   10.7   0.6   1   3      0.24        53    4.3   0.0   275   356   109   191    10   200 0.74 -
ID=PSME_00014297     -            652 71031at3193          -            437      0.59   10.7   0.6   2   3       3.2   7.1e+02    0.6   0.0   190   216   402   429   381   441 0.74 -
ID=PSME_00014297     -            652 71031at3193          -            437      0.59   10.7   0.6   3   3       2.7     6e+02    0.8   0.1   230   305   491   564   426   587 0.51 -
ID=PSME_00026862     -            353 71031at3193          -            437      0.97   10.0   4.2   1   3         1   2.2e+02    2.2   0.1   259   304    87   133    85   184 0.84 -
ID=PSME_00026862     -            353 71031at3193          -            437      0.97   10.0   4.2   2   3     0.021       4.6    7.8   0.3   403   434   210   242   186   245 0.83 -
ID=PSME_00026862     -            353 71031at3193          -            437      0.97   10.0   4.2   3   3       5.6   1.2e+03   -0.2   0.0   276   310   259   294   248   299 0.66 -
#
# Program:         hmmsearch
# Version:         3.2.1 (June 2018)
# Pipeline mode:   SEARCH
# Query file:      /isg/shared/databases/BUSCO/odb10/embryophyta_odb10/hmms/71031at3193.hmm
# Target file:     /labs/Wegrzyn/ConiferGenomes/Psme/analysis/SURF_annotation/analyze_orig_maker/gfacs/filtered/maker_genes.fasta.faa
# Option settings: /usr/local/bin/hmmsearch --domtblout /labs/Wegrzyn/ConiferGenomes/Psme/analysis/SURF_annotation/analyze_orig_maker/busco/maker/run_embryophyta_odb10/hmmer_output/71031at3193.out --cpu 1 /isg/shared/databases/BUSCO/odb10/embryophyta_odb10/hmms/71031at3193.hmm /labs/Wegrzyn/ConiferGenomes/Psme/analysis/SURF_annotation/analyze_orig_maker/gfacs/filtered/maker_genes.fasta.faa 
# Current dir:     /labs/Wegrzyn/ConiferGenomes/Psme/analysis/SURF_annotation/analyze_orig_maker/busco
# Date:            Fri Jul 10 13:55:42 2020
# [ok]
