#                                                                            --- full sequence --- -------------- this domain -------------   hmm coord   ali coord   env coord
# target name        accession   tlen query name           accession   qlen   E-value  score  bias   #  of  c-Evalue  i-Evalue  score  bias  from    to  from    to  from    to  acc description of target
#------------------- ---------- ----- -------------------- ---------- ----- --------- ------ ----- --- --- --------- --------- ------ ----- ----- ----- ----- ----- ----- ----- ---- ---------------------
ID=PSME_00030545     -            524 71446at3193          -            346   5.8e-07   30.9   1.1   1   4     6e-05      0.27   12.2   0.0   145   211   261   333   249   344 0.71 -
ID=PSME_00030545     -            524 71446at3193          -            346   5.8e-07   30.9   1.1   2   4     3e-05      0.14   13.2   0.1   145   195   346   399   337   422 0.77 -
ID=PSME_00030545     -            524 71446at3193          -            346   5.8e-07   30.9   1.1   3   4      0.63   2.9e+03   -1.0   0.0   163   202   410   449   402   460 0.85 -
ID=PSME_00030545     -            524 71446at3193          -            346   5.8e-07   30.9   1.1   4   4       0.2   9.1e+02    0.6   0.0   168   188   461   481   456   496 0.83 -
ID=PSME_00003170     -            812 71446at3193          -            346   0.00098   20.2   0.1   1   2    0.0071        32    5.4   0.0   161   202    61   102    27   109 0.77 -
ID=PSME_00003170     -            812 71446at3193          -            346   0.00098   20.2   0.1   2   2   4.9e-05      0.22   12.5   0.0   146   204   126   188   115   194 0.78 -
ID=PSME_00034555     -            547 71446at3193          -            346    0.0016   19.6   0.1   1   2   0.00018      0.83   10.6   0.0   161   195   177   211   137   236 0.75 -
ID=PSME_00034555     -            547 71446at3193          -            346    0.0016   19.6   0.1   2   2    0.0023        10    7.0   0.0   153   208   235   290   217   297 0.82 -
ID=PSME_00005357     -            440 71446at3193          -            346    0.0017   19.5   1.1   1   3   2.6e-05      0.12   13.4   0.1   130   196   132   204   122   218 0.73 -
ID=PSME_00005357     -            440 71446at3193          -            346    0.0017   19.5   1.1   2   3      0.13   5.9e+02    1.2   0.0   175   210   225   260   211   292 0.75 -
ID=PSME_00005357     -            440 71446at3193          -            346    0.0017   19.5   1.1   3   3     0.085   3.9e+02    1.8   0.0   163   193   295   325   273   347 0.80 -
ID=PSME_00007745     -            817 71446at3193          -            346    0.0048   18.0   0.0   1   2    0.0037        17    6.3   0.0   145   202    57   118     6   125 0.67 -
ID=PSME_00007745     -            817 71446at3193          -            346    0.0048   18.0   0.0   2   2   0.00046       2.1    9.3   0.0   146   206   142   206   130   211 0.77 -
ID=PSME_00020225     -            253 71446at3193          -            346    0.0077   17.3   0.1   1   2     9e-05      0.41   11.6   0.0   136   206   107   178    93   189 0.73 -
ID=PSME_00020225     -            253 71446at3193          -            346    0.0077   17.3   0.1   2   2      0.02        90    3.9   0.0   165   213   189   237   183   247 0.86 -
ID=PSME_00011743     -            275 71446at3193          -            346    0.0095   17.0   0.0   1   2    0.0066        30    5.5   0.0   159   202   120   163   101   167 0.83 -
ID=PSME_00011743     -            275 71446at3193          -            346    0.0095   17.0   0.0   2   2   0.00042       1.9    9.4   0.0   164   202   167   205   164   214 0.88 -
ID=PSME_00054687     -            317 71446at3193          -            346     0.029   15.4   0.4   1   3    0.0014       6.4    7.7   0.1   146   192    87   137    24   175 0.69 -
ID=PSME_00054687     -            317 71446at3193          -            346     0.029   15.4   0.4   2   3      0.14   6.2e+02    1.2   0.0   164   194   198   228   168   235 0.83 -
ID=PSME_00054687     -            317 71446at3193          -            346     0.029   15.4   0.4   3   3      0.48   2.2e+03   -0.6   0.0   162   189   286   313   254   314 0.84 -
ID=PSME_00014506     -            333 71446at3193          -            346     0.065   14.2   0.1   1   2     0.007        32    5.4   0.0   174   206    70   102    55   105 0.86 -
ID=PSME_00014506     -            333 71446at3193          -            346     0.065   14.2   0.1   2   2    0.0029        13    6.7   0.0   145   192   123   174   115   236 0.74 -
ID=PSME_00014453     -            610 71446at3193          -            346       0.1   13.6   0.2   1   4     0.012        53    4.7   0.0   174   206   154   186   143   189 0.85 -
ID=PSME_00014453     -            610 71446at3193          -            346       0.1   13.6   0.2   2   4     0.012        54    4.6   0.0   145   190   207   256   199   284 0.82 -
ID=PSME_00014453     -            610 71446at3193          -            346       0.1   13.6   0.2   3   4      0.94   4.3e+03   -1.6   0.0   145   205   443   508   386   533 0.54 -
ID=PSME_00014453     -            610 71446at3193          -            346       0.1   13.6   0.2   4   4         1   4.7e+03   -1.7   0.0   165   200   551   586   516   599 0.77 -
ID=PSME_00005767     -            374 71446at3193          -            346      0.28   12.2   0.0   1   2   0.00039       1.8    9.5   0.0   158   206   174   222   141   234 0.80 -
ID=PSME_00005767     -            374 71446at3193          -            346      0.28   12.2   0.0   2   2      0.28   1.3e+03    0.1   0.0   163   198   325   360   304   371 0.81 -
ID=PSME_00054559     -            361 71446at3193          -            346      0.36   11.8   0.0   1   2       1.5   6.7e+03   -2.2   0.0    52    72    35    55    28    78 0.81 -
ID=PSME_00054559     -            361 71446at3193          -            346      0.36   11.8   0.0   2   2   0.00022      0.99   10.4   0.0   143   190    87   138    68   153 0.86 -
#
# Program:         hmmsearch
# Version:         3.2.1 (June 2018)
# Pipeline mode:   SEARCH
# Query file:      /isg/shared/databases/BUSCO/odb10/embryophyta_odb10/hmms/71446at3193.hmm
# Target file:     /labs/Wegrzyn/ConiferGenomes/Psme/analysis/SURF_annotation/analyze_orig_maker/gfacs/filtered/maker_genes.fasta.faa
# Option settings: /usr/local/bin/hmmsearch --domtblout /labs/Wegrzyn/ConiferGenomes/Psme/analysis/SURF_annotation/analyze_orig_maker/busco/maker/run_embryophyta_odb10/hmmer_output/71446at3193.out --cpu 1 /isg/shared/databases/BUSCO/odb10/embryophyta_odb10/hmms/71446at3193.hmm /labs/Wegrzyn/ConiferGenomes/Psme/analysis/SURF_annotation/analyze_orig_maker/gfacs/filtered/maker_genes.fasta.faa 
# Current dir:     /labs/Wegrzyn/ConiferGenomes/Psme/analysis/SURF_annotation/analyze_orig_maker/busco
# Date:            Fri Jul 10 13:55:33 2020
# [ok]
