#                                                                            --- full sequence --- -------------- this domain -------------   hmm coord   ali coord   env coord
# target name        accession   tlen query name           accession   qlen   E-value  score  bias   #  of  c-Evalue  i-Evalue  score  bias  from    to  from    to  from    to  acc description of target
#------------------- ---------- ----- -------------------- ---------- ----- --------- ------ ----- --- --- --------- --------- ------ ----- ----- ----- ----- ----- ----- ----- ---- ---------------------
ID=PSME_00041731     -            167 71522at3193          -            411   3.7e-57  195.7   2.4   1   2   1.7e-55   1.9e-51  176.9   0.5   214   342     2   141     1   143 0.92 -
ID=PSME_00041731     -            167 71522at3193          -            411   3.7e-57  195.7   2.4   2   2   3.5e-08   0.00038   21.1   0.1    88   114   141   167   140   167 0.95 -
ID=PSME_00041730     -            192 71522at3193          -            411     2e-50  173.5   0.3   1   2   6.1e-33   6.7e-29  102.6   0.1   201   285    43   135    35   136 0.89 -
ID=PSME_00041730     -            192 71522at3193          -            411     2e-50  173.5   0.3   2   2   7.9e-23   8.7e-19   69.3   0.0   314   367   137   190   135   191 0.97 -
ID=PSME_00034390     -           1485 71522at3193          -            411     2e-35  124.1   1.1   1   2   1.3e-16   1.4e-12   48.8   0.0   195   233    69   107    59   123 0.91 -
ID=PSME_00034390     -           1485 71522at3193          -            411     2e-35  124.1   1.1   2   2   3.3e-24   3.7e-20   73.8   0.2   232   288  1262  1320  1256  1324 0.91 -
ID=PSME_00009191     -            272 71522at3193          -            411   4.4e-30  106.5   0.7   1   2     1e-33   1.1e-29  105.2   0.1   209   288     1    87     1   140 0.78 -
ID=PSME_00009191     -            272 71522at3193          -            411   4.4e-30  106.5   0.7   2   2      0.13   1.4e+03   -0.6   0.0   299   330   143   174   132   187 0.81 -
ID=PSME_00035523     -            256 71522at3193          -            411   1.3e-14   55.5   0.2   1   1   1.5e-18   1.6e-14   55.2   0.2   246   398     1   153     1   163 0.82 -
#
# Program:         hmmsearch
# Version:         3.2.1 (June 2018)
# Pipeline mode:   SEARCH
# Query file:      /isg/shared/databases/BUSCO/odb10/embryophyta_odb10/hmms/71522at3193.hmm
# Target file:     /labs/Wegrzyn/ConiferGenomes/Psme/analysis/SURF_annotation/analyze_orig_maker/gfacs/filtered/maker_genes.fasta.faa
# Option settings: /usr/local/bin/hmmsearch --domtblout /labs/Wegrzyn/ConiferGenomes/Psme/analysis/SURF_annotation/analyze_orig_maker/busco/maker/run_embryophyta_odb10/hmmer_output/71522at3193.out --cpu 1 /isg/shared/databases/BUSCO/odb10/embryophyta_odb10/hmms/71522at3193.hmm /labs/Wegrzyn/ConiferGenomes/Psme/analysis/SURF_annotation/analyze_orig_maker/gfacs/filtered/maker_genes.fasta.faa 
# Current dir:     /labs/Wegrzyn/ConiferGenomes/Psme/analysis/SURF_annotation/analyze_orig_maker/busco
# Date:            Fri Jul 10 13:55:34 2020
# [ok]
