#                                                                            --- full sequence --- -------------- this domain -------------   hmm coord   ali coord   env coord
# target name        accession   tlen query name           accession   qlen   E-value  score  bias   #  of  c-Evalue  i-Evalue  score  bias  from    to  from    to  from    to  acc description of target
#------------------- ---------- ----- -------------------- ---------- ----- --------- ------ ----- --- --- --------- --------- ------ ----- ----- ----- ----- ----- ----- ----- ---- ---------------------
ID=PSME_00049298     -            195 7170at3193           -            858   2.1e-49  169.9  20.2   1   1   1.4e-52   2.6e-49  169.6  20.2   724   854     3   135     2   139 0.93 -
ID=PSME_00001060     -            983 7170at3193           -            858   4.7e-15   56.3   2.3   1   4    0.0026         5    6.6   0.0   311   380    62   133    46   139 0.84 -
ID=PSME_00001060     -            983 7170at3193           -            858   4.7e-15   56.3   2.3   2   4    0.0029       5.6    6.4   0.0   330   385   149   206   136   224 0.82 -
ID=PSME_00001060     -            983 7170at3193           -            858   4.7e-15   56.3   2.3   3   4   4.2e-12     8e-09   35.7   0.3   270   432   226   389   217   397 0.90 -
ID=PSME_00001060     -            983 7170at3193           -            858   4.7e-15   56.3   2.3   4   4     0.028        54    3.2   0.0   629   657   401   429   389   466 0.60 -
ID=PSME_00002833     -           1041 7170at3193           -            858     1e-12   48.5   2.4   1   3   1.2e-05     0.022   14.3   0.0   257   385   126   252    70   253 0.80 -
ID=PSME_00002833     -           1041 7170at3193           -            858     1e-12   48.5   2.4   2   3   1.1e-11   2.1e-08   34.3   0.3   273   451   241   420   236   423 0.89 -
ID=PSME_00002833     -           1041 7170at3193           -            858     1e-12   48.5   2.4   3   3     0.022        42    3.5   0.0   629   655   413   439   401   478 0.63 -
ID=PSME_00008848     -            808 7170at3193           -            858   1.5e-09   38.1   6.7   1   2   4.1e-11   7.8e-08   32.4   5.1   150   432   107   402   103   404 0.78 -
ID=PSME_00008848     -            808 7170at3193           -            858   1.5e-09   38.1   6.7   2   2     9e-05      0.17   11.4   0.2   272   380   342   451   337   460 0.84 -
ID=PSME_00057066     -            799 7170at3193           -            858    0.0092   15.6   0.1   1   4     0.056   1.1e+02    2.2   0.0   498   617    61   182    50   209 0.79 -
ID=PSME_00057066     -            799 7170at3193           -            858    0.0092   15.6   0.1   2   4      0.27   5.1e+02   -0.1   0.0    83   116   224   257   206   277 0.77 -
ID=PSME_00057066     -            799 7170at3193           -            858    0.0092   15.6   0.1   3   4      0.11     2e+02    1.3   0.0   568   614   337   383   324   393 0.90 -
ID=PSME_00057066     -            799 7170at3193           -            858    0.0092   15.6   0.1   4   4    0.0048         9    5.7   0.0    69   120   446   498   437   506 0.82 -
ID=PSME_00000176     -            826 7170at3193           -            858    0.0096   15.5   0.1   1   5      0.84   1.6e+03   -1.7   0.0    82   109   175   202   173   217 0.87 -
ID=PSME_00000176     -            826 7170at3193           -            858    0.0096   15.5   0.1   2   5     0.026        50    3.3   0.0   291   368   230   305   208   340 0.75 -
ID=PSME_00000176     -            826 7170at3193           -            858    0.0096   15.5   0.1   3   5    0.0045       8.6    5.8   0.0    82   115   379   412   364   433 0.86 -
ID=PSME_00000176     -            826 7170at3193           -            858    0.0096   15.5   0.1   4   5       1.4   2.6e+03   -2.4   0.0    82   113   574   604   564   613 0.70 -
ID=PSME_00000176     -            826 7170at3193           -            858    0.0096   15.5   0.1   5   5      0.17   3.3e+02    0.5   0.0   331   401   732   770   682   796 0.63 -
ID=PSME_00002349     -           1828 7170at3193           -            858     0.015   14.9   0.7   1   7       2.2   4.2e+03   -3.1   0.0   531   613   213   295   201   298 0.88 -
ID=PSME_00002349     -           1828 7170at3193           -            858     0.015   14.9   0.7   2   7     0.011        20    4.5   0.0    83   121   339   377   322   385 0.82 -
ID=PSME_00002349     -           1828 7170at3193           -            858     0.015   14.9   0.7   3   7      0.37   6.9e+02   -0.5   0.0    86   114   443   471   438   480 0.87 -
ID=PSME_00002349     -           1828 7170at3193           -            858     0.015   14.9   0.7   4   7         2   3.8e+03   -3.0   0.0    82   114   575   607   560   616 0.80 -
ID=PSME_00002349     -           1828 7170at3193           -            858     0.015   14.9   0.7   5   7     0.056   1.1e+02    2.2   0.0    70   116  1108  1155  1100  1167 0.81 -
ID=PSME_00002349     -           1828 7170at3193           -            858     0.015   14.9   0.7   6   7      0.22   4.1e+02    0.2   0.0    67   115  1206  1255  1200  1272 0.85 -
ID=PSME_00002349     -           1828 7170at3193           -            858     0.015   14.9   0.7   7   7       1.3   2.4e+03   -2.3   0.0    85   116  1361  1392  1337  1400 0.77 -
ID=PSME_00001942     -            847 7170at3193           -            858     0.018   14.6   0.5   1   4     0.075   1.4e+02    1.8   0.0    84   121   207   244   191   279 0.80 -
ID=PSME_00001942     -            847 7170at3193           -            858     0.018   14.6   0.5   2   4      0.12   2.4e+02    1.0   0.0    82   116   306   340   289   369 0.76 -
ID=PSME_00001942     -            847 7170at3193           -            858     0.018   14.6   0.5   3   4    0.0015       2.9    7.3   0.0    82   130   407   456   387   472 0.77 -
ID=PSME_00001942     -            847 7170at3193           -            858     0.018   14.6   0.5   4   4       2.5   4.7e+03   -3.3   0.0    83   121   509   547   508   550 0.86 -
ID=PSME_00019525     -            714 7170at3193           -            858     0.025   14.2   0.2   1   3     0.043        81    2.6   0.0   498   633    63   203    52   222 0.79 -
ID=PSME_00019525     -            714 7170at3193           -            858     0.025   14.2   0.2   2   3     0.092   1.7e+02    1.5   0.0   568   614   252   298   224   307 0.90 -
ID=PSME_00019525     -            714 7170at3193           -            858     0.025   14.2   0.2   3   3    0.0041       7.8    5.9   0.0    69   120   361   413   352   421 0.82 -
ID=PSME_00052953     -            832 7170at3193           -            858     0.028   14.0   0.1   1   5      0.45   8.5e+02   -0.8   0.0    88   112   196   220   188   259 0.58 -
ID=PSME_00052953     -            832 7170at3193           -            858     0.028   14.0   0.1   2   5      0.75   1.4e+03   -1.6   0.0    85   121   294   330   289   349 0.81 -
ID=PSME_00052953     -            832 7170at3193           -            858     0.028   14.0   0.1   3   5    0.0023       4.4    6.7   0.0    83   121   393   431   386   447 0.85 -
ID=PSME_00052953     -            832 7170at3193           -            858     0.028   14.0   0.1   4   5       3.3   6.2e+03   -3.7   0.0    83   114   494   525   491   532 0.86 -
ID=PSME_00052953     -            832 7170at3193           -            858     0.028   14.0   0.1   5   5     0.086   1.6e+02    1.6   0.0   324   368   645   690   619   709 0.82 -
ID=PSME_00051353     -           1027 7170at3193           -            858     0.039   13.5   0.1   1   3     0.073   1.4e+02    1.8   0.0    84   148   185   250   165   321 0.77 -
ID=PSME_00051353     -           1027 7170at3193           -            858     0.039   13.5   0.1   2   3      0.54     1e+03   -1.1   0.0    83   114   386   417   373   428 0.86 -
ID=PSME_00051353     -           1027 7170at3193           -            858     0.039   13.5   0.1   3   3    0.0016       3.1    7.3   0.0    70   122   574   627   564   668 0.85 -
ID=PSME_00052052     -            794 7170at3193           -            858     0.048   13.2   0.3   1   3      0.83   1.6e+03   -1.7   0.0    83   121    93   131    73   136 0.77 -
ID=PSME_00052052     -            794 7170at3193           -            858     0.048   13.2   0.3   2   3     0.038        73    2.7   0.0    83   198   252   384   245   392 0.49 -
ID=PSME_00052052     -            794 7170at3193           -            858     0.048   13.2   0.3   3   3    0.0035       6.5    6.2   0.0    83   200   454   588   450   613 0.64 -
ID=PSME_00035334     -            424 7170at3193           -            858     0.061   12.9   0.1   1   1   4.2e-05      0.08   12.5   0.1   273   343   220   289   151   301 0.77 -
ID=PSME_00056779     -           1029 7170at3193           -            858     0.066   12.8   0.3   1   4       0.4   7.5e+02   -0.6   0.0   574   625   305   356   295   360 0.84 -
ID=PSME_00056779     -           1029 7170at3193           -            858     0.066   12.8   0.3   2   4    0.0011         2    7.8   0.0    70   122   374   427   365   449 0.86 -
ID=PSME_00056779     -           1029 7170at3193           -            858     0.066   12.8   0.3   3   4       0.5   9.5e+02   -1.0   0.0    83   109   489   515   479   535 0.85 -
ID=PSME_00056779     -           1029 7170at3193           -            858     0.066   12.8   0.3   4   4       1.9   3.7e+03   -2.9   0.0    83   116   691   724   689   735 0.80 -
ID=PSME_00056236     -            165 7170at3193           -            858     0.068   12.7   0.1   1   1   3.6e-05     0.068   12.7   0.1   381   455    16    92     2   139 0.78 -
ID=PSME_00052954     -            732 7170at3193           -            858      0.07   12.7   1.1   1   5      0.08   1.5e+02    1.7   0.0   289   368   150   227    69   254 0.75 -
ID=PSME_00052954     -            732 7170at3193           -            858      0.07   12.7   1.1   2   5      0.51   9.7e+02   -1.0   0.0    85   121   271   307   266   325 0.79 -
ID=PSME_00052954     -            732 7170at3193           -            858      0.07   12.7   1.1   3   5     0.019        35    3.7   0.0    85   120   372   407   365   422 0.86 -
ID=PSME_00052954     -            732 7170at3193           -            858      0.07   12.7   1.1   4   5         2   3.7e+03   -2.9   0.0    83   114   471   502   468   511 0.87 -
ID=PSME_00052954     -            732 7170at3193           -            858      0.07   12.7   1.1   5   5     0.062   1.2e+02    2.0   0.0   327   367   625   666   612   684 0.83 -
ID=PSME_00006107     -            856 7170at3193           -            858     0.073   12.6   0.1   1   4       1.8   3.4e+03   -2.8   0.0   144   203    87   148    78   154 0.70 -
ID=PSME_00006107     -            856 7170at3193           -            858     0.073   12.6   0.1   2   4       1.3   2.4e+03   -2.3   0.0    87   198   219   246   205   289 0.70 -
ID=PSME_00006107     -            856 7170at3193           -            858     0.073   12.6   0.1   3   4     0.082   1.5e+02    1.6   0.0    83   119   316   352   312   365 0.85 -
ID=PSME_00006107     -            856 7170at3193           -            858     0.073   12.6   0.1   4   4    0.0028       5.2    6.5   0.0    83   122   417   456   410   553 0.81 -
ID=PSME_00009010     -            904 7170at3193           -            858      0.13   11.8   1.1   1   5      0.88   1.7e+03   -1.8   0.0    87   119    63    95    62   121 0.72 -
ID=PSME_00009010     -            904 7170at3193           -            858      0.13   11.8   1.1   2   5       2.4   4.6e+03   -3.2   0.0    87   198   164   191   156   220 0.55 -
ID=PSME_00009010     -            904 7170at3193           -            858      0.13   11.8   1.1   3   5     0.039        73    2.7   0.0    69   113   349   391   339   411 0.79 -
ID=PSME_00009010     -            904 7170at3193           -            858      0.13   11.8   1.1   4   5     0.025        47    3.3   0.0    80   115   461   497   449   518 0.81 -
ID=PSME_00009010     -            904 7170at3193           -            858      0.13   11.8   1.1   5   5      0.15   2.8e+02    0.8   0.0    83   122   566   605   544   616 0.82 -
ID=PSME_00016832     -            724 7170at3193           -            858      0.15   11.6   0.1   1   3       2.5   4.7e+03   -3.3   0.0    89   113   166   190   161   199 0.79 -
ID=PSME_00016832     -            724 7170at3193           -            858      0.15   11.6   0.1   2   3    0.0076        14    5.0   0.0    68   114   245   292   239   304 0.87 -
ID=PSME_00016832     -            724 7170at3193           -            858      0.15   11.6   0.1   3   3     0.031        58    3.0   0.0    70   114   449   494   442   508 0.83 -
ID=PSME_00023831     -            423 7170at3193           -            858      0.16   11.5   5.4   1   4     0.005       9.4    5.6   0.0    89   124   214   249   201   254 0.89 -
ID=PSME_00023831     -            423 7170at3193           -            858      0.16   11.5   5.4   2   4   0.00025      0.47    9.9   0.0   322   381   223   284   220   301 0.86 -
ID=PSME_00023831     -            423 7170at3193           -            858      0.16   11.5   5.4   3   4       0.3   5.8e+02   -0.3   0.0    86   108   349   371   331   384 0.79 -
ID=PSME_00023831     -            423 7170at3193           -            858      0.16   11.5   5.4   4   4      0.47     9e+02   -0.9   2.3   267   294   382   409   348   414 0.71 -
ID=PSME_00056616     -            913 7170at3193           -            858      0.16   11.5   0.1   1   1   0.00026      0.49    9.9   0.1    83   199   475   607   470   620 0.69 -
ID=PSME_00053137     -            578 7170at3193           -            858      0.18   11.4   0.1   1   2   0.00025      0.47    9.9   0.1    39   121    55   140    41   144 0.87 -
ID=PSME_00053137     -            578 7170at3193           -            858      0.18   11.4   0.1   2   2       2.8   5.2e+03   -3.4   0.0    87   114   293   320   288   329 0.59 -
ID=PSME_00010401     -            855 7170at3193           -            858       0.2   11.2   0.8   1   3   0.00064       1.2    8.6   0.1   533   617   121   205   107   220 0.79 -
ID=PSME_00010401     -            855 7170at3193           -            858       0.2   11.2   0.8   2   3      0.98   1.9e+03   -1.9   0.0   575   617   264   306   246   339 0.59 -
ID=PSME_00010401     -            855 7170at3193           -            858       0.2   11.2   0.8   3   3       0.6   1.1e+03   -1.2   0.0    77   114   409   447   399   459 0.78 -
ID=PSME_00006511     -            776 7170at3193           -            858      0.21   11.1   0.7   1   2   0.00095       1.8    8.0   0.1   583   653    97   171    65   186 0.79 -
ID=PSME_00006511     -            776 7170at3193           -            858      0.21   11.1   0.7   2   2      0.16     3e+02    0.7   0.0    85   141   317   382   299   477 0.58 -
ID=PSME_00056852     -            523 7170at3193           -            858      0.25   10.8   0.0   1   1    0.0002      0.37   10.3   0.0   284   339   341   395   334   510 0.58 -
ID=PSME_00014595     -            316 7170at3193           -            858       0.3   10.6   0.0   1   1   0.00024      0.45   10.0   0.0   285   341    25    80    19    98 0.85 -
ID=PSME_00056966     -            888 7170at3193           -            858      0.35   10.4   2.6   1   5       0.6   1.1e+03   -1.2   0.0    86   200    48    78     8   108 0.64 -
ID=PSME_00056966     -            888 7170at3193           -            858      0.35   10.4   2.6   2   5       1.6     3e+03   -2.6   0.0    88   590   151   180   132   216 0.59 -
ID=PSME_00056966     -            888 7170at3193           -            858      0.35   10.4   2.6   3   5       1.7   3.2e+03   -2.7   0.0    85   109   249   273   245   306 0.64 -
ID=PSME_00056966     -            888 7170at3193           -            858      0.35   10.4   2.6   4   5     0.022        42    3.5   0.1    68   110   332   375   322   392 0.86 -
ID=PSME_00056966     -            888 7170at3193           -            858      0.35   10.4   2.6   5   5     0.016        30    4.0   0.0    82   206   448   589   431   624 0.66 -
ID=PSME_00057163     -            840 7170at3193           -            858       0.6    9.6   0.7   1   4      0.52   9.8e+02   -1.0   0.0    85   116   201   232   179   275 0.75 -
ID=PSME_00057163     -            840 7170at3193           -            858       0.6    9.6   0.7   2   4     0.011        22    4.4   0.1   568   635   312   379   274   393 0.80 -
ID=PSME_00057163     -            840 7170at3193           -            858       0.6    9.6   0.7   3   4       1.2   2.4e+03   -2.3   0.0    84   116   433   465   412   473 0.84 -
ID=PSME_00057163     -            840 7170at3193           -            858       0.6    9.6   0.7   4   4      0.27   5.1e+02   -0.1   0.0    89   115   508   534   476   546 0.85 -
ID=PSME_00034601     -            237 7170at3193           -            858       3.9    6.9   6.4   1   1    0.0025       4.7    6.6   6.4   790   827   197   234   176   236 0.81 -
#
# Program:         hmmsearch
# Version:         3.2.1 (June 2018)
# Pipeline mode:   SEARCH
# Query file:      /isg/shared/databases/BUSCO/odb10/embryophyta_odb10/hmms/7170at3193.hmm
# Target file:     /labs/Wegrzyn/ConiferGenomes/Psme/analysis/SURF_annotation/analyze_orig_maker/gfacs/filtered/maker_genes.fasta.faa
# Option settings: /usr/local/bin/hmmsearch --domtblout /labs/Wegrzyn/ConiferGenomes/Psme/analysis/SURF_annotation/analyze_orig_maker/busco/maker/run_embryophyta_odb10/hmmer_output/7170at3193.out --cpu 1 /isg/shared/databases/BUSCO/odb10/embryophyta_odb10/hmms/7170at3193.hmm /labs/Wegrzyn/ConiferGenomes/Psme/analysis/SURF_annotation/analyze_orig_maker/gfacs/filtered/maker_genes.fasta.faa 
# Current dir:     /labs/Wegrzyn/ConiferGenomes/Psme/analysis/SURF_annotation/analyze_orig_maker/busco
# Date:            Fri Jul 10 13:55:38 2020
# [ok]
