#                                                                            --- full sequence --- -------------- this domain -------------   hmm coord   ali coord   env coord
# target name        accession   tlen query name           accession   qlen   E-value  score  bias   #  of  c-Evalue  i-Evalue  score  bias  from    to  from    to  from    to  acc description of target
#------------------- ---------- ----- -------------------- ---------- ----- --------- ------ ----- --- --- --------- --------- ------ ----- ----- ----- ----- ----- ----- ----- ---- ---------------------
ID=PSME_00001878     -            380 7277at3193           -            814   5.9e-69  234.3   5.1   1   2     1e-23   6.9e-21   75.3   0.9   236   302     4    73     1   105 0.89 -
ID=PSME_00001878     -            380 7277at3193           -            814   5.9e-69  234.3   5.1   2   2   1.2e-49   8.4e-47  161.0   0.2   295   391   197   294   186   299 0.97 -
ID=PSME_00053222     -            257 7277at3193           -            814   3.4e-64  218.6  11.0   1   2   8.2e-08   5.6e-05   22.7   5.4   630   700    38   108     2   129 0.71 -
ID=PSME_00053222     -            257 7277at3193           -            814   3.4e-64  218.6  11.0   2   2   2.6e-61   1.8e-58  199.7   0.2   695   814   130   249   118   249 0.97 -
ID=PSME_00057060     -            247 7277at3193           -            814   0.00072   19.0   0.2   1   1   1.4e-06   0.00095   18.6   0.2   663   703   112   152   105   179 0.77 -
ID=PSME_00049898     -            215 7277at3193           -            814    0.0087   15.5   0.2   1   1   1.7e-05     0.011   15.1   0.2   672   700   102   130    95   164 0.77 -
ID=PSME_00056545     -            323 7277at3193           -            814     0.013   14.9   0.2   1   1   2.8e-05     0.019   14.3   0.2   672   701   256   285   251   291 0.88 -
ID=PSME_00028895     -            297 7277at3193           -            814     0.016   14.6   0.3   1   1   3.1e-05     0.021   14.2   0.3   662   700   221   259   204   276 0.83 -
ID=PSME_00009548     -            501 7277at3193           -            814      0.02   14.2   0.1   1   1   4.2e-05     0.029   13.7   0.1   662   701    92   131    75   155 0.75 -
ID=PSME_00043932     -            396 7277at3193           -            814     0.021   14.2   0.1   1   1   4.3e-05     0.029   13.7   0.1   670   700   200   230   191   238 0.88 -
ID=PSME_00043962     -            253 7277at3193           -            814     0.022   14.1   0.3   1   1   4.7e-05     0.032   13.6   0.3   672   702   122   152   117   158 0.88 -
ID=PSME_00051702     -            448 7277at3193           -            814     0.022   14.1   0.2   1   1   4.7e-05     0.032   13.6   0.2   672   702   243   273   235   279 0.89 -
ID=PSME_00045892     -            312 7277at3193           -            814     0.024   14.0   0.1   1   1   6.1e-05     0.042   13.2   0.1   665   700   202   237   169   252 0.85 -
ID=PSME_00026045     -            533 7277at3193           -            814     0.034   13.5   0.2   1   1   7.7e-05     0.053   12.9   0.2   665   702   306   343   299   370 0.79 -
ID=PSME_00024613     -            106 7277at3193           -            814     0.039   13.3   0.2   1   1   6.1e-05     0.042   13.2   0.2   657   698    34    75    22    96 0.81 -
ID=PSME_00038678     -            255 7277at3193           -            814     0.039   13.3  37.6   1   8    0.0029         2    7.6   0.4   677   696    45    64    39    71 0.86 -
ID=PSME_00038678     -            255 7277at3193           -            814     0.039   13.3  37.6   2   8     0.059        41    3.3   0.2   673   695    79   101    73   103 0.84 -
ID=PSME_00038678     -            255 7277at3193           -            814     0.039   13.3  37.6   3   8   0.00045      0.31   10.3   1.2   671   695    96   120    94   128 0.87 -
ID=PSME_00038678     -            255 7277at3193           -            814     0.039   13.3  37.6   4   8     0.078        53    2.9   0.7   678   695   129   146   125   148 0.89 -
ID=PSME_00038678     -            255 7277at3193           -            814     0.039   13.3  37.6   5   8    0.0011      0.72    9.1   5.4   670   696   140   166   135   181 0.83 -
ID=PSME_00038678     -            255 7277at3193           -            814     0.039   13.3  37.6   6   8     0.081        56    2.9   0.1   678   695   167   184   164   207 0.70 -
ID=PSME_00038678     -            255 7277at3193           -            814     0.039   13.3  37.6   7   8      0.11        72    2.5   0.1   678   694   207   223   196   226 0.87 -
ID=PSME_00038678     -            255 7277at3193           -            814     0.039   13.3  37.6   8   8         1   7.1e+02   -0.8   0.3   678   694   226   242   219   245 0.88 -
ID=PSME_00038677     -            249 7277at3193           -            814     0.047   13.0  35.6   1   8    0.0027       1.8    7.8   0.3   677   696    39    58    33    65 0.86 -
ID=PSME_00038677     -            249 7277at3193           -            814     0.047   13.0  35.6   2   8     0.045        31    3.7   0.2   672   695    72    95    68    97 0.84 -
ID=PSME_00038677     -            249 7277at3193           -            814     0.047   13.0  35.6   3   8    0.0017       1.2    8.4   1.2   678   695    97   114    92   123 0.86 -
ID=PSME_00038677     -            249 7277at3193           -            814     0.047   13.0  35.6   4   8      0.13        87    2.2   0.4   678   695   123   140   120   142 0.89 -
ID=PSME_00038677     -            249 7277at3193           -            814     0.047   13.0  35.6   5   8    0.0025       1.7    7.9   4.3   670   695   134   159   129   168 0.86 -
ID=PSME_00038677     -            249 7277at3193           -            814     0.047   13.0  35.6   6   8     0.079        54    2.9   0.1   678   695   161   178   158   201 0.70 -
ID=PSME_00038677     -            249 7277at3193           -            814     0.047   13.0  35.6   7   8     0.092        63    2.7   0.1   678   694   201   217   183   221 0.88 -
ID=PSME_00038677     -            249 7277at3193           -            814     0.047   13.0  35.6   8   8      0.99   6.8e+02   -0.7   0.4   677   694   219   236   211   239 0.87 -
ID=PSME_00025894     -            408 7277at3193           -            814     0.048   13.0   0.1   1   1    0.0001     0.069   12.5   0.1   671   703   240   272   220   286 0.83 -
ID=PSME_00056824     -            269 7277at3193           -            814     0.051   12.9   0.3   1   1   9.3e-05     0.064   12.6   0.3   661   700   226   265   182   268 0.66 -
ID=PSME_00006428     -            624 7277at3193           -            814     0.059   12.7   0.3   1   1   0.00013      0.09   12.1   0.3   666   702   301   337   293   357 0.79 -
ID=PSME_00001957     -            367 7277at3193           -            814     0.062   12.6   0.5   1   1   0.00013      0.09   12.1   0.5   667   700   233   266   226   283 0.82 -
ID=PSME_00056257     -            144 7277at3193           -            814     0.063   12.6   0.1   1   1   0.00011     0.078   12.3   0.1   671   694    10    33     1    37 0.77 -
ID=PSME_00050037     -            419 7277at3193           -            814     0.067   12.5   0.2   1   1   0.00015       0.1   12.0   0.2   671   703   155   187   140   199 0.86 -
ID=PSME_00019987     -            255 7277at3193           -            814     0.067   12.5  35.7   1   8    0.0028       1.9    7.7   0.3   677   696    45    64    39    71 0.86 -
ID=PSME_00019987     -            255 7277at3193           -            814     0.067   12.5  35.7   2   8     0.052        36    3.5   0.2   673   695    79   101    74   103 0.84 -
ID=PSME_00019987     -            255 7277at3193           -            814     0.067   12.5  35.7   3   8    0.0017       1.2    8.4   1.2   678   695   103   120    98   129 0.86 -
ID=PSME_00019987     -            255 7277at3193           -            814     0.067   12.5  35.7   4   8      0.13        90    2.2   0.4   678   695   129   146   126   148 0.89 -
ID=PSME_00019987     -            255 7277at3193           -            814     0.067   12.5  35.7   5   8    0.0026       1.8    7.8   4.3   670   695   140   165   135   174 0.86 -
ID=PSME_00019987     -            255 7277at3193           -            814     0.067   12.5  35.7   6   8     0.082        56    2.9   0.1   678   695   167   184   164   207 0.70 -
ID=PSME_00019987     -            255 7277at3193           -            814     0.067   12.5  35.7   7   8     0.095        65    2.6   0.1   678   694   207   223   189   227 0.88 -
ID=PSME_00019987     -            255 7277at3193           -            814     0.067   12.5  35.7   8   8         1     7e+02   -0.8   0.4   677   694   225   242   217   245 0.87 -
ID=PSME_00006356     -            207 7277at3193           -            814     0.074   12.4   0.5   1   1   0.00014     0.097   12.0   0.5   666   694   115   143   104   146 0.87 -
ID=PSME_00008465     -            211 7277at3193           -            814     0.076   12.4   0.4   1   1   0.00013     0.088   12.1   0.4   661   701    58    98    11   114 0.77 -
ID=PSME_00035380     -            329 7277at3193           -            814     0.077   12.3   0.1   1   1   0.00016      0.11   11.8   0.1   671   702   233   264   218   277 0.86 -
ID=PSME_00030262     -            276 7277at3193           -            814     0.085   12.2   0.5   1   1   0.00017      0.11   11.8   0.5   631   704   198   270   179   274 0.67 -
ID=PSME_00056910     -            117 7277at3193           -            814     0.088   12.1   0.1   1   1   0.00016      0.11   11.8   0.1   672   694    11    33     2    39 0.82 -
ID=PSME_00056396     -            134 7277at3193           -            814     0.088   12.1   0.3   1   2   0.00013     0.088   12.1   0.3   672   702     3    33     1    40 0.88 -
ID=PSME_00056396     -            134 7277at3193           -            814     0.088   12.1   0.3   2   2         6   4.1e+03   -3.3   0.0   392   413    96   118    80   122 0.70 -
ID=PSME_00040156     -            327 7277at3193           -            814     0.093   12.0   0.1   1   1   0.00019      0.13   11.5   0.1   672   702   122   152   108   160 0.88 -
ID=PSME_00039564     -            168 7277at3193           -            814     0.094   12.0   0.2   1   1   0.00015       0.1   11.9   0.2   671   715    54    98    22   114 0.83 -
ID=PSME_00009816     -            138 7277at3193           -            814     0.095   12.0   0.5   1   2   0.00014     0.095   12.0   0.5   672   702     3    33     1    45 0.87 -
ID=PSME_00009816     -            138 7277at3193           -            814     0.095   12.0   0.5   2   2       3.8   2.6e+03   -2.7   0.0   386   414    85   114    73   119 0.71 -
ID=PSME_00054620     -            462 7277at3193           -            814       0.1   11.9   0.1   1   1   0.00021      0.14   11.4   0.1   672   702   243   273   220   281 0.90 -
ID=PSME_00034330     -            379 7277at3193           -            814       0.1   11.9   0.0   1   1    0.0002      0.14   11.5   0.0   659   694    54    90    38    95 0.76 -
ID=PSME_00041015     -            117 7277at3193           -            814       0.1   11.9   0.1   1   1   0.00019      0.13   11.6   0.1   672   694    11    33     2    38 0.83 -
ID=PSME_00054552     -            274 7277at3193           -            814       0.1   11.9   0.1   1   1   0.00021      0.14   11.4   0.1   671   694   168   191   156   196 0.78 -
ID=PSME_00056445     -            117 7277at3193           -            814      0.11   11.8   5.7   1   3    0.0018       1.2    8.3   0.4   677   695     7    25     2    27 0.88 -
ID=PSME_00056445     -            117 7277at3193           -            814      0.11   11.8   5.7   2   3     0.022        15    4.8   0.0   678   697    27    46    24    49 0.88 -
ID=PSME_00056445     -            117 7277at3193           -            814      0.11   11.8   5.7   3   3      0.33   2.3e+02    0.8   0.1   677   694    87   104    83   107 0.88 -
ID=PSME_00028209     -            249 7277at3193           -            814      0.11   11.8   0.0   1   1   0.00023      0.16   11.3   0.0   662   694    12    43     7    48 0.78 -
ID=PSME_00038207     -            241 7277at3193           -            814      0.11   11.7   0.1   1   1   0.00023      0.16   11.3   0.1   671   702   123   154   111   162 0.87 -
ID=PSME_00057140     -            130 7277at3193           -            814      0.12   11.7   0.1   1   1   0.00022      0.15   11.4   0.1   672   694    11    33     2    38 0.83 -
ID=PSME_00056512     -            250 7277at3193           -            814      0.13   11.6   1.1   1   1   0.00024      0.17   11.2   1.1   633   700    83   149    63   164 0.65 -
ID=PSME_00007415     -            130 7277at3193           -            814      0.13   11.6   0.2   1   1   0.00024      0.16   11.3   0.2   673   703    46    76    38   105 0.82 -
ID=PSME_00014690     -            583 7277at3193           -            814      0.14   11.5   0.2   1   1    0.0003      0.21   10.9   0.2   672   705   273   306   268   316 0.89 -
ID=PSME_00018360     -            116 7277at3193           -            814      0.14   11.5   0.1   1   1   0.00026      0.18   11.1   0.1   672   694    11    33     2    38 0.83 -
ID=PSME_00046599     -            290 7277at3193           -            814      0.14   11.4   0.1   1   1   0.00031      0.21   10.9   0.1   672   702   113   143   100   156 0.87 -
ID=PSME_00036990     -            471 7277at3193           -            814      0.15   11.3   0.2   1   1   0.00037      0.26   10.6   0.2   672   702   263   293   248   305 0.85 -
ID=PSME_00027049     -            283 7277at3193           -            814      0.16   11.3   0.2   1   1   0.00034      0.23   10.7   0.2   672   702    82   112    77   118 0.88 -
ID=PSME_00056525     -            297 7277at3193           -            814      0.17   11.2   0.2   1   1   0.00039      0.27   10.5   0.2   672   701   122   151   117   157 0.88 -
ID=PSME_00009515     -            176 7277at3193           -            814       0.2   11.0   0.4   1   1   0.00033      0.23   10.8   0.4   663   700    38    75     7   103 0.78 -
ID=PSME_00024624     -            311 7277at3193           -            814      0.21   10.9   0.2   1   1    0.0005      0.34   10.2   0.2   672   702    73   103    67   109 0.88 -
ID=PSME_00008795     -            247 7277at3193           -            814      0.21   10.9   0.0   1   1    0.0004      0.28   10.5   0.0   662   699   111   148    97   167 0.84 -
ID=PSME_00031445     -            360 7277at3193           -            814      0.21   10.9   0.3   1   1   0.00044       0.3   10.4   0.3   671   702   242   273   235   279 0.88 -
ID=PSME_00002626     -            311 7277at3193           -            814      0.22   10.8   0.1   1   1   0.00052      0.35   10.1   0.1   671   694    23    46    12    51 0.78 -
ID=PSME_00049606     -            215 7277at3193           -            814      0.23   10.7   0.1   1   1   0.00045      0.31   10.3   0.1   672   694    11    33     2    38 0.84 -
ID=PSME_00056308     -            201 7277at3193           -            814      0.24   10.7   0.2   1   1    0.0004      0.28   10.5   0.2   662   700   105   143    56   164 0.67 -
ID=PSME_00045594     -            311 7277at3193           -            814      0.25   10.6   0.1   1   1    0.0005      0.35   10.2   0.1   671   694    87   110    74   115 0.78 -
ID=PSME_00021878     -            262 7277at3193           -            814      0.26   10.6   0.1   1   1   0.00052      0.36   10.1   0.1   671   694    20    43     9    48 0.77 -
ID=PSME_00031207     -            710 7277at3193           -            814      0.26   10.6   0.1   1   1   0.00054      0.37   10.1   0.1   672   703   113   144   100   158 0.85 -
ID=PSME_00007022     -            468 7277at3193           -            814      0.27   10.5   0.1   1   1   0.00057      0.39   10.0   0.1   672   702   243   273   224   279 0.90 -
ID=PSME_00009218     -            117 7277at3193           -            814      0.27   10.5   0.1   1   1    0.0005      0.34   10.2   0.1   672   694    11    33     2    37 0.82 -
ID=PSME_00049603     -            232 7277at3193           -            814      0.29   10.4   0.1   1   1   0.00056      0.38   10.0   0.1   672   694    11    33     2    37 0.83 -
ID=PSME_00051619     -            418 7277at3193           -            814      0.29   10.4   0.2   1   1   0.00062      0.42    9.9   0.2   672   702   243   273   238   281 0.88 -
ID=PSME_00043154     -            443 7277at3193           -            814       0.3   10.3   0.2   1   1   0.00066      0.45    9.8   0.2   672   702   243   273   238   279 0.88 -
ID=PSME_00037179     -            239 7277at3193           -            814      0.31   10.3   0.2   1   1   0.00065      0.45    9.8   0.2   672   702   122   152   117   161 0.87 -
ID=PSME_00007420     -            451 7277at3193           -            814      0.31   10.3   0.2   1   1   0.00067      0.46    9.8   0.2   672   702   243   273   238   279 0.88 -
ID=PSME_00056823     -            185 7277at3193           -            814      0.32   10.3   0.1   1   1   0.00061      0.42    9.9   0.1   672   694    11    33     2    38 0.83 -
ID=PSME_00007618     -            346 7277at3193           -            814      0.33   10.2   0.2   1   1   0.00069      0.47    9.7   0.2   672   700    84   112    79   119 0.86 -
ID=PSME_00055784     -            236 7277at3193           -            814      0.33   10.2   0.1   1   1   0.00063      0.43    9.9   0.1   662   694   121   152    96   157 0.75 -
ID=PSME_00037076     -            483 7277at3193           -            814      0.34   10.2   0.2   1   1   0.00073       0.5    9.6   0.2   672   702   243   273   238   279 0.88 -
ID=PSME_00040749     -            417 7277at3193           -            814      0.34   10.2   0.1   1   1   0.00075      0.51    9.6   0.1   672   702   243   273   237   285 0.88 -
ID=PSME_00016114     -            158 7277at3193           -            814      0.35   10.1   0.0   1   1   0.00065      0.45    9.8   0.0   671   694   112   135   100   140 0.78 -
ID=PSME_00036820     -            239 7277at3193           -            814      0.36   10.1   0.1   1   1   0.00073       0.5    9.6   0.1   672   694    11    33     2    38 0.82 -
ID=PSME_00010373     -            117 7277at3193           -            814      0.39   10.0   0.1   1   1   0.00071      0.49    9.7   0.1   679   694    18    33     3    38 0.85 -
ID=PSME_00056164     -            107 7277at3193           -            814      0.41    9.9   0.1   1   1   0.00062      0.43    9.9   0.1   671   703    39    71    19    87 0.84 -
ID=PSME_00024595     -            156 7277at3193           -            814      0.48    9.7   0.1   1   1   0.00091      0.62    9.3   0.1   672   694    11    33     2    38 0.80 -
ID=PSME_00004363     -            407 7277at3193           -            814      0.61    9.4   0.1   1   1    0.0013      0.91    8.8   0.1   672   702   159   189   153   197 0.87 -
ID=PSME_00043221     -            309 7277at3193           -            814      0.62    9.3   0.1   1   1    0.0012      0.84    8.9   0.1   671   694    16    39     4    44 0.79 -
ID=PSME_00051671     -            170 7277at3193           -            814      0.66    9.2   0.2   1   1    0.0013      0.89    8.8   0.2   672   694    11    33     2    38 0.83 -
ID=PSME_00018272     -            269 7277at3193           -            814      0.68    9.2   0.0   1   1    0.0014      0.97    8.7   0.0   671   694   162   185   149   190 0.80 -
ID=PSME_00012856     -            658 7277at3193           -            814         2    7.7   6.0   1   2      0.13        89    2.2   0.3   677   697   522   542   436   558 0.72 -
ID=PSME_00012856     -            658 7277at3193           -            814         2    7.7   6.0   2   2    0.0029         2    7.7   1.2   676   702   580   606   576   624 0.80 -
ID=PSME_00055847     -            218 7277at3193           -            814       2.4    7.4  29.3   1   7     0.016        11    5.2   0.2   668   695    37    64    10    66 0.81 -
ID=PSME_00055847     -            218 7277at3193           -            814       2.4    7.4  29.3   2   7     0.001      0.69    9.2   0.3   678   695    66    83    63    91 0.88 -
ID=PSME_00055847     -            218 7277at3193           -            814       2.4    7.4  29.3   3   7      0.07        48    3.1   1.4   678   695    92   109    87   115 0.87 -
ID=PSME_00055847     -            218 7277at3193           -            814       2.4    7.4  29.3   4   7     0.022        15    4.8   2.2   671   695   104   128    99   138 0.84 -
ID=PSME_00055847     -            218 7277at3193           -            814       2.4    7.4  29.3   5   7      0.11        76    2.4   1.9   674   695   126   147   122   175 0.69 -
ID=PSME_00055847     -            218 7277at3193           -            814       2.4    7.4  29.3   6   7     0.082        56    2.8   0.1   678   694   170   186   152   189 0.88 -
ID=PSME_00055847     -            218 7277at3193           -            814       2.4    7.4  29.3   7   7       1.1   7.3e+02   -0.8   0.4   678   694   189   205   185   209 0.89 -
#
# Program:         hmmsearch
# Version:         3.2.1 (June 2018)
# Pipeline mode:   SEARCH
# Query file:      /isg/shared/databases/BUSCO/odb10/embryophyta_odb10/hmms/7277at3193.hmm
# Target file:     /labs/Wegrzyn/ConiferGenomes/Psme/analysis/SURF_annotation/analyze_orig_maker/gfacs/filtered/maker_genes.fasta.faa
# Option settings: /usr/local/bin/hmmsearch --domtblout /labs/Wegrzyn/ConiferGenomes/Psme/analysis/SURF_annotation/analyze_orig_maker/busco/maker/run_embryophyta_odb10/hmmer_output/7277at3193.out --cpu 1 /isg/shared/databases/BUSCO/odb10/embryophyta_odb10/hmms/7277at3193.hmm /labs/Wegrzyn/ConiferGenomes/Psme/analysis/SURF_annotation/analyze_orig_maker/gfacs/filtered/maker_genes.fasta.faa 
# Current dir:     /labs/Wegrzyn/ConiferGenomes/Psme/analysis/SURF_annotation/analyze_orig_maker/busco
# Date:            Fri Jul 10 13:55:39 2020
# [ok]
