#                                                                            --- full sequence --- -------------- this domain -------------   hmm coord   ali coord   env coord
# target name        accession   tlen query name           accession   qlen   E-value  score  bias   #  of  c-Evalue  i-Evalue  score  bias  from    to  from    to  from    to  acc description of target
#------------------- ---------- ----- -------------------- ---------- ----- --------- ------ ----- --- --- --------- --------- ------ ----- ----- ----- ----- ----- ----- ----- ---- ---------------------
ID=PSME_00030435     -            327 74392at3193          -            370    3e-119  399.9   5.0   1   1  8.1e-123  2.2e-118  397.1   5.0   100   370     5   324     2   324 0.85 -
ID=PSME_00036653     -            380 74392at3193          -            370   1.1e-31  111.8   0.1   1   1   7.6e-36   2.1e-31  110.9   0.1    62   331    62   339    57   344 0.75 -
#
# Program:         hmmsearch
# Version:         3.2.1 (June 2018)
# Pipeline mode:   SEARCH
# Query file:      /isg/shared/databases/BUSCO/odb10/embryophyta_odb10/hmms/74392at3193.hmm
# Target file:     /labs/Wegrzyn/ConiferGenomes/Psme/analysis/SURF_annotation/analyze_orig_maker/gfacs/filtered/maker_genes.fasta.faa
# Option settings: /usr/local/bin/hmmsearch --domtblout /labs/Wegrzyn/ConiferGenomes/Psme/analysis/SURF_annotation/analyze_orig_maker/busco/maker/run_embryophyta_odb10/hmmer_output/74392at3193.out --cpu 1 /isg/shared/databases/BUSCO/odb10/embryophyta_odb10/hmms/74392at3193.hmm /labs/Wegrzyn/ConiferGenomes/Psme/analysis/SURF_annotation/analyze_orig_maker/gfacs/filtered/maker_genes.fasta.faa 
# Current dir:     /labs/Wegrzyn/ConiferGenomes/Psme/analysis/SURF_annotation/analyze_orig_maker/busco
# Date:            Fri Jul 10 13:57:21 2020
# [ok]
