#                                                                            --- full sequence --- -------------- this domain -------------   hmm coord   ali coord   env coord
# target name        accession   tlen query name           accession   qlen   E-value  score  bias   #  of  c-Evalue  i-Evalue  score  bias  from    to  from    to  from    to  acc description of target
#------------------- ---------- ----- -------------------- ---------- ----- --------- ------ ----- --- --- --------- --------- ------ ----- ----- ----- ----- ----- ----- ----- ---- ---------------------
ID=PSME_00039147     -            489 75889at3193          -            344  1.2e-105  354.8   0.3   1   1  1.2e-108  1.4e-105  354.5   0.3    33   343    97   428    72   429 0.88 -
ID=PSME_00010207     -            467 75889at3193          -            344  4.2e-105  353.0   0.1   1   1  4.2e-108  5.3e-105  352.6   0.1    31   341    90   421    66   424 0.85 -
ID=PSME_00043619     -            436 75889at3193          -            344   1.4e-83  282.2   1.0   1   1   1.4e-86   1.7e-83  281.9   1.0     8   343    58   416    54   417 0.85 -
ID=PSME_00032631     -            437 75889at3193          -            344   1.2e-80  272.5   0.3   1   1   1.3e-83   1.6e-80  272.1   0.3    35   299    85   357    80   366 0.90 -
ID=PSME_00004487     -            402 75889at3193          -            344   6.6e-74  250.4   0.3   1   1   7.3e-77   9.1e-74  249.9   0.3    55   299    94   345    82   354 0.89 -
ID=PSME_00002781     -            402 75889at3193          -            344   2.6e-70  238.6   1.5   1   1   2.9e-73   3.6e-70  238.1   1.5    33   299    49   323    44   330 0.88 -
ID=PSME_00021241     -            307 75889at3193          -            344   7.2e-64  217.4   1.1   1   1   7.7e-67   9.6e-64  217.0   1.1    35   282    44   290    38   296 0.88 -
ID=PSME_00017000     -            277 75889at3193          -            344   1.7e-61  209.6   2.1   1   1   1.4e-62   1.7e-59  203.0   2.1    36   277    44   276    31   277 0.90 -
ID=PSME_00028988     -            431 75889at3193          -            344   3.5e-60  205.3   0.3   1   1   3.8e-63   4.7e-60  204.8   0.3    82   342   134   410   125   412 0.87 -
ID=PSME_00019381     -            352 75889at3193          -            344   5.4e-59  201.4   3.4   1   2   2.3e-14   2.9e-11   44.4   0.2    70   111    29    73    20    80 0.87 -
ID=PSME_00019381     -            352 75889at3193          -            344   5.4e-59  201.4   3.4   2   2   6.1e-49   7.6e-46  158.1   0.3   157   343    80   274    74   275 0.83 -
ID=PSME_00031384     -            254 75889at3193          -            344   4.8e-55  188.4   0.2   1   1   5.3e-58   6.5e-55  187.9   0.2   105   274    84   247    78   254 0.89 -
ID=PSME_00022153     -            394 75889at3193          -            344   1.6e-53  183.4   4.2   1   3   1.4e-27   1.7e-24   87.9   0.1    35   135    45   153    39   156 0.81 -
ID=PSME_00022153     -            394 75889at3193          -            344   1.6e-53  183.4   4.2   2   3   3.1e-13   3.9e-10   40.7   0.2   157   219   154   216   152   218 0.87 -
ID=PSME_00022153     -            394 75889at3193          -            344   1.6e-53  183.4   4.2   3   3   4.2e-18   5.2e-15   56.7   0.0   242   343   218   335   213   336 0.80 -
ID=PSME_00049509     -            322 75889at3193          -            344   2.7e-52  179.3   0.4   1   1   3.7e-55   4.6e-52  178.6   0.3   128   299   146   317   139   320 0.94 -
ID=PSME_00051465     -            266 75889at3193          -            344     8e-51  174.5   0.2   1   1     8e-54     1e-50  174.2   0.2    55   254    52   264    35   266 0.82 -
ID=PSME_00005994     -            236 75889at3193          -            344   2.6e-50  172.8   0.1   1   1   2.7e-53   3.4e-50  172.4   0.1    94   243    87   235    80   235 0.96 -
ID=PSME_00032275     -            398 75889at3193          -            344   5.5e-50  171.7   1.4   1   3   3.4e-25   4.2e-22   80.0   0.2    63   137    87   164    54   166 0.81 -
ID=PSME_00032275     -            398 75889at3193          -            344   5.5e-50  171.7   1.4   2   3   4.4e-24   5.5e-21   76.4   0.1   157   254   163   259   162   262 0.92 -
ID=PSME_00032275     -            398 75889at3193          -            344   5.5e-50  171.7   1.4   3   3   2.1e-05     0.026   15.0   0.0   281   342   261   336   258   338 0.70 -
ID=PSME_00041706     -            270 75889at3193          -            344   5.3e-45  155.3   3.6   1   3     1e-20   1.3e-17   65.3   0.1    65   123    32    93    26    95 0.89 -
ID=PSME_00041706     -            270 75889at3193          -            344   5.3e-45  155.3   3.6   2   3   1.1e-28   1.4e-25   91.5   0.5   172   260    91   178    89   184 0.91 -
ID=PSME_00041706     -            270 75889at3193          -            344   5.3e-45  155.3   3.6   3   3       2.1   2.6e+03   -1.5   0.0   319   343   195   222   184   223 0.67 -
ID=PSME_00036387     -            326 75889at3193          -            344   2.5e-42  146.5   1.8   1   3   5.1e-10   6.3e-07   30.1   0.1    35   100    45   118    39   120 0.78 -
ID=PSME_00036387     -            326 75889at3193          -            344   2.5e-42  146.5   1.8   2   3     1e-26   1.3e-23   85.1   0.3   153   237   120   203   117   206 0.89 -
ID=PSME_00036387     -            326 75889at3193          -            344   2.5e-42  146.5   1.8   3   3   4.8e-10     6e-07   30.2   0.0   264   320   206   259   204   289 0.72 -
ID=PSME_00039791     -            459 75889at3193          -            344   2.1e-40  140.2   0.3   1   1   2.4e-43     3e-40  139.7   0.3    81   223   162   304   147   310 0.92 -
ID=PSME_00029961     -            122 75889at3193          -            344   2.1e-39  136.9   0.1   1   1   1.8e-42   2.3e-39  136.8   0.1   126   247     1   121     1   121 0.96 -
ID=PSME_00005800     -            139 75889at3193          -            344   9.2e-38  131.5   0.1   1   1   8.4e-41     1e-37  131.4   0.1   131   243    27   138    12   138 0.95 -
ID=PSME_00032839     -            484 75889at3193          -            344   3.3e-32  113.3   0.0   1   1     4e-35   4.9e-32  112.7   0.0    99   241   202   343   190   346 0.91 -
ID=PSME_00037158     -            391 75889at3193          -            344   6.3e-32  112.4   8.2   1   3   3.6e-08   4.4e-05   24.1   0.1    81   109   116   145    99   155 0.86 -
ID=PSME_00037158     -            391 75889at3193          -            344   6.3e-32  112.4   8.2   2   3   7.9e-29   9.9e-26   92.0   0.7   150   241   161   251   147   254 0.89 -
ID=PSME_00037158     -            391 75889at3193          -            344   6.3e-32  112.4   8.2   3   3       1.8   2.2e+03   -1.2   0.1   283   293   277   287   273   291 0.91 -
ID=PSME_00010707     -            348 75889at3193          -            344     1e-30  108.4   0.2   1   2   1.1e-06    0.0013   19.2   0.1    34    97    52   121    37   128 0.68 -
ID=PSME_00010707     -            348 75889at3193          -            344     1e-30  108.4   0.2   2   2   2.1e-27   2.6e-24   87.3   0.0   222   343   170   301   138   302 0.83 -
ID=PSME_00002429     -            172 75889at3193          -            344   1.6e-29  104.4   1.5   1   2   2.9e-32   3.6e-29  103.3   0.5   177   281     3   104     1   114 0.92 -
ID=PSME_00002429     -            172 75889at3193          -            344   1.6e-29  104.4   1.5   2   2      0.75   9.3e+02   -0.0   0.0   319   343   120   147   109   148 0.66 -
ID=PSME_00028687     -            512 75889at3193          -            344   9.1e-29  102.0   6.3   1   2   7.8e-21   9.7e-18   65.7   4.0    35   205   173   339   167   345 0.77 -
ID=PSME_00028687     -            512 75889at3193          -            344   9.1e-29  102.0   6.3   2   2   8.1e-11     1e-07   32.8   0.0   256   342   389   491   385   493 0.78 -
ID=PSME_00016195     -            307 75889at3193          -            344   2.3e-28  100.7   0.8   1   2   7.9e-31   9.8e-28   98.6   0.2   165   272    81   188    64   197 0.90 -
ID=PSME_00016195     -            307 75889at3193          -            344   2.3e-28  100.7   0.8   2   2       0.4     5e+02    0.9   0.0   301   342   193   245   188   247 0.62 -
ID=PSME_00040195     -            398 75889at3193          -            344     2e-27   97.6   0.3   1   1   2.4e-30   2.9e-27   97.0   0.3    81   241   103   258    91   261 0.88 -
ID=PSME_00019186     -            532 75889at3193          -            344   2.1e-23   84.3   0.0   1   1   2.3e-26   2.9e-23   83.9   0.0    65   136   122   196   110   205 0.87 -
ID=PSME_00021007     -            151 75889at3193          -            344   2.6e-22   80.8   0.2   1   2   6.7e-19   8.3e-16   59.3   0.1    71   123     9    64     3    66 0.90 -
ID=PSME_00021007     -            151 75889at3193          -            344   2.6e-22   80.8   0.2   2   2   4.9e-07   0.00061   20.3   0.0   239   280    66   107    64   112 0.94 -
ID=PSME_00028958     -            417 75889at3193          -            344   9.7e-19   69.0   0.4   1   1   1.2e-21   1.5e-18   68.4   0.4    31   223    69   262    49   269 0.81 -
ID=PSME_00041439     -             68 75889at3193          -            344   9.9e-19   69.0   0.2   1   1     9e-22   1.1e-18   68.8   0.2    65   122     6    66     3    67 0.90 -
ID=PSME_00038592     -            191 75889at3193          -            344   2.6e-18   67.6   0.3   1   2   8.3e-19     1e-15   59.0   0.1   172   254     2    83     1    85 0.91 -
ID=PSME_00038592     -            191 75889at3193          -            344   2.6e-18   67.6   0.3   2   2    0.0048       5.9    7.2   0.0   282   330    86   133    83   141 0.80 -
ID=PSME_00052970     -             67 75889at3193          -            344   3.4e-18   67.2   0.1   1   1   2.8e-21   3.5e-18   67.2   0.1    65   122     5    65     1    66 0.89 -
ID=PSME_00043519     -            144 75889at3193          -            344   5.2e-18   66.6   0.6   1   2   8.4e-21     1e-17   65.6   0.4   172   241     2    71     1    76 0.92 -
ID=PSME_00043519     -            144 75889at3193          -            344   5.2e-18   66.6   0.6   2   2         3   3.7e+03   -2.0   0.0   319   342   101   127    86   129 0.50 -
ID=PSME_00036297     -             78 75889at3193          -            344   1.6e-16   61.7   0.2   1   1   1.3e-19   1.7e-16   61.6   0.2    60   122    11    76     2    77 0.87 -
ID=PSME_00009024     -            124 75889at3193          -            344   5.6e-16   59.9   2.2   1   2   2.4e-13     3e-10   41.1   1.2   161   211     1    52     1    56 0.87 -
ID=PSME_00009024     -            124 75889at3193          -            344   5.6e-16   59.9   2.2   2   2   1.6e-06    0.0019   18.7   0.0   282   336    56   121    51   123 0.71 -
ID=PSME_00051622     -            164 75889at3193          -            344   7.1e-16   59.6   0.0   1   1   6.6e-19   8.2e-16   59.4   0.0   123   179   107   162    67   163 0.88 -
ID=PSME_00031611     -            169 75889at3193          -            344   1.3e-13   52.1   0.2   1   1     2e-16   2.4e-13   51.2   0.1    68   111    33    79    26    88 0.87 -
ID=PSME_00023054     -            162 75889at3193          -            344   2.9e-13   51.0   3.3   1   2   4.4e-10   5.5e-07   30.3   0.5    33   100    52   127    26   132 0.74 -
ID=PSME_00023054     -            162 75889at3193          -            344   2.9e-13   51.0   3.3   2   2   1.5e-07   0.00019   22.0   0.1   156   185   131   161   127   161 0.88 -
ID=PSME_00020726     -            153 75889at3193          -            344   6.9e-10   39.9   0.1   1   1   8.4e-13     1e-09   39.3   0.1    65   107    80   125    75   132 0.87 -
ID=PSME_00051519     -             96 75889at3193          -            344   4.5e-07   30.6   0.0   1   1     4e-10     5e-07   30.5   0.0    91   122    63    94    45    95 0.89 -
ID=PSME_00025036     -             79 75889at3193          -            344      0.05   14.0   0.0   1   1   4.3e-05     0.054   13.9   0.0   124   148     3    27     1    48 0.78 -
ID=PSME_00011773     -            169 75889at3193          -            344      0.14   12.6   0.8   1   2   0.00045      0.56   10.6   0.2    65    90    25    52    14    60 0.82 -
ID=PSME_00011773     -            169 75889at3193          -            344      0.14   12.6   0.8   2   2      0.54   6.7e+02    0.5   0.0   313   342    72   107    55   109 0.64 -
#
# Program:         hmmsearch
# Version:         3.2.1 (June 2018)
# Pipeline mode:   SEARCH
# Query file:      /isg/shared/databases/BUSCO/odb10/embryophyta_odb10/hmms/75889at3193.hmm
# Target file:     /labs/Wegrzyn/ConiferGenomes/Psme/analysis/SURF_annotation/analyze_orig_maker/gfacs/filtered/maker_genes.fasta.faa
# Option settings: /usr/local/bin/hmmsearch --domtblout /labs/Wegrzyn/ConiferGenomes/Psme/analysis/SURF_annotation/analyze_orig_maker/busco/maker/run_embryophyta_odb10/hmmer_output/75889at3193.out --cpu 1 /isg/shared/databases/BUSCO/odb10/embryophyta_odb10/hmms/75889at3193.hmm /labs/Wegrzyn/ConiferGenomes/Psme/analysis/SURF_annotation/analyze_orig_maker/gfacs/filtered/maker_genes.fasta.faa 
# Current dir:     /labs/Wegrzyn/ConiferGenomes/Psme/analysis/SURF_annotation/analyze_orig_maker/busco
# Date:            Fri Jul 10 13:57:22 2020
# [ok]
