#                                                                            --- full sequence --- -------------- this domain -------------   hmm coord   ali coord   env coord
# target name        accession   tlen query name           accession   qlen   E-value  score  bias   #  of  c-Evalue  i-Evalue  score  bias  from    to  from    to  from    to  acc description of target
#------------------- ---------- ----- -------------------- ---------- ----- --------- ------ ----- --- --- --------- --------- ------ ----- ----- ----- ----- ----- ----- ----- ---- ---------------------
ID=PSME_00035610     -            392 75948at3193          -            329   3.4e-66  225.3   5.4   1   2   3.3e-15   8.9e-13   49.7   0.0     1    39     1    40     1    56 0.90 -
ID=PSME_00035610     -            392 75948at3193          -            329   3.4e-66  225.3   5.4   2   2   2.5e-52   6.8e-50  171.7   3.8    42   176   251   383   246   391 0.88 -
ID=PSME_00011504     -            954 75948at3193          -            329   2.3e-29  104.2   3.2   1   2   6.4e-25   1.7e-22   81.6   2.1    50   242    33   239    12   249 0.78 -
ID=PSME_00011504     -            954 75948at3193          -            329   2.3e-29  104.2   3.2   2   2   1.8e-05    0.0048   17.7   0.0   251   319   275   344   267   349 0.87 -
ID=PSME_00027590     -            318 75948at3193          -            329   4.4e-26   93.5   7.0   1   3   1.4e-12   3.7e-10   41.1   0.1    41   142    15   123     1   125 0.83 -
ID=PSME_00027590     -            318 75948at3193          -            329   4.4e-26   93.5   7.0   2   3   1.3e-06   0.00036   21.4   0.1   101   157   124   181   121   187 0.89 -
ID=PSME_00027590     -            318 75948at3193          -            329   4.4e-26   93.5   7.0   3   3   1.4e-10   3.8e-08   34.5   0.2    49   159   196   315   186   317 0.78 -
ID=PSME_00016646     -            363 75948at3193          -            329   1.1e-22   82.3   1.4   1   2     6e-12   1.6e-09   39.0   0.1    48   154    72   180    58   187 0.87 -
ID=PSME_00016646     -            363 75948at3193          -            329   1.1e-22   82.3   1.4   2   2   2.4e-14   6.5e-12   46.9   0.3    13   160   156   321   153   329 0.81 -
ID=PSME_00009687     -            655 75948at3193          -            329   1.2e-21   78.9   3.8   1   2   2.1e-15   5.6e-13   50.4   0.5    26   158    72   213    62   222 0.87 -
ID=PSME_00009687     -            655 75948at3193          -            329   1.2e-21   78.9   3.8   2   2   1.1e-08     3e-06   28.3   0.2    14   158   356   510   347   533 0.76 -
ID=PSME_00004313     -            429 75948at3193          -            329   2.2e-21   78.0   1.3   1   2   3.3e-15   9.1e-13   49.7   0.3    46   196    64   220    45   221 0.83 -
ID=PSME_00004313     -            429 75948at3193          -            329   2.2e-21   78.0   1.3   2   2   1.1e-09     3e-07   31.5   0.1    76   160   195   290   186   298 0.81 -
ID=PSME_00005685     -            234 75948at3193          -            329   3.9e-21   77.2   2.3   1   2   2.3e-16   6.2e-14   53.5   0.2    36   142    12   121     3   123 0.85 -
ID=PSME_00005685     -            234 75948at3193          -            329   3.9e-21   77.2   2.3   2   2   3.3e-07     9e-05   23.4   0.1   101   157   122   179   119   217 0.88 -
ID=PSME_00013038     -            683 75948at3193          -            329   3.8e-20   73.9   2.7   1   3   3.2e-05    0.0087   16.9   0.1    53   141    61   156    49   190 0.70 -
ID=PSME_00013038     -            683 75948at3193          -            329   3.8e-20   73.9   2.7   2   3   0.00014     0.038   14.8   0.0    49   121   197   275   189   293 0.78 -
ID=PSME_00013038     -            683 75948at3193          -            329   3.8e-20   73.9   2.7   3   3   1.9e-12   5.1e-10   40.7   0.1    50   156   502   614   446   616 0.86 -
ID=PSME_00016647     -            283 75948at3193          -            329   1.1e-19   72.5   3.2   1   3     0.004       1.1   10.0   0.0   114   157    15    58     5    80 0.58 -
ID=PSME_00016647     -            283 75948at3193          -            329   1.1e-19   72.5   3.2   2   3   9.2e-13   2.5e-10   41.7   0.3    49   155    89   197    75   209 0.85 -
ID=PSME_00016647     -            283 75948at3193          -            329   1.1e-19   72.5   3.2   3   3     2e-08   5.5e-06   27.4   0.3    88   163   171   247   170   268 0.50 -
ID=PSME_00003170     -            812 75948at3193          -            329   2.2e-17   64.9   1.2   1   2   2.7e-13   7.3e-11   43.4   0.8    21   158    27   173    14   185 0.81 -
ID=PSME_00003170     -            812 75948at3193          -            329   2.2e-17   64.9   1.2   2   2   2.2e-05    0.0059   17.4   0.0    15   117   188   297   176   317 0.70 -
ID=PSME_00040762     -            835 75948at3193          -            329   4.5e-17   63.8   0.2   1   2   1.9e-08   5.2e-06   27.5   0.1    56   156   405   508   399   515 0.91 -
ID=PSME_00040762     -            835 75948at3193          -            329   4.5e-17   63.8   0.2   2   2   4.6e-11   1.3e-08   36.1   0.0    30   152   499   631   496   639 0.80 -
ID=PSME_00007745     -            817 75948at3193          -            329   2.2e-16   61.6   4.6   1   3   1.4e-09   3.7e-07   31.3   0.3    21   119    43   149    30   152 0.80 -
ID=PSME_00007745     -            817 75948at3193          -            329   2.2e-16   61.6   4.6   2   3   8.1e-08   2.2e-05   25.4   0.1    17   127   122   199   114   206 0.54 -
ID=PSME_00007745     -            817 75948at3193          -            329   2.2e-16   61.6   4.6   3   3   1.8e-05    0.0049   17.7   0.1    15   101   204   289   195   318 0.64 -
ID=PSME_00015328     -            220 75948at3193          -            329   4.3e-16   60.6   3.1   1   2   8.7e-10   2.4e-07   31.9   1.0    81   166    48   137    17   148 0.76 -
ID=PSME_00015328     -            220 75948at3193          -            329   4.3e-16   60.6   3.1   2   2   1.2e-08   3.2e-06   28.2   0.0    85   158   138   215   135   219 0.81 -
ID=PSME_00024193     -           1216 75948at3193          -            329     8e-15   56.4   7.0   1   2   1.6e-10   4.3e-08   34.3   0.7    51   157    53   163     9   186 0.86 -
ID=PSME_00024193     -           1216 75948at3193          -            329     8e-15   56.4   7.0   2   2   1.5e-07   4.1e-05   24.5   0.1    50   128   205   288   193   334 0.79 -
ID=PSME_00054687     -            317 75948at3193          -            329   9.8e-15   56.2   3.3   1   3      0.01       2.8    8.6   0.0   101   137    29    70    11    75 0.82 -
ID=PSME_00054687     -            317 75948at3193          -            329   9.8e-15   56.2   3.3   2   3   1.6e-09   4.3e-07   31.1   0.3    57   159    71   182    69   192 0.81 -
ID=PSME_00054687     -            317 75948at3193          -            329   9.8e-15   56.2   3.3   3   3   4.6e-06    0.0013   19.6   0.4    31   122   171   268   166   291 0.82 -
ID=PSME_00016934     -            396 75948at3193          -            329     2e-14   55.1   7.3   1   4   1.4e-07   3.7e-05   24.7   0.2    47   129    23   111     3   124 0.76 -
ID=PSME_00016934     -            396 75948at3193          -            329     2e-14   55.1   7.3   2   4       2.1   5.7e+02    1.0   0.0   101   118   125   142   112   155 0.83 -
ID=PSME_00016934     -            396 75948at3193          -            329     2e-14   55.1   7.3   3   4     0.054        15    6.3   0.3    28   119   128   225   121   246 0.76 -
ID=PSME_00016934     -            396 75948at3193          -            329     2e-14   55.1   7.3   4   4   3.7e-08     1e-05   26.5   0.1    98   159   250   313   226   329 0.87 -
ID=PSME_00044539     -            487 75948at3193          -            329   2.3e-14   54.9   0.5   1   2   1.8e-13   4.8e-11   44.0   0.2    20   158    18   165    11   175 0.85 -
ID=PSME_00044539     -            487 75948at3193          -            329   2.3e-14   54.9   0.5   2   2     0.066        18    6.0   0.0    79   128   336   385   332   394 0.88 -
ID=PSME_00014235     -            413 75948at3193          -            329   2.4e-14   54.9   3.9   1   5      0.41   1.1e+02    3.4   0.0    97   130     4    42     2    44 0.73 -
ID=PSME_00014235     -            413 75948at3193          -            329   2.4e-14   54.9   3.9   2   5   1.2e-13   3.3e-11   44.5   1.0    28   158    16   155    12   161 0.84 -
ID=PSME_00014235     -            413 75948at3193          -            329   2.4e-14   54.9   3.9   3   5      0.21        58    4.3   0.0    81   128   268   315   262   343 0.89 -
ID=PSME_00014235     -            413 75948at3193          -            329   2.4e-14   54.9   3.9   4   5       6.1   1.7e+03   -0.5   0.0   101   134   328   361   324   382 0.78 -
ID=PSME_00014235     -            413 75948at3193          -            329   2.4e-14   54.9   3.9   5   5       1.3   3.6e+02    1.7   0.0    26    41   371   386   366   395 0.81 -
ID=PSME_00011743     -            275 75948at3193          -            329   7.6e-14   53.2   1.2   1   2   1.1e-12   3.1e-10   41.4   0.8    52   160    40   152    29   167 0.86 -
ID=PSME_00011743     -            275 75948at3193          -            329   7.6e-14   53.2   1.2   2   2    0.0039         1   10.0   0.0    54    95   168   211   162   218 0.66 -
ID=PSME_00012603     -            332 75948at3193          -            329   1.9e-13   52.0   0.1   1   3    0.0073         2    9.1   0.0    83   130    74   122    69   126 0.86 -
ID=PSME_00012603     -            332 75948at3193          -            329   1.9e-13   52.0   0.1   2   3   7.4e-14     2e-11   45.3   0.5    27   158    95   235    94   242 0.86 -
ID=PSME_00012603     -            332 75948at3193          -            329   1.9e-13   52.0   0.1   3   3       5.9   1.6e+03   -0.4   0.0     7    50   275   319   272   323 0.79 -
ID=PSME_00048532     -            614 75948at3193          -            329   5.3e-13   50.5   3.0   1   3   2.2e-12   5.9e-10   40.4   0.5    24   158   164   307   158   318 0.86 -
ID=PSME_00048532     -            614 75948at3193          -            329   5.3e-13   50.5   3.0   2   3      0.29        78    3.9   0.0    79   127   486   534   480   542 0.86 -
ID=PSME_00048532     -            614 75948at3193          -            329   5.3e-13   50.5   3.0   3   3       2.1   5.8e+02    1.0   0.0    25    41   590   606   580   612 0.83 -
ID=PSME_00000602     -            950 75948at3193          -            329   1.3e-12   49.2   4.1   1   3   8.7e-08   2.4e-05   25.3   0.4    84   160   532   610   525   618 0.69 -
ID=PSME_00000602     -            950 75948at3193          -            329   1.3e-12   49.2   4.1   2   3   1.1e-06   0.00031   21.6   0.0    48   151   621   726   613   744 0.76 -
ID=PSME_00000602     -            950 75948at3193          -            329   1.3e-12   49.2   4.1   3   3      0.92   2.5e+02    2.2   0.0    11    77   743   814   733   814 0.68 -
ID=PSME_00020924     -            249 75948at3193          -            329     2e-12   48.6   0.5   1   2   1.5e-05     0.004   18.0   0.0   123   201    28   109    21   118 0.76 -
ID=PSME_00020924     -            249 75948at3193          -            329     2e-12   48.6   0.5   2   2   9.9e-11   2.7e-08   35.0   0.9    46   172    89   224    81   240 0.83 -
ID=PSME_00014453     -            610 75948at3193          -            329   4.7e-12   47.3   6.3   1   4      0.23        63    4.2   0.0    97   154    78   136    46   149 0.85 -
ID=PSME_00014453     -            610 75948at3193          -            329   4.7e-12   47.3   6.3   2   4   2.8e-06   0.00075   20.4   0.6    25   118   153   256   146   264 0.78 -
ID=PSME_00014453     -            610 75948at3193          -            329   4.7e-12   47.3   6.3   3   4   0.00024     0.066   14.0   0.1    82   156   411   490   391   496 0.84 -
ID=PSME_00014453     -            610 75948at3193          -            329   4.7e-12   47.3   6.3   4   4   0.00024     0.064   14.0   0.1    26   127   477   585   467   592 0.73 -
ID=PSME_00051512     -           1207 75948at3193          -            329   2.7e-11   44.9  11.8   1   2   1.4e-08   3.9e-06   27.9   2.0    49   157    51   163     7   174 0.78 -
ID=PSME_00051512     -           1207 75948at3193          -            329   2.7e-11   44.9  11.8   2   2   7.7e-07   0.00021   22.2   0.9    48   131   203   292   175   333 0.76 -
ID=PSME_00019641     -            306 75948at3193          -            329   9.5e-11   43.1   0.5   1   4   0.00074       0.2   12.4   0.2    92   158     2    70     1    76 0.84 -
ID=PSME_00019641     -            306 75948at3193          -            329   9.5e-11   43.1   0.5   2   4   0.00056      0.15   12.8   0.0    57   124    49   127    49   134 0.72 -
ID=PSME_00019641     -            306 75948at3193          -            329   9.5e-11   43.1   0.5   3   4    0.0016      0.43   11.3   0.0    88   160   137   213   132   223 0.78 -
ID=PSME_00019641     -            306 75948at3193          -            329   9.5e-11   43.1   0.5   4   4      0.16        44    4.7   0.0    51    87   231   268   225   273 0.82 -
ID=PSME_00019621     -            240 75948at3193          -            329   1.8e-10   42.1   1.3   1   2   4.7e-08   1.3e-05   26.2   0.8    41   131    40   141    15   153 0.72 -
ID=PSME_00019621     -            240 75948at3193          -            329   1.8e-10   42.1   1.3   2   2   2.7e-06   0.00072   20.4   0.1    25   120   109   215   106   231 0.76 -
ID=PSME_00007492     -           1061 75948at3193          -            329   2.7e-10   41.5   9.1   1   4   1.2e-06   0.00031   21.6   0.4    62   159   311   412   305   423 0.83 -
ID=PSME_00007492     -           1061 75948at3193          -            329   2.7e-10   41.5   9.1   2   4   1.9e-06   0.00053   20.9   1.1    62   157   724   823   715   829 0.81 -
ID=PSME_00007492     -           1061 75948at3193          -            329   2.7e-10   41.5   9.1   3   4     0.038        10    6.8   0.0    99   124   806   831   799   889 0.82 -
ID=PSME_00007492     -           1061 75948at3193          -            329   2.7e-10   41.5   9.1   4   4       2.2     6e+02    1.0   0.0    26   125   856   953   836   980 0.73 -
ID=PSME_00016635     -            729 75948at3193          -            329   4.7e-10   40.8   0.3   1   2   8.2e-08   2.2e-05   25.4   0.0    11   127   144   269   137   273 0.79 -
ID=PSME_00016635     -            729 75948at3193          -            329   4.7e-10   40.8   0.3   2   2   0.00051      0.14   12.9   0.0    48   142   279   374   268   381 0.79 -
ID=PSME_00016314     -            482 75948at3193          -            329   5.1e-10   40.7   0.6   1   2   2.1e-05    0.0058   17.5   0.0    48   119   206   280   176   292 0.78 -
ID=PSME_00016314     -            482 75948at3193          -            329   5.1e-10   40.7   0.6   2   2   6.7e-08   1.8e-05   25.7   0.2    26   151   263   396   262   404 0.76 -
ID=PSME_00005268     -            284 75948at3193          -            329   5.8e-10   40.5   4.0   1   2   4.1e-06    0.0011   19.8   0.4    63   141    55   142    44   146 0.75 -
ID=PSME_00005268     -            284 75948at3193          -            329   5.8e-10   40.5   4.0   2   2   3.3e-07     9e-05   23.4   1.1    50   118   132   208   124   215 0.79 -
ID=PSME_00001102     -            981 75948at3193          -            329   6.3e-10   40.3   0.5   1   3         9   2.5e+03   -1.0   0.0    17    41    40    63    17    78 0.52 -
ID=PSME_00001102     -            981 75948at3193          -            329   6.3e-10   40.3   0.5   2   3   2.6e-07   7.1e-05   23.8   0.0    11   126    76   200    69   205 0.78 -
ID=PSME_00001102     -            981 75948at3193          -            329   6.3e-10   40.3   0.5   3   3   0.00028     0.077   13.8   0.0    48   142   211   308   200   315 0.76 -
ID=PSME_00031008     -            598 75948at3193          -            329   6.6e-10   40.3   0.8   1   3       4.6   1.3e+03   -0.1   0.1     1    41     1    47     1    63 0.53 -
ID=PSME_00031008     -            598 75948at3193          -            329   6.6e-10   40.3   0.8   2   3   1.1e-07   3.1e-05   24.9   0.1    11   127    60   185    54   188 0.78 -
ID=PSME_00031008     -            598 75948at3193          -            329   6.6e-10   40.3   0.8   3   3   0.00081      0.22   12.3   0.0    48   121   195   272   183   298 0.75 -
ID=PSME_00024443     -            461 75948at3193          -            329   1.1e-09   39.5   1.7   1   2   3.8e-06     0.001   19.9   0.1    80   157   242   324   196   331 0.81 -
ID=PSME_00024443     -            461 75948at3193          -            329   1.1e-09   39.5   1.7   2   2   8.9e-06    0.0024   18.7   0.1    50   133   351   437   339   452 0.86 -
ID=PSME_00035269     -            383 75948at3193          -            329   1.3e-09   39.3   2.0   1   2   6.7e-08   1.8e-05   25.7   1.2    27   131   151   273   136   283 0.75 -
ID=PSME_00035269     -            383 75948at3193          -            329   1.3e-09   39.3   2.0   2   2   3.5e-06   0.00094   20.1   0.1    25   117   241   344   238   355 0.77 -
ID=PSME_00003503     -            366 75948at3193          -            329   1.3e-09   39.3   1.5   1   2   1.1e-05    0.0031   18.4   0.3    80   141   164   232   138   235 0.71 -
ID=PSME_00003503     -            366 75948at3193          -            329   1.3e-09   39.3   1.5   2   2   3.4e-06   0.00091   20.1   0.1    25   120   235   341   232   355 0.78 -
ID=PSME_00041381     -            794 75948at3193          -            329   1.6e-09   39.0   5.2   1   3   2.7e-08   7.3e-06   27.0   1.3    13   157   479   637   472   653 0.75 -
ID=PSME_00041381     -            794 75948at3193          -            329   1.6e-09   39.0   5.2   2   3      0.23        63    4.2   0.0   103   161   624   684   617   713 0.76 -
ID=PSME_00041381     -            794 75948at3193          -            329   1.6e-09   39.0   5.2   3   3    0.0022      0.61   10.8   0.1    95   142   705   753   658   769 0.86 -
ID=PSME_00001956     -            795 75948at3193          -            329   2.1e-09   38.6   0.4   1   2   5.6e-05     0.015   16.1   0.0    49   121   457   532   444   545 0.79 -
ID=PSME_00001956     -            795 75948at3193          -            329   2.1e-09   38.6   0.4   2   2   4.1e-06    0.0011   19.8   0.0    15   121   544   655   540   664 0.71 -
ID=PSME_00029486     -            423 75948at3193          -            329   2.2e-09   38.6   2.4   1   2   9.3e-06    0.0025   18.6   0.1    82   142   223   290   197   298 0.77 -
ID=PSME_00029486     -            423 75948at3193          -            329   2.2e-09   38.6   2.4   2   2   4.9e-06    0.0013   19.6   0.1    29   118   298   396   289   414 0.76 -
ID=PSME_00026341     -            229 75948at3193          -            329     3e-09   38.1   1.8   1   2   3.2e-08   8.8e-06   26.7   0.5    35   131    10   119     6   135 0.75 -
ID=PSME_00026341     -            229 75948at3193          -            329     3e-09   38.1   1.8   2   2    0.0019      0.51   11.1   0.1    66   117   136   190   119   202 0.83 -
ID=PSME_00025081     -            394 75948at3193          -            329   3.2e-09   38.0   1.2   1   3   9.1e-06    0.0025   18.7   0.0    81   157   106   187    94   191 0.84 -
ID=PSME_00025081     -            394 75948at3193          -            329   3.2e-09   38.0   1.2   2   3      0.32        88    3.7   0.0   114   157   197   241   188   245 0.82 -
ID=PSME_00025081     -            394 75948at3193          -            329   3.2e-09   38.0   1.2   3   3     6e-05     0.016   16.0   0.3    50   138   214   305   206   336 0.80 -
ID=PSME_00008859     -           1082 75948at3193          -            329   3.8e-09   37.8   5.1   1   3       1.9   5.2e+02    1.2   0.0    51    81   504   534   489   562 0.67 -
ID=PSME_00008859     -           1082 75948at3193          -            329   3.8e-09   37.8   5.1   2   3   9.3e-11   2.5e-08   35.1   1.2    82   157   606   682   592   689 0.88 -
ID=PSME_00008859     -           1082 75948at3193          -            329   3.8e-09   37.8   5.1   3   3     0.024       6.4    7.5   0.0    99   177   665   743   664   755 0.84 -
ID=PSME_00017811     -            456 75948at3193          -            329     4e-09   37.7   4.0   1   3     0.021       5.8    7.6   0.1    92   139   183   231   179   240 0.90 -
ID=PSME_00017811     -            456 75948at3193          -            329     4e-09   37.7   4.0   2   3     6e-06    0.0016   19.3   0.3    34   131   247   357   233   367 0.75 -
ID=PSME_00017811     -            456 75948at3193          -            329     4e-09   37.7   4.0   3   3     9e-05     0.024   15.4   0.1    26   117   326   428   322   446 0.73 -
ID=PSME_00014113     -            542 75948at3193          -            329   5.2e-09   37.3   5.0   1   4   1.9e-05    0.0051   17.6   0.2    84   164   177   267   174   276 0.72 -
ID=PSME_00014113     -            542 75948at3193          -            329   5.2e-09   37.3   5.0   2   4   0.00051      0.14   12.9   0.1    86   158   228   307   225   314 0.76 -
ID=PSME_00014113     -            542 75948at3193          -            329   5.2e-09   37.3   5.0   3   4   2.2e-05    0.0061   17.4   0.0    51   126   279   360   277   366 0.79 -
ID=PSME_00014113     -            542 75948at3193          -            329   5.2e-09   37.3   5.0   4   4       4.3   1.2e+03    0.0   0.3    88   121   377   412   369   419 0.70 -
ID=PSME_00016963     -            516 75948at3193          -            329   5.4e-09   37.3   3.6   1   3    0.0007      0.19   12.5   0.3    48   117   235   305   198   333 0.77 -
ID=PSME_00016963     -            516 75948at3193          -            329   5.4e-09   37.3   3.6   2   3   7.8e-06    0.0021   18.9   0.1    91   156   334   404   312   414 0.78 -
ID=PSME_00016963     -            516 75948at3193          -            329   5.4e-09   37.3   3.6   3   3    0.0084       2.3    8.9   0.0    22   118   385   492   385   504 0.75 -
ID=PSME_00022796     -            424 75948at3193          -            329   9.7e-09   36.4   8.8   1   3     0.066        18    6.0   0.3    43   117   115   190    83   194 0.72 -
ID=PSME_00022796     -            424 75948at3193          -            329   9.7e-09   36.4   8.8   2   3   5.8e-07   0.00016   22.6   1.4    35   141   144   260   134   262 0.72 -
ID=PSME_00022796     -            424 75948at3193          -            329   9.7e-09   36.4   8.8   3   3   2.7e-05    0.0074   17.1   0.3    22   117   260   366   259   382 0.74 -
ID=PSME_00052167     -            338 75948at3193          -            329   1.1e-08   36.2   1.6   1   2   2.4e-07   6.5e-05   23.9   1.0    16   131   114   239   105   250 0.75 -
ID=PSME_00052167     -            338 75948at3193          -            329   1.1e-08   36.2   1.6   2   2   0.00013     0.034   14.9   0.1    30   117   214   310   213   326 0.76 -
ID=PSME_00047021     -            388 75948at3193          -            329   1.2e-08   36.2   7.2   1   3       1.7   4.6e+02    1.4   0.2    95   126   109   139   100   144 0.82 -
ID=PSME_00047021     -            388 75948at3193          -            329   1.2e-08   36.2   7.2   2   3   1.3e-06   0.00036   21.4   0.3    82   141   189   254   160   261 0.73 -
ID=PSME_00047021     -            388 75948at3193          -            329   1.2e-08   36.2   7.2   3   3   2.6e-05    0.0071   17.2   0.1    21   117   254   360   252   369 0.73 -
ID=PSME_00010284     -            417 75948at3193          -            329   1.2e-08   36.2   5.3   1   3      0.54   1.5e+02    3.0   0.2    95   139   147   195   139   205 0.80 -
ID=PSME_00010284     -            417 75948at3193          -            329   1.2e-08   36.2   5.3   2   3   3.4e-07   9.2e-05   23.4   0.4    34   131   211   321   195   337 0.72 -
ID=PSME_00010284     -            417 75948at3193          -            329   1.2e-08   36.2   5.3   3   3   9.2e-05     0.025   15.4   0.0    26   117   290   392   287   407 0.73 -
ID=PSME_00038146     -            422 75948at3193          -            329   1.3e-08   36.0   5.8   1   3      0.55   1.5e+02    3.0   0.3    95   138   149   196   140   204 0.74 -
ID=PSME_00038146     -            422 75948at3193          -            329   1.3e-08   36.0   5.8   2   3   1.8e-07   4.8e-05   24.3   0.6    34   131   213   323   187   334 0.67 -
ID=PSME_00038146     -            422 75948at3193          -            329   1.3e-08   36.0   5.8   3   3   0.00011     0.029   15.2   0.1    25   117   291   394   288   402 0.73 -
ID=PSME_00024119     -            462 75948at3193          -            329   1.4e-08   35.9   6.2   1   3     0.015       4.1    8.1   0.1    64   139   155   235   146   245 0.75 -
ID=PSME_00024119     -            462 75948at3193          -            329   1.4e-08   35.9   6.2   2   3   6.9e-05     0.019   15.8   0.6    64   141   239   328   235   336 0.66 -
ID=PSME_00024119     -            462 75948at3193          -            329   1.4e-08   35.9   6.2   3   3   9.3e-05     0.025   15.4   0.1    23   117   329   434   313   446 0.77 -
ID=PSME_00011774     -            522 75948at3193          -            329     2e-08   35.4   1.0   1   3   0.00047      0.13   13.1   0.1    86   190    90   198    83   205 0.75 -
ID=PSME_00011774     -            522 75948at3193          -            329     2e-08   35.4   1.0   2   3      0.29        79    3.9   0.0   101   199   218   321   197   322 0.70 -
ID=PSME_00011774     -            522 75948at3193          -            329     2e-08   35.4   1.0   3   3   3.6e-05    0.0097   16.7   0.0   101   160   319   381   317   418 0.86 -
ID=PSME_00021391     -            613 75948at3193          -            329     2e-08   35.4   5.5   1   2   2.7e-05    0.0074   17.1   0.4    57   158    91   196    62   209 0.76 -
ID=PSME_00021391     -            613 75948at3193          -            329     2e-08   35.4   5.5   2   2     4e-06    0.0011   19.8   0.3    58   158   394   498   369   511 0.80 -
ID=PSME_00013937     -            325 75948at3193          -            329   2.7e-08   35.0   4.5   1   3   7.2e-07    0.0002   22.3   0.3    80   157   119   201    69   205 0.80 -
ID=PSME_00013937     -            325 75948at3193          -            329   2.7e-08   35.0   4.5   2   3      0.82   2.2e+02    2.4   0.2   114   156   211   254   200   259 0.79 -
ID=PSME_00013937     -            325 75948at3193          -            329   2.7e-08   35.0   4.5   3   3    0.0013      0.37   11.5   0.1    75   133   253   314   251   319 0.84 -
ID=PSME_00004801     -            554 75948at3193          -            329   2.7e-08   35.0  10.0   1   3       3.1   8.3e+02    0.5   0.2    95   125   117   146   107   165 0.77 -
ID=PSME_00004801     -            554 75948at3193          -            329   2.7e-08   35.0  10.0   2   3   9.6e-05     0.026   15.3   0.2    88   143   196   258   161   271 0.62 -
ID=PSME_00004801     -            554 75948at3193          -            329   2.7e-08   35.0  10.0   3   3   6.1e-07   0.00016   22.6   0.5    79   159   412   504   386   523 0.71 -
ID=PSME_00020281     -            406 75948at3193          -            329   2.9e-08   34.9   1.4   1   2   3.7e-08     1e-05   26.5   0.8    27   131   185   307   162   317 0.76 -
ID=PSME_00020281     -            406 75948at3193          -            329   2.9e-08   34.9   1.4   2   2     0.035       9.5    6.9   0.0    64   118   321   379   306   393 0.79 -
ID=PSME_00020279     -            350 75948at3193          -            329   4.2e-08   34.3   7.2   1   3     0.025       6.7    7.4   0.1    95   142    38    86    30   133 0.65 -
ID=PSME_00020279     -            350 75948at3193          -            329   4.2e-08   34.3   7.2   2   3   0.00067      0.18   12.6   0.1    82   142   150   217   135   224 0.73 -
ID=PSME_00020279     -            350 75948at3193          -            329   4.2e-08   34.3   7.2   3   3   1.7e-05    0.0047   17.8   0.3    26   118   220   323   215   335 0.74 -
ID=PSME_00031681     -            440 75948at3193          -            329   5.1e-08   34.1   8.0   1   3      0.47   1.3e+02    3.2   0.3    95   139   167   215   160   221 0.76 -
ID=PSME_00031681     -            440 75948at3193          -            329   5.1e-08   34.1   8.0   2   3   1.1e-06   0.00029   21.7   1.0    80   157   238   326   212   332 0.65 -
ID=PSME_00031681     -            440 75948at3193          -            329   5.1e-08   34.1   8.0   3   3   0.00019     0.052   14.3   0.1    25   115   309   410   306   421 0.72 -
ID=PSME_00045677     -            424 75948at3193          -            329     6e-08   33.8   6.4   1   3     9e-07   0.00024   22.0   1.0    82   143   222   290   148   325 0.53 -
ID=PSME_00045677     -            424 75948at3193          -            329     6e-08   33.8   6.4   2   3   5.6e-07   0.00015   22.7   0.4    34   129   213   321   194   359 0.59 -
ID=PSME_00045677     -            424 75948at3193          -            329     6e-08   33.8   6.4   3   3      0.18        49    4.6   0.0    26   117   292   397   288   413 0.65 -
ID=PSME_00012180     -            596 75948at3193          -            329     1e-07   33.1   1.7   1   3   4.2e-06    0.0011   19.8   0.1    65   156   237   334   215   348 0.55 -
ID=PSME_00012180     -            596 75948at3193          -            329     1e-07   33.1   1.7   2   3    0.0072         2    9.2   0.0    57   122   359   426   351   443 0.80 -
ID=PSME_00012180     -            596 75948at3193          -            329     1e-07   33.1   1.7   3   3       1.8     5e+02    1.3   0.0    18    50   449   480   436   518 0.61 -
ID=PSME_00017809     -            360 75948at3193          -            329   1.2e-07   32.9   3.9   1   3   3.4e-05    0.0091   16.8   0.5    60   142   135   227    88   233 0.73 -
ID=PSME_00017809     -            360 75948at3193          -            329   1.2e-07   32.9   3.9   2   3   3.1e-06   0.00084   20.2   1.6    33   131   150   261   124   271 0.72 -
ID=PSME_00017809     -            360 75948at3193          -            329   1.2e-07   32.9   3.9   3   3   4.2e-05     0.012   16.5   0.2    26   117   230   332   226   347 0.73 -
ID=PSME_00042991     -            522 75948at3193          -            329   1.3e-07   32.8   0.4   1   3   3.9e-06    0.0011   19.9   0.1    28    92     7    78     2    99 0.78 -
ID=PSME_00042991     -            522 75948at3193          -            329   1.3e-07   32.8   0.4   2   3      0.17        46    4.6   0.0    79   128   273   322   269   331 0.86 -
ID=PSME_00042991     -            522 75948at3193          -            329   1.3e-07   32.8   0.4   3   3      0.28        76    3.9   0.0    26    49   378   401   369   434 0.64 -
ID=PSME_00025712     -           1018 75948at3193          -            329   1.5e-07   32.5   4.7   1   3       1.2   3.3e+02    1.8   0.1    96   138   718   761   710   784 0.60 -
ID=PSME_00025712     -           1018 75948at3193          -            329   1.5e-07   32.5   4.7   2   3   1.7e-06   0.00046   21.1   1.3    47   131   823   919   796   929 0.72 -
ID=PSME_00025712     -           1018 75948at3193          -            329   1.5e-07   32.5   4.7   3   3   0.00036     0.097   13.4   0.1    26   116   888   989   885  1003 0.75 -
ID=PSME_00010285     -            373 75948at3193          -            329   1.6e-07   32.5   1.9   1   2   1.1e-07   3.1e-05   25.0   0.5    40   131   157   259   142   269 0.74 -
ID=PSME_00010285     -            373 75948at3193          -            329   1.6e-07   32.5   1.9   2   2     0.072        20    5.9   0.0    64   116   273   329   259   343 0.81 -
ID=PSME_00004465     -            525 75948at3193          -            329   1.7e-07   32.4   4.1   1   4     0.049        13    6.4   0.0    27   133    37    67    22    85 0.47 -
ID=PSME_00004465     -            525 75948at3193          -            329   1.7e-07   32.4   4.1   2   4    0.0001     0.028   15.2   0.4    91   158    87   156    79   163 0.86 -
ID=PSME_00004465     -            525 75948at3193          -            329   1.7e-07   32.4   4.1   3   4      0.11        29    5.3   0.0    80   128   336   384   332   393 0.88 -
ID=PSME_00004465     -            525 75948at3193          -            329   1.7e-07   32.4   4.1   4   4       1.1   3.1e+02    1.9   0.0    26    43   440   457   433   496 0.84 -
ID=PSME_00020195     -            462 75948at3193          -            329   1.8e-07   32.3   1.0   1   1   3.2e-08   8.6e-06   26.8   0.1    11   127    80   205    76   278 0.83 -
ID=PSME_00020280     -            460 75948at3193          -            329   2.2e-07   32.0   1.7   1   2   2.1e-06   0.00056   20.8   0.8    34   131   214   324   188   335 0.72 -
ID=PSME_00020280     -            460 75948at3193          -            329   2.2e-07   32.0   1.7   2   2   0.00026      0.07   13.9   0.1    26   118   293   396   290   408 0.74 -
ID=PSME_00044301     -            442 75948at3193          -            329   2.6e-07   31.7   0.1   1   2   3.8e-05      0.01   16.7   0.0    15   124    15    91     2   100 0.51 -
ID=PSME_00044301     -            442 75948at3193          -            329   2.6e-07   31.7   0.1   2   2   0.00059      0.16   12.7   0.0    49   119   105   179    92   186 0.75 -
ID=PSME_00037503     -            507 75948at3193          -            329   3.1e-07   31.5   7.4   1   3       1.4   3.7e+02    1.7   0.3    95   138   238   281   212   288 0.77 -
ID=PSME_00037503     -            507 75948at3193          -            329   3.1e-07   31.5   7.4   2   3   1.8e-06   0.00049   21.0   0.3    82   158   307   394   289   401 0.74 -
ID=PSME_00037503     -            507 75948at3193          -            329   3.1e-07   31.5   7.4   3   3   0.00034     0.093   13.5   0.1    22   110   374   472   373   475 0.70 -
ID=PSME_00014505     -            274 75948at3193          -            329     4e-07   31.1   4.0   1   2    0.0019      0.52   11.0   0.5    96   156    27    89     6    94 0.79 -
ID=PSME_00014505     -            274 75948at3193          -            329     4e-07   31.1   4.0   2   2     5e-06    0.0014   19.5   0.2    50   134   117   204    94   237 0.84 -
ID=PSME_00041218     -            401 75948at3193          -            329   4.2e-07   31.1   1.2   1   1   6.9e-09   1.9e-06   28.9   1.2    27   134   185   299   162   332 0.84 -
ID=PSME_00040435     -            391 75948at3193          -            329   4.3e-07   31.0   0.8   1   2    0.0012      0.32   11.8   0.0    84   156    95   171    79   177 0.81 -
ID=PSME_00040435     -            391 75948at3193          -            329   4.3e-07   31.0   0.8   2   2   0.00022     0.059   14.1   0.2    86   157   195   268   184   278 0.81 -
ID=PSME_00003075     -            548 75948at3193          -            329   7.6e-07   30.2   2.8   1   2      0.19        51    4.5   0.2    16    98   236   334   229   335 0.53 -
ID=PSME_00003075     -            548 75948at3193          -            329   7.6e-07   30.2   2.8   2   2   2.4e-08   6.6e-06   27.1   0.5    12   122   324   444   314   457 0.77 -
ID=PSME_00008005     -            554 75948at3193          -            329   8.5e-07   30.1   1.1   1   4   6.7e-06    0.0018   19.1   0.1    26    92    23    96    12   102 0.79 -
ID=PSME_00008005     -            554 75948at3193          -            329   8.5e-07   30.1   1.1   2   4      0.19        52    4.5   0.0    79   126   210   257   205   265 0.86 -
ID=PSME_00008005     -            554 75948at3193          -            329   8.5e-07   30.1   1.1   3   4       1.7   4.6e+02    1.4   0.0    25    40   314   329   271   333 0.80 -
ID=PSME_00008005     -            554 75948at3193          -            329   8.5e-07   30.1   1.1   4   4       1.1   2.9e+02    2.0   0.0    26    44   315   333   306   371 0.80 -
ID=PSME_00009596     -            675 75948at3193          -            329   9.2e-07   30.0   0.7   1   2   4.9e-05     0.013   16.3   0.0    51   126    15    93     3    98 0.70 -
ID=PSME_00009596     -            675 75948at3193          -            329   9.2e-07   30.0   0.7   2   2    0.0033       0.9   10.3   0.0    49   142   105   201    94   208 0.74 -
ID=PSME_00046143     -            334 75948at3193          -            329   1.1e-06   29.7   0.4   1   2   5.2e-06    0.0014   19.5   0.2    61   142   140   231   132   240 0.72 -
ID=PSME_00046143     -            334 75948at3193          -            329   1.1e-06   29.7   0.4   2   2     0.014       3.7    8.2   0.0    65   119   251   309   241   321 0.80 -
ID=PSME_00030545     -            524 75948at3193          -            329   1.2e-06   29.5  10.5   1   3     1e-06   0.00028   21.8   2.3    55   177   244   372   229   377 0.64 -
ID=PSME_00030545     -            524 75948at3193          -            329   1.2e-06   29.5  10.5   2   3    0.0016      0.43   11.3   1.5    31   134   342   453   339   474 0.80 -
ID=PSME_00030545     -            524 75948at3193          -            329   1.2e-06   29.5  10.5   3   3     0.078        21    5.8   0.1   263   307   476   520   468   523 0.87 -
ID=PSME_00055600     -            493 75948at3193          -            329   1.3e-06   29.5   0.6   1   2    0.0014      0.38   11.5   0.1    26    84   222   284   201   289 0.76 -
ID=PSME_00055600     -            493 75948at3193          -            329   1.3e-06   29.5   0.6   2   2   6.8e-05     0.019   15.8   0.0    49   131   318   405   305   432 0.75 -
ID=PSME_00032329     -            349 75948at3193          -            329   1.4e-06   29.4   0.8   1   1   8.7e-09   2.4e-06   28.6   0.8    12   133   187   321   180   340 0.80 -
ID=PSME_00018509     -            527 75948at3193          -            329   1.5e-06   29.3   0.2   1   2   3.2e-05    0.0086   16.9   0.0    57   141   109   197    95   207 0.86 -
ID=PSME_00018509     -            527 75948at3193          -            329   1.5e-06   29.3   0.2   2   2    0.0067       1.8    9.3   0.0    28    97   215   290   201   296 0.79 -
ID=PSME_00030320     -            148 75948at3193          -            329   2.6e-06   28.5   0.7   1   1   1.6e-08   4.3e-06   27.8   0.7    80   160    37   128    18   142 0.76 -
ID=PSME_00047971     -            399 75948at3193          -            329   3.8e-06   27.9   3.7   1   3      0.44   1.2e+02    3.3   0.0   255   293   114   153    42   166 0.75 -
ID=PSME_00047971     -            399 75948at3193          -            329   3.8e-06   27.9   3.7   2   3   5.4e-07   0.00015   22.7   0.9    49   131   255   349   230   372 0.75 -
ID=PSME_00047971     -            399 75948at3193          -            329   3.8e-06   27.9   3.7   3   3     0.064        17    6.0   0.2    26    95   318   397   315   399 0.61 -
ID=PSME_00034555     -            547 75948at3193          -            329   4.1e-06   27.8   1.6   1   3      0.87   2.4e+02    2.3   0.1    86   123   173   211   164   215 0.80 -
ID=PSME_00034555     -            547 75948at3193          -            329   4.1e-06   27.8   1.6   2   3   4.8e-06    0.0013   19.6   0.1    11   140   240   376   233   411 0.63 -
ID=PSME_00034555     -            547 75948at3193          -            329   4.1e-06   27.8   1.6   3   3       0.9   2.4e+02    2.3   0.0    27    67   469   518   459   526 0.56 -
ID=PSME_00001105     -            855 75948at3193          -            329   4.2e-06   27.8   0.2   1   2   6.2e-05     0.017   15.9   0.0    48   127    12    94     4   101 0.82 -
ID=PSME_00001105     -            855 75948at3193          -            329   4.2e-06   27.8   0.2   2   2    0.0052       1.4    9.6   0.0    49   142   105   201    94   208 0.75 -
ID=PSME_00016262     -            343 75948at3193          -            329     5e-06   27.5   1.4   1   1   3.5e-08   9.5e-06   26.6   0.9    27   131   144   266   120   282 0.77 -
ID=PSME_00018931     -            489 75948at3193          -            329   5.5e-06   27.4   1.1   1   3    0.0055       1.5    9.5   0.0    49   159    52   171    37   176 0.68 -
ID=PSME_00018931     -            489 75948at3193          -            329   5.5e-06   27.4   1.1   2   3      0.77   2.1e+02    2.5   0.0   189   238   146   193   136   207 0.69 -
ID=PSME_00018931     -            489 75948at3193          -            329   5.5e-06   27.4   1.1   3   3   0.00018      0.05   14.4   0.2    51   116   416   486   368   488 0.75 -
ID=PSME_00010476     -            192 75948at3193          -            329   5.9e-06   27.3   1.4   1   2     0.017       4.5    8.0   0.1   114   156     6    50     2    55 0.72 -
ID=PSME_00010476     -            192 75948at3193          -            329   5.9e-06   27.3   1.4   2   2   1.5e-05    0.0042   17.9   0.2    50   133    78   164    64   179 0.84 -
ID=PSME_00026479     -            175 75948at3193          -            329   6.3e-06   27.2   0.2   1   2       1.3   3.5e+02    1.8   0.1   112   141     4    33     2    60 0.58 -
ID=PSME_00026479     -            175 75948at3193          -            329   6.3e-06   27.2   0.2   2   2   2.7e-07   7.4e-05   23.7   0.0    50   133    61   147    50   162 0.89 -
ID=PSME_00031935     -            526 75948at3193          -            329   6.7e-06   27.1   1.7   1   2       3.5   9.5e+02    0.3   0.1    97   134   103   139     5   158 0.75 -
ID=PSME_00031935     -            526 75948at3193          -            329   6.7e-06   27.1   1.7   2   2   1.2e-07   3.3e-05   24.9   0.3    62   160   402   504   392   520 0.83 -
ID=PSME_00034105     -            325 75948at3193          -            329   6.9e-06   27.1   2.1   1   3   4.2e-07   0.00011   23.1   0.4    30   110     6    94     1   104 0.83 -
ID=PSME_00034105     -            325 75948at3193          -            329   6.9e-06   27.1   2.1   2   3       3.6   9.8e+02    0.3   0.0    80   128   198   246   194   251 0.85 -
ID=PSME_00034105     -            325 75948at3193          -            329   6.9e-06   27.1   2.1   3   3       5.7   1.5e+03   -0.4   0.0    28    41   304   317   294   323 0.81 -
ID=PSME_00024307     -           1014 75948at3193          -            329   7.2e-06   27.0   0.7   1   3      0.69   1.9e+02    2.6   0.2    99   157   217   278   199   291 0.72 -
ID=PSME_00024307     -           1014 75948at3193          -            329   7.2e-06   27.0   0.7   2   3     6e-06    0.0016   19.3   0.1    11   127   248   373   242   378 0.75 -
ID=PSME_00024307     -           1014 75948at3193          -            329   7.2e-06   27.0   0.7   3   3      0.25        68    4.1   0.0   263   303   407   448   382   453 0.84 -
ID=PSME_00036843     -            268 75948at3193          -            329   7.9e-06   26.9   0.0   1   2     0.025       6.8    7.4   0.0    50    77    23    50     7    60 0.84 -
ID=PSME_00036843     -            268 75948at3193          -            329   7.9e-06   26.9   0.0   2   2     2e-05    0.0055   17.5   0.0   183   242    86   145    68   157 0.82 -
ID=PSME_00001924     -            318 75948at3193          -            329   8.4e-06   26.8   0.2   1   2     7e-05     0.019   15.8   0.2    50   131   124   219   113   230 0.74 -
ID=PSME_00001924     -            318 75948at3193          -            329   8.4e-06   26.8   0.2   2   2   0.00013     0.036   14.9   0.0    25   117   187   290   184   305 0.73 -
ID=PSME_00044122     -            268 75948at3193          -            329   8.6e-06   26.8   0.0   1   2   0.00045      0.12   13.1   0.0    50   120    63   135    15   156 0.72 -
ID=PSME_00044122     -            268 75948at3193          -            329   8.6e-06   26.8   0.0   2   2    0.0012      0.32   11.8   0.0    48    78   186   216   152   220 0.76 -
ID=PSME_00004799     -            342 75948at3193          -            329   1.1e-05   26.5   2.2   1   2   2.2e-07   5.9e-05   24.0   0.9    40   131   172   274   150   284 0.74 -
ID=PSME_00004799     -            342 75948at3193          -            329   1.1e-05   26.5   2.2   2   2      0.06        16    6.1   0.1    26    97   243   324   241   333 0.68 -
ID=PSME_00006857     -            215 75948at3193          -            329   1.2e-05   26.3   0.1   1   2    0.0012      0.31   11.8   0.0   109   163     5    65     2    69 0.71 -
ID=PSME_00006857     -            215 75948at3193          -            329   1.2e-05   26.3   0.1   2   2   5.2e-06    0.0014   19.5   0.0    12   106    31   130    19   191 0.74 -
ID=PSME_00023103     -            198 75948at3193          -            329   1.3e-05   26.2   2.1   1   2   7.1e-05     0.019   15.7   0.7    88   144     4    67     1    97 0.68 -
ID=PSME_00023103     -            198 75948at3193          -            329   1.3e-05   26.2   2.1   2   2    0.0028      0.76   10.5   0.1    52   107   100   159    68   181 0.71 -
ID=PSME_00042867     -            492 75948at3193          -            329   1.4e-05   26.1   4.0   1   3     0.041        11    6.7   0.1    91   139   218   267   181   277 0.87 -
ID=PSME_00042867     -            492 75948at3193          -            329   1.4e-05   26.1   4.0   2   3    0.0012      0.32   11.8   0.3    80   141   290   358   268   365 0.77 -
ID=PSME_00042867     -            492 75948at3193          -            329   1.4e-05   26.1   4.0   3   3     0.014       3.8    8.2   0.0    26   117   362   464   353   480 0.68 -
ID=PSME_00026539     -            413 75948at3193          -            329   1.5e-05   26.0   0.9   1   2       2.2     6e+02    1.0   0.0    90   123   152   188   101   210 0.79 -
ID=PSME_00026539     -            413 75948at3193          -            329   1.5e-05   26.0   0.9   2   2   4.6e-07   0.00012   23.0   0.4    62   160   244   346   235   365 0.82 -
ID=PSME_00035793     -            271 75948at3193          -            329   1.8e-05   25.7   0.0   1   2   3.3e-07     9e-05   23.4   0.0   184   241    34    91    15   104 0.84 -
ID=PSME_00035793     -            271 75948at3193          -            329   1.8e-05   25.7   0.0   2   2         6   1.6e+03   -0.4   0.0   300   319   130   149   120   153 0.85 -
ID=PSME_00046185     -            216 75948at3193          -            329   1.9e-05   25.6   0.4   1   1   1.5e-07   4.1e-05   24.5   0.4    58   160    88   194    41   209 0.76 -
ID=PSME_00045770     -            397 75948at3193          -            329   2.1e-05   25.5   1.1   1   1   7.6e-08   2.1e-05   25.5   1.1    33   131   182   293   160   314 0.76 -
ID=PSME_00002331     -            400 75948at3193          -            329   3.4e-05   24.8   6.4   1   3      0.66   1.8e+02    2.7   0.3    95   138   167   214   160   220 0.71 -
ID=PSME_00002331     -            400 75948at3193          -            329   3.4e-05   24.8   6.4   2   3   4.1e-07   0.00011   23.1   0.5    61   159   216   328   211   337 0.71 -
ID=PSME_00002331     -            400 75948at3193          -            329   3.4e-05   24.8   6.4   3   3      0.18        48    4.6   0.1    26    96   310   390   306   398 0.64 -
ID=PSME_00026651     -            352 75948at3193          -            329   3.8e-05   24.6   1.8   1   1   2.2e-07   5.9e-05   24.0   1.2    34   131   198   308   175   331 0.77 -
ID=PSME_00017810     -            412 75948at3193          -            329   4.3e-05   24.5   2.2   1   1   2.2e-07     6e-05   24.0   0.7    34   131   209   319   196   329 0.76 -
ID=PSME_00031092     -            245 75948at3193          -            329   4.6e-05   24.4   0.1   1   1   5.7e-07   0.00015   22.6   0.0    18   121     2   110     1   118 0.73 -
ID=PSME_00009187     -            674 75948at3193          -            329   4.9e-05   24.3   1.0   1   1   4.5e-07   0.00012   23.0   0.1    11   127    58   183    49   191 0.78 -
ID=PSME_00019723     -            286 75948at3193          -            329   4.9e-05   24.3   0.4   1   1   2.6e-07   6.9e-05   23.8   0.4    23   149    34   169     5   192 0.78 -
ID=PSME_00031002     -            269 75948at3193          -            329   5.2e-05   24.2   0.2   1   1   2.1e-07   5.7e-05   24.1   0.2    64   157   120   220    54   263 0.76 -
ID=PSME_00005357     -            440 75948at3193          -            329     6e-05   24.0   8.1   1   3    0.0029      0.79   10.5   0.3    98   159   137   198   119   204 0.64 -
ID=PSME_00005357     -            440 75948at3193          -            329     6e-05   24.0   8.1   2   3   2.8e-05    0.0077   17.1   2.4    29   141   185   303   181   338 0.73 -
ID=PSME_00005357     -            440 75948at3193          -            329     6e-05   24.0   8.1   3   3       1.2   3.2e+02    1.9   0.0    54   113   297   359   292   366 0.74 -
ID=PSME_00039137     -            147 75948at3193          -            329   6.9e-05   23.8   0.4   1   1     4e-07   0.00011   23.2   0.4    88   173     2    94     1   116 0.81 -
ID=PSME_00043427     -            246 75948at3193          -            329   7.2e-05   23.7   0.1   1   1   4.6e-07   0.00012   22.9   0.1    62   160   131   233    94   243 0.84 -
ID=PSME_00010333     -            611 75948at3193          -            329   8.4e-05   23.5   0.8   1   3   6.6e-06    0.0018   19.1   0.1    53   123   136   211   126   224 0.79 -
ID=PSME_00010333     -            611 75948at3193          -            329   8.4e-05   23.5   0.8   2   3       7.5     2e+03   -0.8   0.0    95   156   331   352   280   364 0.54 -
ID=PSME_00010333     -            611 75948at3193          -            329   8.4e-05   23.5   0.8   3   3       2.2     6e+02    1.0   0.1   111   154   427   470   388   482 0.71 -
ID=PSME_00053207     -            162 75948at3193          -            329   8.4e-05   23.5   0.5   1   2   9.8e-06    0.0027   18.6   0.1    88   178     2    99     1   107 0.75 -
ID=PSME_00053207     -            162 75948at3193          -            329   8.4e-05   23.5   0.5   2   2       0.2        55    4.4   0.0   268   301   101   135    97   147 0.79 -
ID=PSME_00024143     -            251 75948at3193          -            329   8.9e-05   23.4   0.1   1   1   1.3e-06   0.00035   21.5   0.0    16   121     5   115     2   123 0.74 -
ID=PSME_00004692     -            453 75948at3193          -            329   9.5e-05   23.3   0.1   1   2   1.4e-06   0.00038   21.4   0.1    43   163   234   358   223   366 0.83 -
ID=PSME_00004692     -            453 75948at3193          -            329   9.5e-05   23.3   0.1   2   2      0.15        42    4.8   0.0    27    67   339   385   337   421 0.62 -
ID=PSME_00039843     -            340 75948at3193          -            329   0.00012   23.0   0.3   1   1   1.2e-06   0.00034   21.5   0.3    62   153   148   243   137   250 0.81 -
ID=PSME_00030324     -            583 75948at3193          -            329   0.00012   23.0   6.8   1   4       1.4   3.9e+02    1.6   0.0    98   149    61   113    57   124 0.72 -
ID=PSME_00030324     -            583 75948at3193          -            329   0.00012   23.0   6.8   2   4       1.3   3.6e+02    1.7   0.0    25    41   135   151   125   154 0.87 -
ID=PSME_00030324     -            583 75948at3193          -            329   0.00012   23.0   6.8   3   4       0.5   1.3e+02    3.1   0.1    94   156   375   439   335   443 0.77 -
ID=PSME_00030324     -            583 75948at3193          -            329   0.00012   23.0   6.8   4   4   0.00012     0.033   15.0   0.0    51   133   468   553   455   570 0.85 -
ID=PSME_00030661     -            181 75948at3193          -            329   0.00012   23.0   0.1   1   2     0.007       1.9    9.2   0.1    82   131    29    82    13    99 0.82 -
ID=PSME_00030661     -            181 75948at3193          -            329   0.00012   23.0   0.1   2   2   2.7e-05    0.0072   17.2   0.0    25   116    50   152    47   168 0.75 -
ID=PSME_00049615     -            187 75948at3193          -            329   0.00013   22.9   0.0   1   1   6.2e-07   0.00017   22.5   0.0    15   121    14   125     4   163 0.66 -
ID=PSME_00014824     -            450 75948at3193          -            329   0.00013   22.9   1.6   1   2    0.0025      0.67   10.7   0.5    63   159   210   311   151   319 0.71 -
ID=PSME_00014824     -            450 75948at3193          -            329   0.00013   22.9   1.6   2   2   1.2e-06   0.00032   21.6   0.6    16   136   241   371   228   405 0.60 -
ID=PSME_00016263     -            287 75948at3193          -            329   0.00014   22.8   1.8   1   2   1.4e-06   0.00039   21.3   0.9    34   131    67   177    49   197 0.72 -
ID=PSME_00016263     -            287 75948at3193          -            329   0.00014   22.8   1.8   2   2      0.36        98    3.6   0.1    27   116   147   247   145   253 0.59 -
ID=PSME_00028453     -            207 75948at3193          -            329   0.00015   22.6   0.4   1   2      0.49   1.3e+02    3.1   0.0   128   156    18    48     5    54 0.70 -
ID=PSME_00028453     -            207 75948at3193          -            329   0.00015   22.6   0.4   2   2   2.9e-05    0.0077   17.1   0.1    51   130    77   159    71   163 0.76 -
ID=PSME_00038106     -            211 75948at3193          -            329   0.00017   22.5   2.6   1   2   7.4e-06     0.002   19.0   0.2    79   173    42   143    27   156 0.80 -
ID=PSME_00038106     -            211 75948at3193          -            329   0.00017   22.5   2.6   2   2      0.34        91    3.7   0.2    88   118   165   197   157   205 0.70 -
ID=PSME_00014506     -            333 75948at3193          -            329   0.00017   22.5   0.1   1   1   9.7e-07   0.00026   21.9   0.1    15   120    58   174    46   199 0.76 -
ID=PSME_00003499     -            373 75948at3193          -            329   0.00018   22.4   1.2   1   2   3.5e-06   0.00094   20.1   0.4    80   156   162   249   135   266 0.62 -
ID=PSME_00003499     -            373 75948at3193          -            329   0.00018   22.4   1.2   2   2       1.3   3.5e+02    1.7   0.0    51    95   265   313   231   322 0.66 -
ID=PSME_00014231     -            371 75948at3193          -            329   0.00018   22.4   5.2   1   3       0.5   1.3e+02    3.1   0.0    98   123    96   121    78   132 0.84 -
ID=PSME_00014231     -            371 75948at3193          -            329   0.00018   22.4   5.2   2   3   5.2e-05     0.014   16.2   4.6    57   161   172   280   140   296 0.67 -
ID=PSME_00014231     -            371 75948at3193          -            329   0.00018   22.4   5.2   3   3    0.0095       2.6    8.8   0.2    99   130   259   290   253   323 0.87 -
ID=PSME_00004967     -           1191 75948at3193          -            329   0.00018   22.4   0.9   1   4      0.11        30    5.3   0.0    11    45   400   436   393   458 0.79 -
ID=PSME_00004967     -           1191 75948at3193          -            329   0.00018   22.4   0.9   2   4      0.63   1.7e+02    2.8   0.0    85   137   505   560   496   584 0.69 -
ID=PSME_00004967     -           1191 75948at3193          -            329   0.00018   22.4   0.9   3   4       2.4   6.4e+02    0.9   0.0    26    72   658   713   638   730 0.61 -
ID=PSME_00004967     -           1191 75948at3193          -            329   0.00018   22.4   0.9   4   4     0.033       8.8    7.0   0.0    64   117   953  1009   903  1037 0.66 -
ID=PSME_00024217     -            162 75948at3193          -            329   0.00018   22.4   1.3   1   2   3.2e-05    0.0087   16.9   0.2    88   173     2    94     1   103 0.78 -
ID=PSME_00024217     -            162 75948at3193          -            329   0.00018   22.4   1.3   2   2      0.14        37    5.0   0.1   268   301   101   135    99   151 0.69 -
ID=PSME_00035181     -            380 75948at3193          -            329   0.00026   21.9   0.5   1   2   4.3e-06    0.0012   19.8   0.1    34   131   220   330   206   341 0.70 -
ID=PSME_00035181     -            380 75948at3193          -            329   0.00026   21.9   0.5   2   2      0.21        56    4.4   0.1    26    94   299   377   295   379 0.64 -
ID=PSME_00046567     -            136 75948at3193          -            329   0.00028   21.8   4.6   1   2     0.073        20    5.9   0.1   114   154     3    42     1    68 0.70 -
ID=PSME_00046567     -            136 75948at3193          -            329   0.00028   21.8   4.6   2   2   1.6e-05    0.0042   17.9   1.0    84   139    70   125    62   129 0.83 -
ID=PSME_00049142     -            504 75948at3193          -            329    0.0003   21.7   1.2   1   3   1.7e-05    0.0046   17.8   0.1    53   122    27   101    17   115 0.78 -
ID=PSME_00049142     -            504 75948at3193          -            329    0.0003   21.7   1.2   2   3       2.6   6.9e+02    0.8   0.0    95   156   222   243   160   261 0.58 -
ID=PSME_00049142     -            504 75948at3193          -            329    0.0003   21.7   1.2   3   3       6.7   1.8e+03   -0.6   0.1    72   115   318   363   269   371 0.61 -
ID=PSME_00046033     -            283 75948at3193          -            329   0.00033   21.6   0.2   1   1   1.6e-06   0.00043   21.2   0.2    82   157   157   237   117   275 0.86 -
ID=PSME_00048739     -            311 75948at3193          -            329   0.00036   21.4   0.0   1   2       5.1   1.4e+03   -0.2   0.0    50    69    33    52    17    54 0.77 -
ID=PSME_00048739     -            311 75948at3193          -            329   0.00036   21.4   0.0   2   2   4.5e-06    0.0012   19.7   0.0   176   242    48   115    28   127 0.79 -
ID=PSME_00008466     -             86 75948at3193          -            329   0.00044   21.2   0.1   1   1   1.8e-06    0.0005   21.0   0.1   102   155    31    85    23    85 0.90 -
ID=PSME_00017357     -            635 75948at3193          -            329   0.00053   20.9   0.4   1   1   3.4e-06   0.00094   20.1   0.4    49   120   553   627   541   632 0.71 -
ID=PSME_00031540     -            397 75948at3193          -            329   0.00054   20.9   0.9   1   2   6.6e-06    0.0018   19.1   0.3    82   143   200   268   172   303 0.71 -
ID=PSME_00031540     -            397 75948at3193          -            329   0.00054   20.9   0.9   2   2         2   5.5e+02    1.1   0.0    26   116   270   368   266   383 0.52 -
ID=PSME_00032983     -            558 75948at3193          -            329   0.00062   20.7   0.3   1   1   4.4e-06    0.0012   19.7   0.3    70   160   285   379   276   391 0.78 -
ID=PSME_00022718     -            506 75948at3193          -            329   0.00064   20.6   3.7   1   3      0.58   1.6e+02    2.9   0.0    11    44    29    64    22    77 0.76 -
ID=PSME_00022718     -            506 75948at3193          -            329   0.00064   20.6   3.7   2   3    0.0084       2.3    8.9   1.8    79   136   128   188    86   212 0.72 -
ID=PSME_00022718     -            506 75948at3193          -            329   0.00064   20.6   3.7   3   3      0.16        43    4.8   0.0    16    75   254   314   239   331 0.70 -
ID=PSME_00040139     -            386 75948at3193          -            329    0.0007   20.5   0.0   1   1   5.8e-06    0.0016   19.3   0.0    53   125   137   212   116   220 0.82 -
ID=PSME_00014903     -            490 75948at3193          -            329   0.00072   20.4   0.3   1   3   4.8e-05     0.013   16.3   0.0    54   125    24   101    14   111 0.76 -
ID=PSME_00014903     -            490 75948at3193          -            329   0.00072   20.4   0.3   2   3       3.9     1e+03    0.2   0.0   137   158   220   241   169   251 0.65 -
ID=PSME_00014903     -            490 75948at3193          -            329   0.00072   20.4   0.3   3   3       7.4     2e+03   -0.7   0.1    72   115   314   359   276   367 0.63 -
ID=PSME_00038141     -            180 75948at3193          -            329   0.00072   20.4   0.2   1   2   8.8e-05     0.024   15.4   0.1   103   154    41    92    33   102 0.88 -
ID=PSME_00038141     -            180 75948at3193          -            329   0.00072   20.4   0.2   2   2      0.69   1.9e+02    2.6   0.0   114   156   136   178   121   179 0.77 -
ID=PSME_00031480     -            676 75948at3193          -            329   0.00073   20.4   0.2   1   2       6.9   1.9e+03   -0.7   0.0   187   206   269   288   220   297 0.69 -
ID=PSME_00031480     -            676 75948at3193          -            329   0.00073   20.4   0.2   2   2     2e-05    0.0054   17.6   0.1    27   122   336   449   323   484 0.68 -
ID=PSME_00014973     -            324 75948at3193          -            329   0.00075   20.4   0.0   1   1   5.4e-06    0.0015   19.4   0.0    17   121    19   128    11   156 0.70 -
ID=PSME_00042937     -            387 75948at3193          -            329   0.00078   20.3   0.7   1   1   6.4e-06    0.0017   19.2   0.7    50   134   219   306   173   336 0.83 -
ID=PSME_00051515     -            162 75948at3193          -            329   0.00092   20.1   1.3   1   2   3.3e-05     0.009   16.8   0.1    88   172     2    93     1   103 0.80 -
ID=PSME_00051515     -            162 75948at3193          -            329   0.00092   20.1   1.3   2   2      0.64   1.8e+02    2.7   0.1   277   301   111   135    98   154 0.62 -
ID=PSME_00024324     -            563 75948at3193          -            329   0.00095   20.0   0.1   1   2   1.2e-05    0.0033   18.3   0.0    97   159   400   464   374   474 0.81 -
ID=PSME_00024324     -            563 75948at3193          -            329   0.00095   20.0   0.1   2   2     0.065        18    6.0   0.0    27    66   449   494   448   512 0.81 -
ID=PSME_00026340     -            287 75948at3193          -            329     0.001   20.0   0.1   1   2   0.00032     0.086   13.6   0.1    54   131    88   177    53   188 0.80 -
ID=PSME_00026340     -            287 75948at3193          -            329     0.001   20.0   0.1   2   2       0.2        53    4.4   0.0    71   120   199   251   182   262 0.79 -
ID=PSME_00042814     -            572 75948at3193          -            329    0.0013   19.7   0.7   1   2       5.7   1.6e+03   -0.4   0.0   184   184   317   317   264   388 0.46 -
ID=PSME_00042814     -            572 75948at3193          -            329    0.0013   19.7   0.7   2   2   1.6e-05    0.0043   17.9   0.3    16   121   363   472   352   515 0.74 -
ID=PSME_00020225     -            253 75948at3193          -            329    0.0013   19.6   0.1   1   1   7.4e-06     0.002   19.0   0.1    47   129   130   225   113   232 0.73 -
ID=PSME_00036554     -            152 75948at3193          -            329    0.0015   19.4   1.0   1   2      0.34        92    3.7   0.0   264   298     4    39     1    47 0.66 -
ID=PSME_00036554     -            152 75948at3193          -            329    0.0015   19.4   1.0   2   2   0.00019     0.051   14.4   0.3    51   127    47   126    41   132 0.80 -
ID=PSME_00037330     -            519 75948at3193          -            329    0.0015   19.4   6.9   1   3       1.9   5.2e+02    1.2   0.1    47   156   347   377   274   379 0.56 -
ID=PSME_00037330     -            519 75948at3193          -            329    0.0015   19.4   6.9   2   3   0.00015      0.04   14.7   1.2    15   156   313   473   304   475 0.70 -
ID=PSME_00037330     -            519 75948at3193          -            329    0.0015   19.4   6.9   3   3   5.5e-05     0.015   16.1   0.5    50   133   405   491   354   510 0.76 -
ID=PSME_00030711     -            412 75948at3193          -            329    0.0015   19.4   0.9   1   1   1.5e-05     0.004   18.0   0.8    81   159   275   364   248   375 0.71 -
ID=PSME_00008574     -            297 75948at3193          -            329    0.0016   19.3   0.5   1   1   1.9e-05     0.005   17.7   0.5    43   159    79   198    58   235 0.84 -
ID=PSME_00042033     -            378 75948at3193          -            329    0.0017   19.2   0.1   1   1     2e-05    0.0054   17.6   0.1    89   160   261   330   247   364 0.69 -
ID=PSME_00021733     -            647 75948at3193          -            329    0.0018   19.1   0.9   1   5      0.13        35    5.0   0.0    12    45   134   169   126   177 0.79 -
ID=PSME_00021733     -            647 75948at3193          -            329    0.0018   19.1   0.9   2   5       4.5   1.2e+03   -0.0   0.0   182   209   196   221   173   250 0.72 -
ID=PSME_00021733     -            647 75948at3193          -            329    0.0018   19.1   0.9   3   5     0.093        25    5.5   0.1    90   137   246   293   229   319 0.78 -
ID=PSME_00021733     -            647 75948at3193          -            329    0.0018   19.1   0.9   4   5       3.9   1.1e+03    0.2   0.0    51    79   379   407   368   418 0.83 -
ID=PSME_00021733     -            647 75948at3193          -            329    0.0018   19.1   0.9   5   5       1.8   4.8e+02    1.3   0.0    99   151   585   638   526   645 0.66 -
ID=PSME_00032417     -            228 75948at3193          -            329    0.0022   18.8   0.1   1   2   3.3e-05    0.0089   16.8   0.0    81   157    74   155    62   159 0.81 -
ID=PSME_00032417     -            228 75948at3193          -            329    0.0022   18.8   0.1   2   2       6.6   1.8e+03   -0.6   0.0    26    68   174   216   163   225 0.69 -
ID=PSME_00026538     -            259 75948at3193          -            329    0.0026   18.6   0.1   1   1   1.4e-05    0.0039   18.0   0.1    62   155   148   245   115   254 0.77 -
ID=PSME_00000731     -            379 75948at3193          -            329    0.0029   18.5   0.1   1   3         8   2.2e+03   -0.8   0.0    17    50    99   132    93   147 0.80 -
ID=PSME_00000731     -            379 75948at3193          -            329    0.0029   18.5   0.1   2   3     0.056        15    6.2   0.0    56    78   218   240   202   244 0.78 -
ID=PSME_00000731     -            379 75948at3193          -            329    0.0029   18.5   0.1   3   3    0.0087       2.4    8.9   0.0     3    40   243   281   240   298 0.82 -
ID=PSME_00000732     -            256 75948at3193          -            329     0.003   18.4   0.0   1   1   1.6e-05    0.0044   17.9   0.0    49    86   170   207   156   238 0.75 -
ID=PSME_00035897     -            319 75948at3193          -            329    0.0034   18.2   3.3   1   2    0.0022      0.59   10.9   0.6    86   160    86   161    40   173 0.75 -
ID=PSME_00035897     -            319 75948at3193          -            329    0.0034   18.2   3.3   2   2     0.023       6.1    7.5   0.1    85   158   222   304   171   312 0.69 -
ID=PSME_00002176     -            912 75948at3193          -            329    0.0034   18.2   1.1   1   2       1.3   3.5e+02    1.8   0.0    88   121   161   196   148   207 0.78 -
ID=PSME_00002176     -            912 75948at3193          -            329    0.0034   18.2   1.1   2   2   0.00023     0.063   14.0   0.8    25   129   236   351   216   356 0.74 -
ID=PSME_00018157     -            335 75948at3193          -            329    0.0036   18.1   5.0   1   2       3.3     9e+02    0.4   0.1    95   139   106   154    96   161 0.69 -
ID=PSME_00018157     -            335 75948at3193          -            329    0.0036   18.1   5.0   2   2   1.4e-05    0.0037   18.1   1.3    41   131   174   276   157   288 0.63 -
ID=PSME_00030094     -            492 75948at3193          -            329    0.0051   17.7   3.7   1   2    0.0091       2.5    8.8   0.1   258   300   220   262   191   279 0.71 -
ID=PSME_00030094     -            492 75948at3193          -            329    0.0051   17.7   3.7   2   2     0.033         9    7.0   0.1    27    79   344   401   338   414 0.60 -
ID=PSME_00005270     -            119 75948at3193          -            329    0.0053   17.6   0.2   1   1   4.2e-05     0.011   16.5   0.1    82   118     5    43     2    51 0.85 -
ID=PSME_00006527     -             75 75948at3193          -            329    0.0077   17.1   0.0   1   1   3.3e-05    0.0089   16.9   0.0    19    75    11    74     3    74 0.76 -
ID=PSME_00025080     -            450 75948at3193          -            329    0.0081   17.0   0.2   1   1   5.8e-05     0.016   16.0   0.2    84   157   323   401   280   442 0.84 -
ID=PSME_00028105     -            238 75948at3193          -            329    0.0089   16.9   0.1   1   1   4.6e-05     0.013   16.4   0.1    34   138   162   234   132   237 0.45 -
ID=PSME_00013865     -            433 75948at3193          -            329     0.011   16.5   0.0   1   2   0.00022     0.059   14.1   0.0   184   242   266   324   207   333 0.77 -
ID=PSME_00013865     -            433 75948at3193          -            329     0.011   16.5   0.0   2   2         9   2.5e+03   -1.0   0.0   297   319   341   363   334   367 0.84 -
ID=PSME_00015705     -            366 75948at3193          -            329     0.011   16.5   0.1   1   2      0.02       5.4    7.7   0.0    56    92   202   239   189   242 0.75 -
ID=PSME_00015705     -            366 75948at3193          -            329     0.011   16.5   0.1   2   2     0.026       7.1    7.3   0.0     3    40   227   265   224   281 0.84 -
ID=PSME_00030306     -            487 75948at3193          -            329     0.013   16.3   3.6   1   3      0.66   1.8e+02    2.7   0.0   141   158   106   123    51   134 0.62 -
ID=PSME_00030306     -            487 75948at3193          -            329     0.013   16.3   3.6   2   3       1.6   4.4e+02    1.4   0.1    97   116   195   214   184   235 0.86 -
ID=PSME_00030306     -            487 75948at3193          -            329     0.013   16.3   3.6   3   3    0.0026       0.7   10.6   0.1    58   115   244   309   221   325 0.79 -
ID=PSME_00041969     -            262 75948at3193          -            329     0.013   16.3   1.9   1   2       1.3   3.5e+02    1.7   0.1    23    40    57    74    28    83 0.80 -
ID=PSME_00041969     -            262 75948at3193          -            329     0.013   16.3   1.9   2   2   0.00064      0.17   12.6   0.2    91   151   188   252   172   258 0.79 -
ID=PSME_00018904     -            656 75948at3193          -            329     0.014   16.2   1.0   1   3   0.00067      0.18   12.5   0.1    54   120    63   134    52   151 0.71 -
ID=PSME_00018904     -            656 75948at3193          -            329     0.014   16.2   1.0   2   3       8.1   2.2e+03   -0.9   0.0    57   111   216   274   203   287 0.51 -
ID=PSME_00018904     -            656 75948at3193          -            329     0.014   16.2   1.0   3   3       3.6   9.7e+02    0.3   0.1    70   116   351   399   311   406 0.79 -
ID=PSME_00028106     -            325 75948at3193          -            329     0.015   16.2   0.2   1   1   0.00058      0.16   12.8   0.2    40   118   165   261   139   321 0.68 -
ID=PSME_00009008     -            569 75948at3193          -            329     0.018   15.9   1.9   1   2      0.01       2.8    8.7   0.5    81   136   166   224    58   251 0.76 -
ID=PSME_00009008     -            569 75948at3193          -            329     0.018   15.9   1.9   2   2       3.5   9.4e+02    0.3   0.0    85   129   307   350   260   358 0.71 -
ID=PSME_00016071     -            515 75948at3193          -            329     0.019   15.8   1.4   1   3     0.078        21    5.8   0.2    90   136    21    67     1    87 0.75 -
ID=PSME_00016071     -            515 75948at3193          -            329     0.019   15.8   1.4   2   3       3.2   8.7e+02    0.4   0.0    51    79   154   182   142   192 0.81 -
ID=PSME_00016071     -            515 75948at3193          -            329     0.019   15.8   1.4   3   3     0.046        13    6.5   0.0    39   118   360   442   326   461 0.58 -
ID=PSME_00032300     -            388 75948at3193          -            329     0.024   15.4   0.1   1   1   0.00014     0.037   14.8   0.1   101   160    86   148    73   162 0.83 -
ID=PSME_00049720     -             82 75948at3193          -            329     0.025   15.4   0.1   1   1   0.00011      0.03   15.1   0.1   101   159    20    79    15    80 0.88 -
ID=PSME_00024129     -            162 75948at3193          -            329     0.026   15.3   3.2   1   2   0.00026     0.072   13.9   0.3    88   172     2    93     1   101 0.78 -
ID=PSME_00024129     -            162 75948at3193          -            329     0.026   15.3   3.2   2   2       1.3   3.6e+02    1.7   0.2    88   118   116   148   109   157 0.71 -
ID=PSME_00028869     -            326 75948at3193          -            329     0.031   15.1   2.7   1   3       4.2   1.1e+03    0.1   0.1    91   121    36    66    26    71 0.76 -
ID=PSME_00028869     -            326 75948at3193          -            329     0.031   15.1   2.7   2   3         2   5.4e+02    1.1   0.0    52    79   104   131    94   141 0.84 -
ID=PSME_00028869     -            326 75948at3193          -            329     0.031   15.1   2.7   3   3    0.0012      0.34   11.7   0.3    51   137   180   276   169   298 0.74 -
ID=PSME_00037056     -            492 75948at3193          -            329     0.046   14.5   0.4   1   1    0.0011      0.31   11.8   0.3    58   123    25    93    16   109 0.78 -
ID=PSME_00007905     -            652 75948at3193          -            329     0.057   14.2   0.1   1   1   0.00062      0.17   12.6   0.0    49   119   372   453   359   463 0.73 -
ID=PSME_00035211     -            108 75948at3193          -            329     0.065   14.0   0.2   1   1   0.00044      0.12   13.1   0.2   102   157     2    58     1    71 0.80 -
ID=PSME_00008817     -             97 75948at3193          -            329     0.067   14.0   0.0   1   1   0.00026      0.07   13.9   0.0    80   133    15    69     5    92 0.83 -
ID=PSME_00005266     -            144 75948at3193          -            329     0.077   13.8   0.1   1   1   0.00058      0.16   12.8   0.0    82   118    30    68    21    77 0.81 -
ID=PSME_00024236     -            563 75948at3193          -            329      0.08   13.7   0.0   1   2       0.1        28    5.4   0.0    92   119   292   319   259   331 0.66 -
ID=PSME_00024236     -            563 75948at3193          -            329      0.08   13.7   0.0   2   2     0.078        21    5.8   0.0    10    76   380   454   372   473 0.68 -
ID=PSME_00048725     -            121 75948at3193          -            329     0.094   13.5   0.1   1   1   0.00078      0.21   12.3   0.0    82   118     7    45     3    55 0.77 -
ID=PSME_00019360     -            235 75948at3193          -            329       0.1   13.4   0.1   1   2     0.014       3.8    8.2   0.1    82   131    87   140    82   151 0.82 -
ID=PSME_00019360     -            235 75948at3193          -            329       0.1   13.4   0.1   2   2    0.0092       2.5    8.8   0.0    25   104   108   197   105   198 0.72 -
ID=PSME_00029703     -            513 75948at3193          -            329      0.16   12.7   0.0   1   1   0.00096      0.26   12.0   0.0    82   153   335   409   308   429 0.84 -
ID=PSME_00054559     -            361 75948at3193          -            329      0.19   12.5   0.0   1   2     0.011       3.1    8.5   0.0    54   119    71   139    30   147 0.65 -
ID=PSME_00054559     -            361 75948at3193          -            329      0.19   12.5   0.0   2   2    0.0052       1.4    9.6   0.0    13    77   108   173    97   191 0.71 -
ID=PSME_00005264     -            195 75948at3193          -            329       0.2   12.4   0.0   1   1    0.0015      0.41   11.4   0.0    82   118    81   119    75   126 0.83 -
ID=PSME_00005269     -            167 75948at3193          -            329      0.22   12.2   0.1   1   1    0.0015      0.42   11.4   0.0    81   116    52    89    43    98 0.81 -
ID=PSME_00009375     -            413 75948at3193          -            329      0.23   12.2   2.0   1   2      0.01       2.8    8.6   0.9    51   133    59   149    34   181 0.72 -
ID=PSME_00009375     -            413 75948at3193          -            329      0.23   12.2   2.0   2   2       2.7   7.3e+02    0.7   0.0    90   134   206   249   178   291 0.60 -
ID=PSME_00007357     -            162 75948at3193          -            329      0.24   12.2   0.3   1   2       7.1   1.9e+03   -0.7   0.0    99   117    11    29     3    36 0.72 -
ID=PSME_00007357     -            162 75948at3193          -            329      0.24   12.2   0.3   2   2    0.0028      0.76   10.5   0.1    21    76    93   154    83   161 0.68 -
ID=PSME_00045477     -            362 75948at3193          -            329      0.28   12.0   0.1   1   2      0.27        74    4.0   0.0   264   303    11    51     2    55 0.85 -
ID=PSME_00045477     -            362 75948at3193          -            329      0.28   12.0   0.1   2   2     0.005       1.3    9.7   0.0    49   119    30   100    21   114 0.73 -
ID=PSME_00038164     -            337 75948at3193          -            329      0.39   11.5   0.3   1   2     0.072        19    5.9   0.0    88   131     7    53     2    82 0.71 -
ID=PSME_00038164     -            337 75948at3193          -            329      0.39   11.5   0.3   2   2      0.49   1.3e+02    3.1   0.1    85   129   141   184    66   217 0.61 -
ID=PSME_00002967     -            541 75948at3193          -            329      0.39   11.5   0.0   1   1    0.0024      0.66   10.7   0.0    26    87   205   271   191   284 0.74 -
ID=PSME_00018747     -            675 75948at3193          -            329      0.48   11.2  11.4   1   4      0.79   2.1e+02    2.5   0.1    92   136    59   103    44   121 0.80 -
ID=PSME_00018747     -            675 75948at3193          -            329      0.48   11.2  11.4   2   4      0.56   1.5e+02    3.0   0.1    91   141   226   276   211   293 0.74 -
ID=PSME_00018747     -            675 75948at3193          -            329      0.48   11.2  11.4   3   4      0.12        33    5.1   0.2    90   157   337   404   322   422 0.80 -
ID=PSME_00018747     -            675 75948at3193          -            329      0.48   11.2  11.4   4   4       3.2   8.7e+02    0.5   0.0    51    80   500   529   489   549 0.81 -
ID=PSME_00014456     -            415 75948at3193          -            329      0.48   11.2   0.0   1   1    0.0027      0.72   10.6   0.0   216   270    93   150    84   164 0.80 -
ID=PSME_00054328     -             66 75948at3193          -            329       0.6   10.8   0.0   1   1    0.0022       0.6   10.8   0.0    52    78     3    29     1    47 0.85 -
ID=PSME_00007253     -            816 75948at3193          -            329       2.3    8.9   4.6   1   2       9.4   2.5e+03   -1.1   0.1   132   158     6    32     3    77 0.60 -
ID=PSME_00007253     -            816 75948at3193          -            329       2.3    8.9   4.6   2   2    0.0056       1.5    9.5   0.2    72   162   217   318   162   330 0.70 -
ID=PSME_00023192     -            546 75948at3193          -            329       3.5    8.3   3.7   1   2     0.091        25    5.5   0.1   262   296    89   123    84   143 0.59 -
ID=PSME_00023192     -            546 75948at3193          -            329       3.5    8.3   3.7   2   2      0.63   1.7e+02    2.8   0.1    85   130   160   205   144   220 0.86 -
#
# Program:         hmmsearch
# Version:         3.2.1 (June 2018)
# Pipeline mode:   SEARCH
# Query file:      /isg/shared/databases/BUSCO/odb10/embryophyta_odb10/hmms/75948at3193.hmm
# Target file:     /labs/Wegrzyn/ConiferGenomes/Psme/analysis/SURF_annotation/analyze_orig_maker/gfacs/filtered/maker_genes.fasta.faa
# Option settings: /usr/local/bin/hmmsearch --domtblout /labs/Wegrzyn/ConiferGenomes/Psme/analysis/SURF_annotation/analyze_orig_maker/busco/maker/run_embryophyta_odb10/hmmer_output/75948at3193.out --cpu 1 /isg/shared/databases/BUSCO/odb10/embryophyta_odb10/hmms/75948at3193.hmm /labs/Wegrzyn/ConiferGenomes/Psme/analysis/SURF_annotation/analyze_orig_maker/gfacs/filtered/maker_genes.fasta.faa 
# Current dir:     /labs/Wegrzyn/ConiferGenomes/Psme/analysis/SURF_annotation/analyze_orig_maker/busco
# Date:            Fri Jul 10 13:57:30 2020
# [ok]
