#                                                                            --- full sequence --- -------------- this domain -------------   hmm coord   ali coord   env coord
# target name        accession   tlen query name           accession   qlen   E-value  score  bias   #  of  c-Evalue  i-Evalue  score  bias  from    to  from    to  from    to  acc description of target
#------------------- ---------- ----- -------------------- ---------- ----- --------- ------ ----- --- --- --------- --------- ------ ----- ----- ----- ----- ----- ----- ----- ---- ---------------------
ID=PSME_00006300     -            617 76286at3193          -            357  7.1e-130  434.6   5.9   1   3     1e-14   1.4e-10   42.1   0.0     1    48    42    90    42    95 0.92 -
ID=PSME_00006300     -            617 76286at3193          -            357  7.1e-130  434.6   5.9   2   3   2.3e-36   3.2e-32  113.3   1.1    44   122   108   201    99   208 0.88 -
ID=PSME_00006300     -            617 76286at3193          -            357  7.1e-130  434.6   5.9   3   3   8.7e-85   1.2e-80  272.6   0.1   128   317   282   508   272   512 0.85 -
ID=PSME_00003584     -            517 76286at3193          -            357   8.1e-32  112.0   0.3   1   2   2.1e-23   2.9e-19   70.7   0.4     6   106    71   176    66   204 0.85 -
ID=PSME_00003584     -            517 76286at3193          -            357   8.1e-32  112.0   0.3   2   2   8.2e-14   1.1e-09   39.2   0.0   189   290   291   393   244   427 0.86 -
ID=PSME_00006150     -            310 76286at3193          -            357     0.006   17.0   0.0   1   1   6.1e-07    0.0084   16.6   0.0    71   116    31    76    22    96 0.90 -
ID=PSME_00011743     -            275 76286at3193          -            357      0.51   10.7   0.0   1   1   5.3e-05      0.72   10.2   0.0   226   266    24    65     3    76 0.70 -
#
# Program:         hmmsearch
# Version:         3.2.1 (June 2018)
# Pipeline mode:   SEARCH
# Query file:      /isg/shared/databases/BUSCO/odb10/embryophyta_odb10/hmms/76286at3193.hmm
# Target file:     /labs/Wegrzyn/ConiferGenomes/Psme/analysis/SURF_annotation/analyze_orig_maker/gfacs/filtered/maker_genes.fasta.faa
# Option settings: /usr/local/bin/hmmsearch --domtblout /labs/Wegrzyn/ConiferGenomes/Psme/analysis/SURF_annotation/analyze_orig_maker/busco/maker/run_embryophyta_odb10/hmmer_output/76286at3193.out --cpu 1 /isg/shared/databases/BUSCO/odb10/embryophyta_odb10/hmms/76286at3193.hmm /labs/Wegrzyn/ConiferGenomes/Psme/analysis/SURF_annotation/analyze_orig_maker/gfacs/filtered/maker_genes.fasta.faa 
# Current dir:     /labs/Wegrzyn/ConiferGenomes/Psme/analysis/SURF_annotation/analyze_orig_maker/busco
# Date:            Fri Jul 10 13:57:21 2020
# [ok]
