#                                                                            --- full sequence --- -------------- this domain -------------   hmm coord   ali coord   env coord
# target name        accession   tlen query name           accession   qlen   E-value  score  bias   #  of  c-Evalue  i-Evalue  score  bias  from    to  from    to  from    to  acc description of target
#------------------- ---------- ----- -------------------- ---------- ----- --------- ------ ----- --- --- --------- --------- ------ ----- ----- ----- ----- ----- ----- ----- ---- ---------------------
ID=PSME_00006252     -            281 76409at3193          -            326   1.3e-64  220.1   0.1   1   2   3.7e-52   5.1e-49  168.9   0.1   132   271    25   191    16   201 0.84 -
ID=PSME_00006252     -            281 76409at3193          -            326   1.3e-64  220.1   0.1   2   2   2.1e-15   2.8e-12   48.1   0.0   269   325   216   279   213   280 0.88 -
ID=PSME_00036489     -            910 76409at3193          -            326   2.8e-33  117.1   2.0   1   2   1.6e-17   2.2e-14   55.1   0.1    45   182    26   172    13   176 0.84 -
ID=PSME_00036489     -            910 76409at3193          -            326   2.8e-33  117.1   2.0   2   2   2.2e-19   3.1e-16   61.1   0.2    51   200   185   343   181   346 0.85 -
ID=PSME_00040269     -            455 76409at3193          -            326   1.5e-28  101.6   0.6   1   3   1.3e-06    0.0018   19.2   0.0   135   185   153   206   142   208 0.83 -
ID=PSME_00040269     -            455 76409at3193          -            326   1.5e-28  101.6   0.6   2   3   2.2e-25     3e-22   80.9   0.2    54   207   168   345   164   362 0.82 -
ID=PSME_00040269     -            455 76409at3193          -            326   1.5e-28  101.6   0.6   3   3   5.6e-05     0.077   13.8   0.0   223   270   314   365   309   381 0.61 -
ID=PSME_00010716     -            305 76409at3193          -            326   2.9e-21   77.7   0.1   1   1   8.7e-23   1.2e-19   72.3   0.1    52   268    45   291    43   294 0.75 -
ID=PSME_00009588     -            557 76409at3193          -            326   1.8e-19   71.8   0.4   1   3   2.3e-07   0.00032   21.7   0.0    51   102    67   117    56   136 0.90 -
ID=PSME_00009588     -            557 76409at3193          -            326   1.8e-19   71.8   0.4   2   3     1e-06    0.0014   19.5   0.0   223   274   165   216   119   223 0.73 -
ID=PSME_00009588     -            557 76409at3193          -            326   1.8e-19   71.8   0.4   3   3   5.8e-09     8e-06   26.9   0.1   184   257   225   302   215   322 0.65 -
ID=PSME_00036652     -            938 76409at3193          -            326   4.3e-19   70.5   2.9   1   3      0.49   6.8e+02    0.9   0.0   234   269   162   202   156   208 0.49 -
ID=PSME_00036652     -            938 76409at3193          -            326   4.3e-19   70.5   2.9   2   3   1.3e-14   1.8e-11   45.4   0.1    32   142   195   310   189   314 0.87 -
ID=PSME_00036652     -            938 76409at3193          -            326   4.3e-19   70.5   2.9   3   3   1.3e-07   0.00018   22.5   0.2    51   143   315   411   305   436 0.78 -
ID=PSME_00005505     -            334 76409at3193          -            326   1.2e-18   69.0   0.1   1   2   1.1e-17   1.6e-14   55.5   0.0    49   253    22   252     5   257 0.76 -
ID=PSME_00005505     -            334 76409at3193          -            326   1.2e-18   69.0   0.1   2   2   1.4e-06     0.002   19.0   0.0    54   182   182   332   179   333 0.70 -
ID=PSME_00008324     -            491 76409at3193          -            326   1.9e-16   61.8   0.9   1   3   7.7e-06     0.011   16.7   0.0   131   188    42   101    31   112 0.65 -
ID=PSME_00008324     -            491 76409at3193          -            326   1.9e-16   61.8   0.9   2   3   2.4e-08   3.3e-05   24.9   0.1   183   279   121   220   112   227 0.78 -
ID=PSME_00008324     -            491 76409at3193          -            326   1.9e-16   61.8   0.9   3   3   4.2e-06    0.0058   17.5   0.0    43   127   228   312   221   331 0.70 -
ID=PSME_00048096     -            382 76409at3193          -            326   1.1e-08   36.3   0.0   1   2   4.3e-06    0.0059   17.5   0.0     5    51   247   293   241   304 0.87 -
ID=PSME_00048096     -            382 76409at3193          -            326   1.1e-08   36.3   0.0   2   2   6.4e-06    0.0087   16.9   0.0   135   184   316   368   303   375 0.80 -
ID=PSME_00031790     -            398 76409at3193          -            326     3e-08   34.9   0.0   1   2   1.5e-08     2e-05   25.6   0.0   182   300   105   230    88   244 0.78 -
ID=PSME_00031790     -            398 76409at3193          -            326     3e-08   34.9   0.0   2   2    0.0094        13    6.5   0.0   241   312   284   365   280   377 0.61 -
ID=PSME_00028417     -            333 76409at3193          -            326     3e-08   34.9   0.0   1   1   3.2e-11   4.4e-08   34.3   0.0   183   267    75   168    64   193 0.78 -
ID=PSME_00015752     -            399 76409at3193          -            326     3e-07   31.6   0.1   1   2   9.3e-08   0.00013   23.0   0.0   185   270    37   123    33   145 0.69 -
ID=PSME_00015752     -            399 76409at3193          -            326     3e-07   31.6   0.1   2   2     0.026        36    5.0   0.0   236   271   329   363   321   373 0.79 -
ID=PSME_00014408     -            388 76409at3193          -            326   8.9e-06   26.8   0.1   1   2      0.13   1.8e+02    2.8   0.0   146   163    24    41    13    52 0.75 -
ID=PSME_00014408     -            388 76409at3193          -            326   8.9e-06   26.8   0.1   2   2   2.4e-07   0.00032   21.6   0.0    51   154    81   196    68   200 0.78 -
ID=PSME_00045836     -            239 76409at3193          -            326   1.9e-05   25.7   0.0   1   1     2e-08   2.7e-05   25.2   0.0   187   277    54   149    50   198 0.71 -
ID=PSME_00020144     -            495 76409at3193          -            326   2.9e-05   25.1   0.2   1   2   0.00023      0.32   11.8   0.0     6    75    57   128    52   183 0.80 -
ID=PSME_00020144     -            495 76409at3193          -            326   2.9e-05   25.1   0.2   2   2   0.00033      0.45   11.3   0.0     6    75   290   362   286   370 0.76 -
ID=PSME_00022964     -            835 76409at3193          -            326    0.0077   17.1   0.3   1   3   4.1e-05     0.056   14.3   0.1    49   107    23    84    12    91 0.80 -
ID=PSME_00022964     -            835 76409at3193          -            326    0.0077   17.1   0.3   2   3       1.6   2.2e+03   -0.9   0.0   235   253   101   119    93   132 0.54 -
ID=PSME_00022964     -            835 76409at3193          -            326    0.0077   17.1   0.3   3   3       8.2   1.1e+04   -3.2   0.0    78    88   799   809   796   820 0.67 -
ID=PSME_00030773     -            325 76409at3193          -            326    0.0082   17.0   0.0   1   1   1.2e-05     0.016   16.1   0.0     4    46    31    73    28    81 0.93 -
ID=PSME_00051674     -            216 76409at3193          -            326     0.015   16.1   0.2   1   1   1.7e-05     0.023   15.6   0.2     3    48    18    63    15    76 0.86 -
ID=PSME_00052412     -            384 76409at3193          -            326     0.016   16.1   0.4   1   1     2e-05     0.028   15.3   0.4     4    45    30    71    27    82 0.89 -
ID=PSME_00028383     -            411 76409at3193          -            326      0.02   15.7   0.1   1   1   2.3e-05     0.032   15.1   0.1    53   168   157   279   134   324 0.73 -
ID=PSME_00033389     -            626 76409at3193          -            326      0.02   15.7   1.0   1   2     0.013        18    6.1   0.1     3    59    19    77    17    97 0.74 -
ID=PSME_00033389     -            626 76409at3193          -            326      0.02   15.7   1.0   2   2    0.0027       3.7    8.3   0.1     2    62   432   495   431   511 0.75 -
ID=PSME_00056716     -            386 76409at3193          -            326     0.021   15.7   0.4   1   1   2.6e-05     0.035   14.9   0.4     4    42    39    77    36    86 0.89 -
ID=PSME_00009514     -            386 76409at3193          -            326     0.022   15.6   0.4   1   1   2.6e-05     0.036   14.9   0.4     4    42    40    78    37    86 0.88 -
ID=PSME_00057203     -            167 76409at3193          -            326     0.029   15.2   0.0   1   1   2.7e-05     0.037   14.9   0.0    13    49    20    57     8    75 0.74 -
ID=PSME_00034455     -            241 76409at3193          -            326     0.041   14.7   0.0   1   2      0.01        14    6.4   0.0   231   270    25    61    18    80 0.70 -
ID=PSME_00034455     -            241 76409at3193          -            326     0.041   14.7   0.0   2   2     0.013        17    6.1   0.0   236   271   198   232   185   235 0.85 -
ID=PSME_00052411     -            398 76409at3193          -            326     0.059   14.2   0.1   1   1   7.1e-05     0.097   13.5   0.1     4    43    39    78    36    89 0.88 -
ID=PSME_00043629     -            435 76409at3193          -            326     0.085   13.7   0.4   1   2       4.6   6.4e+03   -2.3   0.0    28    65    36    73    32    77 0.87 -
ID=PSME_00043629     -            435 76409at3193          -            326     0.085   13.7   0.4   2   2   0.00017      0.23   12.2   0.1     4    46    88   130    86   152 0.88 -
ID=PSME_00054461     -            170 76409at3193          -            326     0.086   13.7   0.0   1   1   7.2e-05     0.098   13.5   0.0     4    72    44   115    41   142 0.80 -
ID=PSME_00052976     -            183 76409at3193          -            326     0.097   13.5   0.0   1   1   7.5e-05       0.1   13.4   0.0     7    49    21    62    15   146 0.70 -
ID=PSME_00006293     -            370 76409at3193          -            326       0.1   13.4   0.0   1   2    0.0041       5.6    7.7   0.0   175   222    58   104    30   119 0.71 -
ID=PSME_00006293     -            370 76409at3193          -            326       0.1   13.4   0.0   2   2     0.075     1e+02    3.5   0.0   152   184   302   334   289   345 0.61 -
ID=PSME_00007849     -            562 76409at3193          -            326      0.11   13.3   0.0   1   1   0.00017      0.24   12.2   0.0     4    55   404   455   401   474 0.86 -
ID=PSME_00008304     -            370 76409at3193          -            326      0.14   13.0   0.0   1   2   0.00037       0.5   11.1   0.0   185   252    20    91    15    99 0.68 -
ID=PSME_00008304     -            370 76409at3193          -            326      0.14   13.0   0.0   2   2       9.8   1.3e+04   -3.4   0.0   240   253   346   359   343   365 0.73 -
ID=PSME_00021712     -            459 76409at3193          -            326      0.14   12.9   0.0   1   1   0.00024      0.33   11.7   0.0   238   299   198   260   192   268 0.76 -
ID=PSME_00021783     -            358 76409at3193          -            326      0.15   12.8   0.1   1   1   0.00016      0.22   12.3   0.1    13    49    20    57     8    74 0.77 -
ID=PSME_00021713     -            459 76409at3193          -            326      0.23   12.3   0.0   1   1   0.00038      0.52   11.1   0.0   238   299   198   260   192   269 0.77 -
ID=PSME_00056698     -            256 76409at3193          -            326      0.26   12.1   0.0   1   1   0.00031      0.43   11.4   0.0   247   311   110   176    95   191 0.66 -
ID=PSME_00051059     -            102 76409at3193          -            326       0.3   11.9   0.0   1   1   0.00025      0.34   11.7   0.0     3    62    23    85    21    99 0.73 -
ID=PSME_00040068     -            405 76409at3193          -            326       0.3   11.9   0.1   1   2    0.0025       3.4    8.4   0.0     3    39    64   100    62   108 0.90 -
ID=PSME_00040068     -            405 76409at3193          -            326       0.3   11.9   0.1   2   2      0.44     6e+02    1.0   0.0   175   267   269   314   247   349 0.58 -
ID=PSME_00038305     -            469 76409at3193          -            326      0.38   11.5   0.0   1   1   0.00041      0.56   11.0   0.0    16    48    23    56     9    74 0.78 -
ID=PSME_00044056     -            219 76409at3193          -            326      0.46   11.3   0.0   1   2    0.0054       7.5    7.3   0.0   175   221    71   120    64   129 0.80 -
ID=PSME_00044056     -            219 76409at3193          -            326      0.46   11.3   0.0   2   2    0.0062       8.5    7.1   0.0   243   312    95   168    89   182 0.51 -
#
# Program:         hmmsearch
# Version:         3.2.1 (June 2018)
# Pipeline mode:   SEARCH
# Query file:      /isg/shared/databases/BUSCO/odb10/embryophyta_odb10/hmms/76409at3193.hmm
# Target file:     /labs/Wegrzyn/ConiferGenomes/Psme/analysis/SURF_annotation/analyze_orig_maker/gfacs/filtered/maker_genes.fasta.faa
# Option settings: /usr/local/bin/hmmsearch --domtblout /labs/Wegrzyn/ConiferGenomes/Psme/analysis/SURF_annotation/analyze_orig_maker/busco/maker/run_embryophyta_odb10/hmmer_output/76409at3193.out --cpu 1 /isg/shared/databases/BUSCO/odb10/embryophyta_odb10/hmms/76409at3193.hmm /labs/Wegrzyn/ConiferGenomes/Psme/analysis/SURF_annotation/analyze_orig_maker/gfacs/filtered/maker_genes.fasta.faa 
# Current dir:     /labs/Wegrzyn/ConiferGenomes/Psme/analysis/SURF_annotation/analyze_orig_maker/busco
# Date:            Fri Jul 10 13:57:23 2020
# [ok]
