#                                                                            --- full sequence --- -------------- this domain -------------   hmm coord   ali coord   env coord
# target name        accession   tlen query name           accession   qlen   E-value  score  bias   #  of  c-Evalue  i-Evalue  score  bias  from    to  from    to  from    to  acc description of target
#------------------- ---------- ----- -------------------- ---------- ----- --------- ------ ----- --- --- --------- --------- ------ ----- ----- ----- ----- ----- ----- ----- ---- ---------------------
ID=PSME_00035523     -            256 78142at3193          -            446   1.8e-99  335.0   2.3   1   1  1.9e-103   2.1e-99  334.8   2.3   279   446     1   168     1   168 1.00 -
ID=PSME_00041731     -            167 78142at3193          -            446   4.3e-08   33.9   0.1   1   1   4.7e-12   5.2e-08   33.6   0.1   270   377    30   143     2   151 0.76 -
ID=PSME_00041730     -            192 78142at3193          -            446     3e-05   24.5   0.0   1   2   4.1e-06     0.045   14.0   0.0   231   318    41   133     8   137 0.71 -
ID=PSME_00041730     -            192 78142at3193          -            446     3e-05   24.5   0.0   2   2   9.6e-05         1    9.5   0.0   347   397   137   187   121   190 0.89 -
ID=PSME_00034390     -           1485 78142at3193          -            446     0.026   14.8   0.1   1   2      0.08   8.7e+02   -0.1   0.0   208   259    43   100    38   117 0.67 -
ID=PSME_00034390     -           1485 78142at3193          -            446     0.026   14.8   0.1   2   2   1.5e-05      0.17   12.1   0.0   273   319  1270  1316  1261  1327 0.88 -
ID=PSME_00009191     -            272 78142at3193          -            446     0.039   14.2   0.0   1   1   4.8e-06     0.053   13.8   0.0   244   318     3    82     1    94 0.78 -
#
# Program:         hmmsearch
# Version:         3.2.1 (June 2018)
# Pipeline mode:   SEARCH
# Query file:      /isg/shared/databases/BUSCO/odb10/embryophyta_odb10/hmms/78142at3193.hmm
# Target file:     /labs/Wegrzyn/ConiferGenomes/Psme/analysis/SURF_annotation/analyze_orig_maker/gfacs/filtered/maker_genes.fasta.faa
# Option settings: /usr/local/bin/hmmsearch --domtblout /labs/Wegrzyn/ConiferGenomes/Psme/analysis/SURF_annotation/analyze_orig_maker/busco/maker/run_embryophyta_odb10/hmmer_output/78142at3193.out --cpu 1 /isg/shared/databases/BUSCO/odb10/embryophyta_odb10/hmms/78142at3193.hmm /labs/Wegrzyn/ConiferGenomes/Psme/analysis/SURF_annotation/analyze_orig_maker/gfacs/filtered/maker_genes.fasta.faa 
# Current dir:     /labs/Wegrzyn/ConiferGenomes/Psme/analysis/SURF_annotation/analyze_orig_maker/busco
# Date:            Fri Jul 10 13:57:23 2020
# [ok]
