#                                                                            --- full sequence --- -------------- this domain -------------   hmm coord   ali coord   env coord
# target name        accession   tlen query name           accession   qlen   E-value  score  bias   #  of  c-Evalue  i-Evalue  score  bias  from    to  from    to  from    to  acc description of target
#------------------- ---------- ----- -------------------- ---------- ----- --------- ------ ----- --- --- --------- --------- ------ ----- ----- ----- ----- ----- ----- ----- ---- ---------------------
ID=PSME_00017240     -            403 78511at3193          -            663   3.5e-26   93.1   1.2   1   1   2.4e-28   7.2e-26   92.1   1.2   125   247   242   401   236   402 0.73 -
ID=PSME_00005685     -            234 78511at3193          -            663   3.2e-12   47.0   1.4   1   4   0.00021     0.062   13.0   0.0   315   357    18    60     3    63 0.85 -
ID=PSME_00005685     -            234 78511at3193          -            663   3.2e-12   47.0   1.4   2   4   0.00017      0.05   13.3   0.3   318   352    63    97    60   104 0.89 -
ID=PSME_00005685     -            234 78511at3193          -            663   3.2e-12   47.0   1.4   3   4     0.053        16    5.0   0.0   216   253   102   137   100   142 0.81 -
ID=PSME_00005685     -            234 78511at3193          -            663   3.2e-12   47.0   1.4   4   4   4.4e-05     0.013   15.2   0.1   297   361   126   190   125   205 0.78 -
ID=PSME_00011504     -            954 78511at3193          -            663     1e-11   45.3   8.5   1   4       6.7     2e+03   -1.9   0.1   315   346    25    56    14    62 0.81 -
ID=PSME_00011504     -            954 78511at3193          -            663     1e-11   45.3   8.5   2   4   2.9e-05    0.0087   15.8   0.3   313   355    82   124    76   128 0.88 -
ID=PSME_00011504     -            954 78511at3193          -            663     1e-11   45.3   8.5   3   4   0.00057      0.17   11.5   0.1   314   358   125   169   121   179 0.90 -
ID=PSME_00011504     -            954 78511at3193          -            663     1e-11   45.3   8.5   4   4   8.1e-07   0.00024   21.0   0.0   283   396   271   381   262   389 0.85 -
ID=PSME_00031480     -            676 78511at3193          -            663   5.6e-11   42.9   0.0   1   2       2.6   7.7e+02   -0.5   0.1   218   258   220   258   212   275 0.81 -
ID=PSME_00031480     -            676 78511at3193          -            663   5.6e-11   42.9   0.0   2   2   1.3e-12     4e-10   40.1   0.0   220   354   317   447   307   476 0.80 -
ID=PSME_00021391     -            613 78511at3193          -            663   8.9e-10   38.9  12.4   1   4   1.3e-05    0.0038   17.0   0.1   286   351    94   156    85   161 0.86 -
ID=PSME_00021391     -            613 78511at3193          -            663   8.9e-10   38.9  12.4   2   4     0.033       9.8    5.7   0.6   313   356   160   201   156   217 0.60 -
ID=PSME_00021391     -            613 78511at3193          -            663   8.9e-10   38.9  12.4   3   4   2.5e-06   0.00075   19.3   0.0   286   352   396   459   389   467 0.86 -
ID=PSME_00021391     -            613 78511at3193          -            663   8.9e-10   38.9  12.4   4   4      0.25        74    2.8   0.8   314   359   463   506   459   516 0.71 -
ID=PSME_00016646     -            363 78511at3193          -            663   9.4e-10   38.8   2.9   1   4   0.00081      0.24   11.0   0.0   223   253    73   101    61   108 0.86 -
ID=PSME_00016646     -            363 78511at3193          -            663   9.4e-10   38.8   2.9   2   4   0.00011     0.032   13.9   0.2   314   355   189   230   103   240 0.82 -
ID=PSME_00016646     -            363 78511at3193          -            663   9.4e-10   38.8   2.9   3   4      0.14        43    3.6   0.0    83   113   242   275   229   279 0.58 -
ID=PSME_00016646     -            363 78511at3193          -            663   9.4e-10   38.8   2.9   4   4     0.026       7.9    6.0   0.0   299   358   267   326   261   331 0.85 -
ID=PSME_00027590     -            318 78511at3193          -            663   1.7e-09   38.0   8.5   1   4    0.0086       2.6    7.6   0.0   316   354    17    55     6    60 0.86 -
ID=PSME_00027590     -            318 78511at3193          -            663   1.7e-09   38.0   8.5   2   4   0.00014     0.041   13.6   0.2   317   353    64   100    54   107 0.88 -
ID=PSME_00027590     -            318 78511at3193          -            663   1.7e-09   38.0   8.5   3   4      0.31        92    2.5   0.0   315   352   104   141    98   148 0.72 -
ID=PSME_00027590     -            318 78511at3193          -            663   1.7e-09   38.0   8.5   4   4   1.9e-05    0.0057   16.4   1.1   216   357   146   276   136   290 0.74 -
ID=PSME_00035897     -            319 78511at3193          -            663     2e-09   37.8   3.2   1   3    0.0022      0.66    9.6   0.4   319   357    86   124    77   130 0.87 -
ID=PSME_00035897     -            319 78511at3193          -            663     2e-09   37.8   3.2   2   3   2.1e-05    0.0062   16.3   0.0   215   350   123   252   119   259 0.78 -
ID=PSME_00035897     -            319 78511at3193          -            663     2e-09   37.8   3.2   3   3   0.00025     0.076   12.7   0.1   215   260   262   310   252   313 0.81 -
ID=PSME_00007492     -           1061 78511at3193          -            663   2.9e-09   37.2  16.2   1   6       1.2   3.5e+02    0.6   0.0   325   360   221   258   210   263 0.77 -
ID=PSME_00007492     -           1061 78511at3193          -            663   2.9e-09   37.2  16.2   2   6   8.8e-05     0.026   14.2   0.1   288   352   310   372   302   376 0.88 -
ID=PSME_00007492     -           1061 78511at3193          -            663   2.9e-09   37.2  16.2   3   6      0.03       9.1    5.8   0.5   311   360   373   420   370   430 0.80 -
ID=PSME_00007492     -           1061 78511at3193          -            663   2.9e-09   37.2  16.2   4   6   3.1e-05    0.0092   15.7   0.1   288   352   723   785   714   789 0.87 -
ID=PSME_00007492     -           1061 78511at3193          -            663   2.9e-09   37.2  16.2   5   6    0.0031      0.94    9.1   0.5   311   360   786   833   783   843 0.80 -
ID=PSME_00007492     -           1061 78511at3193          -            663   2.9e-09   37.2  16.2   6   6       7.5   2.2e+03   -2.1   0.1   334   360   928   954   915   968 0.77 -
ID=PSME_00020924     -            249 78511at3193          -            663   6.6e-09   36.0  10.2   1   4     0.022       6.5    6.3   0.1   311   350    24    69     8    77 0.74 -
ID=PSME_00020924     -            249 78511at3193          -            663   6.6e-09   36.0  10.2   2   4     0.027       8.1    6.0   0.1   315   351    85   121    75   127 0.86 -
ID=PSME_00020924     -            249 78511at3193          -            663   6.6e-09   36.0  10.2   3   4   1.9e-05    0.0056   16.4   0.4   311   352   125   166   120   176 0.87 -
ID=PSME_00020924     -            249 78511at3193          -            663   6.6e-09   36.0  10.2   4   4   0.00017     0.051   13.3   0.2   310   354   169   213   166   244 0.83 -
ID=PSME_00026539     -            413 78511at3193          -            663   1.2e-08   35.2   2.3   1   3      0.11        33    4.0   0.0   325   360   154   191   140   196 0.79 -
ID=PSME_00026539     -            413 78511at3193          -            663   1.2e-08   35.2   2.3   2   3   6.9e-06    0.0021   17.9   0.1   287   352   242   305   234   308 0.87 -
ID=PSME_00026539     -            413 78511at3193          -            663   1.2e-08   35.2   2.3   3   3    0.0004      0.12   12.0   0.5   311   363   306   356   304   371 0.79 -
ID=PSME_00046185     -            216 78511at3193          -            663   3.7e-08   33.6   1.4   1   3     0.078        23    4.5   0.0   322   360    43    83    22    90 0.76 -
ID=PSME_00046185     -            216 78511at3193          -            663   3.7e-08   33.6   1.4   2   3    0.0001      0.03   14.0   0.0   296   352    99   153    88   159 0.90 -
ID=PSME_00046185     -            216 78511at3193          -            663   3.7e-08   33.6   1.4   3   3   0.00011     0.033   13.9   0.5   311   366   154   207   151   213 0.82 -
ID=PSME_00031935     -            526 78511at3193          -            663   3.9e-08   33.5   0.8   1   3      0.39   1.2e+02    2.2   0.0   320   360   307   349   283   356 0.77 -
ID=PSME_00031935     -            526 78511at3193          -            663   3.9e-08   33.5   0.8   2   3   1.4e-05    0.0041   16.9   0.0   287   352   400   463   383   466 0.88 -
ID=PSME_00031935     -            526 78511at3193          -            663   3.9e-08   33.5   0.8   3   3   0.00067       0.2   11.3   0.5   311   366   464   517   461   523 0.81 -
ID=PSME_00015159     -           1006 78511at3193          -            663   8.3e-08   32.4   0.5   1   3    0.0055       1.7    8.3   0.0   287   347   278   336   254   348 0.87 -
ID=PSME_00015159     -           1006 78511at3193          -            663   8.3e-08   32.4   0.5   2   3       2.4   7.2e+02   -0.4   0.0   335   360   607   632   588   636 0.76 -
ID=PSME_00015159     -           1006 78511at3193          -            663   8.3e-08   32.4   0.5   3   3   2.1e-06   0.00064   19.6   0.0   287   361   683   755   667   765 0.85 -
ID=PSME_00016647     -            283 78511at3193          -            663     1e-07   32.1   5.0   1   3     0.001       0.3   10.7   0.0   213   253    79   117    68   121 0.88 -
ID=PSME_00016647     -            283 78511at3193          -            663     1e-07   32.1   5.0   2   3    0.0046       1.4    8.5   0.0   315   354   206   245   181   258 0.67 -
ID=PSME_00016647     -            283 78511at3193          -            663     1e-07   32.1   5.0   3   3       2.1   6.2e+02   -0.2   0.0    80    97   255   272   244   278 0.81 -
ID=PSME_00014231     -            371 78511at3193          -            663   2.2e-07   31.0   6.6   1   3         1     3e+02    0.8   0.0   334   363    98   127    70   135 0.83 -
ID=PSME_00014231     -            371 78511at3193          -            663   2.2e-07   31.0   6.6   2   3   4.5e-06    0.0013   18.5   0.4   287   352   176   238   157   242 0.87 -
ID=PSME_00014231     -            371 78511at3193          -            663   2.2e-07   31.0   6.6   3   3   9.3e-05     0.028   14.1   1.0   310   364   238   290   236   299 0.86 -
ID=PSME_00004465     -            525 78511at3193          -            663   3.2e-07   30.5   1.0   1   5      0.13        40    3.7   0.0   239   264    36    61    24    71 0.79 -
ID=PSME_00004465     -            525 78511at3193          -            663   3.2e-07   30.5   1.0   2   5     0.002      0.58    9.8   0.1   317   364    80   127    66   147 0.81 -
ID=PSME_00004465     -            525 78511at3193          -            663   3.2e-07   30.5   1.0   3   5       4.1   1.2e+03   -1.2   0.0   224   280   128   181   120   200 0.65 -
ID=PSME_00004465     -            525 78511at3193          -            663   3.2e-07   30.5   1.0   4   5      0.22        66    3.0   0.0   272   350   294   372   273   383 0.76 -
ID=PSME_00004465     -            525 78511at3193          -            663   3.2e-07   30.5   1.0   5   5    0.0034         1    9.0   0.0   290   405   398   508   391   512 0.81 -
ID=PSME_00005268     -            284 78511at3193          -            663   4.2e-07   30.1   2.9   1   2    0.0057       1.7    8.2   0.1   294   352    59   118    51   127 0.87 -
ID=PSME_00005268     -            284 78511at3193          -            663   4.2e-07   30.1   2.9   2   2   4.6e-07   0.00014   21.8   0.3   219   320   127   222   118   231 0.84 -
ID=PSME_00043427     -            246 78511at3193          -            663   8.7e-07   29.0   0.8   1   3       2.5   7.6e+02   -0.5   0.0   325   359    41    77    23    82 0.76 -
ID=PSME_00043427     -            246 78511at3193          -            663   8.7e-07   29.0   0.8   2   3   9.1e-05     0.027   14.2   0.0   287   352   129   192   121   195 0.88 -
ID=PSME_00043427     -            246 78511at3193          -            663   8.7e-07   29.0   0.8   3   3   0.00033       0.1   12.3   0.5   311   358   193   238   190   245 0.81 -
ID=PSME_00004967     -           1191 78511at3193          -            663     9e-07   29.0   0.2   1   3       1.3   3.9e+02    0.4   0.0   183   207   412   436   403   450 0.82 -
ID=PSME_00004967     -           1191 78511at3193          -            663     9e-07   29.0   0.2   2   3   0.00043      0.13   12.0   0.1   219   347   505   622   458   651 0.80 -
ID=PSME_00004967     -           1191 78511at3193          -            663     9e-07   29.0   0.2   3   3   0.00042      0.13   12.0   0.0   283   360   945  1018   921  1062 0.81 -
ID=PSME_00019621     -            240 78511at3193          -            663   9.1e-07   29.0   3.3   1   2   1.5e-05    0.0044   16.8   0.1   312   351    37    76    19    89 0.80 -
ID=PSME_00019621     -            240 78511at3193          -            663   9.1e-07   29.0   3.3   2   2   0.00021     0.063   13.0   0.7   216   352    88   213    76   235 0.78 -
ID=PSME_00003503     -            366 78511at3193          -            663   1.1e-06   28.7   2.3   1   2   2.3e-05    0.0069   16.1   0.2   312   350   163   201   145   211 0.81 -
ID=PSME_00003503     -            366 78511at3193          -            663   1.1e-06   28.7   2.3   2   2   0.00028     0.084   12.6   0.2   217   352   215   339   205   361 0.81 -
ID=PSME_00009687     -            655 78511at3193          -            663   1.2e-06   28.6   6.3   1   4   2.1e-05    0.0062   16.3   1.2   240   363    73   183    67   195 0.80 -
ID=PSME_00009687     -            655 78511at3193          -            663   1.2e-06   28.6   6.3   2   4       7.3   2.2e+03   -2.0   0.0   234   277   193   235   179   254 0.65 -
ID=PSME_00009687     -            655 78511at3193          -            663   1.2e-06   28.6   6.3   3   4      0.59   1.7e+02    1.6   0.0   319   351   394   426   371   444 0.65 -
ID=PSME_00009687     -            655 78511at3193          -            663   1.2e-06   28.6   6.3   4   4    0.0025      0.75    9.4   0.3   229   354   401   513   387   545 0.73 -
ID=PSME_00020280     -            460 78511at3193          -            663   1.3e-06   28.5   4.8   1   3       1.6   4.7e+02    0.2   0.0    16    39   162   185   157   192 0.84 -
ID=PSME_00020280     -            460 78511at3193          -            663   1.3e-06   28.5   4.8   2   3   0.00093      0.28   10.8   0.1   313   350   221   258   200   271 0.84 -
ID=PSME_00020280     -            460 78511at3193          -            663   1.3e-06   28.5   4.8   3   3   1.1e-05    0.0033   17.2   0.9   216   354   271   398   259   424 0.78 -
ID=PSME_00039843     -            340 78511at3193          -            663     2e-06   27.8   0.9   1   3      0.13        37    3.8   0.0   324   361    79   118    63   131 0.77 -
ID=PSME_00039843     -            340 78511at3193          -            663     2e-06   27.8   0.9   2   3   5.1e-06    0.0015   18.3   0.1   287   352   146   209   138   215 0.86 -
ID=PSME_00039843     -            340 78511at3193          -            663     2e-06   27.8   0.9   3   3      0.14        41    3.7   0.2   311   348   210   245   207   276 0.87 -
ID=PSME_00004313     -            429 78511at3193          -            663   2.6e-06   27.4   1.4   1   4    0.0027      0.81    9.3   0.0   216   253    60    95    49   101 0.81 -
ID=PSME_00004313     -            429 78511at3193          -            663   2.6e-06   27.4   1.4   2   4     0.041        12    5.4   0.0   317   354   103   140    96   167 0.78 -
ID=PSME_00004313     -            429 78511at3193          -            663   2.6e-06   27.4   1.4   3   4      0.13        40    3.7   0.0   221   253   206   245   196   256 0.63 -
ID=PSME_00004313     -            429 78511at3193          -            663   2.6e-06   27.4   1.4   4   4     0.021       6.3    6.4   0.1   309   358   246   295   234   301 0.84 -
ID=PSME_00044539     -            487 78511at3193          -            663   2.6e-06   27.4   5.0   1   3   9.6e-07   0.00028   20.7   1.5   223   363     7   135     2   147 0.85 -
ID=PSME_00044539     -            487 78511at3193          -            663   2.6e-06   27.4   5.0   2   3         1   3.1e+02    0.8   0.0   222   294   135   204   127   236 0.69 -
ID=PSME_00044539     -            487 78511at3193          -            663   2.6e-06   27.4   5.0   3   3      0.19        58    3.2   0.1   270   350   293   373   277   383 0.76 -
ID=PSME_00029486     -            423 78511at3193          -            663   2.6e-06   27.4   5.9   1   3      0.17        51    3.4   0.0    15    40   145   170   137   182 0.89 -
ID=PSME_00029486     -            423 78511at3193          -            663   2.6e-06   27.4   5.9   2   3   1.1e-05    0.0033   17.2   0.1   312   352   220   260   201   272 0.81 -
ID=PSME_00029486     -            423 78511at3193          -            663   2.6e-06   27.4   5.9   3   3    0.0089       2.7    7.6   1.2   216   353   271   397   259   418 0.74 -
ID=PSME_00054687     -            317 78511at3193          -            663   2.8e-06   27.3   9.0   1   4   0.00012     0.035   13.8   0.3   214   353     6   136     3   145 0.79 -
ID=PSME_00054687     -            317 78511at3193          -            663   2.8e-06   27.3   9.0   2   4     0.007       2.1    7.9   0.4   220   254   147   181   137   204 0.86 -
ID=PSME_00054687     -            317 78511at3193          -            663   2.8e-06   27.3   9.0   3   4       3.5     1e+03   -1.0   0.0   184   211   204   232   197   240 0.78 -
ID=PSME_00054687     -            317 78511at3193          -            663   2.8e-06   27.3   9.0   4   4     0.011       3.4    7.3   0.1   320   350   282   312   257   315 0.80 -
ID=PSME_00045677     -            424 78511at3193          -            663   3.3e-06   27.1   3.2   1   3     0.085        25    4.4   0.0    15    41   144   170   136   182 0.89 -
ID=PSME_00045677     -            424 78511at3193          -            663   3.3e-06   27.1   3.2   2   3   5.3e-05     0.016   15.0   0.1   313   351   220   258   201   269 0.79 -
ID=PSME_00045677     -            424 78511at3193          -            663   3.3e-06   27.1   3.2   3   3     0.019       5.6    6.5   0.2   218   353   272   399   261   421 0.74 -
ID=PSME_00024119     -            462 78511at3193          -            663   4.3e-06   26.7  12.5   1   4       3.8   1.1e+03   -1.1   0.0    16    38   144   166   140   171 0.83 -
ID=PSME_00024119     -            462 78511at3193          -            663   4.3e-06   26.7  12.5   2   4      0.14        41    3.7   0.1   302   356   164   218   151   225 0.85 -
ID=PSME_00024119     -            462 78511at3193          -            663   4.3e-06   26.7  12.5   3   4   1.8e-06   0.00055   19.8   0.5   297   353   241   298   239   305 0.81 -
ID=PSME_00024119     -            462 78511at3193          -            663   4.3e-06   26.7  12.5   4   4    0.0074       2.2    7.9   1.4   220   366   314   453   306   461 0.70 -
ID=PSME_00011774     -            522 78511at3193          -            663   6.1e-06   26.2   1.5   1   4    0.0051       1.5    8.4   0.0   185   253    49   121    29   126 0.62 -
ID=PSME_00011774     -            522 78511at3193          -            663   6.1e-06   26.2   1.5   2   4     0.057        17    4.9   0.1   216   275   128   192   121   211 0.71 -
ID=PSME_00011774     -            522 78511at3193          -            663   6.1e-06   26.2   1.5   3   4       1.7   5.1e+02    0.1   0.0   225   254   207   235   201   245 0.83 -
ID=PSME_00011774     -            522 78511at3193          -            663   6.1e-06   26.2   1.5   4   4     0.004       1.2    8.8   0.0   317   371   344   399   322   417 0.75 -
ID=PSME_00038146     -            422 78511at3193          -            663   7.4e-06   26.0   6.0   1   3      0.74   2.2e+02    1.3   0.1    15    38   144   167   137   176 0.88 -
ID=PSME_00038146     -            422 78511at3193          -            663   7.4e-06   26.0   6.0   2   3   1.3e-05     0.004   16.9   0.1   311   351   218   258   201   271 0.79 -
ID=PSME_00038146     -            422 78511at3193          -            663   7.4e-06   26.0   6.0   3   3    0.0032      0.96    9.1   0.6   218   353   272   396   265   412 0.77 -
ID=PSME_00010284     -            417 78511at3193          -            663     1e-05   25.5   5.6   1   3         1   3.1e+02    0.8   0.1    15    38   142   165   134   176 0.88 -
ID=PSME_00010284     -            417 78511at3193          -            663     1e-05   25.5   5.6   2   3   2.9e-05    0.0088   15.8   0.1   313   351   218   256   199   268 0.80 -
ID=PSME_00010284     -            417 78511at3193          -            663     1e-05   25.5   5.6   3   3    0.0018      0.54    9.9   0.7   216   352   268   393   257   407 0.78 -
ID=PSME_00020281     -            406 78511at3193          -            663   1.1e-05   25.4   4.8   1   3       1.3   3.7e+02    0.5   0.0    16    39   145   168   140   178 0.85 -
ID=PSME_00020281     -            406 78511at3193          -            663   1.1e-05   25.4   4.8   2   3   0.00016     0.047   13.4   0.1   313   350   204   241   188   252 0.87 -
ID=PSME_00020281     -            406 78511at3193          -            663   1.1e-05   25.4   4.8   3   3   0.00052      0.16   11.7   0.5   216   353   254   380   242   397 0.76 -
ID=PSME_00020863     -            540 78511at3193          -            663   1.3e-05   25.2   0.1   1   3      0.25        75    2.8   0.0   325   360   208   245   194   250 0.80 -
ID=PSME_00020863     -            540 78511at3193          -            663   1.3e-05   25.2   0.1   2   3   3.3e-06   0.00099   18.9   0.0   287   361   296   368   279   379 0.84 -
ID=PSME_00020863     -            540 78511at3193          -            663   1.3e-05   25.2   0.1   3   3       5.1   1.5e+03   -1.5   0.0   335   361   465   491   456   528 0.76 -
ID=PSME_00032983     -            558 78511at3193          -            663   1.4e-05   25.1   1.8   1   2   0.00028     0.084   12.6   0.0   298   352   286   338   277   342 0.89 -
ID=PSME_00032983     -            558 78511at3193          -            663   1.4e-05   25.1   1.8   2   2   0.00035       0.1   12.3   0.6   311   364   339   390   337   397 0.85 -
ID=PSME_00017809     -            360 78511at3193          -            663     2e-05   24.5   5.9   1   3     0.089        27    4.3   0.0    15    41    82   108    74   122 0.87 -
ID=PSME_00017809     -            360 78511at3193          -            663     2e-05   24.5   5.9   2   3    0.0006      0.18   11.5   0.1   314   351   159   196   139   206 0.79 -
ID=PSME_00017809     -            360 78511at3193          -            663     2e-05   24.5   5.9   3   3    0.0029      0.87    9.2   1.8   217   353   209   334   198   355 0.77 -
ID=PSME_00014235     -            413 78511at3193          -            663   2.6e-05   24.2   5.5   1   3   3.2e-06   0.00094   19.0   1.2   237   364    12   126     4   156 0.82 -
ID=PSME_00014235     -            413 78511at3193          -            663   2.6e-05   24.2   5.5   2   3       3.9   1.2e+03   -1.1   0.1   299   350   253   303   234   313 0.72 -
ID=PSME_00014235     -            413 78511at3193          -            663   2.6e-05   24.2   5.5   3   3     0.078        23    4.5   0.0   290   352   329   387   322   397 0.82 -
ID=PSME_00016934     -            396 78511at3193          -            663   2.7e-05   24.1   2.7   1   2    0.0044       1.3    8.6   0.0   319   353    67   101    58   118 0.87 -
ID=PSME_00016934     -            396 78511at3193          -            663   2.7e-05   24.1   2.7   2   2     0.008       2.4    7.8   0.1   214   254   273   312   235   329 0.80 -
ID=PSME_00031681     -            440 78511at3193          -            663   2.7e-05   24.1   6.9   1   3      0.78   2.3e+02    1.2   0.1    15    38   162   185   155   194 0.88 -
ID=PSME_00031681     -            440 78511at3193          -            663   2.7e-05   24.1   6.9   2   3   3.9e-05     0.012   15.4   0.1   311   351   236   276   219   285 0.78 -
ID=PSME_00031681     -            440 78511at3193          -            663   2.7e-05   24.1   6.9   3   3    0.0022      0.65    9.6   0.8   214   351   286   412   277   436 0.77 -
ID=PSME_00014453     -            610 78511at3193          -            663   2.8e-05   24.0   6.0   1   5    0.0052       1.6    8.4   0.0   317   354   177   216   164   222 0.60 -
ID=PSME_00014453     -            610 78511at3193          -            663   2.8e-05   24.0   6.0   2   5     0.021       6.3    6.4   0.1   315   358   219   262   214   273 0.87 -
ID=PSME_00014453     -            610 78511at3193          -            663   2.8e-05   24.0   6.0   3   5     0.005       1.5    8.4   0.2   214   255   409   450   393   470 0.82 -
ID=PSME_00014453     -            610 78511at3193          -            663   2.8e-05   24.0   6.0   4   5     0.043        13    5.3   0.3   184   255   430   493   425   516 0.63 -
ID=PSME_00014453     -            610 78511at3193          -            663   2.8e-05   24.0   6.0   5   5       2.2   6.5e+02   -0.3   0.0   319   353   543   577   536   592 0.71 -
ID=PSME_00015328     -            220 78511at3193          -            663   2.8e-05   24.0   0.3   1   4      0.55   1.6e+02    1.7   0.1   308   353    42    87    34   100 0.86 -
ID=PSME_00015328     -            220 78511at3193          -            663   2.8e-05   24.0   0.3   2   4      0.88   2.6e+02    1.0   0.0   217   253    93   128    89   132 0.70 -
ID=PSME_00015328     -            220 78511at3193          -            663   2.8e-05   24.0   0.3   3   4     0.044        13    5.3   0.0   218   255   137   174   135   180 0.90 -
ID=PSME_00015328     -            220 78511at3193          -            663   2.8e-05   24.0   0.3   4   4   0.00056      0.17   11.6   0.0   215   254   178   215   172   218 0.85 -
ID=PSME_00001102     -            981 78511at3193          -            663   2.9e-05   24.0   0.2   1   3       7.4   2.2e+03   -2.1   0.0   309   349    21    61    15    79 0.75 -
ID=PSME_00001102     -            981 78511at3193          -            663   2.9e-05   24.0   0.2   2   3      0.63   1.9e+02    1.5   0.0   220   253    75   106    71   121 0.63 -
ID=PSME_00001102     -            981 78511at3193          -            663   2.9e-05   24.0   0.2   3   3   3.5e-06    0.0011   18.8   0.0   210   353   149   286   144   320 0.78 -
ID=PSME_00052167     -            338 78511at3193          -            663   3.4e-05   23.8   7.0   1   3      0.14        41    3.7   0.1    15    41   102   128    98   134 0.88 -
ID=PSME_00052167     -            338 78511at3193          -            663   3.4e-05   23.8   7.0   2   3   0.00015     0.046   13.4   0.1   315   351   138   174   128   184 0.87 -
ID=PSME_00052167     -            338 78511at3193          -            663   3.4e-05   23.8   7.0   3   3    0.0036       1.1    8.9   0.8   216   353   186   312   174   334 0.75 -
ID=PSME_00002331     -            400 78511at3193          -            663   3.5e-05   23.7   7.0   1   3       2.9   8.7e+02   -0.7   0.1    15    38   162   185   154   199 0.86 -
ID=PSME_00002331     -            400 78511at3193          -            663   3.5e-05   23.7   7.0   2   3   6.6e-07    0.0002   21.2   0.2   311   353   236   278   218   290 0.83 -
ID=PSME_00002331     -            400 78511at3193          -            663   3.5e-05   23.7   7.0   3   3     0.051        15    5.1   0.2   214   255   286   328   278   346 0.72 -
ID=PSME_00042033     -            378 78511at3193          -            663   3.5e-05   23.7   0.1   1   2       0.3        90    2.5   0.0   325   360   130   167   117   172 0.79 -
ID=PSME_00042033     -            378 78511at3193          -            663   3.5e-05   23.7   0.1   2   2   3.8e-06    0.0011   18.7   0.1   297   368   276   345   242   371 0.84 -
ID=PSME_00035269     -            383 78511at3193          -            663   3.6e-05   23.7   4.2   1   2   0.00027     0.079   12.6   0.1   313   351   170   208   153   217 0.87 -
ID=PSME_00035269     -            383 78511at3193          -            663   3.6e-05   23.7   4.2   2   2   0.00058      0.17   11.5   1.2   216   355   220   348   208   377 0.74 -
ID=PSME_00018157     -            335 78511at3193          -            663   3.8e-05   23.6   4.4   1   3     0.086        26    4.3   0.1    15    38   101   124    91   139 0.86 -
ID=PSME_00018157     -            335 78511at3193          -            663   3.8e-05   23.6   4.4   2   3   0.00012     0.036   13.8   0.2   309   350   169   210   158   215 0.84 -
ID=PSME_00018157     -            335 78511at3193          -            663   3.8e-05   23.6   4.4   3   3     0.025       7.3    6.1   0.1   208   257   215   265   210   281 0.79 -
ID=PSME_00031008     -            598 78511at3193          -            663   4.3e-05   23.4   0.1   1   3       7.3   2.2e+03   -2.0   0.1   312   351     8    47     3    76 0.70 -
ID=PSME_00031008     -            598 78511at3193          -            663   4.3e-05   23.4   0.1   2   3      0.35     1e+02    2.3   0.0   220   350    59    90    45   115 0.59 -
ID=PSME_00031008     -            598 78511at3193          -            663   4.3e-05   23.4   0.1   3   3   6.1e-06    0.0018   18.1   0.0   210   354   133   271   128   310 0.74 -
ID=PSME_00012603     -            332 78511at3193          -            663   5.2e-05   23.2   1.3   1   2   1.2e-06   0.00036   20.4   0.9   240   364    95   206    82   220 0.82 -
ID=PSME_00012603     -            332 78511at3193          -            663   5.2e-05   23.2   1.3   2   2       3.3     1e+03   -0.9   0.0   234   294   215   274   201   305 0.73 -
ID=PSME_00004801     -            554 78511at3193          -            663   5.8e-05   23.0   7.1   1   4      0.54   1.6e+02    1.7   0.1    15    38   112   135   102   152 0.88 -
ID=PSME_00004801     -            554 78511at3193          -            663   5.8e-05   23.0   7.1   2   4    0.0033      0.98    9.0   0.1   312   351   187   226   169   242 0.77 -
ID=PSME_00004801     -            554 78511at3193          -            663   5.8e-05   23.0   7.1   3   4   0.00092      0.27   10.9   0.1   309   350   410   451   391   457 0.79 -
ID=PSME_00004801     -            554 78511at3193          -            663   5.8e-05   23.0   7.1   4   4       0.4   1.2e+02    2.1   0.1   210   254   458   503   452   515 0.75 -
ID=PSME_00003499     -            373 78511at3193          -            663     6e-05   23.0   8.8   1   2   7.2e-06    0.0022   17.8   0.2   313   351   162   200   143   218 0.80 -
ID=PSME_00003499     -            373 78511at3193          -            663     6e-05   23.0   8.8   2   2     3e-05    0.0088   15.8   3.6   216   351   164   294   162   316 0.68 -
ID=PSME_00017811     -            456 78511at3193          -            663   6.4e-05   22.9   8.9   1   4      0.23        67    3.0   0.1    15    40   139   164   135   170 0.88 -
ID=PSME_00017811     -            456 78511at3193          -            663   6.4e-05   22.9   8.9   2   4     0.092        27    4.2   0.1   305   356   163   215   159   227 0.76 -
ID=PSME_00017811     -            456 78511at3193          -            663   6.4e-05   22.9   8.9   3   4   4.8e-05     0.014   15.1   0.1   313   351   254   292   235   305 0.79 -
ID=PSME_00017811     -            456 78511at3193          -            663   6.4e-05   22.9   8.9   4   4      0.13        39    3.7   0.5   285   353   366   430   300   451 0.65 -
ID=PSME_00010285     -            373 78511at3193          -            663   6.5e-05   22.8   2.7   1   2   3.2e-05    0.0095   15.7   0.1   313   351   156   194   141   204 0.87 -
ID=PSME_00010285     -            373 78511at3193          -            663   6.5e-05   22.8   2.7   2   2     0.015       4.4    6.9   0.6   218   366   208   347   198   370 0.62 -
ID=PSME_00044281     -            184 78511at3193          -            663   6.7e-05   22.8   7.5   1   2   5.1e-06    0.0015   18.3   1.3   275   353    20    96     7   102 0.78 -
ID=PSME_00044281     -            184 78511at3193          -            663   6.7e-05   22.8   7.5   2   2    0.0046       1.4    8.6   1.0   313   362    98   145    93   156 0.77 -
ID=PSME_00040762     -            835 78511at3193          -            663   7.5e-05   22.6   0.8   1   3     0.089        27    4.3   0.2   290   353   412   471   401   490 0.67 -
ID=PSME_00040762     -            835 78511at3193          -            663   7.5e-05   22.6   0.8   2   3    0.0042       1.3    8.7   0.0   317   352   518   553   497   559 0.89 -
ID=PSME_00040762     -            835 78511at3193          -            663   7.5e-05   22.6   0.8   3   3     0.016       4.8    6.8   0.0   314   355   557   598   553   619 0.82 -
ID=PSME_00020279     -            350 78511at3193          -            663   7.7e-05   22.6  11.1   1   4       0.6   1.8e+02    1.6   0.1    16    37    34    55    29    60 0.88 -
ID=PSME_00020279     -            350 78511at3193          -            663   7.7e-05   22.6  11.1   2   4     0.023       6.9    6.2   0.1   302   353    54   105    51   119 0.87 -
ID=PSME_00020279     -            350 78511at3193          -            663   7.7e-05   22.6  11.1   3   4    0.0013       0.4   10.3   0.0   313   350   148   185   138   198 0.88 -
ID=PSME_00020279     -            350 78511at3193          -            663   7.7e-05   22.6  11.1   4   4    0.0028      0.84    9.2   2.1   218   353   200   324   188   340 0.78 -
ID=PSME_00003170     -            812 78511at3193          -            663   8.1e-05   22.5   7.4   1   3   3.6e-05     0.011   15.5   2.4   185   356    29   178    14   182 0.69 -
ID=PSME_00003170     -            812 78511at3193          -            663   8.1e-05   22.5   7.4   2   3     0.042        13    5.4   0.0   216   253   179   214   174   219 0.85 -
ID=PSME_00003170     -            812 78511at3193          -            663   8.1e-05   22.5   7.4   3   3       4.7   1.4e+03   -1.4   0.4   596   627   765   801   755   809 0.69 -
ID=PSME_00048532     -            614 78511at3193          -            663   8.9e-05   22.4   2.8   1   3   5.7e-05     0.017   14.8   0.4   240   364   167   278   159   298 0.80 -
ID=PSME_00048532     -            614 78511at3193          -            663   8.9e-05   22.4   2.8   2   3      0.33        97    2.4   0.1   288   350   462   523   428   534 0.78 -
ID=PSME_00048532     -            614 78511at3193          -            663   8.9e-05   22.4   2.8   3   3      0.34     1e+02    2.4   0.0   293   351   552   606   545   611 0.79 -
ID=PSME_00015158     -            105 78511at3193          -            663   0.00011   22.1   0.1   1   1   3.7e-07   0.00011   22.1   0.1   291   361    31    99     2   105 0.81 -
ID=PSME_00007486     -            456 78511at3193          -            663   0.00011   22.0   0.0   1   3     0.019       5.6    6.5   0.0   318   352    13    47     4    52 0.89 -
ID=PSME_00007486     -            456 78511at3193          -            663   0.00011   22.0   0.0   2   3      0.15        46    3.5   0.1   313   358    50    96    45   114 0.70 -
ID=PSME_00007486     -            456 78511at3193          -            663   0.00011   22.0   0.0   3   3    0.0066         2    8.0   0.0   222   351   197   324   194   330 0.80 -
ID=PSME_00035181     -            380 78511at3193          -            663   0.00018   21.4   1.9   1   3      0.15        44    3.6   0.0    15    40   151   176   143   189 0.89 -
ID=PSME_00035181     -            380 78511at3193          -            663   0.00018   21.4   1.9   2   3    0.0003     0.088   12.5   0.0   313   347   227   261   208   270 0.79 -
ID=PSME_00035181     -            380 78511at3193          -            663   0.00018   21.4   1.9   3   3       0.2        58    3.2   0.3   311   372   273   338   262   357 0.62 -
ID=PSME_00017810     -            412 78511at3193          -            663   0.00018   21.4   4.0   1   3       2.4   7.2e+02   -0.4   0.0    15    41   140   166   134   176 0.88 -
ID=PSME_00017810     -            412 78511at3193          -            663   0.00018   21.4   4.0   2   3   4.6e-06    0.0014   18.5   0.2   309   351   212   254   198   262 0.82 -
ID=PSME_00017810     -            412 78511at3193          -            663   0.00018   21.4   4.0   3   3      0.28        83    2.7   0.3   311   368   262   323   254   344 0.62 -
ID=PSME_00008859     -           1082 78511at3193          -            663   0.00019   21.3   5.6   1   3    0.0015      0.45   10.1   0.1   316   366   496   546   478   560 0.83 -
ID=PSME_00008859     -           1082 78511at3193          -            663   0.00019   21.3   5.6   2   3     0.007       2.1    8.0   0.3   310   355   601   645   564   651 0.69 -
ID=PSME_00008859     -           1082 78511at3193          -            663   0.00019   21.3   5.6   3   3      0.16        48    3.4   0.0   221   254   651   683   648   702 0.70 -
ID=PSME_00036498     -            445 78511at3193          -            663   0.00019   21.3   0.1   1   1   1.3e-06    0.0004   20.2   0.1   287   364   342   425   316   441 0.76 -
ID=PSME_00014506     -            333 78511at3193          -            663    0.0002   21.2   0.3   1   1   6.9e-05      0.02   14.6   0.3   218   358    51   178    45   189 0.58 -
ID=PSME_00022796     -            424 78511at3193          -            663    0.0002   21.2  18.0   1   5       2.1   6.3e+02   -0.3   0.1    16    37    80   101    76   111 0.80 -
ID=PSME_00022796     -            424 78511at3193          -            663    0.0002   21.2  18.0   2   5     0.019       5.7    6.5   0.2   291   349    92   148    85   148 0.72 -
ID=PSME_00022796     -            424 78511at3193          -            663    0.0002   21.2  18.0   3   5    0.0005      0.15   11.7   2.3   289   348   134   187   124   201 0.85 -
ID=PSME_00022796     -            424 78511at3193          -            663    0.0002   21.2  18.0   4   5      0.19        56    3.2   0.2   311   351   193   233   184   239 0.82 -
ID=PSME_00022796     -            424 78511at3193          -            663    0.0002   21.2  18.0   5   5    0.0015      0.45   10.1   5.4   188   352   218   367   209   384 0.73 -
ID=PSME_00035610     -            392 78511at3193          -            663   0.00021   21.2   0.2   1   2   0.00066       0.2   11.3   0.0   297   358   261   322   250   324 0.86 -
ID=PSME_00035610     -            392 78511at3193          -            663   0.00021   21.2   0.2   2   2     0.003       0.9    9.2   0.0   316   355   322   361   314   385 0.84 -
ID=PSME_00009008     -            569 78511at3193          -            663   0.00024   21.0   0.2   1   2       1.1   3.3e+02    0.7   0.0   184   207    78   101    67   112 0.80 -
ID=PSME_00009008     -            569 78511at3193          -            663   0.00024   21.0   0.2   2   2   6.6e-06     0.002   17.9   0.1   219   349   170   289   117   315 0.83 -
ID=PSME_00002176     -            912 78511at3193          -            663   0.00025   20.9   4.2   1   4      0.57   1.7e+02    1.6   0.0   217   252   156   190   134   200 0.85 -
ID=PSME_00002176     -            912 78511at3193          -            663   0.00025   20.9   4.2   2   4    0.0088       2.6    7.6   0.1   222   281   221   279   215   294 0.87 -
ID=PSME_00002176     -            912 78511at3193          -            663   0.00025   20.9   4.2   3   4    0.0061       1.8    8.1   1.0   215   253   301   338   289   342 0.86 -
ID=PSME_00002176     -            912 78511at3193          -            663   0.00025   20.9   4.2   4   4       1.7   5.1e+02    0.1   0.0   313   340   420   447   391   450 0.75 -
ID=PSME_00007745     -            817 78511at3193          -            663   0.00026   20.9  10.2   1   3   4.9e-05     0.015   15.1   4.4   189   356    39   194    28   201 0.67 -
ID=PSME_00007745     -            817 78511at3193          -            663   0.00026   20.9  10.2   2   3      0.07        21    4.6   0.0   218   253   197   230   191   235 0.83 -
ID=PSME_00007745     -            817 78511at3193          -            663   0.00026   20.9  10.2   3   3       3.8   1.1e+03   -1.1   0.3   438   494   681   739   660   751 0.74 -
ID=PSME_00006534     -            443 78511at3193          -            663   0.00026   20.8   0.0   1   2   0.00029     0.087   12.5   0.0   310   364   135   189   124   197 0.86 -
ID=PSME_00006534     -            443 78511at3193          -            663   0.00026   20.8   0.0   2   2     0.024       7.1    6.2   0.0   290   368   237   314   210   325 0.78 -
ID=PSME_00025712     -           1018 78511at3193          -            663   0.00028   20.7   7.4   1   4       2.1   6.3e+02   -0.3   0.1    15    38   712   735   708   743 0.87 -
ID=PSME_00025712     -           1018 78511at3193          -            663   0.00028   20.7   7.4   2   4         2     6e+02   -0.2   0.1   302   349   733   780   719   790 0.80 -
ID=PSME_00025712     -           1018 78511at3193          -            663   0.00028   20.7   7.4   3   4   2.1e-05    0.0064   16.3   0.1   312   351   815   854   797   866 0.78 -
ID=PSME_00025712     -           1018 78511at3193          -            663   0.00028   20.7   7.4   4   4     0.029       8.6    5.9   0.7   217   350   867   989   856  1011 0.73 -
ID=PSME_00030711     -            412 78511at3193          -            663   0.00035   20.4   1.4   1   2   6.2e-06    0.0019   18.0   0.4   304   350   264   311   251   318 0.78 -
ID=PSME_00030711     -            412 78511at3193          -            663   0.00035   20.4   1.4   2   2      0.77   2.3e+02    1.2   0.0   211   257   319   366   312   381 0.77 -
ID=PSME_00016635     -            729 78511at3193          -            663   0.00041   20.2   0.1   1   3       6.3   1.9e+03   -1.8   0.1   309   350    89   130    81   149 0.74 -
ID=PSME_00016635     -            729 78511at3193          -            663   0.00041   20.2   0.1   2   3      0.43   1.3e+02    2.0   0.0   222   350   145   174   128   211 0.66 -
ID=PSME_00016635     -            729 78511at3193          -            663   0.00041   20.2   0.1   3   3   4.8e-05     0.014   15.1   0.0   210   372   217   374   212   395 0.69 -
ID=PSME_00026651     -            352 78511at3193          -            663   0.00045   20.1   4.5   1   2   1.7e-05    0.0051   16.6   0.5   287   350   182   242   173   252 0.80 -
ID=PSME_00026651     -            352 78511at3193          -            663   0.00045   20.1   4.5   2   2      0.18        55    3.3   0.1   216   254   255   294   245   301 0.73 -
ID=PSME_00047971     -            399 78511at3193          -            663    0.0005   19.9   4.0   1   3       1.7   4.9e+02    0.1   0.1    16    37   103   124    97   155 0.88 -
ID=PSME_00047971     -            399 78511at3193          -            663    0.0005   19.9   4.0   2   3   1.2e-05    0.0036   17.1   0.1   298   350   230   283   226   294 0.82 -
ID=PSME_00047971     -            399 78511at3193          -            663    0.0005   19.9   4.0   3   3      0.47   1.4e+02    1.9   0.1   215   258   295   339   284   354 0.71 -
ID=PSME_00013937     -            325 78511at3193          -            663   0.00053   19.8   7.6   1   2   5.1e-06    0.0015   18.3   3.7   214   352   119   257   101   263 0.82 -
ID=PSME_00013937     -            325 78511at3193          -            663   0.00053   19.8   7.6   2   2    0.0041       1.2    8.7   3.6   215   356   164   303   162   318 0.72 -
ID=PSME_00034555     -            547 78511at3193          -            663   0.00053   19.8   5.2   1   4   0.00087      0.26   10.9   0.3   310   399   164   253   148   259 0.87 -
ID=PSME_00034555     -            547 78511at3193          -            663   0.00053   19.8   5.2   2   4      0.03         9    5.8   0.0   298   355   260   317   254   342 0.84 -
ID=PSME_00034555     -            547 78511at3193          -            663   0.00053   19.8   5.2   3   4      0.29        87    2.6   0.0   241   257   381   397   321   403 0.77 -
ID=PSME_00034555     -            547 78511at3193          -            663   0.00053   19.8   5.2   4   4       2.4   7.1e+02   -0.4   0.0   237   258   467   487   445   528 0.61 -
ID=PSME_00047021     -            388 78511at3193          -            663   0.00056   19.7   6.5   1   3      0.49   1.5e+02    1.8   0.1    15    38   104   127    97   135 0.88 -
ID=PSME_00047021     -            388 78511at3193          -            663   0.00056   19.7   6.5   2   3    0.0021      0.61    9.7   0.1   311   351   185   224   168   234 0.77 -
ID=PSME_00047021     -            388 78511at3193          -            663   0.00056   19.7   6.5   3   3    0.0019      0.58    9.8   0.7   217   353   237   362   226   384 0.77 -
ID=PSME_00012180     -            596 78511at3193          -            663    0.0007   19.4   0.1   1   2   0.00036      0.11   12.2   0.0   214   275   253   311   248   330 0.75 -
ID=PSME_00012180     -            596 78511at3193          -            663    0.0007   19.4   0.1   2   2     0.066        20    4.7   0.0   216   293   386   461   362   485 0.58 -
ID=PSME_00045770     -            397 78511at3193          -            663   0.00071   19.4   5.5   1   3   2.2e-05    0.0066   16.2   0.7   287   351   167   228   157   245 0.79 -
ID=PSME_00045770     -            397 78511at3193          -            663   0.00071   19.4   5.5   2   3   6.9e-05     0.021   14.6   3.0   215   350   191   321   185   356 0.70 -
ID=PSME_00045770     -            397 78511at3193          -            663   0.00071   19.4   5.5   3   3      0.08        24    4.4   0.8   317   367   242   296   230   389 0.66 -
ID=PSME_00036554     -            152 78511at3193          -            663   0.00077   19.3   1.0   1   2    0.0002      0.06   13.0   0.1   303   353    28    76     4    82 0.75 -
ID=PSME_00036554     -            152 78511at3193          -            663   0.00077   19.3   1.0   2   2     0.042        13    5.4   0.1   318   355    83   120    75   130 0.81 -
ID=PSME_00008005     -            554 78511at3193          -            663   0.00084   19.2   2.9   1   4      0.21        63    3.1   0.1   240   263    24    47    13    57 0.82 -
ID=PSME_00008005     -            554 78511at3193          -            663   0.00084   19.2   2.9   2   4      0.16        48    3.4   0.1   217   255    45    81    38    89 0.78 -
ID=PSME_00008005     -            554 78511at3193          -            663   0.00084   19.2   2.9   3   4      0.14        42    3.6   0.1   270   350   167   247   151   260 0.77 -
ID=PSME_00008005     -            554 78511at3193          -            663   0.00084   19.2   2.9   4   4     0.011       3.2    7.3   0.0   293   392   276   369   268   384 0.77 -
ID=PSME_00031540     -            397 78511at3193          -            663   0.00098   18.9   0.9   1   2   8.2e-06    0.0025   17.6   0.2   311   352   196   237   178   261 0.79 -
ID=PSME_00031540     -            397 78511at3193          -            663   0.00098   18.9   0.9   2   2       3.7   1.1e+03   -1.1   0.1   217   257   249   290   236   308 0.65 -
ID=PSME_00024443     -            461 78511at3193          -            663    0.0011   18.8   7.4   1   2   1.3e-05    0.0038   17.0   4.2   213   353   241   381   220   383 0.69 -
ID=PSME_00024443     -            461 78511at3193          -            663    0.0011   18.8   7.4   2   2    0.0013      0.38   10.4   3.6   216   356   288   426   283   449 0.75 -
ID=PSME_00001924     -            318 78511at3193          -            663    0.0011   18.8   5.5   1   2   0.00049      0.14   11.8   0.2   325   352   126   153   122   169 0.88 -
ID=PSME_00001924     -            318 78511at3193          -            663    0.0011   18.8   5.5   2   2    0.0027      0.79    9.3   0.8   219   353   169   292   160   308 0.78 -
ID=PSME_00037908     -            515 78511at3193          -            663    0.0011   18.7   1.1   1   3     0.016       4.9    6.7   0.0   314   357   110   153   101   167 0.86 -
ID=PSME_00037908     -            515 78511at3193          -            663    0.0011   18.7   1.1   2   3    0.0066         2    8.0   0.1   308   353   373   418   356   424 0.86 -
ID=PSME_00037908     -            515 78511at3193          -            663    0.0011   18.7   1.1   3   3       1.1   3.2e+02    0.7   0.0   218   254   424   459   418   473 0.73 -
ID=PSME_00038164     -            337 78511at3193          -            663    0.0012   18.6   0.0   1   2     2e-05    0.0059   16.4   0.0   218   353     3   127     1   155 0.79 -
ID=PSME_00038164     -            337 78511at3193          -            663    0.0012   18.6   0.0   2   2       2.2   6.6e+02   -0.3   0.0    96   113   197   214   186   219 0.87 -
ID=PSME_00030306     -            487 78511at3193          -            663    0.0014   18.5   6.1   1   2    0.0031      0.94    9.1   0.2   258   354    24   126     3   144 0.72 -
ID=PSME_00030306     -            487 78511at3193          -            663    0.0014   18.5   6.1   2   2   0.00068       0.2   11.3   1.6   287   352   247   312   157   339 0.69 -
ID=PSME_00030320     -            148 78511at3193          -            663    0.0015   18.3   1.3   1   2    0.0001      0.03   14.0   0.0   299   350    22    74    17    79 0.80 -
ID=PSME_00030320     -            148 78511at3193          -            663    0.0015   18.3   1.3   2   2      0.14        41    3.7   0.3   212   258    83   130    75   145 0.63 -
ID=PSME_00026862     -            353 78511at3193          -            663    0.0015   18.3   5.6   1   2    0.0045       1.4    8.6   0.8   290   351   181   243    81   253 0.67 -
ID=PSME_00026862     -            353 78511at3193          -            663    0.0015   18.3   5.6   2   2   0.00068       0.2   11.3   0.3   219   253   253   286   245   301 0.84 -
ID=PSME_00034136     -            454 78511at3193          -            663    0.0016   18.3   1.4   1   3       2.9   8.8e+02   -0.7   0.0    15    37   105   127    97   132 0.85 -
ID=PSME_00034136     -            454 78511at3193          -            663    0.0016   18.3   1.4   2   3     0.085        25    4.4   0.0   311   347   175   211   161   241 0.82 -
ID=PSME_00034136     -            454 78511at3193          -            663    0.0016   18.3   1.4   3   3   0.00067       0.2   11.3   0.2   311   350   337   376   324   400 0.83 -
ID=PSME_00001105     -            855 78511at3193          -            663    0.0016   18.2   0.0   1   1   8.3e-06    0.0025   17.6   0.0   210   353    42   179    37   211 0.72 -
ID=PSME_00014505     -            274 78511at3193          -            663    0.0018   18.1   8.7   1   3   9.9e-06    0.0029   17.4   4.3   221   351    15   145     2   153 0.82 -
ID=PSME_00014505     -            274 78511at3193          -            663    0.0018   18.1   8.7   2   3      0.34     1e+02    2.4   0.1   319   356   155   192   148   214 0.78 -
ID=PSME_00014505     -            274 78511at3193          -            663    0.0018   18.1   8.7   3   3       2.4   7.3e+02   -0.5   0.0   316   354   194   232   173   242 0.70 -
ID=PSME_00016071     -            515 78511at3193          -            663    0.0018   18.1   0.0   1   2    0.0078       2.3    7.8   0.0   218   351    12   134     6   170 0.77 -
ID=PSME_00016071     -            515 78511at3193          -            663    0.0018   18.1   0.0   2   2    0.0074       2.2    7.9   0.0   316   364   406   455   370   473 0.74 -
ID=PSME_00021254     -            444 78511at3193          -            663    0.0018   18.1   0.0   1   2    0.0004      0.12   12.1   0.0   270   374   197   300   188   322 0.79 -
ID=PSME_00021254     -            444 78511at3193          -            663    0.0018   18.1   0.0   2   2      0.15        45    3.5   0.0   220   253   331   363   324   381 0.88 -
ID=PSME_00046143     -            334 78511at3193          -            663     0.002   17.9   0.9   1   2   0.00033     0.097   12.3   0.2   313   350   162   199   142   222 0.85 -
ID=PSME_00046143     -            334 78511at3193          -            663     0.002   17.9   0.9   2   2      0.17        52    3.3   0.0   316   355   272   311   257   332 0.82 -
ID=PSME_00026538     -            259 78511at3193          -            663    0.0023   17.7   0.7   1   2   0.00053      0.16   11.6   0.0   294   352   153   209   131   213 0.85 -
ID=PSME_00026538     -            259 78511at3193          -            663    0.0023   17.7   0.7   2   2      0.04        12    5.5   0.2   311   348   210   245   207   252 0.86 -
ID=PSME_00049142     -            504 78511at3193          -            663    0.0028   17.4   0.1   1   1   1.6e-05    0.0047   16.7   0.1   287   385    34   129    25   142 0.78 -
ID=PSME_00011743     -            275 78511at3193          -            663    0.0028   17.4   2.9   1   4      0.66     2e+02    1.4   0.0   318   353    33    68    24    73 0.80 -
ID=PSME_00011743     -            275 78511at3193          -            663    0.0028   17.4   2.9   2   4     0.037        11    5.6   0.4   308   353    65   110    53   118 0.84 -
ID=PSME_00011743     -            275 78511at3193          -            663    0.0028   17.4   2.9   3   4    0.0074       2.2    7.9   0.2   218   253   116   149   111   160 0.75 -
ID=PSME_00011743     -            275 78511at3193          -            663    0.0028   17.4   2.9   4   4      0.48   1.4e+02    1.9   0.0   315   352   156   193   150   206 0.84 -
ID=PSME_00010476     -            192 78511at3193          -            663    0.0028   17.4   4.4   1   3     0.035        10    5.6   0.2   216   253    15    51     3    58 0.83 -
ID=PSME_00010476     -            192 78511at3193          -            663    0.0028   17.4   4.4   2   3    0.0026      0.79    9.3   0.1   308   351    63   106    52   110 0.87 -
ID=PSME_00010476     -            192 78511at3193          -            663    0.0028   17.4   4.4   3   3      0.16        47    3.5   0.0   318   356   115   153   108   183 0.78 -
ID=PSME_00024307     -           1014 78511at3193          -            663    0.0032   17.3   0.1   1   2      0.37   1.1e+02    2.2   0.0   310   357   238   285   223   303 0.80 -
ID=PSME_00024307     -           1014 78511at3193          -            663    0.0032   17.3   0.1   2   2   0.00034       0.1   12.3   0.0   210   344   321   449   316   478 0.74 -
ID=PSME_00016263     -            287 78511at3193          -            663    0.0034   17.2   4.7   1   3       3.6   1.1e+03   -1.0   0.0   313   346    33    64    24    70 0.79 -
ID=PSME_00016263     -            287 78511at3193          -            663    0.0034   17.2   4.7   2   3   7.7e-05     0.023   14.4   0.1   314   351    75   112    62   122 0.88 -
ID=PSME_00016263     -            287 78511at3193          -            663    0.0034   17.2   4.7   3   3      0.58   1.7e+02    1.6   0.1   217   255   125   164   116   179 0.66 -
ID=PSME_00038141     -            180 78511at3193          -            663    0.0039   16.9   1.6   1   2   0.00038      0.11   12.1   0.4   314   356    60   101    39   130 0.77 -
ID=PSME_00038141     -            180 78511at3193          -            663    0.0039   16.9   1.6   2   2     0.074        22    4.6   0.0   310   349   139   178   117   179 0.81 -
ID=PSME_00044301     -            442 78511at3193          -            663    0.0042   16.9   0.0   1   1     2e-05     0.006   16.3   0.0   210   353    42   179    37   206 0.77 -
ID=PSME_00031002     -            269 78511at3193          -            663    0.0044   16.8   3.6   1   1   0.00026     0.079   12.6   3.6   222   329   146   253   121   266 0.50 -
ID=PSME_00049615     -            187 78511at3193          -            663    0.0046   16.7   1.4   1   2     0.067        20    4.7   0.1   319   353     9    43     3    63 0.82 -
ID=PSME_00049615     -            187 78511at3193          -            663    0.0046   16.7   1.4   2   2   0.00061      0.18   11.4   0.2   310   354    81   124    54   143 0.78 -
ID=PSME_00037503     -            507 78511at3193          -            663    0.0047   16.7   4.9   1   2   8.2e-05     0.024   14.3   0.1   313   351   305   343   291   352 0.86 -
ID=PSME_00037503     -            507 78511at3193          -            663    0.0047   16.7   4.9   2   2     0.095        28    4.2   0.4   216   305   355   437   344   476 0.51 -
ID=PSME_00016262     -            343 78511at3193          -            663    0.0048   16.7   5.5   1   3       4.9   1.4e+03   -1.4   0.0   313   346   122   153   106   160 0.73 -
ID=PSME_00016262     -            343 78511at3193          -            663    0.0048   16.7   5.5   2   3   0.00011     0.033   13.9   0.1   312   351   162   201   145   212 0.83 -
ID=PSME_00016262     -            343 78511at3193          -            663    0.0048   16.7   5.5   3   3      0.14        41    3.7   1.1   219   270   216   268   207   331 0.64 -
ID=PSME_00010984     -           1409 78511at3193          -            663    0.0049   16.6   0.1   1   2   0.00049      0.15   11.8   0.0   207   253   240   285   225   334 0.87 -
ID=PSME_00010984     -           1409 78511at3193          -            663    0.0049   16.6   0.1   2   2      0.34     1e+02    2.4   0.0   219   254   374   408   354   466 0.72 -
ID=PSME_00026341     -            229 78511at3193          -            663    0.0055   16.5   3.1   1   2   0.00072      0.21   11.2   0.1   314   351    17    54     6    67 0.86 -
ID=PSME_00026341     -            229 78511at3193          -            663    0.0055   16.5   3.1   2   2     0.047        14    5.2   1.1   219   262    69   113    54   221 0.59 -
ID=PSME_00042991     -            522 78511at3193          -            663    0.0056   16.4   2.1   1   3      0.32        95    2.5   0.0   240   263     6    29     2    38 0.81 -
ID=PSME_00042991     -            522 78511at3193          -            663    0.0056   16.4   2.1   2   3     0.031       9.4    5.8   0.2   273   350   233   310   214   321 0.77 -
ID=PSME_00042991     -            522 78511at3193          -            663    0.0056   16.4   2.1   3   3      0.41   1.2e+02    2.1   0.0   293   352   339   394   332   434 0.70 -
ID=PSME_00000424     -            603 78511at3193          -            663    0.0071   16.1   0.3   1   2     7e-05     0.021   14.6   0.1   240   350    20   139    10   166 0.72 -
ID=PSME_00000424     -            603 78511at3193          -            663    0.0071   16.1   0.3   2   2       6.1   1.8e+03   -1.8   0.0   309   353   180   225   146   229 0.64 -
ID=PSME_00014297     -            652 78511at3193          -            663    0.0075   16.0   0.1   1   3      0.42   1.2e+02    2.1   0.0   298   349    41    88    16   113 0.76 -
ID=PSME_00014297     -            652 78511at3193          -            663    0.0075   16.0   0.1   2   3       7.6   2.3e+03   -2.1   0.0    96   112   162   178   160   181 0.87 -
ID=PSME_00014297     -            652 78511at3193          -            663    0.0075   16.0   0.1   3   3     0.001      0.31   10.7   0.0   284   360   405   478   379   527 0.69 -
ID=PSME_00021197     -            611 78511at3193          -            663    0.0076   16.0   0.4   1   2       1.1   3.1e+02    0.8   0.0   183   207    42    66    25    75 0.80 -
ID=PSME_00021197     -            611 78511at3193          -            663    0.0076   16.0   0.4   2   2   0.00025     0.075   12.7   0.1   219   356   135   261    82   285 0.79 -
ID=PSME_00041218     -            401 78511at3193          -            663    0.0082   15.9   5.8   1   3       1.3   3.8e+02    0.5   0.0    16    39   145   168   139   178 0.85 -
ID=PSME_00041218     -            401 78511at3193          -            663    0.0082   15.9   5.8   2   3   6.4e-05     0.019   14.7   0.1   313   351   204   242   184   253 0.87 -
ID=PSME_00041218     -            401 78511at3193          -            663    0.0082   15.9   5.8   3   3      0.84   2.5e+02    1.1   0.4   290   351   266   326   254   357 0.73 -
ID=PSME_00004799     -            342 78511at3193          -            663      0.01   15.6   4.0   1   2    0.0006      0.18   11.5   0.2   312   351   170   209   153   218 0.79 -
ID=PSME_00004799     -            342 78511at3193          -            663      0.01   15.6   4.0   2   2     0.066        20    4.7   0.5   311   375   217   285   209   300 0.62 -
ID=PSME_00024143     -            251 78511at3193          -            663      0.01   15.6   4.9   1   3      0.29        86    2.6   0.1   325   353     5    33     3    50 0.82 -
ID=PSME_00024143     -            251 78511at3193          -            663      0.01   15.6   4.9   2   3   0.00086      0.26   11.0   0.1   310   354    71   114    43   134 0.79 -
ID=PSME_00024143     -            251 78511at3193          -            663      0.01   15.6   4.9   3   3      0.18        53    3.3   0.2   218   252   163   195   132   196 0.67 -
ID=PSME_00001956     -            795 78511at3193          -            663     0.011   15.5   7.7   1   5       1.8   5.3e+02   -0.0   0.0   311   357   446   492   438   506 0.85 -
ID=PSME_00001956     -            795 78511at3193          -            663     0.011   15.5   7.7   2   5      0.73   2.2e+02    1.3   0.0   217   254   493   528   481   539 0.75 -
ID=PSME_00001956     -            795 78511at3193          -            663     0.011   15.5   7.7   3   5      0.11        34    3.9   0.1   316   353   536   573   523   591 0.84 -
ID=PSME_00001956     -            795 78511at3193          -            663     0.011   15.5   7.7   4   5    0.0018      0.53    9.9   0.2   310   354   611   654   584   673 0.80 -
ID=PSME_00001956     -            795 78511at3193          -            663     0.011   15.5   7.7   5   5      0.91   2.7e+02    1.0   0.1   218   252   703   735   682   736 0.65 -
ID=PSME_00010333     -            611 78511at3193          -            663     0.015   15.1   1.5   1   2   6.8e-05      0.02   14.6   0.1   287   384   143   237   134   248 0.75 -
ID=PSME_00010333     -            611 78511at3193          -            663     0.015   15.1   1.5   2   2       6.6     2e+03   -1.9   0.1   215   253   437   473   425   484 0.61 -
ID=PSME_00049330     -            183 78511at3193          -            663     0.016   14.9   0.0   1   2       0.3        89    2.5   0.0   335   360    14    39     2    45 0.77 -
ID=PSME_00049330     -            183 78511at3193          -            663     0.016   14.9   0.0   2   2    0.0011      0.34   10.5   0.0   285   349    88   150    68   174 0.86 -
ID=PSME_00007493     -            226 78511at3193          -            663     0.018   14.7   0.0   1   2     0.072        22    4.6   0.0   326   360    44    80    32    85 0.77 -
ID=PSME_00007493     -            226 78511at3193          -            663     0.018   14.7   0.0   2   2     0.005       1.5    8.4   0.0   293   349   137   191    90   209 0.83 -
ID=PSME_00033595     -            464 78511at3193          -            663      0.02   14.6   7.9   1   4     0.084        25    4.4   0.0   317   357     8    48     2    75 0.86 -
ID=PSME_00033595     -            464 78511at3193          -            663      0.02   14.6   7.9   2   4      0.17        50    3.4   0.1   217   253   241   276   221   287 0.83 -
ID=PSME_00033595     -            464 78511at3193          -            663      0.02   14.6   7.9   3   4    0.0046       1.4    8.5   0.2   308   351   288   331   278   337 0.89 -
ID=PSME_00033595     -            464 78511at3193          -            663      0.02   14.6   7.9   4   4       2.2   6.7e+02   -0.3   0.1   316   355   373   412   348   437 0.71 -
ID=PSME_00041325     -            305 78511at3193          -            663      0.02   14.6   0.0   1   1   9.2e-05     0.027   14.2   0.0   189   376    12   197     3   227 0.76 -
ID=PSME_00026479     -            175 78511at3193          -            663      0.02   14.6   0.8   1   2      0.01       3.1    7.4   0.1   308   351    46    89    14    94 0.85 -
ID=PSME_00026479     -            175 78511at3193          -            663      0.02   14.6   0.8   2   2     0.021       6.2    6.4   0.1   317   359    97   139    91   173 0.74 -
ID=PSME_00028453     -            207 78511at3193          -            663     0.023   14.4   2.9   1   1    0.0048       1.4    8.5   2.9   227   357    24   152     7   193 0.55 -
ID=PSME_00025081     -            394 78511at3193          -            663     0.025   14.3   4.8   1   2      0.01         3    7.4   3.8   219   353   154   286   127   299 0.61 -
ID=PSME_00025081     -            394 78511at3193          -            663     0.025   14.3   4.8   2   2      0.53   1.6e+02    1.7   0.1   315   356   290   331   272   357 0.78 -
ID=PSME_00037056     -            492 78511at3193          -            663     0.026   14.2   0.0   1   1   0.00013      0.04   13.6   0.0   315   371    51   108    38   129 0.84 -
ID=PSME_00005357     -            440 78511at3193          -            663     0.026   14.2   3.5   1   2     0.038        11    5.5   0.2   214   254   160   197   139   214 0.77 -
ID=PSME_00005357     -            440 78511at3193          -            663     0.026   14.2   3.5   2   2    0.0023      0.69    9.5   0.4   217   303   286   361   249   413 0.70 -
ID=PSME_00024148     -            132 78511at3193          -            663     0.028   14.1   0.1   1   2     0.015       4.6    6.8   0.0   331   358    55    82    50    88 0.87 -
ID=PSME_00024148     -            132 78511at3193          -            663     0.028   14.1   0.1   2   2     0.027         8    6.0   0.0   316   348    90   122    80   131 0.80 -
ID=PSME_00018904     -            656 78511at3193          -            663     0.028   14.1   0.6   1   1    0.0002     0.061   13.0   0.6   286   363    68   144    59   165 0.81 -
ID=PSME_00009570     -            484 78511at3193          -            663     0.029   14.1   0.1   1   1   0.00023     0.068   12.8   0.1   219   349   137   253    92   284 0.81 -
ID=PSME_00023103     -            198 78511at3193          -            663     0.031   14.0   4.4   1   2    0.0011      0.34   10.6   0.2   320   350     3    33     1    41 0.92 -
ID=PSME_00023103     -            198 78511at3193          -            663     0.031   14.0   4.4   2   2     0.051        15    5.1   0.8   309   383    40   118    34   133 0.75 -
ID=PSME_00031092     -            245 78511at3193          -            663     0.031   14.0   6.2   1   3      0.79   2.4e+02    1.2   0.1   333   353     8    28     1    45 0.80 -
ID=PSME_00031092     -            245 78511at3193          -            663     0.031   14.0   6.2   2   3   0.00039      0.12   12.1   0.2   309   354    65   109    36   134 0.80 -
ID=PSME_00031092     -            245 78511at3193          -            663     0.031   14.0   6.2   3   3      0.23        67    3.0   0.1   218   252   158   190   144   191 0.64 -
ID=PSME_00014903     -            490 78511at3193          -            663     0.031   14.0   0.1   1   2   0.00032     0.095   12.4   0.0   288   364    31   106    21   132 0.78 -
ID=PSME_00014903     -            490 78511at3193          -            663     0.031   14.0   0.1   2   2       9.8   2.9e+03   -2.5   0.0   214   262   323   369   319   373 0.78 -
ID=PSME_00034105     -            325 78511at3193          -            663     0.031   14.0   1.0   1   3    0.0067         2    8.0   0.1   241   352     4   102     1   126 0.66 -
ID=PSME_00034105     -            325 78511at3193          -            663     0.031   14.0   1.0   2   3       3.8   1.1e+03   -1.1   0.0   273   350   157   234   141   243 0.73 -
ID=PSME_00034105     -            325 78511at3193          -            663     0.031   14.0   1.0   3   3       1.4   4.2e+02    0.3   0.0   293   351   263   317   256   322 0.76 -
ID=PSME_00024236     -            563 78511at3193          -            663     0.033   13.9   0.2   1   1   0.00016     0.048   13.4   0.2   180   254   240   317   229   343 0.83 -
ID=PSME_00009596     -            675 78511at3193          -            663     0.036   13.8   0.0   1   1   0.00018     0.053   13.2   0.0   210   354    42   180    37   218 0.72 -
ID=PSME_00005767     -            374 78511at3193          -            663     0.044   13.5   0.1   1   2     0.002      0.61    9.7   0.0   189   256   191   249   176   265 0.55 -
ID=PSME_00005767     -            374 78511at3193          -            663     0.044   13.5   0.1   2   2      0.57   1.7e+02    1.6   0.0   310   362   267   322   256   331 0.71 -
ID=PSME_00009375     -            413 78511at3193          -            663     0.045   13.5   0.1   1   3      0.64   1.9e+02    1.5   0.0   185   212     7    34     3    46 0.84 -
ID=PSME_00009375     -            413 78511at3193          -            663     0.045   13.5   0.1   2   3     0.011       3.3    7.3   0.0   219   266    98   145    78   166 0.86 -
ID=PSME_00009375     -            413 78511at3193          -            663     0.045   13.5   0.1   3   3       1.9   5.5e+02   -0.1   0.0    96   112   257   273   218   280 0.75 -
ID=PSME_00001612     -           1070 78511at3193          -            663     0.047   13.4   0.4   1   3       3.6   1.1e+03   -1.0   0.0   185   246   363   434   353   443 0.60 -
ID=PSME_00001612     -           1070 78511at3193          -            663     0.047   13.4   0.4   2   3       1.7   5.2e+02    0.0   0.1   300   344   449   489   442   511 0.71 -
ID=PSME_00001612     -           1070 78511at3193          -            663     0.047   13.4   0.4   3   3    0.0035         1    8.9   0.0   285   354   827   892   802   943 0.80 -
ID=PSME_00028105     -            238 78511at3193          -            663      0.05   13.3   0.2   1   2       3.9   1.2e+03   -1.1   0.0   312   346   127   159   109   165 0.74 -
ID=PSME_00028105     -            238 78511at3193          -            663      0.05   13.3   0.2   2   2   0.00039      0.12   12.1   0.1   313   350   169   206   150   230 0.85 -
ID=PSME_00022731     -            534 78511at3193          -            663     0.053   13.2   0.3   1   2      0.87   2.6e+02    1.0   0.0   183   207    77   101    63   111 0.80 -
ID=PSME_00022731     -            534 78511at3193          -            663     0.053   13.2   0.3   2   2    0.0018      0.53    9.9   0.1   218   311   169   255   120   286 0.74 -
ID=PSME_00030307     -            131 78511at3193          -            663     0.058   13.1   0.1   1   1   0.00026     0.076   12.7   0.1    18    53    29    64    20    72 0.91 -
ID=PSME_00014824     -            450 78511at3193          -            663     0.062   13.0   0.3   1   1   0.00021     0.062   13.0   0.3   218   358   233   359   217   382 0.74 -
ID=PSME_00033522     -            393 78511at3193          -            663     0.071   12.8   0.6   1   2     0.011       3.3    7.3   0.1   315   353    86   124    73   128 0.88 -
ID=PSME_00033522     -            393 78511at3193          -            663     0.071   12.8   0.6   2   2      0.18        55    3.2   0.1   217   260   129   171   126   204 0.77 -
ID=PSME_00010140     -           1404 78511at3193          -            663     0.075   12.7   0.1   1   2     0.096        29    4.2   0.1   237   261  1144  1168  1130  1219 0.75 -
ID=PSME_00010140     -           1404 78511at3193          -            663     0.075   12.7   0.1   2   2     0.033       9.8    5.7   0.0   223   369  1228  1367  1216  1386 0.76 -
ID=PSME_00034251     -             88 78511at3193          -            663     0.077   12.7   0.8   1   1   0.00027     0.082   12.6   0.8   190   254     9    72     2    86 0.62 -
ID=PSME_00014973     -            324 78511at3193          -            663     0.082   12.6   0.5   1   2         8   2.4e+03   -2.2   0.0   330   353    23    46    11    70 0.78 -
ID=PSME_00014973     -            324 78511at3193          -            663     0.082   12.6   0.5   2   2    0.0005      0.15   11.7   0.2   310   354    84   127    58   147 0.79 -
ID=PSME_00046567     -            136 78511at3193          -            663     0.085   12.5   3.5   1   2      0.18        54    3.3   0.2   312   373     9    68     2    76 0.83 -
ID=PSME_00046567     -            136 78511at3193          -            663     0.085   12.5   3.5   2   2    0.0018      0.53    9.9   1.1   325   357    78   110    66   129 0.82 -
ID=PSME_00055135     -            377 78511at3193          -            663     0.086   12.5   0.9   1   2   0.00096      0.29   10.8   0.0   317   385     9    76     2    87 0.76 -
ID=PSME_00055135     -            377 78511at3193          -            663     0.086   12.5   0.9   2   2       2.4   7.2e+02   -0.4   0.2   214   254   274   312   264   322 0.71 -
ID=PSME_00020225     -            253 78511at3193          -            663     0.089   12.5   0.1   1   1    0.0004      0.12   12.0   0.1   309   359   171   221   105   251 0.73 -
ID=PSME_00035991     -            356 78511at3193          -            663     0.091   12.4   0.1   1   1   0.00047      0.14   11.8   0.1   295   353   269   324   261   347 0.85 -
ID=PSME_00042867     -            492 78511at3193          -            663     0.096   12.4   5.5   1   3      0.32        96    2.5   0.1   302   356   196   251   178   263 0.80 -
ID=PSME_00042867     -            492 78511at3193          -            663     0.096   12.4   5.5   2   3   0.00073      0.22   11.2   0.2   312   351   289   328   275   341 0.84 -
ID=PSME_00042867     -            492 78511at3193          -            663     0.096   12.4   5.5   3   3       2.4   7.3e+02   -0.5   0.2   244   337   369   406   346   476 0.47 -
ID=PSME_00042937     -            387 78511at3193          -            663     0.099   12.3   1.1   1   2    0.0073       2.2    7.9   0.0   308   353   204   249   176   254 0.87 -
ID=PSME_00042937     -            387 78511at3193          -            663     0.099   12.3   1.1   2   2       0.2        59    3.1   0.2   318   355   256   293   251   313 0.83 -
ID=PSME_00034030     -            481 78511at3193          -            663       0.1   12.3   0.0   1   2       4.7   1.4e+03   -1.4   0.0   323   344    30    51     8    84 0.77 -
ID=PSME_00034030     -            481 78511at3193          -            663       0.1   12.3   0.0   2   2    0.0012      0.36   10.5   0.0   247   358   223   328   204   349 0.70 -
ID=PSME_00016963     -            516 78511at3193          -            663       0.1   12.3  11.2   1   4      0.41   1.2e+02    2.1   0.1    14    38   195   219   185   231 0.85 -
ID=PSME_00016963     -            516 78511at3193          -            663       0.1   12.3  11.2   2   4      0.34     1e+02    2.4   0.2   286   342   246   296   227   305 0.69 -
ID=PSME_00016963     -            516 78511at3193          -            663       0.1   12.3  11.2   3   4    0.0021      0.62    9.7   0.2   313   353   323   363   312   370 0.81 -
ID=PSME_00016963     -            516 78511at3193          -            663       0.1   12.3  11.2   4   4      0.25        75    2.8   0.3   221   351   372   491   367   505 0.69 -
ID=PSME_00006527     -             75 78511at3193          -            663       0.1   12.3   0.0   1   1   0.00035       0.1   12.3   0.0   232   265    13    46     3    66 0.82 -
ID=PSME_00012971     -            700 78511at3193          -            663      0.12   12.1   0.1   1   1   0.00063      0.19   11.4   0.1   280   371   483   571   445   597 0.73 -
ID=PSME_00040996     -            357 78511at3193          -            663      0.13   11.9   0.0   1   1   0.00056      0.17   11.6   0.0   292   356   286   348   246   355 0.78 -
ID=PSME_00054559     -            361 78511at3193          -            663      0.14   11.8   0.0   1   2     0.002      0.59    9.7   0.0   287   353    77   139    69   164 0.71 -
ID=PSME_00054559     -            361 78511at3193          -            663      0.14   11.8   0.0   2   2       2.3   6.9e+02   -0.4   0.0   239   299   160   215   148   225 0.66 -
ID=PSME_00005266     -            144 78511at3193          -            663      0.16   11.7   0.0   1   1   0.00052      0.16   11.7   0.0   314   357    29    73    14   126 0.74 -
ID=PSME_00053884     -            284 78511at3193          -            663      0.16   11.6   0.0   1   1   0.00073      0.22   11.2   0.0   311   348   130   167   117   179 0.83 -
ID=PSME_00005270     -            119 78511at3193          -            663      0.17   11.5   0.0   1   1   0.00069      0.21   11.3   0.0   215   353     4    44     1    68 0.54 -
ID=PSME_00007755     -            622 78511at3193          -            663      0.22   11.2   8.8   1   4       2.9   8.7e+02   -0.7   0.1   605   643   199   237   151   242 0.58 -
ID=PSME_00007755     -            622 78511at3193          -            663      0.22   11.2   8.8   2   4       2.3   6.8e+02   -0.4   0.2   577   643   200   272   175   276 0.56 -
ID=PSME_00007755     -            622 78511at3193          -            663      0.22   11.2   8.8   3   4    0.0077       2.3    7.8   0.1   576   643   339   412   324   417 0.81 -
ID=PSME_00007755     -            622 78511at3193          -            663      0.22   11.2   8.8   4   4     0.014       4.3    6.9   0.2   576   643   444   517   433   519 0.85 -
ID=PSME_00027473     -            595 78511at3193          -            663      0.22   11.2   0.3   1   3       2.8   8.4e+02   -0.7   0.0   324   350    33    59    10   125 0.66 -
ID=PSME_00027473     -            595 78511at3193          -            663      0.22   11.2   0.3   2   3       6.5   1.9e+03   -1.9   0.0   184   233    89   132    70   151 0.61 -
ID=PSME_00027473     -            595 78511at3193          -            663      0.22   11.2   0.3   3   3    0.0047       1.4    8.5   0.0   291   363   347   416   333   433 0.73 -
ID=PSME_00016314     -            482 78511at3193          -            663      0.22   11.2   7.4   1   4      0.47   1.4e+02    1.9   0.0   217   254   243   278   238   290 0.80 -
ID=PSME_00016314     -            482 78511at3193          -            663      0.22   11.2   7.4   2   4       1.7     5e+02    0.1   0.1   320   353   290   324   283   330 0.78 -
ID=PSME_00016314     -            482 78511at3193          -            663      0.22   11.2   7.4   3   4     0.018       5.5    6.6   0.2   314   352   366   403   351   426 0.85 -
ID=PSME_00016314     -            482 78511at3193          -            663      0.22   11.2   7.4   4   4      0.23        69    2.9   0.2   218   252   448   480   432   481 0.72 -
ID=PSME_00046033     -            283 78511at3193          -            663      0.23   11.1   1.8   1   2      0.04        12    5.4   0.1   218   254   159   195   142   200 0.83 -
ID=PSME_00046033     -            283 78511at3193          -            663      0.23   11.1   1.8   2   2     0.052        16    5.1   0.2   215   253   200   237   196   259 0.83 -
ID=PSME_00019360     -            235 78511at3193          -            663      0.23   11.1   3.1   1   2     0.075        22    4.5   0.1    15    39    15    39     6    47 0.85 -
ID=PSME_00019360     -            235 78511at3193          -            663      0.23   11.1   3.1   2   2     0.013       3.7    7.1   0.5   310   382    82   158    65   177 0.63 -
ID=PSME_00048095     -            349 78511at3193          -            663      0.26   10.9   3.2   1   2     0.026       7.7    6.1   0.5   294   358    30    96    15   107 0.70 -
ID=PSME_00048095     -            349 78511at3193          -            663      0.26   10.9   3.2   2   2    0.0054       1.6    8.3   0.5   214   253    93   128    91   200 0.74 -
ID=PSME_00000602     -            950 78511at3193          -            663      0.29   10.8  13.9   1   5      0.27        80    2.7   0.2   310   355   525   570   514   574 0.88 -
ID=PSME_00000602     -            950 78511at3193          -            663      0.29   10.8  13.9   2   5     0.033       9.9    5.7   0.1   217   254   573   608   566   628 0.68 -
ID=PSME_00000602     -            950 78511at3193          -            663      0.29   10.8  13.9   3   5      0.71   2.1e+02    1.3   0.1   318   356   618   657   609   662 0.80 -
ID=PSME_00000602     -            950 78511at3193          -            663      0.29   10.8  13.9   4   5     0.078        23    4.5   0.3   314   364   696   746   682   775 0.83 -
ID=PSME_00000602     -            950 78511at3193          -            663      0.29   10.8  13.9   5   5      0.14        41    3.7   0.2   311   349   775   813   749   814 0.67 -
ID=PSME_00040399     -            261 78511at3193          -            663      0.31   10.7   3.4   1   2       4.1   1.2e+03   -1.2   0.1   220   254     4    37     2    60 0.78 -
ID=PSME_00040399     -            261 78511at3193          -            663      0.31   10.7   3.4   2   2   0.00054      0.16   11.6   0.7   219   253   141   174   129   188 0.86 -
ID=PSME_00051881     -            199 78511at3193          -            663      0.38   10.4   0.0   1   1    0.0015      0.44   10.2   0.0   312   352    15    55     3    85 0.86 -
ID=PSME_00048725     -            121 78511at3193          -            663      0.41   10.3   0.0   1   1    0.0018      0.53    9.9   0.0   215   352     6    45     2    70 0.57 -
ID=PSME_00005552     -           1172 78511at3193          -            663      0.43   10.2   0.5   1   2     0.037        11    5.5   0.1   305   347   141   180    95   209 0.77 -
ID=PSME_00005552     -           1172 78511at3193          -            663      0.43   10.2   0.5   2   2      0.27        81    2.7   0.0   313   353   280   320   257   362 0.78 -
ID=PSME_00020195     -            462 78511at3193          -            663      0.56    9.8   0.0   1   2     0.033        10    5.7   0.1   289   357   138   201    79   225 0.57 -
ID=PSME_00020195     -            462 78511at3193          -            663      0.56    9.8   0.0   2   2     0.025       7.6    6.1   0.0   210   342   153   279   133   297 0.62 -
ID=PSME_00044122     -            268 78511at3193          -            663      0.57    9.8   0.5   1   2      0.18        54    3.3   0.2   226   275    65   113    57   150 0.76 -
ID=PSME_00044122     -            268 78511at3193          -            663      0.57    9.8   0.5   2   2     0.068        20    4.7   0.0   241   257   203   219   157   254 0.71 -
ID=PSME_00009187     -            674 78511at3193          -            663      0.75    9.4   1.8   1   2         1   3.1e+02    0.8   0.5   310   368     6    63     1    80 0.71 -
ID=PSME_00009187     -            674 78511at3193          -            663      0.75    9.4   1.8   2   2     0.015       4.3    6.9   0.0   210   253   131   172   126   216 0.77 -
ID=PSME_00051512     -           1207 78511at3193          -            663         1    8.9   3.5   1   2     0.023         7    6.2   1.9   293   354   219   280   107   291 0.56 -
ID=PSME_00051512     -           1207 78511at3193          -            663         1    8.9   3.5   2   2      0.02       5.9    6.5   0.3   194   258   224   281   203   314 0.63 -
ID=PSME_00024193     -           1216 78511at3193          -            663       1.4    8.5   2.6   1   2      0.78   2.3e+02    1.2   0.1   216   253   128   163   116   185 0.65 -
ID=PSME_00024193     -           1216 78511at3193          -            663       1.4    8.5   2.6   2   2     0.044        13    5.3   0.1   195   351   225   277   205   290 0.57 -
ID=PSME_00040435     -            391 78511at3193          -            663       2.5    7.7   6.2   1   3     0.037        11    5.6   1.1   307   351   183   227   112   231 0.74 -
ID=PSME_00040435     -            391 78511at3193          -            663       2.5    7.7   6.2   2   3      0.26        78    2.7   0.2   319   355   237   273   229   302 0.72 -
ID=PSME_00040435     -            391 78511at3193          -            663       2.5    7.7   6.2   3   3       2.6   7.8e+02   -0.6   0.0   318   356   278   316   272   341 0.74 -
ID=PSME_00025126     -            149 78511at3193          -            663       2.7    7.6   3.8   1   1     0.011       3.2    7.3   3.8   573   656    62   145    47   147 0.92 -
#
# Program:         hmmsearch
# Version:         3.2.1 (June 2018)
# Pipeline mode:   SEARCH
# Query file:      /isg/shared/databases/BUSCO/odb10/embryophyta_odb10/hmms/78511at3193.hmm
# Target file:     /labs/Wegrzyn/ConiferGenomes/Psme/analysis/SURF_annotation/analyze_orig_maker/gfacs/filtered/maker_genes.fasta.faa
# Option settings: /usr/local/bin/hmmsearch --domtblout /labs/Wegrzyn/ConiferGenomes/Psme/analysis/SURF_annotation/analyze_orig_maker/busco/maker/run_embryophyta_odb10/hmmer_output/78511at3193.out --cpu 1 /isg/shared/databases/BUSCO/odb10/embryophyta_odb10/hmms/78511at3193.hmm /labs/Wegrzyn/ConiferGenomes/Psme/analysis/SURF_annotation/analyze_orig_maker/gfacs/filtered/maker_genes.fasta.faa 
# Current dir:     /labs/Wegrzyn/ConiferGenomes/Psme/analysis/SURF_annotation/analyze_orig_maker/busco
# Date:            Fri Jul 10 13:57:31 2020
# [ok]
