#                                                                            --- full sequence --- -------------- this domain -------------   hmm coord   ali coord   env coord
# target name        accession   tlen query name           accession   qlen   E-value  score  bias   #  of  c-Evalue  i-Evalue  score  bias  from    to  from    to  from    to  acc description of target
#------------------- ---------- ----- -------------------- ---------- ----- --------- ------ ----- --- --- --------- --------- ------ ----- ----- ----- ----- ----- ----- ----- ---- ---------------------
ID=PSME_00029851     -            230 78556at3193          -            370  1.3e-140  470.2   0.3   1   1  1.1e-144  1.5e-140  470.1   0.3   151   370     1   220     1   220 1.00 -
ID=PSME_00003240     -            183 78556at3193          -            370   3.1e-55  189.3   0.0   1   1   2.4e-59   3.3e-55  189.2   0.0   108   282     9   183     1   183 0.96 -
ID=PSME_00029085     -            354 78556at3193          -            370   2.7e-31  110.5   0.6   1   1   2.7e-35   3.7e-31  110.1   0.6   181   367   153   338   143   341 0.90 -
ID=PSME_00039635     -            303 78556at3193          -            370      0.85   10.2   4.8   1   1   9.1e-05       1.2    9.6   4.8    15   112   130   226   119   260 0.74 -
#
# Program:         hmmsearch
# Version:         3.2.1 (June 2018)
# Pipeline mode:   SEARCH
# Query file:      /isg/shared/databases/BUSCO/odb10/embryophyta_odb10/hmms/78556at3193.hmm
# Target file:     /labs/Wegrzyn/ConiferGenomes/Psme/analysis/SURF_annotation/analyze_orig_maker/gfacs/filtered/maker_genes.fasta.faa
# Option settings: /usr/local/bin/hmmsearch --domtblout /labs/Wegrzyn/ConiferGenomes/Psme/analysis/SURF_annotation/analyze_orig_maker/busco/maker/run_embryophyta_odb10/hmmer_output/78556at3193.out --cpu 1 /isg/shared/databases/BUSCO/odb10/embryophyta_odb10/hmms/78556at3193.hmm /labs/Wegrzyn/ConiferGenomes/Psme/analysis/SURF_annotation/analyze_orig_maker/gfacs/filtered/maker_genes.fasta.faa 
# Current dir:     /labs/Wegrzyn/ConiferGenomes/Psme/analysis/SURF_annotation/analyze_orig_maker/busco
# Date:            Fri Jul 10 13:57:21 2020
# [ok]
