#                                                                            --- full sequence --- -------------- this domain -------------   hmm coord   ali coord   env coord
# target name        accession   tlen query name           accession   qlen   E-value  score  bias   #  of  c-Evalue  i-Evalue  score  bias  from    to  from    to  from    to  acc description of target
#------------------- ---------- ----- -------------------- ---------- ----- --------- ------ ----- --- --- --------- --------- ------ ----- ----- ----- ----- ----- ----- ----- ---- ---------------------
ID=PSME_00036350     -            213 78788at3193          -            396   4.9e-82  277.4   0.1   1   1   9.4e-85   5.6e-82  277.2   0.1   227   396    27   210     7   210 0.88 -
ID=PSME_00036351     -            134 78788at3193          -            396   1.5e-59  203.3   0.0   1   1   2.8e-62   1.7e-59  203.2   0.0   110   239     2   132     1   134 0.98 -
ID=PSME_00010735     -            620 78788at3193          -            396   1.9e-51  176.6   0.0   1   1   4.7e-54   2.8e-51  176.1   0.0    17   376   175   537   173   554 0.87 -
ID=PSME_00034125     -            870 78788at3193          -            396     1e-46  161.1   0.0   1   1   2.6e-49   1.5e-46  160.5   0.0    29   383   234   579   219   590 0.85 -
ID=PSME_00010814     -            597 78788at3193          -            396   3.2e-45  156.1   0.0   1   1   8.2e-48   4.9e-45  155.5   0.0    17   383   172   533   168   541 0.84 -
ID=PSME_00040415     -            761 78788at3193          -            396   1.1e-42  147.7   0.0   1   1   2.9e-45   1.7e-42  147.1   0.0    19   387   181   546   177   553 0.83 -
ID=PSME_00046222     -            855 78788at3193          -            396   1.4e-42  147.4   0.1   1   1   3.7e-45   2.2e-42  146.8   0.1    17   383   264   626   256   633 0.90 -
ID=PSME_00017714     -            628 78788at3193          -            396   3.9e-41  142.7   0.0   1   1   9.7e-44   5.8e-41  142.1   0.0    17   383   101   466    98   475 0.84 -
ID=PSME_00015686     -            849 78788at3193          -            396   1.7e-40  140.6   0.1   1   2   6.6e-21   3.9e-18   66.9   0.0    26   193   225   411   208   416 0.78 -
ID=PSME_00015686     -            849 78788at3193          -            396   1.7e-40  140.6   0.1   2   2   5.5e-22   3.3e-19   70.5   0.1   253   366   522   636   496   666 0.82 -
ID=PSME_00041255     -            553 78788at3193          -            396   2.2e-40  140.2   0.4   1   1   1.2e-42   7.3e-40  138.5   0.4    35   370   170   499   160   513 0.84 -
ID=PSME_00012859     -            635 78788at3193          -            396   2.6e-40  140.0   0.1   1   1   9.5e-43   5.7e-40  138.9   0.1    17   369   189   544   187   557 0.82 -
ID=PSME_00036706     -            640 78788at3193          -            396   6.9e-40  138.6   0.0   1   1     2e-42   1.2e-39  137.8   0.0    22   381   181   547   173   560 0.80 -
ID=PSME_00013759     -            610 78788at3193          -            396     8e-40  138.4   0.0   1   2   6.4e-21   3.8e-18   67.0   0.0    13   165   136   289   128   298 0.86 -
ID=PSME_00013759     -            610 78788at3193          -            396     8e-40  138.4   0.0   2   2   1.4e-21   8.4e-19   69.2   0.0   259   376   349   468   337   476 0.85 -
ID=PSME_00039230     -            553 78788at3193          -            396   1.2e-39  137.8   0.4   1   1   7.4e-42   4.4e-39  135.9   0.4    35   370   170   499   161   513 0.84 -
ID=PSME_00039428     -            658 78788at3193          -            396     7e-39  135.3   0.0   1   1   1.7e-41     1e-38  134.7   0.0    20   380   155   509   152   517 0.84 -
ID=PSME_00013357     -           1195 78788at3193          -            396   2.7e-38  133.4   0.1   1   1   1.8e-40   1.1e-37  131.4   0.1    27   371   551   889   536   900 0.80 -
ID=PSME_00019301     -            459 78788at3193          -            396     3e-38  133.2   3.3   1   1   2.2e-40   1.3e-37  131.0   3.3    34   359   104   414    86   425 0.86 -
ID=PSME_00029838     -            502 78788at3193          -            396   4.7e-38  132.6   3.1   1   1   4.3e-40   2.5e-37  130.1   3.1    33   359   146   457   128   468 0.86 -
ID=PSME_00017078     -            795 78788at3193          -            396   5.5e-38  132.3   0.0   1   1   1.7e-40     1e-37  131.4   0.0    13   369    75   430    66   445 0.80 -
ID=PSME_00034692     -            661 78788at3193          -            396     2e-37  130.5   0.0   1   1   7.9e-40   4.7e-37  129.2   0.0    27   381   205   574   191   586 0.75 -
ID=PSME_00013617     -           1440 78788at3193          -            396     7e-37  128.7   0.1   1   1   5.3e-39   3.2e-36  126.5   0.1    17   371   678  1029   675  1035 0.80 -
ID=PSME_00047834     -            410 78788at3193          -            396   2.4e-34  120.3   0.3   1   1     8e-37   4.8e-34  119.3   0.3    17   373    35   381    24   392 0.81 -
ID=PSME_00047883     -            410 78788at3193          -            396   2.9e-34  120.1   0.4   1   1   9.5e-37   5.6e-34  119.1   0.4    17   373    35   381    26   393 0.82 -
ID=PSME_00043687     -            413 78788at3193          -            396   3.9e-34  119.6   0.4   1   1   1.5e-36   8.9e-34  118.5   0.5    17   368    39   381    35   391 0.85 -
ID=PSME_00041552     -            451 78788at3193          -            396   5.7e-34  119.1   0.3   1   1   1.9e-36   1.1e-33  118.1   0.3    17   373    76   422    66   433 0.81 -
ID=PSME_00000892     -            412 78788at3193          -            396     7e-34  118.8   0.2   1   1   2.7e-36   1.6e-33  117.6   0.2    17   371    38   381    35   392 0.84 -
ID=PSME_00047772     -            410 78788at3193          -            396     9e-34  118.4   0.3   1   1     3e-36   1.8e-33  117.5   0.3    17   373    35   381    24   392 0.82 -
ID=PSME_00013579     -            522 78788at3193          -            396   1.6e-33  117.6   0.5   1   1   4.4e-36   2.6e-33  116.9   0.5    33   371    76   403    55   423 0.87 -
ID=PSME_00049527     -            414 78788at3193          -            396   9.6e-33  115.1   0.2   1   1   3.5e-35   2.1e-32  113.9   0.2    17   371    40   383    31   394 0.85 -
ID=PSME_00039978     -            439 78788at3193          -            396   3.2e-30  106.8   0.4   1   1   9.1e-33   5.4e-30  106.0   0.4    33   371    74   401    56   421 0.87 -
ID=PSME_00013820     -            716 78788at3193          -            396   3.7e-29  103.2   0.0   1   1   3.8e-31   2.3e-28  100.7   0.0    45   363   134   442   117   471 0.81 -
ID=PSME_00039979     -            347 78788at3193          -            396     2e-27   97.6   0.3   1   1   5.4e-30   3.2e-27   96.9   0.3    58   371     7   309     2   329 0.85 -
ID=PSME_00017117     -            639 78788at3193          -            396   5.3e-27   96.1   0.0   1   2   1.3e-19   7.5e-17   62.7   0.0    14   189   188   371   174   382 0.79 -
ID=PSME_00017117     -            639 78788at3193          -            396   5.3e-27   96.1   0.0   2   2   6.2e-10   3.7e-07   30.8   0.1   261   362   486   590   468   600 0.74 -
ID=PSME_00041256     -            266 78788at3193          -            396   5.4e-26   92.8   0.0   1   2   5.5e-19   3.3e-16   60.6   0.0    85   178     8   101     2   109 0.89 -
ID=PSME_00041256     -            266 78788at3193          -            396   5.4e-26   92.8   0.0   2   2   5.9e-10   3.5e-07   30.9   0.0   268   363   108   207    99   226 0.75 -
ID=PSME_00043843     -            307 78788at3193          -            396     2e-25   91.0   0.1   1   2   1.4e-27   8.6e-25   88.9   0.0     5   208    39   240    36   245 0.89 -
ID=PSME_00043843     -            307 78788at3193          -            396     2e-25   91.0   0.1   2   2       1.9   1.1e+03   -0.4   0.1   180   216   253   289   243   300 0.74 -
ID=PSME_00034714     -            387 78788at3193          -            396   7.7e-24   85.7   2.6   1   2   2.5e-21   1.5e-18   68.3   0.2    17   213    39   230    31   244 0.89 -
ID=PSME_00034714     -            387 78788at3193          -            396   7.7e-24   85.7   2.6   2   2   1.2e-05    0.0072   16.7   0.2   293   380   262   365   250   373 0.75 -
ID=PSME_00041551     -            330 78788at3193          -            396   1.2e-22   81.8   0.6   1   1   3.9e-25   2.3e-22   80.9   0.6   103   373    37   301    33   313 0.78 -
ID=PSME_00032141     -            428 78788at3193          -            396     2e-22   81.1   0.0   1   1   8.2e-25   4.9e-22   79.8   0.0    79   340    97   373    90   380 0.82 -
ID=PSME_00028267     -            194 78788at3193          -            396   2.2e-22   80.9   0.1   1   1   4.6e-25   2.7e-22   80.6   0.1    30   211     5   178     2   193 0.87 -
ID=PSME_00018498     -            348 78788at3193          -            396   3.6e-21   77.0   0.1   1   1   8.8e-24   5.2e-21   76.4   0.1   142   365    10   235     7   240 0.85 -
ID=PSME_00042380     -            288 78788at3193          -            396   2.6e-20   74.1   0.5   1   1   9.4e-23   5.6e-20   73.0   0.5   123   371    14   257     6   269 0.79 -
ID=PSME_00055275     -            274 78788at3193          -            396   3.9e-19   70.2   0.3   1   1   1.4e-21   8.6e-19   69.1   0.3   140   373    17   245     8   257 0.78 -
ID=PSME_00043842     -            117 78788at3193          -            396     1e-16   62.3   0.0   1   1   1.9e-19   1.1e-16   62.1   0.0   294   367    30   105    12   114 0.83 -
ID=PSME_00052722     -            200 78788at3193          -            396   1.2e-16   62.0   0.0   1   1   2.6e-19   1.6e-16   61.7   0.0    17   175    38   192    27   199 0.88 -
ID=PSME_00045197     -            225 78788at3193          -            396   1.6e-16   61.7   0.0   1   1   3.1e-19   1.9e-16   61.4   0.0    30   206    54   223    35   225 0.84 -
ID=PSME_00049494     -            220 78788at3193          -            396   2.8e-16   60.8   0.0   1   1   6.3e-19   3.8e-16   60.4   0.0    17   176    29   184    21   195 0.88 -
ID=PSME_00055514     -            174 78788at3193          -            396   1.6e-15   58.3   0.3   1   2   4.8e-06    0.0029   18.0   0.0   123   175    14    67     6    74 0.88 -
ID=PSME_00055514     -            174 78788at3193          -            396   1.6e-15   58.3   0.3   2   2   2.4e-12   1.4e-09   38.7   0.1   304   372    74   144    70   156 0.81 -
ID=PSME_00027093     -            219 78788at3193          -            396   4.9e-15   56.7   0.2   1   2     1e-05     0.006   17.0   0.0   124   175    60   112    51   121 0.88 -
ID=PSME_00027093     -            219 78788at3193          -            396   4.9e-15   56.7   0.2   2   2   3.4e-12     2e-09   38.2   0.1   304   373   119   190   116   202 0.81 -
ID=PSME_00043222     -            470 78788at3193          -            396   8.6e-15   55.9   0.1   1   2   4.1e-08   2.5e-05   24.8   0.0   125   211    31   117    18   124 0.90 -
ID=PSME_00043222     -            470 78788at3193          -            396   8.6e-15   55.9   0.1   2   2   2.7e-09   1.6e-06   28.7   0.1   319   360   221   262   212   287 0.90 -
ID=PSME_00037049     -            308 78788at3193          -            396   1.5e-14   55.2   0.0   1   1   3.8e-17   2.2e-14   54.6   0.0   179   385    16   226     2   235 0.62 -
ID=PSME_00050148     -            238 78788at3193          -            396   3.4e-14   54.0   0.0   1   1   7.5e-17   4.5e-14   53.6   0.0   271   383    78   191    67   196 0.88 -
ID=PSME_00017686     -            235 78788at3193          -            396   4.1e-13   50.4   0.1   1   2   1.7e-05      0.01   16.2   0.0    19    77    81   142    69   152 0.83 -
ID=PSME_00017686     -            235 78788at3193          -            396   4.1e-13   50.4   0.1   2   2   1.7e-10     1e-07   32.7   0.0   316   372   150   205   145   217 0.84 -
ID=PSME_00049962     -            144 78788at3193          -            396   1.3e-11   45.5   0.0   1   1   2.6e-14   1.6e-11   45.2   0.0   259   370    18   133    10   141 0.81 -
ID=PSME_00017596     -            281 78788at3193          -            396   2.2e-10   41.4   0.0   1   1   4.8e-13   2.9e-10   41.0   0.0   291   370     7    88     2   101 0.83 -
ID=PSME_00028651     -            123 78788at3193          -            396   3.1e-10   40.9   0.1   1   1   5.5e-13   3.3e-10   40.9   0.1    61   167     2   115     1   122 0.81 -
ID=PSME_00010415     -            436 78788at3193          -            396   3.3e-09   37.5   0.0   1   1   9.1e-12   5.4e-09   36.8   0.0   305   359    80   134    72   137 0.91 -
ID=PSME_00050161     -            434 78788at3193          -            396   4.1e-09   37.3   0.0   1   1     1e-11   6.2e-09   36.7   0.0   305   359   307   361   275   367 0.84 -
ID=PSME_00011616     -            112 78788at3193          -            396   4.8e-09   37.0   0.0   1   1   9.1e-12   5.4e-09   36.9   0.0   293   353    39   102    18   108 0.84 -
ID=PSME_00049912     -            458 78788at3193          -            396   6.1e-09   36.7   0.1   1   1   1.5e-11   9.1e-09   36.1   0.1   305   359   331   385   298   389 0.81 -
ID=PSME_00048066     -            454 78788at3193          -            396   7.9e-09   36.3   0.0   1   1   1.9e-11   1.2e-08   35.8   0.0   288   358   300   380   291   383 0.71 -
ID=PSME_00027092     -            134 78788at3193          -            396   1.3e-08   35.6   0.1   1   1   2.7e-11   1.6e-08   35.3   0.1    34   148    19   125     5   132 0.89 -
ID=PSME_00014730     -            155 78788at3193          -            396   1.3e-08   35.6   0.1   1   1   2.4e-11   1.4e-08   35.4   0.1    97   205     3   113     1   144 0.79 -
ID=PSME_00045843     -            329 78788at3193          -            396   1.8e-08   35.1   0.0   1   1   4.1e-11   2.4e-08   34.7   0.0   305   359   202   256   170   261 0.87 -
ID=PSME_00048644     -            249 78788at3193          -            396   2.2e-08   34.8   0.3   1   2      0.13        77    3.4   0.1   122   175    88   142    70   149 0.84 -
ID=PSME_00048644     -            249 78788at3193          -            396   2.2e-08   34.8   0.3   2   2   1.3e-09   7.7e-07   29.8   0.0   304   372   149   219   142   231 0.81 -
ID=PSME_00048514     -            458 78788at3193          -            396   4.6e-08   33.8   0.0   1   1   1.2e-10   7.2e-08   33.1   0.0   305   359   331   385   325   390 0.90 -
ID=PSME_00049369     -            166 78788at3193          -            396     9e-08   32.8   0.0   1   1   1.9e-10   1.1e-07   32.5   0.0    93   208    20   137    15   150 0.80 -
ID=PSME_00044513     -            390 78788at3193          -            396   1.3e-07   32.3   0.0   1   1     3e-10   1.8e-07   31.9   0.0   305   356   202   253   170   257 0.86 -
ID=PSME_00050090     -            269 78788at3193          -            396   1.4e-07   32.2   0.0   1   1   3.5e-10   2.1e-07   31.6   0.0   305   359   142   196   135   201 0.90 -
ID=PSME_00024625     -            235 78788at3193          -            396   1.4e-07   32.2   1.2   1   2   1.5e-05     0.009   16.4   0.1    92   163     5    75     2    92 0.87 -
ID=PSME_00024625     -            235 78788at3193          -            396   1.4e-07   32.2   1.2   2   2   5.2e-05     0.031   14.6   0.2   293   380   134   213    98   222 0.81 -
ID=PSME_00051106     -            329 78788at3193          -            396   1.7e-07   31.9   0.0   1   1   4.1e-10   2.5e-07   31.4   0.0   305   358   202   255   169   259 0.82 -
ID=PSME_00014729     -            167 78788at3193          -            396   2.9e-07   31.2   0.0   1   1   6.2e-10   3.7e-07   30.8   0.0   305   369    24    89     6    95 0.83 -
ID=PSME_00047178     -            423 78788at3193          -            396     4e-06   27.4   0.2   1   2   5.8e-05     0.035   14.4   0.0   107   209    92   196    80   219 0.77 -
ID=PSME_00047178     -            423 78788at3193          -            396     4e-06   27.4   0.2   2   2   0.00066      0.39   11.0   0.1   326   370   247   292   223   298 0.85 -
ID=PSME_00021159     -            329 78788at3193          -            396   7.5e-06   26.5   0.0   1   1   1.7e-08     1e-05   26.1   0.0   305   358   199   255   170   258 0.82 -
ID=PSME_00002746     -            234 78788at3193          -            396   1.3e-05   25.7   0.2   1   1   2.7e-08   1.6e-05   25.4   0.2   272   372    84   193     7   211 0.76 -
ID=PSME_00006013     -           1155 78788at3193          -            396   1.5e-05   25.5   0.1   1   2       0.2   1.2e+02    2.8   0.0    41    72   615   646   594   649 0.86 -
ID=PSME_00006013     -           1155 78788at3193          -            396   1.5e-05   25.5   0.1   2   2   8.7e-07   0.00052   20.5   0.0   255   360   822   932   666   941 0.65 -
ID=PSME_00010460     -           1691 78788at3193          -            396   6.8e-05   23.4   0.3   1   2     0.002       1.2    9.4   0.0    48   189    93   231    81   263 0.79 -
ID=PSME_00010460     -           1691 78788at3193          -            396   6.8e-05   23.4   0.3   2   2   0.00051       0.3   11.3   0.1   304   358   483   537   420   556 0.85 -
ID=PSME_00000761     -            618 78788at3193          -            396   0.00038   20.9   0.3   1   1   1.4e-06    0.0008   19.8   0.1    39   179   429   569   411   585 0.78 -
ID=PSME_00030804     -            574 78788at3193          -            396   0.00046   20.6   0.0   1   1   1.1e-06   0.00063   20.2   0.0    47   113   284   348   266   359 0.81 -
ID=PSME_00021600     -            149 78788at3193          -            396   0.00095   19.6   0.0   1   1     2e-06    0.0012   19.3   0.0   340   372    84   115    70   134 0.78 -
ID=PSME_00043874     -            113 78788at3193          -            396    0.0011   19.4   0.1   1   1   2.1e-06    0.0013   19.2   0.1    91   162    13    83     8   102 0.86 -
ID=PSME_00012902     -            369 78788at3193          -            396    0.0013   19.2   0.3   1   1   3.1e-06    0.0019   18.6   0.3   263   360   183   283   154   325 0.85 -
ID=PSME_00018597     -            247 78788at3193          -            396    0.0028   18.0   0.4   1   2       1.9   1.1e+03   -0.4   0.0   252   292    41    83    31    99 0.73 -
ID=PSME_00018597     -            247 78788at3193          -            396    0.0028   18.0   0.4   2   2   1.5e-05    0.0089   16.4   0.1   267   378   123   237    91   245 0.79 -
ID=PSME_00013680     -            411 78788at3193          -            396    0.0032   17.9   0.0   1   1   8.3e-06     0.005   17.2   0.0   300   339    92   131    84   137 0.91 -
ID=PSME_00048282     -            239 78788at3193          -            396    0.0099   16.2   0.1   1   1   2.3e-05     0.014   15.8   0.1   326   359   149   182   143   187 0.92 -
ID=PSME_00021366     -            245 78788at3193          -            396     0.014   15.7   0.1   1   2       2.8   1.7e+03   -1.0   0.0    51    73     2    24     1    28 0.84 -
ID=PSME_00021366     -            245 78788at3193          -            396     0.014   15.7   0.1   2   2   8.1e-05     0.048   14.0   0.0   199   317    97   206    74   218 0.79 -
ID=PSME_00028652     -            114 78788at3193          -            396     0.023   15.0   0.0   1   1   4.2e-05     0.025   14.9   0.0    60   156     7   110     2   113 0.79 -
ID=PSME_00009840     -            353 78788at3193          -            396     0.064   13.6   0.1   1   1   0.00018      0.11   12.8   0.1   343   385    51    92    44    99 0.84 -
ID=PSME_00024750     -            487 78788at3193          -            396     0.098   12.9   0.0   1   1   0.00027      0.16   12.2   0.0   114   163     3    51     1    60 0.88 -
ID=PSME_00013853     -            687 78788at3193          -            396      0.15   12.4   0.0   1   2    0.0022       1.3    9.2   0.0    53   101   187   232   174   279 0.85 -
ID=PSME_00013853     -            687 78788at3193          -            396      0.15   12.4   0.0   2   2       1.1   6.6e+02    0.3   0.0   318   390   580   651   565   657 0.81 -
ID=PSME_00023747     -            100 78788at3193          -            396      0.16   12.2   0.0   1   1   0.00028      0.17   12.2   0.0    52   112     3    59     1    80 0.85 -
ID=PSME_00008106     -            223 78788at3193          -            396      0.33   11.2   0.0   1   1   0.00067       0.4   11.0   0.0   232   335    37   142    24   175 0.85 -
ID=PSME_00040391     -            195 78788at3193          -            396      0.35   11.1   0.0   1   1   0.00074      0.44   10.8   0.0   318   361    34    77    17   111 0.79 -
#
# Program:         hmmsearch
# Version:         3.2.1 (June 2018)
# Pipeline mode:   SEARCH
# Query file:      /isg/shared/databases/BUSCO/odb10/embryophyta_odb10/hmms/78788at3193.hmm
# Target file:     /labs/Wegrzyn/ConiferGenomes/Psme/analysis/SURF_annotation/analyze_orig_maker/gfacs/filtered/maker_genes.fasta.faa
# Option settings: /usr/local/bin/hmmsearch --domtblout /labs/Wegrzyn/ConiferGenomes/Psme/analysis/SURF_annotation/analyze_orig_maker/busco/maker/run_embryophyta_odb10/hmmer_output/78788at3193.out --cpu 1 /isg/shared/databases/BUSCO/odb10/embryophyta_odb10/hmms/78788at3193.hmm /labs/Wegrzyn/ConiferGenomes/Psme/analysis/SURF_annotation/analyze_orig_maker/gfacs/filtered/maker_genes.fasta.faa 
# Current dir:     /labs/Wegrzyn/ConiferGenomes/Psme/analysis/SURF_annotation/analyze_orig_maker/busco
# Date:            Fri Jul 10 13:57:26 2020
# [ok]
