#                                                                            --- full sequence --- -------------- this domain -------------   hmm coord   ali coord   env coord
# target name        accession   tlen query name           accession   qlen   E-value  score  bias   #  of  c-Evalue  i-Evalue  score  bias  from    to  from    to  from    to  acc description of target
#------------------- ---------- ----- -------------------- ---------- ----- --------- ------ ----- --- --- --------- --------- ------ ----- ----- ----- ----- ----- ----- ----- ---- ---------------------
ID=PSME_00020327     -            262 7936at3193           -            828  1.4e-100  339.0   0.1   1   1  1.3e-104  1.8e-100  338.7   0.1   650   827    82   256    69   257 0.96 -
ID=PSME_00026185     -            687 7936at3193           -            828      0.15   11.5   0.3   1   1   2.2e-05       0.3   10.4   0.3    10   122   393   505   385   520 0.73 -
ID=PSME_00045186     -            461 7936at3193           -            828      0.17   11.2   0.0   1   1   2.1e-05      0.29   10.5   0.0   656   699   155   201   145   214 0.70 -
ID=PSME_00002555     -            405 7936at3193           -            828      0.64    9.4   0.0   1   1   6.1e-05      0.84    9.0   0.0   665   688    74    97    52   126 0.71 -
#
# Program:         hmmsearch
# Version:         3.2.1 (June 2018)
# Pipeline mode:   SEARCH
# Query file:      /isg/shared/databases/BUSCO/odb10/embryophyta_odb10/hmms/7936at3193.hmm
# Target file:     /labs/Wegrzyn/ConiferGenomes/Psme/analysis/SURF_annotation/analyze_orig_maker/gfacs/filtered/maker_genes.fasta.faa
# Option settings: /usr/local/bin/hmmsearch --domtblout /labs/Wegrzyn/ConiferGenomes/Psme/analysis/SURF_annotation/analyze_orig_maker/busco/maker/run_embryophyta_odb10/hmmer_output/7936at3193.out --cpu 1 /isg/shared/databases/BUSCO/odb10/embryophyta_odb10/hmms/7936at3193.hmm /labs/Wegrzyn/ConiferGenomes/Psme/analysis/SURF_annotation/analyze_orig_maker/gfacs/filtered/maker_genes.fasta.faa 
# Current dir:     /labs/Wegrzyn/ConiferGenomes/Psme/analysis/SURF_annotation/analyze_orig_maker/busco
# Date:            Fri Jul 10 13:57:25 2020
# [ok]
