#                                                                            --- full sequence --- -------------- this domain -------------   hmm coord   ali coord   env coord
# target name        accession   tlen query name           accession   qlen   E-value  score  bias   #  of  c-Evalue  i-Evalue  score  bias  from    to  from    to  from    to  acc description of target
#------------------- ---------- ----- -------------------- ---------- ----- --------- ------ ----- --- --- --------- --------- ------ ----- ----- ----- ----- ----- ----- ----- ---- ---------------------
ID=PSME_00018873     -            539 79821at3193          -            310   1.4e-41  144.6  10.8   1   4   5.2e-05      0.02   16.0   0.3   195   244   152   202   143   207 0.86 -
ID=PSME_00018873     -            539 79821at3193          -            310   1.4e-41  144.6  10.8   2   4   1.2e-09   4.7e-07   31.2   0.1    57   129   201   275   192   279 0.82 -
ID=PSME_00018873     -            539 79821at3193          -            310   1.4e-41  144.6  10.8   3   4   2.4e-22   9.2e-20   72.9   0.1    27   194   266   445   265   449 0.85 -
ID=PSME_00018873     -            539 79821at3193          -            310   1.4e-41  144.6  10.8   4   4   2.3e-16   9.1e-14   53.3   0.1    65   197   369   503   365   511 0.84 -
ID=PSME_00026680     -           1010 79821at3193          -            310   2.3e-38  134.0  18.5   1   5       6.6   2.6e+03   -0.8   0.1   213   240   136   164   116   176 0.59 -
ID=PSME_00026680     -           1010 79821at3193          -            310   2.3e-38  134.0  18.5   2   5   9.6e-21   3.8e-18   67.7   1.3    58   196   176   316   152   319 0.87 -
ID=PSME_00026680     -           1010 79821at3193          -            310   2.3e-38  134.0  18.5   3   5   1.5e-08     6e-06   27.6   0.1    66   131   291   357   286   363 0.91 -
ID=PSME_00026680     -           1010 79821at3193          -            310   2.3e-38  134.0  18.5   4   5   2.4e-07   9.4e-05   23.7   0.3    74   145   363   438   356   448 0.86 -
ID=PSME_00026680     -           1010 79821at3193          -            310   2.3e-38  134.0  18.5   5   5   5.4e-16   2.1e-13   52.0   1.1     7   130   376   523   376   534 0.77 -
ID=PSME_00003946     -            896 79821at3193          -            310   7.9e-38  132.3  14.9   1   5       3.4   1.4e+03    0.1   0.1    47   101   236   291   218   304 0.65 -
ID=PSME_00003946     -            896 79821at3193          -            310   7.9e-38  132.3  14.9   2   5   1.4e-20   5.6e-18   67.1   3.4    56   196   306   448   277   450 0.84 -
ID=PSME_00003946     -            896 79821at3193          -            310   7.9e-38  132.3  14.9   3   5   9.9e-09   3.9e-06   28.2   0.0    65   130   422   488   411   490 0.89 -
ID=PSME_00003946     -            896 79821at3193          -            310   7.9e-38  132.3  14.9   4   5   2.1e-09     8e-07   30.4   0.1    64   145   486   571   482   579 0.88 -
ID=PSME_00003946     -            896 79821at3193          -            310   7.9e-38  132.3  14.9   5   5   1.4e-12   5.3e-10   40.9   0.7    26   130   541   656   540   672 0.84 -
ID=PSME_00001887     -            901 79821at3193          -            310   1.1e-35  125.2  23.6   1   5       3.7   1.4e+03    0.1   0.4    47    98   197   249   189   265 0.64 -
ID=PSME_00001887     -            901 79821at3193          -            310   1.1e-35  125.2  23.6   2   5   5.5e-08   2.2e-05   25.8   0.0    58   121   269   333   264   333 0.90 -
ID=PSME_00001887     -            901 79821at3193          -            310   1.1e-35  125.2  23.6   3   5   6.7e-15   2.6e-12   48.5   5.7   202   310   330   451   327   451 0.83 -
ID=PSME_00001887     -            901 79821at3193          -            310   1.1e-35  125.2  23.6   4   5   6.2e-09   2.4e-06   28.9   0.2    65   149   448   536   447   544 0.88 -
ID=PSME_00001887     -            901 79821at3193          -            310   1.1e-35  125.2  23.6   5   5   3.5e-14   1.4e-11   46.1   2.0    26   130   502   617   501   634 0.84 -
ID=PSME_00006456     -           1203 79821at3193          -            310   1.7e-33  118.1  10.3   1   4   1.2e-08   4.9e-06   27.9   0.3    65   264     5   200     2   203 0.72 -
ID=PSME_00006456     -           1203 79821at3193          -            310   1.7e-33  118.1  10.3   2   4   5.2e-05     0.021   16.0   0.6    42   147   154   261   146   284 0.68 -
ID=PSME_00006456     -           1203 79821at3193          -            310   1.7e-33  118.1  10.3   3   4   8.8e-14   3.4e-11   44.8   0.1    68   194   880  1007   872  1014 0.91 -
ID=PSME_00006456     -           1203 79821at3193          -            310   1.7e-33  118.1  10.3   4   4   6.7e-11   2.6e-08   35.3   0.3    66   196  1037  1171  1023  1182 0.83 -
ID=PSME_00032239     -            612 79821at3193          -            310   4.3e-33  116.7   3.9   1   3   1.1e-10   4.4e-08   34.6   0.1    69   174    75   182    68   197 0.85 -
ID=PSME_00032239     -            612 79821at3193          -            310   4.3e-33  116.7   3.9   2   3   3.2e-11   1.3e-08   36.4   0.1    65   194   209   342   196   357 0.84 -
ID=PSME_00032239     -            612 79821at3193          -            310   4.3e-33  116.7   3.9   3   3   8.6e-14   3.3e-11   44.8   0.1    68   194   434   561   426   568 0.91 -
ID=PSME_00013416     -            582 79821at3193          -            310   1.1e-32  115.4   8.6   1   4   1.1e-17   4.4e-15   57.6   0.2    67   194   194   322   182   335 0.92 -
ID=PSME_00013416     -            582 79821at3193          -            310   1.1e-32  115.4   8.6   2   4   1.2e-12   4.7e-10   41.1   0.2    66   196   352   486   344   492 0.85 -
ID=PSME_00013416     -            582 79821at3193          -            310   1.1e-32  115.4   8.6   3   4   1.8e-11   6.9e-09   37.2   0.4    67   181   410   532   402   542 0.80 -
ID=PSME_00013416     -            582 79821at3193          -            310   1.1e-32  115.4   8.6   4   4      0.24        96    3.9   0.1    32    55   537   562   531   569 0.74 -
ID=PSME_00004408     -            587 79821at3193          -            310   3.8e-31  110.3   9.9   1   5     4e-14   1.6e-11   45.9   0.2    71   194    50   174    41   182 0.91 -
ID=PSME_00004408     -            587 79821at3193          -            310   3.8e-31  110.3   9.9   2   5   5.5e-06    0.0021   19.2   0.0    82   191   114   227   113   232 0.76 -
ID=PSME_00004408     -            587 79821at3193          -            310   3.8e-31  110.3   9.9   3   5    0.0081       3.2    8.8   0.0    66   138   204   283   185   287 0.63 -
ID=PSME_00004408     -            587 79821at3193          -            310   3.8e-31  110.3   9.9   4   5   2.2e-08   8.7e-06   27.1   0.2    70   146   355   433   347   436 0.88 -
ID=PSME_00004408     -            587 79821at3193          -            310   3.8e-31  110.3   9.9   5   5   1.9e-09   7.3e-07   30.6   0.2    83   197   435   549   431   575 0.82 -
ID=PSME_00009675     -            328 79821at3193          -            310     1e-30  108.9   5.1   1   3   1.6e-13   6.1e-11   44.0   0.1    82   161    75   158    62   162 0.82 -
ID=PSME_00009675     -            328 79821at3193          -            310     1e-30  108.9   5.1   2   3   1.8e-08   7.1e-06   27.3   0.1    50   113   150   217   145   221 0.81 -
ID=PSME_00009675     -            328 79821at3193          -            310     1e-30  108.9   5.1   3   3   1.2e-12   4.6e-10   41.1   0.2    64   140   218   298   212   309 0.84 -
ID=PSME_00005197     -            601 79821at3193          -            310   2.7e-29  104.3   9.9   1   5   3.1e-05     0.012   16.7   0.0    65   178     5   120     1   129 0.79 -
ID=PSME_00005197     -            601 79821at3193          -            310   2.7e-29  104.3   9.9   2   5   3.6e-11   1.4e-08   36.2   0.2    66   196   113   247    96   254 0.85 -
ID=PSME_00005197     -            601 79821at3193          -            310   2.7e-29  104.3   9.9   3   5   3.8e-06    0.0015   19.7   0.0    65   177   266   380   248   396 0.71 -
ID=PSME_00005197     -            601 79821at3193          -            310   2.7e-29  104.3   9.9   4   5   0.00023      0.09   13.9   0.1    65   120   400   458   387   497 0.77 -
ID=PSME_00005197     -            601 79821at3193          -            310   2.7e-29  104.3   9.9   5   5     2e-07   7.7e-05   23.9   0.3    67   146   497   581   485   585 0.81 -
ID=PSME_00041921     -            340 79821at3193          -            310     1e-28  102.4  25.3   1   5   2.7e-10     1e-07   33.3   0.6    82   146     2    70     1    74 0.78 -
ID=PSME_00041921     -            340 79821at3193          -            310     1e-28  102.4  25.3   2   5   1.5e-13     6e-11   44.0   2.4    66   195    37   181    36   182 0.80 -
ID=PSME_00041921     -            340 79821at3193          -            310     1e-28  102.4  25.3   3   5   0.00043      0.17   13.0   0.0    57    93   146   185   141   200 0.78 -
ID=PSME_00041921     -            340 79821at3193          -            310     1e-28  102.4  25.3   4   5   1.2e-10   4.7e-08   34.5   1.3    65   144   200   294   188   295 0.79 -
ID=PSME_00041921     -            340 79821at3193          -            310     1e-28  102.4  25.3   5   5   2.1e-06   0.00084   20.5   0.1    63   109   264   310   246   320 0.75 -
ID=PSME_00034408     -            522 79821at3193          -            310   1.8e-27   98.3   1.1   1   3   0.00044      0.17   12.9   0.0    87   131    15    59     3    64 0.88 -
ID=PSME_00034408     -            522 79821at3193          -            310   1.8e-27   98.3   1.1   2   3   2.4e-17   9.5e-15   56.5   0.4    44   191    59   209    55   217 0.84 -
ID=PSME_00034408     -            522 79821at3193          -            310   1.8e-27   98.3   1.1   3   3   2.9e-08   1.2e-05   26.6   0.0    56   131   337   416   313   429 0.74 -
ID=PSME_00028774     -            580 79821at3193          -            310   1.1e-25   92.4   6.0   1   3   2.4e-15   9.5e-13   49.9   0.1    69   194   154   280   146   291 0.91 -
ID=PSME_00028774     -            580 79821at3193          -            310   1.1e-25   92.4   6.0   2   3   3.2e-12   1.2e-09   39.7   0.5    66   196   310   444   285   456 0.84 -
ID=PSME_00028774     -            580 79821at3193          -            310   1.1e-25   92.4   6.0   3   3      0.44   1.7e+02    3.1   0.0    32    55   496   521   490   527 0.74 -
ID=PSME_00020108     -            865 79821at3193          -            310   3.7e-25   90.7  13.3   1   5   3.8e-05     0.015   16.4   0.0    66   110   173   218   164   235 0.81 -
ID=PSME_00020108     -            865 79821at3193          -            310   3.7e-25   90.7  13.3   2   5   9.5e-10   3.7e-07   31.5   0.5    66   191   363   504   354   509 0.72 -
ID=PSME_00020108     -            865 79821at3193          -            310   3.7e-25   90.7  13.3   3   5   0.00021     0.081   14.0   0.1    67   123   539   596   527   619 0.78 -
ID=PSME_00020108     -            865 79821at3193          -            310   3.7e-25   90.7  13.3   4   5   0.00018     0.069   14.2   0.1    65   136   637   711   615   744 0.80 -
ID=PSME_00020108     -            865 79821at3193          -            310   3.7e-25   90.7  13.3   5   5   9.7e-06    0.0038   18.4   0.2   137   232   759   853   721   862 0.72 -
ID=PSME_00041133     -            494 79821at3193          -            310   4.4e-25   90.4   2.3   1   2   1.2e-14   4.9e-12   47.6   0.1    68   194   153   280   145   291 0.91 -
ID=PSME_00041133     -            494 79821at3193          -            310   4.4e-25   90.4   2.3   2   2     4e-13   1.6e-10   42.6   0.4    66   196   310   444   285   473 0.84 -
ID=PSME_00035323     -            498 79821at3193          -            310   1.6e-24   88.6   2.3   1   2   2.8e-15   1.1e-12   49.7   0.1    68   194   151   278   144   289 0.91 -
ID=PSME_00035323     -            498 79821at3193          -            310   1.6e-24   88.6   2.3   2   2   6.9e-12   2.7e-09   38.6   0.4    66   197   308   443   285   459 0.85 -
ID=PSME_00022594     -            523 79821at3193          -            310   3.7e-24   87.4   5.9   1   4   7.2e-12   2.8e-09   38.5   0.2    69   170   152   254   144   266 0.88 -
ID=PSME_00022594     -            523 79821at3193          -            310   3.7e-24   87.4   5.9   2   4   3.2e-10   1.3e-07   33.1   0.3    84   197   258   371   253   403 0.82 -
ID=PSME_00022594     -            523 79821at3193          -            310   3.7e-24   87.4   5.9   3   4     0.031        12    6.9   0.0    71   122   415   469   400   472 0.79 -
ID=PSME_00022594     -            523 79821at3193          -            310   3.7e-24   87.4   5.9   4   4    0.0013      0.52   11.4   0.0   140   194   470   520   465   522 0.85 -
ID=PSME_00018518     -            504 79821at3193          -            310   3.1e-23   84.4   4.0   1   2   5.9e-13   2.3e-10   42.1   0.3    68   194   153   280   144   292 0.90 -
ID=PSME_00018518     -            504 79821at3193          -            310   3.1e-23   84.4   4.0   2   2   2.2e-13   8.6e-11   43.5   0.4    66   197   310   443   287   473 0.85 -
ID=PSME_00006670     -           1212 79821at3193          -            310   4.2e-23   83.9   6.0   1   5   1.9e-07   7.3e-05   24.0   0.0    65   186     5   131     1   140 0.77 -
ID=PSME_00006670     -           1212 79821at3193          -            310   4.2e-23   83.9   6.0   2   5      0.14        55    4.7   0.0    66   123   113   174   100   236 0.71 -
ID=PSME_00006670     -           1212 79821at3193          -            310   4.2e-23   83.9   6.0   3   5   1.1e-12   4.2e-10   41.2   0.2    68   194   879  1006   871  1008 0.91 -
ID=PSME_00006670     -           1212 79821at3193          -            310   4.2e-23   83.9   6.0   4   5   2.6e-07    0.0001   23.6   0.0    66   193   929  1061   928  1077 0.77 -
ID=PSME_00006670     -           1212 79821at3193          -            310   4.2e-23   83.9   6.0   5   5   0.00014     0.055   14.6   0.1    84   198  1076  1180  1063  1191 0.64 -
ID=PSME_00044619     -            470 79821at3193          -            310   5.2e-23   83.6   1.9   1   2   2.1e-14   8.3e-12   46.8   0.2    68   194   152   279   143   290 0.88 -
ID=PSME_00044619     -            470 79821at3193          -            310   5.2e-23   83.6   1.9   2   2   3.3e-11   1.3e-08   36.3   0.1    66   196   309   443   290   455 0.84 -
ID=PSME_00004830     -            322 79821at3193          -            310   1.1e-22   82.6  11.0   1   3   3.2e-15   1.3e-12   49.5   0.4    63   175     9   132     2   132 0.80 -
ID=PSME_00004830     -            322 79821at3193          -            310   1.1e-22   82.6  11.0   2   3   1.1e-08   4.4e-06   28.0   1.8   201   235   128   164   127   174 0.90 -
ID=PSME_00004830     -            322 79821at3193          -            310   1.1e-22   82.6  11.0   3   3   0.00021     0.081   14.0   0.1    68   130   192   254   177   262 0.79 -
ID=PSME_00034526     -            428 79821at3193          -            310   1.3e-22   82.3   0.7   1   2   1.9e-14   7.5e-12   47.0   0.1    51   194    14   158     7   165 0.88 -
ID=PSME_00034526     -            428 79821at3193          -            310   1.3e-22   82.3   0.7   2   2   2.2e-10   8.6e-08   33.6   0.1    93   197   182   286   178   309 0.84 -
ID=PSME_00026991     -            720 79821at3193          -            310   3.1e-22   81.1  10.6   1   3   2.1e-09   8.3e-07   30.4   1.1    69   231    77   262    69   272 0.73 -
ID=PSME_00026991     -            720 79821at3193          -            310   3.1e-22   81.1  10.6   2   3   4.3e-07   0.00017   22.8   0.1    65   179   364   480   318   501 0.76 -
ID=PSME_00026991     -            720 79821at3193          -            310   3.1e-22   81.1  10.6   3   3   1.4e-09   5.5e-07   31.0   0.5    67   146   530   614   517   634 0.85 -
ID=PSME_00041769     -            480 79821at3193          -            310   1.3e-21   79.0   4.1   1   3   5.2e-05      0.02   16.0   0.1    69   110   120   162   112   171 0.82 -
ID=PSME_00041769     -            480 79821at3193          -            310   1.3e-21   79.0   4.1   2   3   2.6e-08     1e-05   26.8   0.0    65   191   176   307   171   310 0.77 -
ID=PSME_00041769     -            480 79821at3193          -            310   1.3e-21   79.0   4.1   3   3   5.5e-12   2.1e-09   38.9   0.3    66   196   284   418   270   431 0.84 -
ID=PSME_00025202     -            472 79821at3193          -            310   2.2e-20   75.0   3.1   1   2   1.7e-13   6.7e-11   43.8   0.1    71   194   154   278   145   290 0.91 -
ID=PSME_00025202     -            472 79821at3193          -            310   2.2e-20   75.0   3.1   2   2   9.3e-10   3.7e-07   31.6   0.4    66   196   308   442   291   455 0.82 -
ID=PSME_00025132     -            508 79821at3193          -            310   2.3e-20   74.9   1.1   1   2   4.7e-12   1.9e-09   39.1   0.1    68   194   189   316   182   328 0.90 -
ID=PSME_00025132     -            508 79821at3193          -            310   2.3e-20   74.9   1.1   2   2   1.3e-10   4.9e-08   34.4   0.2    66   196   346   480   321   492 0.85 -
ID=PSME_00039844     -            399 79821at3193          -            310   5.1e-20   73.8   6.5   1   3   2.9e-09   1.1e-06   30.0   0.2    68   146    80   160    66   173 0.86 -
ID=PSME_00039844     -            399 79821at3193          -            310   5.1e-20   73.8   6.5   2   3      0.78     3e+02    2.3   0.0   236   266   179   211   175   234 0.76 -
ID=PSME_00039844     -            399 79821at3193          -            310   5.1e-20   73.8   6.5   3   3     3e-13   1.2e-10   43.0   0.4    66   197   237   372   222   386 0.85 -
ID=PSME_00007827     -            490 79821at3193          -            310   8.1e-20   73.1   7.4   1   3     8e-13   3.1e-10   41.6   0.2    68   194   157   284   149   290 0.88 -
ID=PSME_00007827     -            490 79821at3193          -            310   8.1e-20   73.1   7.4   2   3   6.3e-06    0.0025   19.0   0.0    66   178   207   321   206   340 0.73 -
ID=PSME_00007827     -            490 79821at3193          -            310   8.1e-20   73.1   7.4   3   3   1.3e-09   5.1e-07   31.1   0.7    67   148   372   458   356   476 0.84 -
ID=PSME_00038751     -            485 79821at3193          -            310     8e-19   69.9   4.7   1   3   1.5e-09   5.7e-07   30.9   0.1    68   193   165   282   156   285 0.91 -
ID=PSME_00038751     -            485 79821at3193          -            310     8e-19   69.9   4.7   2   3    0.0011      0.42   11.7   0.0    82   147   223   294   217   304 0.71 -
ID=PSME_00038751     -            485 79821at3193          -            310     8e-19   69.9   4.7   3   3   2.7e-11     1e-08   36.6   1.7    66   216   313   458   290   464 0.84 -
ID=PSME_00018840     -            838 79821at3193          -            310   1.2e-18   69.3   3.7   1   3     2e-09   7.9e-07   30.5   0.1    69   194   470   598   463   607 0.85 -
ID=PSME_00018840     -            838 79821at3193          -            310   1.2e-18   69.3   3.7   2   3   4.7e-06    0.0019   19.4   0.0    70   184   525   644   519   654 0.72 -
ID=PSME_00018840     -            838 79821at3193          -            310   1.2e-18   69.3   3.7   3   3   2.8e-11   1.1e-08   36.6   0.2    66   197   628   763   616   792 0.83 -
ID=PSME_00016916     -            497 79821at3193          -            310   1.5e-18   69.0   3.4   1   2   5.7e-13   2.2e-10   42.1   0.2    70   194   153   278   145   289 0.86 -
ID=PSME_00016916     -            497 79821at3193          -            310   1.5e-18   69.0   3.4   2   2   2.5e-08   9.8e-06   26.9   0.2    67   149   366   451   354   473 0.83 -
ID=PSME_00016448     -            401 79821at3193          -            310   5.6e-18   67.1   1.7   1   2     8e-15   3.1e-12   48.2   0.3    68   194    76   203    68   214 0.89 -
ID=PSME_00016448     -            401 79821at3193          -            310   5.6e-18   67.1   1.7   2   2   1.6e-05    0.0064   17.6   0.1    84   197   266   377   259   401 0.82 -
ID=PSME_00035060     -            487 79821at3193          -            310     7e-18   66.8   4.6   1   3   5.2e-10   2.1e-07   32.4   0.1    68   170   151   254   141   265 0.86 -
ID=PSME_00035060     -            487 79821at3193          -            310     7e-18   66.8   4.6   2   3   1.8e-10   6.9e-08   33.9   0.1    84   197   258   371   253   386 0.84 -
ID=PSME_00035060     -            487 79821at3193          -            310     7e-18   66.8   4.6   3   3      0.99   3.9e+02    1.9   0.1    70    92   462   485   449   486 0.51 -
ID=PSME_00055345     -            241 79821at3193          -            310   7.5e-18   66.7   0.7   1   2     0.038        15    6.6   0.0    79   109    51    81    33    89 0.79 -
ID=PSME_00055345     -            241 79821at3193          -            310   7.5e-18   66.7   0.7   2   2     6e-18   2.4e-15   58.5   0.4    59   189   106   234    95   239 0.85 -
ID=PSME_00022083     -            491 79821at3193          -            310   9.1e-18   66.4   3.8   1   3   3.3e-09   1.3e-06   29.8   0.1    69   194   174   308   165   319 0.82 -
ID=PSME_00022083     -            491 79821at3193          -            310   9.1e-18   66.4   3.8   2   3   4.7e-06    0.0019   19.4   0.0    65   180   230   347   219   347 0.80 -
ID=PSME_00022083     -            491 79821at3193          -            310   9.1e-18   66.4   3.8   3   3   3.8e-10   1.5e-07   32.8   0.2    66   189   338   465   320   475 0.84 -
ID=PSME_00043601     -            438 79821at3193          -            310   4.3e-17   64.2   2.8   1   3   2.3e-09   9.1e-07   30.3   0.0    68   193    74   193    65   194 0.86 -
ID=PSME_00043601     -            438 79821at3193          -            310   4.3e-17   64.2   2.8   2   3   7.2e-06    0.0028   18.8   0.0    75   194   126   250   122   260 0.74 -
ID=PSME_00043601     -            438 79821at3193          -            310   4.3e-17   64.2   2.8   3   3   1.6e-08   6.1e-06   27.5   0.9    84   197   264   377   255   407 0.67 -
ID=PSME_00028971     -            440 79821at3193          -            310   4.6e-17   64.1   5.0   1   2   5.1e-10     2e-07   32.4   0.2    68   169   151   253   142   259 0.88 -
ID=PSME_00028971     -            440 79821at3193          -            310   4.6e-17   64.1   5.0   2   2   4.4e-10   1.7e-07   32.6   1.4    68   147   259   343   247   361 0.84 -
ID=PSME_00045256     -            242 79821at3193          -            310   1.3e-16   62.6   2.1   1   2   4.3e-13   1.7e-10   42.5   0.5    66   141     2    79     1    79 0.91 -
ID=PSME_00045256     -            242 79821at3193          -            310   1.3e-16   62.6   2.1   2   2   2.8e-08   1.1e-05   26.7   0.0    65   131    53   122    52   131 0.87 -
ID=PSME_00013987     -            337 79821at3193          -            310   3.8e-16   61.1   1.7   1   2   6.9e-13   2.7e-10   41.8   0.2    76   194   167   286   157   294 0.89 -
ID=PSME_00013987     -            337 79821at3193          -            310   3.8e-16   61.1   1.7   2   2   4.2e-08   1.7e-05   26.1   0.1    67   179   210   324   209   332 0.81 -
ID=PSME_00042268     -            472 79821at3193          -            310   3.8e-16   61.1   5.2   1   2   4.8e-11   1.9e-08   35.8   0.2    68   193   153   279   145   284 0.80 -
ID=PSME_00042268     -            472 79821at3193          -            310   3.8e-16   61.1   5.2   2   2   2.6e-08     1e-05   26.8   0.8    66   196   310   444   287   457 0.78 -
ID=PSME_00029801     -            577 79821at3193          -            310   3.8e-15   57.8   6.9   1   4   1.4e-09   5.6e-07   30.9   0.2    88   196    61   168    48   184 0.81 -
ID=PSME_00029801     -            577 79821at3193          -            310   3.8e-15   57.8   6.9   2   4       1.7   6.7e+02    1.1   0.0   132   172   272   309   260   316 0.58 -
ID=PSME_00029801     -            577 79821at3193          -            310   3.8e-15   57.8   6.9   3   4   1.6e-05    0.0063   17.7   0.0    81   179   323   423   315   430 0.76 -
ID=PSME_00029801     -            577 79821at3193          -            310   3.8e-15   57.8   6.9   4   4    0.0014      0.53   11.3   0.4    66   195   415   548   401   564 0.83 -
ID=PSME_00043528     -            470 79821at3193          -            310   3.9e-15   57.8   3.4   1   2   1.9e-10   7.4e-08   33.8   0.2    69   194   152   278   143   285 0.83 -
ID=PSME_00043528     -            470 79821at3193          -            310   3.9e-15   57.8   3.4   2   2   8.2e-07   0.00032   21.9   0.3    65   196   307   442   290   454 0.83 -
ID=PSME_00041842     -            409 79821at3193          -            310   5.1e-15   57.4   1.8   1   2     1e-10     4e-08   34.7   0.5    84   174   125   213   112   215 0.92 -
ID=PSME_00041842     -            409 79821at3193          -            310   5.1e-15   57.4   1.8   2   2   4.9e-08   1.9e-05   25.9   0.0    59   131   201   278   198   287 0.83 -
ID=PSME_00031453     -            359 79821at3193          -            310     8e-15   56.7   6.7   1   3   2.2e-12   8.7e-10   40.2   0.5    56   196    55   193    27   195 0.84 -
ID=PSME_00031453     -            359 79821at3193          -            310     8e-15   56.7   6.7   2   3   4.3e-07   0.00017   22.8   0.2    66   148   168   264   155   267 0.71 -
ID=PSME_00031453     -            359 79821at3193          -            310     8e-15   56.7   6.7   3   3      0.15        60    4.6   0.0   230   258   280   308   274   310 0.77 -
ID=PSME_00026952     -            502 79821at3193          -            310   1.4e-14   55.9   4.6   1   2    0.0023       0.9   10.6   0.0    86   131   295   342   290   355 0.83 -
ID=PSME_00026952     -            502 79821at3193          -            310   1.4e-14   55.9   4.6   2   2   1.7e-14   6.8e-12   47.1   0.1    62   190   370   498   354   500 0.86 -
ID=PSME_00005145     -            180 79821at3193          -            310   1.8e-14   55.5   0.1   1   1   5.9e-17   2.3e-14   55.2   0.1    81   190    69   177    59   179 0.87 -
ID=PSME_00046335     -            265 79821at3193          -            310   2.2e-14   55.3   3.3   1   2   3.6e-10   1.4e-07   32.9   1.1    84   162    11    87     7    94 0.78 -
ID=PSME_00046335     -            265 79821at3193          -            310   2.2e-14   55.3   3.3   2   2   5.2e-07    0.0002   22.5   0.1    57   131    85   164    74   173 0.83 -
ID=PSME_00036719     -            471 79821at3193          -            310   2.6e-14   55.1   2.4   1   3   3.5e-06    0.0014   19.8   0.0   134   198   191   249   177   259 0.84 -
ID=PSME_00036719     -            471 79821at3193          -            310   2.6e-14   55.1   2.4   2   3      0.14        56    4.7   0.0   110   265   269   302   255   338 0.60 -
ID=PSME_00036719     -            471 79821at3193          -            310   2.6e-14   55.1   2.4   3   3   8.4e-09   3.3e-06   28.4   0.3    50   145   360   456   347   469 0.81 -
ID=PSME_00030030     -            279 79821at3193          -            310     5e-14   54.1   2.5   1   2    0.0013      0.49   11.4   0.0    65   131     5    74     1    95 0.79 -
ID=PSME_00030030     -            279 79821at3193          -            310     5e-14   54.1   2.5   2   2   4.5e-13   1.8e-10   42.4   1.0    66   197   103   238    85   268 0.85 -
ID=PSME_00013190     -            487 79821at3193          -            310   7.1e-14   53.6   0.7   1   2     2e-06   0.00079   20.6   0.0   156   202   196   242   180   253 0.88 -
ID=PSME_00013190     -            487 79821at3193          -            310   7.1e-14   53.6   0.7   2   2   2.7e-09     1e-06   30.1   0.5    83   197   332   446   322   475 0.86 -
ID=PSME_00034620     -            460 79821at3193          -            310   1.1e-13   53.0   4.8   1   3   1.3e-05    0.0051   18.0   0.2    65   101   166   203   160   214 0.83 -
ID=PSME_00034620     -            460 79821at3193          -            310   1.1e-13   53.0   4.8   2   3   1.2e-07   4.6e-05   24.7   0.2    82   264   215   392   206   393 0.73 -
ID=PSME_00034620     -            460 79821at3193          -            310   1.1e-13   53.0   4.8   3   3   2.8e-05     0.011   16.9   0.1    83   146   385   452   380   457 0.79 -
ID=PSME_00049009     -            288 79821at3193          -            310   1.9e-13   52.2   0.3   1   1     1e-15   3.9e-13   51.2   0.2    66   194   108   237    99   245 0.91 -
ID=PSME_00037275     -            229 79821at3193          -            310   2.1e-13   52.1   4.3   1   1   9.4e-08   3.7e-05   25.0   0.1    65   131    95   164    85   173 0.85 -
ID=PSME_00035059     -            273 79821at3193          -            310   3.8e-13   51.2   1.2   1   2   0.00012     0.046   14.8   0.0   131   194     5    67     1    82 0.61 -
ID=PSME_00035059     -            273 79821at3193          -            310   3.8e-13   51.2   1.2   2   2   6.4e-11   2.5e-08   35.4   0.2    66   196    97   231    80   246 0.83 -
ID=PSME_00017939     -            410 79821at3193          -            310     4e-13   51.1  10.9   1   3   1.2e-05    0.0048   18.0   2.5   212   286    64   152    47   160 0.62 -
ID=PSME_00017939     -            410 79821at3193          -            310     4e-13   51.1  10.9   2   3   1.7e-07   6.5e-05   24.2   0.1    64   114   291   343   278   366 0.85 -
ID=PSME_00017939     -            410 79821at3193          -            310     4e-13   51.1  10.9   3   3   0.00032      0.13   13.4   0.4   230   264   362   398   343   405 0.79 -
ID=PSME_00028424     -            269 79821at3193          -            310   4.8e-13   50.9   0.6   1   1   2.3e-15     9e-13   50.0   0.6    66   194     2   131     1   139 0.78 -
ID=PSME_00033742     -            342 79821at3193          -            310   5.6e-13   50.7   0.2   1   1   3.2e-15   1.2e-12   49.5   0.2    68   194   169   296   160   306 0.91 -
ID=PSME_00047507     -            102 79821at3193          -            310     9e-13   50.0   2.5   1   2   6.7e-09   2.6e-06   28.7   0.3    87   141     1    56     1    57 0.92 -
ID=PSME_00047507     -            102 79821at3193          -            310     9e-13   50.0   2.5   2   2     2e-08   7.8e-06   27.2   0.1    65   130    30    98    27   101 0.94 -
ID=PSME_00018148     -            122 79821at3193          -            310   1.1e-12   49.7   1.2   1   2   2.4e-07   9.3e-05   23.7   0.4    81   133     5    57     2    57 0.95 -
ID=PSME_00018148     -            122 79821at3193          -            310   1.1e-12   49.7   1.2   2   2   1.4e-09   5.4e-07   31.0   0.0    64   131    39   109    30   117 0.85 -
ID=PSME_00008771     -            102 79821at3193          -            310   2.4e-12   48.6   1.5   1   2   8.7e-08   3.4e-05   25.1   0.2    87   135     1    49     1    50 0.97 -
ID=PSME_00008771     -            102 79821at3193          -            310   2.4e-12   48.6   1.5   2   2   7.5e-09   2.9e-06   28.6   0.1    65   130    30    98    29   101 0.93 -
ID=PSME_00030479     -            276 79821at3193          -            310   3.8e-12   47.9   0.2   1   1   1.4e-14   5.3e-12   47.4   0.2    58   187    27   157    18   176 0.85 -
ID=PSME_00006985     -            397 79821at3193          -            310   3.9e-12   47.9   0.1   1   1   1.8e-14   7.2e-12   47.0   0.1    70   194    67   192    58   216 0.91 -
ID=PSME_00049951     -            223 79821at3193          -            310   3.9e-12   47.9   0.1   1   1   1.7e-14   6.5e-12   47.2   0.1    66   158     2    97     1   143 0.72 -
ID=PSME_00010631     -            112 79821at3193          -            310   6.7e-12   47.1   0.9   1   2   1.2e-08   4.9e-06   27.9   0.2    87   143     1    58     1    81 0.83 -
ID=PSME_00010631     -            112 79821at3193          -            310   6.7e-12   47.1   0.9   2   2     2e-07   7.9e-05   23.9   0.0    65   131    30    99    29   106 0.87 -
ID=PSME_00020202     -            490 79821at3193          -            310   9.2e-12   46.7   0.1   1   1   4.4e-14   1.7e-11   45.8   0.1    71   194    40   164    31   192 0.91 -
ID=PSME_00029925     -            288 79821at3193          -            310   1.7e-11   45.8   0.1   1   1   6.4e-14   2.5e-11   45.2   0.1    68   194    47   174    39   214 0.92 -
ID=PSME_00010828     -            429 79821at3193          -            310   2.3e-11   45.3   0.3   1   1   1.1e-13   4.1e-11   44.5   0.3    70   194   141   266   131   279 0.91 -
ID=PSME_00021981     -            462 79821at3193          -            310   2.8e-11   45.1  10.9   1   5      0.47   1.8e+02    3.0   0.0    81   130     8    61     2    71 0.65 -
ID=PSME_00021981     -            462 79821at3193          -            310   2.8e-11   45.1  10.9   2   5   8.3e-06    0.0032   18.6   0.0    64   111    46   102    33   107 0.69 -
ID=PSME_00021981     -            462 79821at3193          -            310   2.8e-11   45.1  10.9   3   5      0.19        74    4.3   0.1   202   216   111   125   100   134 0.74 -
ID=PSME_00021981     -            462 79821at3193          -            310   2.8e-11   45.1  10.9   4   5   0.00063      0.25   12.4   0.3   219   268   155   215   151   223 0.67 -
ID=PSME_00021981     -            462 79821at3193          -            310   2.8e-11   45.1  10.9   5   5   0.00061      0.24   12.5   0.2   201   233   251   286   242   293 0.84 -
ID=PSME_00036078     -            124 79821at3193          -            310   6.4e-11   43.9   1.3   1   2   8.8e-12   3.5e-09   38.2   0.1    83   149     4    75     1    96 0.84 -
ID=PSME_00036078     -            124 79821at3193          -            310   6.4e-11   43.9   1.3   2   2      0.12        46    4.9   0.1    26   254   104   115    91   120 0.56 -
ID=PSME_00040270     -            700 79821at3193          -            310   7.4e-11   43.7   0.5   1   3    0.0067       2.6    9.1   0.0    71   106   154   190   144   196 0.81 -
ID=PSME_00040270     -            700 79821at3193          -            310   7.4e-11   43.7   0.5   2   3   5.3e-09   2.1e-06   29.1   0.1    66   191   201   331   198   336 0.78 -
ID=PSME_00040270     -            700 79821at3193          -            310   7.4e-11   43.7   0.5   3   3      0.95   3.7e+02    2.0   0.0   141   187   339   381   329   382 0.71 -
ID=PSME_00032136     -            466 79821at3193          -            310     1e-10   43.2   1.3   1   1   3.7e-13   1.4e-10   42.8   1.3    66   145     2    86     1   112 0.86 -
ID=PSME_00036019     -            291 79821at3193          -            310   1.2e-10   43.0   1.7   1   1   8.1e-13   3.2e-10   41.6   1.7    67   159     3    99     1   128 0.48 -
ID=PSME_00034527     -            183 79821at3193          -            310   1.9e-10   42.4   0.6   1   1   9.6e-12   3.8e-09   38.1   0.6    69   188    49   182    39   182 0.79 -
ID=PSME_00017938     -             90 79821at3193          -            310   2.4e-10   42.0   0.1   1   2   3.1e-09   1.2e-06   29.8   0.0   156   197     7    48     4    51 0.92 -
ID=PSME_00017938     -             90 79821at3193          -            310   2.4e-10   42.0   0.1   2   2   5.6e-05     0.022   15.9   0.1    82   128    39    87    37    90 0.78 -
ID=PSME_00029329     -            341 79821at3193          -            310   8.4e-10   40.2   0.1   1   1   4.5e-12   1.8e-09   39.2   0.1    68   187   173   293   166   307 0.86 -
ID=PSME_00012376     -            360 79821at3193          -            310     2e-09   39.0   0.8   1   3   9.3e-05     0.036   15.1   0.3    69    99   111   142   105   145 0.85 -
ID=PSME_00012376     -            360 79821at3193          -            310     2e-09   39.0   0.8   2   3   1.9e-06   0.00074   20.7   0.0   156   223   145   223   142   231 0.74 -
ID=PSME_00012376     -            360 79821at3193          -            310     2e-09   39.0   0.8   3   3       2.9   1.1e+03    0.4   0.0   136   194   219   273   216   280 0.66 -
ID=PSME_00037640     -            284 79821at3193          -            310   4.3e-09   37.9   0.1   1   1   1.7e-11   6.7e-09   37.3   0.1    50   133   190   276   180   283 0.83 -
ID=PSME_00018839     -            201 79821at3193          -            310   8.1e-09   37.0   0.2   1   2     3e-09   1.2e-06   29.9   0.1    65   180    18   135     8   153 0.77 -
ID=PSME_00018839     -            201 79821at3193          -            310   8.1e-09   37.0   0.2   2   2     0.081        32    5.5   0.0   141   185   157   197   145   200 0.75 -
ID=PSME_00043420     -            281 79821at3193          -            310   9.3e-09   36.8   0.4   1   3     3e-05     0.012   16.7   0.1    67   109    49    92     7   101 0.77 -
ID=PSME_00043420     -            281 79821at3193          -            310   9.3e-09   36.8   0.4   2   3      0.01       3.9    8.5   0.0    70   120   106   159    95   175 0.78 -
ID=PSME_00043420     -            281 79821at3193          -            310   9.3e-09   36.8   0.4   3   3     0.014       5.4    8.0   0.0   155   188   245   280   220   280 0.80 -
ID=PSME_00023526     -            112 79821at3193          -            310   1.4e-08   36.3   0.3   1   1   4.1e-11   1.6e-08   36.0   0.3    78   143    26    92    17   109 0.80 -
ID=PSME_00043676     -            226 79821at3193          -            310   1.7e-08   36.0   0.0   1   1   5.7e-11   2.3e-08   35.5   0.0    81   182     7   108     2   136 0.78 -
ID=PSME_00047085     -            231 79821at3193          -            310   1.8e-08   35.9   0.8   1   1   2.2e-09   8.5e-07   30.4   0.9     7    97    14   113    14   135 0.80 -
ID=PSME_00024053     -            549 79821at3193          -            310   1.8e-08   35.9   2.8   1   2   9.8e-05     0.038   15.1   0.6   192   259   109   179    90   191 0.80 -
ID=PSME_00024053     -            549 79821at3193          -            310   1.8e-08   35.9   2.8   2   2   2.4e-06   0.00094   20.4   0.1    65   131   204   273   191   280 0.81 -
ID=PSME_00017369     -            450 79821at3193          -            310   2.4e-08   35.5   0.6   1   1   3.5e-10   1.4e-07   33.0   0.7    81   152    57   130    38   160 0.78 -
ID=PSME_00015195     -            119 79821at3193          -            310   3.4e-08   34.9   0.1   1   1   1.1e-10   4.2e-08   34.6   0.1    81   144     7    71     4   108 0.81 -
ID=PSME_00021717     -            251 79821at3193          -            310   3.5e-08   34.9   0.1   1   1   1.2e-10   4.7e-08   34.5   0.1    14   132    10   130     5   138 0.79 -
ID=PSME_00007551     -            194 79821at3193          -            310   6.2e-08   34.1   0.8   1   1   6.7e-10   2.6e-07   32.0   0.8    82   184     9   111     5   132 0.72 -
ID=PSME_00001825     -            111 79821at3193          -            310   9.6e-08   33.5   0.1   1   1   4.6e-10   1.8e-07   32.6   0.1    57   131    19    98     1   106 0.72 -
ID=PSME_00030896     -             89 79821at3193          -            310   9.8e-08   33.5   0.8   1   1   2.8e-10   1.1e-07   33.3   0.8    87   152     1    70     1    80 0.86 -
ID=PSME_00013956     -            298 79821at3193          -            310   1.2e-07   33.1   0.3   1   1   1.4e-09   5.5e-07   31.0   0.3    82   162    39   121    16   156 0.49 -
ID=PSME_00018101     -            251 79821at3193          -            310   1.3e-07   33.0   0.1   1   1   4.6e-10   1.8e-07   32.6   0.1    65   136    14    89     2   107 0.85 -
ID=PSME_00016925     -            251 79821at3193          -            310   2.3e-07   32.2   0.0   1   1   8.6e-10   3.4e-07   31.7   0.0    82   144     8    71     4   109 0.83 -
ID=PSME_00047845     -            240 79821at3193          -            310     3e-07   31.8   0.3   1   2    0.0056       2.2    9.3   0.0    99   178     7    85     2   104 0.64 -
ID=PSME_00047845     -            240 79821at3193          -            310     3e-07   31.8   0.3   2   2   5.8e-07   0.00023   22.4   0.1    66   196    78   212    64   225 0.82 -
ID=PSME_00046571     -             97 79821at3193          -            310   3.8e-07   31.5   0.0   1   1   1.1e-09   4.5e-07   31.3   0.0    58   131     6    84     3    92 0.84 -
ID=PSME_00028082     -            115 79821at3193          -            310   4.1e-07   31.4   1.4   1   1   9.8e-08   3.9e-05   24.9   0.1    64   131    39   109    29   114 0.84 -
ID=PSME_00025173     -            425 79821at3193          -            310   4.2e-07   31.4   0.1   1   2   2.4e-07   9.3e-05   23.7   0.0   134   199   154   213   139   218 0.83 -
ID=PSME_00025173     -            425 79821at3193          -            310   4.2e-07   31.4   0.1   2   2      0.11        42    5.1   0.0   154   194   222   262   213   289 0.67 -
ID=PSME_00013570     -            565 79821at3193          -            310   5.3e-07   31.0   0.2   1   1   2.1e-09   8.4e-07   30.4   0.2    82   143     8    70     4   103 0.83 -
ID=PSME_00016392     -            272 79821at3193          -            310   5.8e-07   30.9   0.6   1   1   2.1e-09   8.1e-07   30.4   0.6    80   142    48   111    27   138 0.86 -
ID=PSME_00047203     -            263 79821at3193          -            310   7.2e-07   30.6   0.3   1   1   3.9e-09   1.5e-06   29.5   0.3    27   131     5   107     1   116 0.78 -
ID=PSME_00016472     -            358 79821at3193          -            310     8e-07   30.5   0.1   1   1   2.9e-09   1.1e-06   30.0   0.1    74   161    50   136    35   162 0.79 -
ID=PSME_00012616     -            218 79821at3193          -            310     8e-07   30.5   0.1   1   1   3.4e-09   1.3e-06   29.7   0.1    87   177    25   115    14   134 0.76 -
ID=PSME_00038912     -            289 79821at3193          -            310   8.6e-07   30.3   1.8   1   1   1.5e-08     6e-06   27.6   1.8    58   131    28   104     8   113 0.76 -
ID=PSME_00018354     -             97 79821at3193          -            310     9e-07   30.3   0.0   1   1   2.6e-09     1e-06   30.1   0.0    64   131    14    84     3    92 0.83 -
ID=PSME_00051111     -            187 79821at3193          -            310   1.3e-06   29.8   0.0   1   1   3.9e-09   1.5e-06   29.5   0.0    82   145   113   180    61   184 0.84 -
ID=PSME_00024849     -            449 79821at3193          -            310   1.6e-06   29.5   3.0   1   3         4   1.6e+03   -0.1   0.0   174   194   134   154   129   180 0.76 -
ID=PSME_00024849     -            449 79821at3193          -            310   1.6e-06   29.5   3.0   2   3   9.2e-07   0.00036   21.7   0.1    65   179   183   299   171   320 0.73 -
ID=PSME_00024849     -            449 79821at3193          -            310   1.6e-06   29.5   3.0   3   3     0.064        25    5.8   0.2   145   196   363   413   290   424 0.73 -
ID=PSME_00043064     -            223 79821at3193          -            310   1.7e-06   29.4   0.1   1   1   5.9e-09   2.3e-06   28.9   0.1    87   153     1    69     1   122 0.81 -
ID=PSME_00034014     -            203 79821at3193          -            310   1.7e-06   29.3   0.0   1   1     6e-09   2.3e-06   28.9   0.0    65   131    91   160    73   170 0.84 -
ID=PSME_00021980     -            115 79821at3193          -            310   1.7e-06   29.3   0.1   1   2   1.5e-07   5.8e-05   24.3   0.0    63   112    13    63     6    77 0.88 -
ID=PSME_00021980     -            115 79821at3193          -            310   1.7e-06   29.3   0.1   2   2      0.34   1.3e+02    3.5   0.0   171   215    89   103    72   111 0.48 -
ID=PSME_00043896     -            433 79821at3193          -            310   1.8e-06   29.3   0.1   1   1     9e-09   3.5e-06   28.3   0.1    86   143    44   102    12   162 0.73 -
ID=PSME_00052578     -            159 79821at3193          -            310   1.8e-06   29.3   0.0   1   1   6.6e-09   2.6e-06   28.8   0.0    65   132     7    77     3    87 0.87 -
ID=PSME_00007820     -            755 79821at3193          -            310   2.1e-06   29.1   2.3   1   2   1.7e-05    0.0067   17.6   0.4   123   198   441   514   430   518 0.83 -
ID=PSME_00007820     -            755 79821at3193          -            310   2.1e-06   29.1   2.3   2   2     3e-06    0.0012   20.1   0.1    71   148   492   576   479   604 0.74 -
ID=PSME_00051039     -            174 79821at3193          -            310   2.6e-06   28.8   0.0   1   1     1e-08     4e-06   28.2   0.0    65   131     7    76     3    84 0.87 -
ID=PSME_00015764     -            221 79821at3193          -            310     3e-06   28.5   0.0   1   1   1.2e-08   4.6e-06   27.9   0.0    77   131   164   218   147   220 0.90 -
ID=PSME_00051442     -            199 79821at3193          -            310   7.8e-06   27.2   0.1   1   2    0.0024      0.92   10.5   0.0    87   133     1    47     1    49 0.96 -
ID=PSME_00051442     -            199 79821at3193          -            310   7.8e-06   27.2   0.1   2   2   1.1e-06   0.00043   21.5   0.0    64   131    29   101    19   111 0.83 -
ID=PSME_00051316     -            109 79821at3193          -            310   1.3e-05   26.5   0.0   1   1   3.8e-08   1.5e-05   26.3   0.0    48   131    14   103     7   108 0.83 -
ID=PSME_00022144     -             87 79821at3193          -            310   1.3e-05   26.5   0.0   1   1   3.8e-08   1.5e-05   26.3   0.0    61   130    11    83     3    86 0.82 -
ID=PSME_00051193     -            200 79821at3193          -            310   1.4e-05   26.4   0.8   1   1   9.2e-08   3.6e-05   25.0   0.6    87   143     1    58     1    85 0.81 -
ID=PSME_00013935     -             92 79821at3193          -            310   1.5e-05   26.3   0.0   1   1   4.4e-08   1.7e-05   26.1   0.0    65   131    10    79     3    87 0.87 -
ID=PSME_00019158     -             89 79821at3193          -            310   2.3e-05   25.6   0.0   1   1   6.7e-08   2.6e-05   25.5   0.0    65   132     7    77     2    84 0.85 -
ID=PSME_00054454     -            139 79821at3193          -            310   3.7e-05   25.0   0.0   1   1     1e-07     4e-05   24.9   0.0    65    96    42    74     7   108 0.64 -
ID=PSME_00043571     -            145 79821at3193          -            310   3.9e-05   24.9   0.0   1   1   1.3e-07   5.1e-05   24.5   0.0    66   132     8    77     3    87 0.86 -
ID=PSME_00025945     -            225 79821at3193          -            310     4e-05   24.9   0.2   1   1   1.4e-07   5.3e-05   24.5   0.2    69   149     5    78     1   110 0.73 -
ID=PSME_00009676     -            774 79821at3193          -            310   5.6e-05   24.4   0.1   1   1   2.6e-07    0.0001   23.5   0.1   159   257    30   143     4   148 0.71 -
ID=PSME_00044171     -            182 79821at3193          -            310   5.9e-05   24.3   1.0   1   2      0.49   1.9e+02    2.9   0.0   135   194     6    64     2    68 0.67 -
ID=PSME_00044171     -            182 79821at3193          -            310   5.9e-05   24.3   1.0   2   2   3.5e-06    0.0014   19.8   0.4    82   146    72   140    69   153 0.77 -
ID=PSME_00042548     -             87 79821at3193          -            310    0.0001   23.5   0.0   1   1   3.1e-07   0.00012   23.3   0.0    58   130     6    83     3    86 0.83 -
ID=PSME_00039427     -            464 79821at3193          -            310   0.00012   23.2   0.0   1   2   1.5e-06   0.00058   21.1   0.0    83   140    47   104    29   160 0.70 -
ID=PSME_00039427     -            464 79821at3193          -            310   0.00012   23.2   0.0   2   2       6.3   2.5e+03   -0.7   0.0   164   206   385   429   370   438 0.81 -
ID=PSME_00002840     -            175 79821at3193          -            310   0.00019   22.6   0.0   1   1   6.6e-07   0.00026   22.2   0.0    68   179    49   162    31   172 0.73 -
ID=PSME_00039715     -            242 79821at3193          -            310   0.00032   21.9   2.4   1   2      0.94   3.7e+02    2.0   0.2    81   108     8    35     5    36 0.76 -
ID=PSME_00039715     -            242 79821at3193          -            310   0.00032   21.9   2.4   2   2   4.4e-06    0.0017   19.5   2.3    62   107    32    78    14    91 0.79 -
ID=PSME_00034209     -            606 79821at3193          -            310   0.00037   21.7   0.0   1   1   2.3e-06    0.0009   20.4   0.0    83   137    49   104    32   118 0.86 -
ID=PSME_00005060     -             87 79821at3193          -            310   0.00086   20.5   0.0   1   1   2.8e-06    0.0011   20.2   0.0    64   103    14    54     3    63 0.68 -
ID=PSME_00038119     -            325 79821at3193          -            310    0.0024   19.0   3.0   1   2      0.22        86    4.1   0.1    47   102   142   198   122   214 0.62 -
ID=PSME_00038119     -            325 79821at3193          -            310    0.0024   19.0   3.0   2   2   8.5e-05     0.033   15.3   0.5   200   228   221   251   213   278 0.80 -
ID=PSME_00025880     -            172 79821at3193          -            310    0.0029   18.7   0.0   1   1   8.8e-06    0.0034   18.5   0.0    57    98    52    96    25   120 0.71 -
ID=PSME_00025799     -            141 79821at3193          -            310    0.0032   18.6   0.0   1   1   9.5e-06    0.0037   18.4   0.0    83   136    49   103    26   121 0.83 -
ID=PSME_00015596     -            380 79821at3193          -            310    0.0063   17.6   0.0   1   1   2.7e-05      0.01   16.9   0.0    72   131    39   101    34   111 0.86 -
ID=PSME_00052291     -            165 79821at3193          -            310    0.0066   17.6   0.3   1   1   2.7e-05     0.011   16.9   0.3    62    99    20    58     6    84 0.80 -
ID=PSME_00025830     -            188 79821at3193          -            310    0.0072   17.5   1.3   1   1   0.00017     0.066   14.3   1.0    46   140    78   183    61   185 0.59 -
ID=PSME_00049169     -            116 79821at3193          -            310     0.028   15.5   0.0   1   1   8.3e-05     0.033   15.3   0.0    64   117    25    80     4    95 0.74 -
ID=PSME_00038731     -            295 79821at3193          -            310     0.059   14.5   0.0   1   1    0.0003      0.12   13.5   0.0    72   131    37    99    32   112 0.84 -
ID=PSME_00056587     -            801 79821at3193          -            310       0.1   13.7   4.5   1   2   0.00077       0.3   12.1   1.7    30    98   163   237   143   271 0.69 -
ID=PSME_00056587     -            801 79821at3193          -            310       0.1   13.7   4.5   2   2       1.1   4.2e+02    1.8   0.2   171   230   244   311   238   326 0.68 -
ID=PSME_00051400     -            103 79821at3193          -            310      0.38   11.8   0.0   1   1    0.0012      0.46   11.5   0.0    82   131    39    90    31   100 0.83 -
#
# Program:         hmmsearch
# Version:         3.2.1 (June 2018)
# Pipeline mode:   SEARCH
# Query file:      /isg/shared/databases/BUSCO/odb10/embryophyta_odb10/hmms/79821at3193.hmm
# Target file:     /labs/Wegrzyn/ConiferGenomes/Psme/analysis/SURF_annotation/analyze_orig_maker/gfacs/filtered/maker_genes.fasta.faa
# Option settings: /usr/local/bin/hmmsearch --domtblout /labs/Wegrzyn/ConiferGenomes/Psme/analysis/SURF_annotation/analyze_orig_maker/busco/maker/run_embryophyta_odb10/hmmer_output/79821at3193.out --cpu 1 /isg/shared/databases/BUSCO/odb10/embryophyta_odb10/hmms/79821at3193.hmm /labs/Wegrzyn/ConiferGenomes/Psme/analysis/SURF_annotation/analyze_orig_maker/gfacs/filtered/maker_genes.fasta.faa 
# Current dir:     /labs/Wegrzyn/ConiferGenomes/Psme/analysis/SURF_annotation/analyze_orig_maker/busco
# Date:            Fri Jul 10 13:57:27 2020
# [ok]
