#                                                                            --- full sequence --- -------------- this domain -------------   hmm coord   ali coord   env coord
# target name        accession   tlen query name           accession   qlen   E-value  score  bias   #  of  c-Evalue  i-Evalue  score  bias  from    to  from    to  from    to  acc description of target
#------------------- ---------- ----- -------------------- ---------- ----- --------- ------ ----- --- --- --------- --------- ------ ----- ----- ----- ----- ----- ----- ----- ---- ---------------------
ID=PSME_00013554     -            892 8030at3193           -            766         0 1248.4   1.1   1   2   4.1e-19   4.5e-15   56.4   0.0     1   117    19   160    19   175 0.71 -
ID=PSME_00013554     -            892 8030at3193           -            766         0 1248.4   1.1   2   2         0         0 1189.5   1.5   119   741   257   886   236   887 0.96 -
ID=PSME_00009018     -            469 8030at3193           -            766   1.2e-57  197.2   0.3   1   1   1.6e-61   1.8e-57  196.6   0.3   156   269   355   468   347   468 0.98 -
ID=PSME_00005349     -            272 8030at3193           -            766   0.00021   21.1   0.0   1   1   2.5e-08   0.00028   20.7   0.0    36    78    25    74     3   110 0.79 -
ID=PSME_00044362     -            419 8030at3193           -            766    0.0041   16.8   0.0   1   1     5e-07    0.0055   16.4   0.0    36    75    70   116    42   122 0.78 -
ID=PSME_00036036     -            376 8030at3193           -            766      0.19   11.3   0.0   1   1   2.5e-05      0.28   10.8   0.0   190   276   257   346   246   353 0.82 -
#
# Program:         hmmsearch
# Version:         3.2.1 (June 2018)
# Pipeline mode:   SEARCH
# Query file:      /isg/shared/databases/BUSCO/odb10/embryophyta_odb10/hmms/8030at3193.hmm
# Target file:     /labs/Wegrzyn/ConiferGenomes/Psme/analysis/SURF_annotation/analyze_orig_maker/gfacs/filtered/maker_genes.fasta.faa
# Option settings: /usr/local/bin/hmmsearch --domtblout /labs/Wegrzyn/ConiferGenomes/Psme/analysis/SURF_annotation/analyze_orig_maker/busco/maker/run_embryophyta_odb10/hmmer_output/8030at3193.out --cpu 1 /isg/shared/databases/BUSCO/odb10/embryophyta_odb10/hmms/8030at3193.hmm /labs/Wegrzyn/ConiferGenomes/Psme/analysis/SURF_annotation/analyze_orig_maker/gfacs/filtered/maker_genes.fasta.faa 
# Current dir:     /labs/Wegrzyn/ConiferGenomes/Psme/analysis/SURF_annotation/analyze_orig_maker/busco
# Date:            Fri Jul 10 13:57:25 2020
# [ok]
