#                                                                            --- full sequence --- -------------- this domain -------------   hmm coord   ali coord   env coord
# target name        accession   tlen query name           accession   qlen   E-value  score  bias   #  of  c-Evalue  i-Evalue  score  bias  from    to  from    to  from    to  acc description of target
#------------------- ---------- ----- -------------------- ---------- ----- --------- ------ ----- --- --- --------- --------- ------ ----- ----- ----- ----- ----- ----- ----- ---- ---------------------
ID=PSME_00011612     -            262 81311at3193          -            426   4.5e-45  155.8   3.8   1   1   1.4e-48   3.7e-44  152.7   3.8     9   194    40   256    34   259 0.83 -
ID=PSME_00019628     -           1404 81311at3193          -            426   1.9e-32  114.2  21.7   1   4   3.2e-19   8.7e-15   56.0   1.4    62   165    24   155    10   160 0.82 -
ID=PSME_00019628     -           1404 81311at3193          -            426   1.9e-32  114.2  21.7   2   4   3.7e-10     1e-05   26.1   1.6   199   269   161   247   156   260 0.76 -
ID=PSME_00019628     -           1404 81311at3193          -            426   1.9e-32  114.2  21.7   3   4   2.5e-06      0.07   13.4   0.0    93   135   272   315   249   323 0.87 -
ID=PSME_00019628     -           1404 81311at3193          -            426   1.9e-32  114.2  21.7   4   4     4e-11   1.1e-06   29.3   2.5   194   277   327   428   318   453 0.72 -
#
# Program:         hmmsearch
# Version:         3.2.1 (June 2018)
# Pipeline mode:   SEARCH
# Query file:      /isg/shared/databases/BUSCO/odb10/embryophyta_odb10/hmms/81311at3193.hmm
# Target file:     /labs/Wegrzyn/ConiferGenomes/Psme/analysis/SURF_annotation/analyze_orig_maker/gfacs/filtered/maker_genes.fasta.faa
# Option settings: /usr/local/bin/hmmsearch --domtblout /labs/Wegrzyn/ConiferGenomes/Psme/analysis/SURF_annotation/analyze_orig_maker/busco/maker/run_embryophyta_odb10/hmmer_output/81311at3193.out --cpu 1 /isg/shared/databases/BUSCO/odb10/embryophyta_odb10/hmms/81311at3193.hmm /labs/Wegrzyn/ConiferGenomes/Psme/analysis/SURF_annotation/analyze_orig_maker/gfacs/filtered/maker_genes.fasta.faa 
# Current dir:     /labs/Wegrzyn/ConiferGenomes/Psme/analysis/SURF_annotation/analyze_orig_maker/busco
# Date:            Fri Jul 10 13:57:24 2020
# [ok]
