#                                                                            --- full sequence --- -------------- this domain -------------   hmm coord   ali coord   env coord
# target name        accession   tlen query name           accession   qlen   E-value  score  bias   #  of  c-Evalue  i-Evalue  score  bias  from    to  from    to  from    to  acc description of target
#------------------- ---------- ----- -------------------- ---------- ----- --------- ------ ----- --- --- --------- --------- ------ ----- ----- ----- ----- ----- ----- ----- ---- ---------------------
ID=PSME_00016189     -            361 82631at3193          -            402   1.7e-89  301.9   0.0   1   1     2e-91   3.7e-88  297.5   0.0   134   327    55   268    46   285 0.87 -
ID=PSME_00042550     -            419 82631at3193          -            402   9.9e-11   42.5   0.1   1   2     2e-08   3.9e-05   24.1   0.3     4   169    14   180    11   187 0.76 -
ID=PSME_00042550     -            419 82631at3193          -            402   9.9e-11   42.5   0.1   2   2   6.5e-06     0.012   15.9   0.0   283   348   292   361   228   382 0.82 -
ID=PSME_00029245     -            422 82631at3193          -            402     4e-10   40.5   0.5   1   2   5.9e-08   0.00011   22.6   0.6     3   169    14   181    12   189 0.78 -
ID=PSME_00029245     -            422 82631at3193          -            402     4e-10   40.5   0.5   2   2   1.1e-05     0.022   15.0   0.0   284   350   294   364   252   383 0.80 -
ID=PSME_00009806     -            352 82631at3193          -            402     1e-09   39.2   0.1   1   1   3.6e-12   6.9e-09   36.5   0.1   142   322   124   303    88   322 0.68 -
ID=PSME_00004581     -            468 82631at3193          -            402   1.2e-09   39.0   0.2   1   3      0.27   5.1e+02    0.6   0.2     3    23    30    50    28    61 0.81 -
ID=PSME_00004581     -            468 82631at3193          -            402   1.2e-09   39.0   0.2   2   3   4.4e-07   0.00083   19.7   0.0   103   169   133   202   124   208 0.75 -
ID=PSME_00004581     -            468 82631at3193          -            402   1.2e-09   39.0   0.2   3   3   1.6e-05      0.03   14.6   0.0   287   346   321   388   305   403 0.82 -
ID=PSME_00046100     -            520 82631at3193          -            402   3.6e-09   37.4   0.2   1   3    0.0015       2.9    8.1   0.3     2    38    76   112    75   119 0.82 -
ID=PSME_00046100     -            520 82631at3193          -            402   3.6e-09   37.4   0.2   2   3   4.4e-06    0.0084   16.4   0.0   135   169   243   277   205   295 0.81 -
ID=PSME_00046100     -            520 82631at3193          -            402   3.6e-09   37.4   0.2   3   3    0.0007       1.3    9.2   0.0   284   321   393   430   370   442 0.88 -
ID=PSME_00004794     -            421 82631at3193          -            402   1.4e-08   35.4   0.3   1   3     0.011        22    5.2   0.7     2    23    16    37    15    45 0.86 -
ID=PSME_00004794     -            421 82631at3193          -            402   1.4e-08   35.4   0.3   2   3   4.1e-06    0.0078   16.5   0.0   123   169   142   188   114   199 0.75 -
ID=PSME_00004794     -            421 82631at3193          -            402   1.4e-08   35.4   0.3   3   3   0.00048      0.91    9.7   0.0   287   321   307   341   288   365 0.85 -
ID=PSME_00038932     -            465 82631at3193          -            402   3.9e-08   33.9   1.7   1   2    0.0058        11    6.1   0.3     2    25    54    77    53    87 0.87 -
ID=PSME_00038932     -            465 82631at3193          -            402   3.9e-08   33.9   1.7   2   2   1.9e-08   3.7e-05   24.2   0.1   128   321   185   379   154   391 0.68 -
ID=PSME_00013269     -            310 82631at3193          -            402   1.2e-07   32.4   0.0   1   2     0.056   1.1e+02    2.9   0.0   135   158    70    93    17    98 0.81 -
ID=PSME_00013269     -            310 82631at3193          -            402   1.2e-07   32.4   0.0   2   2   1.9e-09   3.6e-06   27.5   0.0   285   346   176   241   172   264 0.76 -
ID=PSME_00001508     -            567 82631at3193          -            402   1.3e-07   32.2   0.0   1   2   9.4e-05      0.18   12.0   0.0    95   179   107   197    12   207 0.53 -
ID=PSME_00001508     -            567 82631at3193          -            402   1.3e-07   32.2   0.0   2   2   3.1e-06    0.0059   16.9   0.0   284   322   324   362   280   374 0.85 -
ID=PSME_00019943     -            350 82631at3193          -            402   1.3e-07   32.2   0.1   1   2   3.6e-06    0.0067   16.7   0.0   103   168    30    97    15   102 0.74 -
ID=PSME_00019943     -            350 82631at3193          -            402   1.3e-07   32.2   0.1   2   2   3.9e-05     0.073   13.3   0.1   288   329   214   255   208   264 0.91 -
ID=PSME_00030480     -            337 82631at3193          -            402   1.7e-07   31.9   0.0   1   1   6.5e-10   1.2e-06   29.0   0.0   104   351    32   288    23   297 0.69 -
ID=PSME_00030481     -            435 82631at3193          -            402   8.1e-07   29.6   0.3   1   3      0.72   1.4e+03   -0.8   0.5     4    25    34    55    32    60 0.85 -
ID=PSME_00030481     -            435 82631at3193          -            402   8.1e-07   29.6   0.3   2   3   0.00094       1.8    8.7   0.0   135   168   166   199   123   207 0.74 -
ID=PSME_00030481     -            435 82631at3193          -            402   8.1e-07   29.6   0.3   3   3   2.5e-06    0.0047   17.2   0.0   286   351   315   387   282   397 0.78 -
ID=PSME_00006473     -            378 82631at3193          -            402   2.1e-05   24.9   0.2   1   2    0.0024       4.6    7.4   0.1     2    25    16    39    15    53 0.87 -
ID=PSME_00006473     -            378 82631at3193          -            402   2.1e-05   24.9   0.2   2   2   7.5e-06     0.014   15.6   0.0   134   167   153   186   117   194 0.79 -
ID=PSME_00046546     -            515 82631at3193          -            402   6.2e-05   23.4   0.0   1   2     0.054     1e+02    2.9   0.0   146   174   250   276   237   295 0.76 -
ID=PSME_00046546     -            515 82631at3193          -            402   6.2e-05   23.4   0.0   2   2   1.9e-06    0.0035   17.7   0.0   284   361   371   448   359   461 0.92 -
ID=PSME_00046615     -            321 82631at3193          -            402   0.00068   20.0   0.0   1   3     0.048        91    3.1   0.1     2    25    17    40    16    50 0.84 -
ID=PSME_00046615     -            321 82631at3193          -            402   0.00068   20.0   0.0   2   3       1.6     3e+03   -1.9   0.0   150   168   105   123   101   127 0.87 -
ID=PSME_00046615     -            321 82631at3193          -            402   0.00068   20.0   0.0   3   3   2.7e-05     0.052   13.8   0.0   287   323   246   282   224   319 0.69 -
ID=PSME_00047839     -            287 82631at3193          -            402    0.0021   18.4   0.0   1   1   1.4e-06    0.0026   18.1   0.0   283   325    92   134    43   175 0.77 -
ID=PSME_00048412     -            206 82631at3193          -            402    0.0077   16.5   0.0   1   1   5.5e-06      0.01   16.1   0.0   289   374    39   125    22   132 0.85 -
ID=PSME_00045546     -            395 82631at3193          -            402      0.02   15.2   0.0   1   1   1.5e-05     0.028   14.7   0.0     2    52   106   153   105   190 0.87 -
ID=PSME_00038582     -            189 82631at3193          -            402     0.084   13.1   0.1   1   2   0.00018      0.34   11.1   0.1     2    26    15    39    14    54 0.86 -
ID=PSME_00038582     -            189 82631at3193          -            402     0.084   13.1   0.1   2   2       0.7   1.3e+03   -0.7   0.0   149   168    90   109    82   114 0.85 -
ID=PSME_00039395     -            258 82631at3193          -            402      0.12   12.6   0.0   1   1   8.7e-05      0.17   12.1   0.0   289   376    39   127    22   132 0.80 -
ID=PSME_00016190     -            132 82631at3193          -            402      0.16   12.2   0.0   1   2   0.00014      0.26   11.5   0.0    98   123    33    58    21    76 0.80 -
ID=PSME_00016190     -            132 82631at3193          -            402      0.16   12.2   0.0   2   2       5.7   1.1e+04   -3.7   0.0    76    91    95   110    93   125 0.59 -
ID=PSME_00025996     -            274 82631at3193          -            402      0.18   12.0   0.0   1   1   0.00012      0.22   11.7   0.0   284   321   147   184   119   221 0.86 -
ID=PSME_00039396     -            330 82631at3193          -            402      0.19   11.9   0.0   1   1   0.00014      0.27   11.5   0.0   289   376   110   198    93   203 0.80 -
ID=PSME_00052576     -            201 82631at3193          -            402      0.31   11.2   0.0   1   1   0.00022      0.41   10.8   0.0   287   321    77   111    54   135 0.89 -
ID=PSME_00037948     -            355 82631at3193          -            402      0.31   11.2   0.0   1   1   0.00022      0.42   10.8   0.0   289   362   112   185    95   205 0.73 -
ID=PSME_00038581     -            107 82631at3193          -            402      0.34   11.1   0.2   1   1   0.00021       0.4   10.9   0.2     2    26    15    39    14    54 0.86 -
ID=PSME_00007933     -            264 82631at3193          -            402      0.46   10.7   0.0   1   1   0.00034      0.64   10.2   0.0   288   321   215   248   189   258 0.90 -
ID=PSME_00049801     -            344 82631at3193          -            402      0.61   10.3   0.0   1   1   0.00048      0.91    9.7   0.0   289   345   184   240   167   276 0.74 -
#
# Program:         hmmsearch
# Version:         3.2.1 (June 2018)
# Pipeline mode:   SEARCH
# Query file:      /isg/shared/databases/BUSCO/odb10/embryophyta_odb10/hmms/82631at3193.hmm
# Target file:     /labs/Wegrzyn/ConiferGenomes/Psme/analysis/SURF_annotation/analyze_orig_maker/gfacs/filtered/maker_genes.fasta.faa
# Option settings: /usr/local/bin/hmmsearch --domtblout /labs/Wegrzyn/ConiferGenomes/Psme/analysis/SURF_annotation/analyze_orig_maker/busco/maker/run_embryophyta_odb10/hmmer_output/82631at3193.out --cpu 1 /isg/shared/databases/BUSCO/odb10/embryophyta_odb10/hmms/82631at3193.hmm /labs/Wegrzyn/ConiferGenomes/Psme/analysis/SURF_annotation/analyze_orig_maker/gfacs/filtered/maker_genes.fasta.faa 
# Current dir:     /labs/Wegrzyn/ConiferGenomes/Psme/analysis/SURF_annotation/analyze_orig_maker/busco
# Date:            Fri Jul 10 13:57:26 2020
# [ok]
