#                                                                            --- full sequence --- -------------- this domain -------------   hmm coord   ali coord   env coord
# target name        accession   tlen query name           accession   qlen   E-value  score  bias   #  of  c-Evalue  i-Evalue  score  bias  from    to  from    to  from    to  acc description of target
#------------------- ---------- ----- -------------------- ---------- ----- --------- ------ ----- --- --- --------- --------- ------ ----- ----- ----- ----- ----- ----- ----- ---- ---------------------
ID=PSME_00001677     -            296 87393at3193          -            331   2.2e-26   94.5   0.6   1   1   7.2e-29   2.2e-26   94.5   0.6   225   331   121   238   115   238 0.81 -
ID=PSME_00027590     -            318 87393at3193          -            331   3.4e-18   67.5   7.5   1   2   1.9e-15   5.8e-13   50.3   2.1    47   215    20   207    13   224 0.71 -
ID=PSME_00027590     -            318 87393at3193          -            331   3.4e-18   67.5   7.5   2   2   0.00041      0.12   13.1   0.2   150   204   223   281   216   302 0.71 -
ID=PSME_00005357     -            440 87393at3193          -            331   4.7e-17   63.8   7.8   1   3   1.1e-11   3.5e-09   37.9   1.3   105   235   108   242   105   248 0.82 -
ID=PSME_00005357     -            440 87393at3193          -            331   4.7e-17   63.8   7.8   2   3   8.6e-09   2.6e-06   28.5   0.2   120   200   247   330   242   391 0.83 -
ID=PSME_00005357     -            440 87393at3193          -            331   4.7e-17   63.8   7.8   3   3       4.4   1.3e+03   -0.2   0.0   253   272   414   433   384   437 0.61 -
ID=PSME_00004465     -            525 87393at3193          -            331   5.5e-17   63.6   0.3   1   4   0.00026      0.08   13.7   0.0   138   197    37    98    16   105 0.82 -
ID=PSME_00004465     -            525 87393at3193          -            331   5.5e-17   63.6   0.3   2   4   0.00023      0.07   13.9   0.0   143   193   105   156    98   165 0.90 -
ID=PSME_00004465     -            525 87393at3193          -            331   5.5e-17   63.6   0.3   3   4       1.2   3.8e+02    1.6   0.0   164   201   344   381   336   385 0.78 -
ID=PSME_00004465     -            525 87393at3193          -            331   5.5e-17   63.6   0.3   4   4   8.7e-10   2.7e-07   31.7   0.0    98   225   360   491   351   502 0.83 -
ID=PSME_00014235     -            413 87393at3193          -            331   1.5e-16   62.2   0.2   1   2   5.7e-09   1.7e-06   29.1   0.0   139   272    16   153     6   154 0.84 -
ID=PSME_00014235     -            413 87393at3193          -            331   1.5e-16   62.2   0.2   2   2     7e-08   2.1e-05   25.5   0.0    96   194   289   387   275   398 0.82 -
ID=PSME_00008005     -            554 87393at3193          -            331   2.1e-16   61.6   0.3   1   3   5.3e-07   0.00016   22.6   0.0   133   197    19    84     5    93 0.87 -
ID=PSME_00008005     -            554 87393at3193          -            331   2.1e-16   61.6   0.3   2   3       1.5   4.6e+02    1.4   0.1   164   200   219   255   213   264 0.74 -
ID=PSME_00008005     -            554 87393at3193          -            331   2.1e-16   61.6   0.3   3   3   4.5e-11   1.4e-08   36.0   0.2    99   244   236   385   228   397 0.83 -
ID=PSME_00007745     -            817 87393at3193          -            331   4.9e-16   60.4   0.2   1   3   1.6e-08     5e-06   27.6   0.2   138   235    49   150    29   155 0.80 -
ID=PSME_00007745     -            817 87393at3193          -            331   4.9e-16   60.4   0.2   2   3   2.5e-08   7.5e-06   27.0   0.0   137   214   173   254   151   260 0.81 -
ID=PSME_00007745     -            817 87393at3193          -            331   4.9e-16   60.4   0.2   3   3       2.1   6.5e+02    0.9   0.0    57   107   256   307   249   317 0.81 -
ID=PSME_00048532     -            614 87393at3193          -            331   3.2e-15   57.8   0.1   1   2   2.1e-08   6.4e-06   27.2   0.0   138   273   167   306   141   336 0.83 -
ID=PSME_00048532     -            614 87393at3193          -            331   3.2e-15   57.8   0.1   2   2   8.6e-08   2.6e-05   25.2   0.0    99   193   512   606   503   611 0.82 -
ID=PSME_00009687     -            655 87393at3193          -            331   5.7e-15   56.9   0.4   1   3   1.5e-09   4.6e-07   30.9   0.0   139   272    74   211    64   212 0.86 -
ID=PSME_00009687     -            655 87393at3193          -            331   5.7e-15   56.9   0.4   2   3   0.00011     0.032   15.0   0.1   137   269   369   505   346   511 0.74 -
ID=PSME_00009687     -            655 87393at3193          -            331   5.7e-15   56.9   0.4   3   3      0.38   1.1e+02    3.4   0.0   163   194   479   511   472   523 0.84 -
ID=PSME_00003170     -            812 87393at3193          -            331   1.3e-14   55.8   0.4   1   3   2.4e-06   0.00073   20.4   0.1   163   238    15    95     7   108 0.85 -
ID=PSME_00003170     -            812 87393at3193          -            331   1.3e-14   55.8   0.4   2   3     3e-09   9.1e-07   30.0   0.0   101   214   121   238   103   249 0.62 -
ID=PSME_00003170     -            812 87393at3193          -            331   1.3e-14   55.8   0.4   3   3       1.6   4.9e+02    1.3   0.0    59   108   242   292   239   312 0.80 -
ID=PSME_00042991     -            522 87393at3193          -            331   1.4e-14   55.7   0.1   1   3   3.7e-05     0.011   16.5   0.0   137   195     5    64     1    74 0.90 -
ID=PSME_00042991     -            522 87393at3193          -            331   1.4e-14   55.7   0.1   2   3       1.5   4.6e+02    1.4   0.1   164   201   282   319   275   327 0.79 -
ID=PSME_00042991     -            522 87393at3193          -            331   1.4e-14   55.7   0.1   3   3   6.3e-11   1.9e-08   35.5   0.1    99   226   299   426   289   438 0.84 -
ID=PSME_00005685     -            234 87393at3193          -            331   9.1e-14   53.0   0.7   1   1   6.6e-16     2e-13   51.8   0.7    59   230    39   221    13   232 0.78 -
ID=PSME_00054687     -            317 87393at3193          -            331   1.3e-13   52.5   2.9   1   3      0.12        35    5.0   0.0   164   194    62    93    10    95 0.53 -
ID=PSME_00054687     -            317 87393at3193          -            331   1.3e-13   52.5   2.9   2   3     0.058        18    6.0   0.0   174   282    72   100    57   109 0.57 -
ID=PSME_00054687     -            317 87393at3193          -            331   1.3e-13   52.5   2.9   3   3   5.9e-15   1.8e-12   48.7   0.5    61   272    79   311    77   314 0.77 -
ID=PSME_00034555     -            547 87393at3193          -            331   3.3e-13   51.1   0.3   1   4     0.092        28    5.4   0.0   159   196   170   208   167   227 0.85 -
ID=PSME_00034555     -            547 87393at3193          -            331   3.3e-13   51.1   0.3   2   4   4.1e-06    0.0012   19.7   0.0   138   204   257   324   222   345 0.79 -
ID=PSME_00034555     -            547 87393at3193          -            331   3.3e-13   51.1   0.3   3   4    0.0011      0.33   11.7   0.0   158   203   359   404   314   419 0.74 -
ID=PSME_00034555     -            547 87393at3193          -            331   3.3e-13   51.1   0.3   4   4     0.006       1.8    9.3   0.0    37    76   448   486   429   504 0.80 -
ID=PSME_00007492     -           1061 87393at3193          -            331   1.4e-12   49.1   6.1   1   4   1.4e-06   0.00043   21.2   0.1   104   199   320   417   310   437 0.84 -
ID=PSME_00007492     -           1061 87393at3193          -            331   1.4e-12   49.1   6.1   2   4       6.8   2.1e+03   -0.8   0.0   135   155   441   461   418   494 0.70 -
ID=PSME_00007492     -           1061 87393at3193          -            331   1.4e-12   49.1   6.1   3   4   4.8e-08   1.5e-05   26.0   0.2   104   199   733   830   723   846 0.84 -
ID=PSME_00007492     -           1061 87393at3193          -            331   1.4e-12   49.1   6.1   4   4       1.7   5.1e+02    1.2   0.1   136   161   855   880   832   965 0.60 -
ID=PSME_00014453     -            610 87393at3193          -            331   2.7e-11   44.9   6.7   1   3   1.2e-08   3.8e-06   27.9   0.1   143   285   160   308   144   349 0.75 -
ID=PSME_00014453     -            610 87393at3193          -            331   2.7e-11   44.9   6.7   2   3    0.0046       1.4    9.6   0.5   146   228   399   488   391   492 0.67 -
ID=PSME_00014453     -            610 87393at3193          -            331   2.7e-11   44.9   6.7   3   3     0.077        24    5.6   0.0    59    84   560   585   555   592 0.89 -
ID=PSME_00011743     -            275 87393at3193          -            331   3.3e-11   44.6   0.5   1   2     0.063        19    5.9   0.0   159   203    31    76    25    98 0.71 -
ID=PSME_00011743     -            275 87393at3193          -            331   3.3e-11   44.6   0.5   2   2     6e-13   1.8e-10   42.1   0.7    58   212    50   213    47   219 0.79 -
ID=PSME_00044539     -            487 87393at3193          -            331     4e-11   44.3   0.1   1   3   3.8e-05     0.012   16.5   0.0   138   203    25    91    11   114 0.83 -
ID=PSME_00044539     -            487 87393at3193          -            331     4e-11   44.3   0.1   2   3   1.5e-06   0.00044   21.1   0.0   104   193    74   165    73   177 0.86 -
ID=PSME_00044539     -            487 87393at3193          -            331     4e-11   44.3   0.1   3   3     0.015       4.7    7.9   0.1   163   232   344   414   334   425 0.76 -
ID=PSME_00024193     -           1216 87393at3193          -            331   1.4e-10   42.5   0.5   1   2   1.2e-06   0.00036   21.4   0.1    61   195    25   166    17   194 0.74 -
ID=PSME_00024193     -           1216 87393at3193          -            331   1.4e-10   42.5   0.5   2   2   7.5e-05     0.023   15.5   0.0   138   206   219   290   205   316 0.76 -
ID=PSME_00035897     -            319 87393at3193          -            331   1.7e-10   42.2   1.2   1   1   2.7e-12   8.2e-10   40.0   0.5   141   289   107   268    83   292 0.78 -
ID=PSME_00051512     -           1207 87393at3193          -            331   2.1e-10   41.9   0.1   1   3    0.0018      0.55   11.0   0.0   203   292     8    98     4   108 0.81 -
ID=PSME_00051512     -           1207 87393at3193          -            331   2.1e-10   41.9   0.1   2   3    0.0049       1.5    9.5   0.0   139   201   109   172    97   199 0.81 -
ID=PSME_00051512     -           1207 87393at3193          -            331   2.1e-10   41.9   0.1   3   3   4.4e-05     0.013   16.3   0.1   139   206   220   290   214   318 0.73 -
ID=PSME_00015328     -            220 87393at3193          -            331   2.4e-10   41.7   0.2   1   1   1.8e-12   5.6e-10   40.5   0.2    37   194    43   216    29   219 0.75 -
ID=PSME_00003075     -            548 87393at3193          -            331   6.8e-10   40.3   0.3   1   1   7.4e-12   2.3e-09   38.5   0.1   128   284   288   451   270   469 0.81 -
ID=PSME_00030545     -            524 87393at3193          -            331   1.6e-09   39.0   8.6   1   3      0.16        48    4.6   0.0   161   203   234   277   224   290 0.70 -
ID=PSME_00030545     -            524 87393at3193          -            331   1.6e-09   39.0   8.6   2   3   1.9e-07   5.8e-05   24.0   4.8   135   283   291   445   288   456 0.81 -
ID=PSME_00030545     -            524 87393at3193          -            331   1.6e-09   39.0   8.6   3   3   0.00095      0.29   11.9   0.0   148   230   432   522   426   523 0.71 -
ID=PSME_00022796     -            424 87393at3193          -            331   2.8e-09   38.2   1.5   1   1   1.4e-11   4.2e-09   37.7   1.5    92   283    85   290    69   309 0.79 -
ID=PSME_00001102     -            981 87393at3193          -            331     3e-09   38.1   0.0   1   3   0.00012     0.038   14.8   0.0   144   221    55   137    27   147 0.78 -
ID=PSME_00001102     -            981 87393at3193          -            331     3e-09   38.1   0.0   2   3   4.4e-05     0.013   16.3   0.0   156   205   153   203   140   215 0.91 -
ID=PSME_00001102     -            981 87393at3193          -            331     3e-09   38.1   0.0   3   3      0.38   1.2e+02    3.3   0.0   177   261   225   313   208   333 0.73 -
ID=PSME_00044122     -            268 87393at3193          -            331   4.2e-09   37.7   0.0   1   2   0.00043      0.13   13.0   0.1   164   259    18   119    15   146 0.67 -
ID=PSME_00044122     -            268 87393at3193          -            331   4.2e-09   37.7   0.0   2   2   1.5e-07   4.7e-05   24.3   0.0    91   194   112   217    99   234 0.86 -
ID=PSME_00034105     -            325 87393at3193          -            331   6.8e-09   37.0   0.0   1   2   5.8e-05     0.018   15.9   0.0   137   202     2    68     1   108 0.86 -
ID=PSME_00034105     -            325 87393at3193          -            331   6.8e-09   37.0   0.0   2   2   7.7e-06    0.0024   18.8   0.0   106   192   230   316   218   322 0.80 -
ID=PSME_00014824     -            450 87393at3193          -            331   6.9e-09   36.9   1.0   1   1   5.2e-11   1.6e-08   35.8   0.9   125   286   195   364   186   379 0.80 -
ID=PSME_00021391     -            613 87393at3193          -            331   7.4e-09   36.8   3.3   1   3     6e-05     0.018   15.8   0.2   105   200   106   203    99   211 0.75 -
ID=PSME_00021391     -            613 87393at3193          -            331   7.4e-09   36.8   3.3   2   3       1.2   3.7e+02    1.7   0.0   166   194   388   415   381   437 0.73 -
ID=PSME_00021391     -            613 87393at3193          -            331   7.4e-09   36.8   3.3   3   3     1e-05    0.0032   18.3   0.3   105   201   408   506   397   523 0.76 -
ID=PSME_00016646     -            363 87393at3193          -            331   2.3e-08   35.2   0.0   1   3   3.4e-05      0.01   16.6   0.0   138   200    88   150    62   174 0.80 -
ID=PSME_00016646     -            363 87393at3193          -            331   2.3e-08   35.2   0.0   2   3      0.11        34    5.1   0.1    57    82   208   234   166   243 0.66 -
ID=PSME_00016646     -            363 87393at3193          -            331   2.3e-08   35.2   0.0   3   3    0.0062       1.9    9.2   0.0   144   233   269   361   267   362 0.82 -
ID=PSME_00019614     -            461 87393at3193          -            331   2.4e-08   35.2   0.2   1   3     2e-08     6e-06   27.3   0.1   160   276   153   268   146   281 0.82 -
ID=PSME_00019614     -            461 87393at3193          -            331   2.4e-08   35.2   0.2   2   3       2.8   8.6e+02    0.5   0.0   164   194   293   322   289   343 0.80 -
ID=PSME_00019614     -            461 87393at3193          -            331   2.4e-08   35.2   0.2   3   3      0.44   1.3e+02    3.1   0.0   257   282   374   399   360   428 0.69 -
ID=PSME_00031008     -            598 87393at3193          -            331   3.3e-08   34.7   0.0   1   3    0.0003     0.092   13.5   0.0   143   221    38   121    12   130 0.76 -
ID=PSME_00031008     -            598 87393at3193          -            331   3.3e-08   34.7   0.0   2   3   4.1e-05     0.013   16.4   0.0   156   205   137   187   123   199 0.91 -
ID=PSME_00031008     -            598 87393at3193          -            331   3.3e-08   34.7   0.0   3   3       1.9   5.9e+02    1.0   0.0   182   261   214   297   197   317 0.71 -
ID=PSME_00047791     -            485 87393at3193          -            331   6.4e-08   33.8   0.0   1   1   3.2e-10   9.6e-08   33.2   0.0    69   233   110   285   100   314 0.82 -
ID=PSME_00048587     -            418 87393at3193          -            331   8.3e-08   33.4   0.0   1   1   4.3e-10   1.3e-07   32.7   0.0    69   235   125   302   119   313 0.82 -
ID=PSME_00012603     -            332 87393at3193          -            331     9e-08   33.3   0.1   1   2   2.8e-06   0.00087   20.2   0.0   139   204    96   162    85   184 0.85 -
ID=PSME_00012603     -            332 87393at3193          -            331     9e-08   33.3   0.1   2   2    0.0024      0.73   10.6   0.0   143   193   184   235   175   240 0.88 -
ID=PSME_00014231     -            371 87393at3193          -            331   1.5e-07   32.6   0.1   1   3     0.036        11    6.7   0.0   143   232   106   193    92   205 0.81 -
ID=PSME_00014231     -            371 87393at3193          -            331   1.5e-07   32.6   0.1   2   3   3.1e-05    0.0094   16.8   0.3   109   197   191   281   188   299 0.77 -
ID=PSME_00014231     -            371 87393at3193          -            331   1.5e-07   32.6   0.1   3   3     0.028       8.5    7.1   0.0   174   235   305   367   285   369 0.81 -
ID=PSME_00011774     -            522 87393at3193          -            331   1.6e-07   32.5   4.2   1   3     0.024       7.3    7.3   0.0    44    76    87   124    80   129 0.76 -
ID=PSME_00011774     -            522 87393at3193          -            331   1.6e-07   32.5   4.2   2   3   8.2e-06    0.0025   18.7   1.0   135   273   105   234    99   240 0.66 -
ID=PSME_00011774     -            522 87393at3193          -            331   1.6e-07   32.5   4.2   3   3      0.01         3    8.5   0.1    53    89   358   394   346   398 0.88 -
ID=PSME_00012180     -            596 87393at3193          -            331   1.8e-07   32.3   0.1   1   2   1.3e-05     0.004   18.0   0.1   139   230   236   333   205   336 0.81 -
ID=PSME_00012180     -            596 87393at3193          -            331   1.8e-07   32.3   0.1   2   2    0.0002     0.062   14.1   0.0   156   288   298   435   294   448 0.77 -
ID=PSME_00021966     -            294 87393at3193          -            331   2.7e-07   31.7   0.0   1   2   4.9e-07   0.00015   22.7   0.0   155   285    50   186    38   203 0.79 -
ID=PSME_00021966     -            294 87393at3193          -            331   2.7e-07   31.7   0.0   2   2     0.033        10    6.8   0.0   175   221   218   266   209   274 0.83 -
ID=PSME_00014506     -            333 87393at3193          -            331   2.9e-07   31.6   0.2   1   2   6.2e-09   1.9e-06   28.9   0.0    88   195    59   173    51   204 0.73 -
ID=PSME_00014506     -            333 87393at3193          -            331   2.9e-07   31.6   0.2   2   2       3.1   9.4e+02    0.3   0.0    62    92   224   255   199   261 0.72 -
ID=PSME_00019641     -            306 87393at3193          -            331   6.5e-07   30.5   0.7   1   2     0.002      0.61   10.8   1.1    94   256    10   184     5   189 0.60 -
ID=PSME_00019641     -            306 87393at3193          -            331   6.5e-07   30.5   0.7   2   2   1.4e-05    0.0044   17.9   0.0   130   231   145   257   133   265 0.71 -
ID=PSME_00013038     -            683 87393at3193          -            331   6.7e-07   30.4   3.3   1   4       2.8   8.6e+02    0.5   0.0   163   213    55   109    26   134 0.65 -
ID=PSME_00013038     -            683 87393at3193          -            331   6.7e-07   30.4   3.3   2   4       9.6   2.9e+03   -1.3   0.0   164   231   196   270   195   274 0.53 -
ID=PSME_00013038     -            683 87393at3193          -            331   6.7e-07   30.4   3.3   3   4       1.8   5.6e+02    1.1   0.0   192   221   365   394   326   404 0.51 -
ID=PSME_00013038     -            683 87393at3193          -            331   6.7e-07   30.4   3.3   4   4   1.4e-07   4.2e-05   24.5   0.2   107   233   441   574   432   615 0.74 -
ID=PSME_00037056     -            492 87393at3193          -            331   8.5e-07   30.1   0.1   1   1   4.3e-09   1.3e-06   29.5   0.1   143   235    36   130    19   151 0.87 -
ID=PSME_00018509     -            527 87393at3193          -            331   8.9e-07   30.0   0.0   1   3   9.7e-05      0.03   15.1   0.0   145   235    81   176    41   191 0.75 -
ID=PSME_00018509     -            527 87393at3193          -            331   8.9e-07   30.0   0.0   2   3      0.02       6.1    7.5   0.0    61   132   215   289   208   296 0.64 -
ID=PSME_00018509     -            527 87393at3193          -            331   8.9e-07   30.0   0.0   3   3      0.38   1.1e+02    3.3   0.0   218   305   307   392   298   397 0.79 -
ID=PSME_00013937     -            325 87393at3193          -            331   9.4e-07   29.9   2.1   1   3   5.4e-05     0.016   16.0   0.7   146   229   109   199    98   201 0.58 -
ID=PSME_00013937     -            325 87393at3193          -            331   9.4e-07   29.9   2.1   2   3      0.22        68    4.1   0.0    55    74   183   202   176   208 0.84 -
ID=PSME_00013937     -            325 87393at3193          -            331   9.4e-07   29.9   2.1   3   3    0.0057       1.7    9.3   0.0   134   204   238   309   215   319 0.79 -
ID=PSME_00007905     -            652 87393at3193          -            331   1.2e-06   29.6   1.4   1   3   4.2e-06    0.0013   19.6   0.3   137   202   386   460   353   476 0.74 -
ID=PSME_00007905     -            652 87393at3193          -            331   1.2e-06   29.6   1.4   2   3       4.4   1.4e+03   -0.2   0.0    97   168   478   557   464   569 0.52 -
ID=PSME_00007905     -            652 87393at3193          -            331   1.2e-06   29.6   1.4   3   3      0.11        33    5.1   0.0   159   189   593   624   587   645 0.85 -
ID=PSME_00043427     -            246 87393at3193          -            331   1.8e-06   29.0   0.1   1   2      0.18        56    4.4   0.0   146   196   102   150    82   159 0.66 -
ID=PSME_00043427     -            246 87393at3193          -            331   1.8e-06   29.0   0.1   2   2   1.8e-08   5.5e-06   27.4   0.0   105   199   141   237   134   244 0.86 -
ID=PSME_00010333     -            611 87393at3193          -            331   2.1e-06   28.8   0.6   1   2   7.9e-08   2.4e-05   25.3   0.1   138   203   147   215   130   223 0.85 -
ID=PSME_00010333     -            611 87393at3193          -            331   2.1e-06   28.8   0.6   2   2       2.4   7.2e+02    0.7   0.0   104   186   426   467   384   484 0.58 -
ID=PSME_00055600     -            493 87393at3193          -            331   2.6e-06   28.5  12.5   1   4      0.16        48    4.6   0.0   302   330   131   159   111   160 0.86 -
ID=PSME_00055600     -            493 87393at3193          -            331   2.6e-06   28.5  12.5   2   4   5.9e-05     0.018   15.8   0.1   127   192   210   277   191   289 0.56 -
ID=PSME_00055600     -            493 87393at3193          -            331   2.6e-06   28.5  12.5   3   4     0.075        23    5.7   0.3   166   194   319   348   313   389 0.55 -
ID=PSME_00055600     -            493 87393at3193          -            331   2.6e-06   28.5  12.5   4   4      0.27        82    3.8   0.6   155   230   405   477   402   481 0.76 -
ID=PSME_00024443     -            461 87393at3193          -            331   3.2e-06   28.2   7.1   1   2   4.1e-05     0.012   16.4   0.9   141   191   271   323   220   325 0.64 -
ID=PSME_00024443     -            461 87393at3193          -            331   3.2e-06   28.2   7.1   2   2     0.037        11    6.7   0.1    59    84   406   431   389   442 0.88 -
ID=PSME_00046185     -            216 87393at3193          -            331   3.8e-06   27.9   0.1   1   1   2.5e-08   7.7e-06   26.9   0.0   105   199   102   198    92   211 0.86 -
ID=PSME_00005268     -            284 87393at3193          -            331   4.3e-06   27.8   0.1   1   1   2.8e-08   8.7e-06   26.8   0.1   162   273    84   206    80   213 0.82 -
ID=PSME_00007486     -            456 87393at3193          -            331   4.3e-06   27.8   0.0   1   3     0.051        16    6.2   0.0    45    78    54    92    20   110 0.69 -
ID=PSME_00007486     -            456 87393at3193          -            331   4.3e-06   27.8   0.0   2   3   0.00019     0.057   14.2   0.1   177   283   166   279   165   291 0.74 -
ID=PSME_00007486     -            456 87393at3193          -            331   4.3e-06   27.8   0.0   3   3       4.9   1.5e+03   -0.3   0.0   162   191   292   322   288   326 0.84 -
ID=PSME_00007253     -            816 87393at3193          -            331   4.3e-06   27.8   1.6   1   3   3.9e-05     0.012   16.4   0.3   138   206   165   235   159   249 0.75 -
ID=PSME_00007253     -            816 87393at3193          -            331   4.3e-06   27.8   1.6   2   3     0.011       3.2    8.4   0.1   134   237   254   355   240   364 0.80 -
ID=PSME_00007253     -            816 87393at3193          -            331   4.3e-06   27.8   1.6   3   3       6.4   1.9e+03   -0.7   0.0   163   241   593   679   579   683 0.76 -
ID=PSME_00014505     -            274 87393at3193          -            331   4.4e-06   27.7   6.8   1   4   0.00046      0.14   12.9   0.2   145   192    41    90    34    95 0.88 -
ID=PSME_00014505     -            274 87393at3193          -            331   4.4e-06   27.7   6.8   2   4      0.12        36    5.0   0.0    34    73   105   144    91   151 0.69 -
ID=PSME_00014505     -            274 87393at3193          -            331   4.4e-06   27.7   6.8   3   4     0.018       5.6    7.7   0.1    59    84   172   197   155   208 0.88 -
ID=PSME_00014505     -            274 87393at3193          -            331   4.4e-06   27.7   6.8   4   4       1.2   3.6e+02    1.7   0.0    62    84   217   239   209   248 0.72 -
ID=PSME_00024307     -           1014 87393at3193          -            331   5.1e-06   27.5   0.0   1   2     0.006       1.8    9.3   0.0   148   221   231   309   207   318 0.77 -
ID=PSME_00024307     -           1014 87393at3193          -            331   5.1e-06   27.5   0.0   2   2     8e-05     0.024   15.4   0.0   156   205   325   375   312   382 0.91 -
ID=PSME_00020195     -            462 87393at3193          -            331   6.3e-06   27.2   0.0   1   2    0.0042       1.3    9.8   0.0   144   221    59   141    33   152 0.77 -
ID=PSME_00020195     -            462 87393at3193          -            331   6.3e-06   27.2   0.0   2   2   9.1e-05     0.028   15.2   0.0   156   205   157   207   141   217 0.90 -
ID=PSME_00000474     -            316 87393at3193          -            331   7.1e-06   27.1   0.1   1   2   7.7e-07   0.00024   22.0   0.1   129   246    66   188    23   215 0.67 -
ID=PSME_00000474     -            316 87393at3193          -            331   7.1e-06   27.1   0.1   2   2      0.49   1.5e+02    3.0   0.0   179   203   232   256   221   280 0.51 -
ID=PSME_00018909     -            841 87393at3193          -            331   7.4e-06   27.0   0.0   1   2   0.00089      0.27   12.0   0.0   174   233   563   628   558   637 0.82 -
ID=PSME_00018909     -            841 87393at3193          -            331   7.4e-06   27.0   0.0   2   2     0.001       0.3   11.8   0.0   168   237   659   734   652   781 0.70 -
ID=PSME_00002176     -            912 87393at3193          -            331   7.9e-06   26.9   1.4   1   3     0.036        11    6.7   0.0   159   196   156   195   148   209 0.88 -
ID=PSME_00002176     -            912 87393at3193          -            331   7.9e-06   26.9   1.4   2   3      0.19        56    4.4   0.0    55    86   233   264   201   275 0.71 -
ID=PSME_00002176     -            912 87393at3193          -            331   7.9e-06   26.9   1.4   3   3   0.00017     0.051   14.4   0.6   144   234   244   341   239   347 0.66 -
ID=PSME_00004967     -           1191 87393at3193          -            331   9.5e-06   26.6   0.1   1   4       1.3   3.9e+02    1.6   0.0   168   201   405   440   384   459 0.74 -
ID=PSME_00004967     -           1191 87393at3193          -            331   9.5e-06   26.6   0.1   2   4     0.059        18    6.0   0.0   139   192   526   583   503   620 0.79 -
ID=PSME_00004967     -           1191 87393at3193          -            331   9.5e-06   26.6   0.1   3   4       4.4   1.3e+03   -0.2   0.0   252   306   697   750   641   758 0.67 -
ID=PSME_00004967     -           1191 87393at3193          -            331   9.5e-06   26.6   0.1   4   4   0.00052      0.16   12.8   0.0   130   244   901  1018   878  1047 0.79 -
ID=PSME_00049142     -            504 87393at3193          -            331     1e-05   26.5   0.9   1   3     4e-07   0.00012   23.0   0.1   138   203    38   106    19   122 0.84 -
ID=PSME_00049142     -            504 87393at3193          -            331     1e-05   26.5   0.9   2   3       3.2   9.7e+02    0.3   0.0   177   212   186   224   163   244 0.76 -
ID=PSME_00049142     -            504 87393at3193          -            331     1e-05   26.5   0.9   3   3       6.8   2.1e+03   -0.8   0.0   104   114   317   327   298   364 0.76 -
ID=PSME_00031480     -            676 87393at3193          -            331   1.5e-05   26.0   0.1   1   2   0.00053      0.16   12.7   0.1   160   278   220   354   215   367 0.77 -
ID=PSME_00031480     -            676 87393at3193          -            331   1.5e-05   26.0   0.1   2   2   6.9e-05     0.021   15.6   0.0   139   235   337   447   312   456 0.74 -
ID=PSME_00032329     -            349 87393at3193          -            331   1.9e-05   25.6   2.0   1   3      0.41   1.3e+02    3.2   0.0    65    96    63    95    35   105 0.80 -
ID=PSME_00032329     -            349 87393at3193          -            331   1.9e-05   25.6   2.0   2   3   0.00052      0.16   12.8   0.2   141   186   208   255   146   285 0.79 -
ID=PSME_00032329     -            349 87393at3193          -            331   1.9e-05   25.6   2.0   3   3     0.023       6.9    7.4   0.1    58    84   289   315   281   327 0.87 -
ID=PSME_00044281     -            184 87393at3193          -            331   2.8e-05   25.1   1.9   1   3     0.027       8.1    7.1   0.0   164   198    20    55     8    75 0.82 -
ID=PSME_00044281     -            184 87393at3193          -            331   2.8e-05   25.1   1.9   2   3   0.00022     0.066   14.0   0.1    55    81    75   101    54   104 0.76 -
ID=PSME_00044281     -            184 87393at3193          -            331   2.8e-05   25.1   1.9   3   3      0.59   1.8e+02    2.7   0.1   163   202   105   143   101   157 0.78 -
ID=PSME_00010140     -           1404 87393at3193          -            331   2.8e-05   25.1   0.2   1   2      0.69   2.1e+02    2.5   0.0   133   156  1142  1165  1099  1182 0.54 -
ID=PSME_00010140     -           1404 87393at3193          -            331   2.8e-05   25.1   0.2   2   2   3.9e-05     0.012   16.4   0.1   105   246  1208  1363  1202  1399 0.69 -
ID=PSME_00009596     -            675 87393at3193          -            331   2.9e-05   25.0   0.0   1   2   4.7e-05     0.014   16.2   0.0   156   205    46    96    29   105 0.90 -
ID=PSME_00009596     -            675 87393at3193          -            331   2.9e-05   25.0   0.0   2   2     0.039        12    6.6   0.0   176   261   117   206   100   219 0.77 -
ID=PSME_00026479     -            175 87393at3193          -            331     3e-05   25.0   2.1   1   2   3.8e-05     0.012   16.5   0.5   147   232     4    89     3    93 0.86 -
ID=PSME_00026479     -            175 87393at3193          -            331     3e-05   25.0   2.1   2   2    0.0073       2.2    9.0   0.1   159   211    96   149    78   168 0.69 -
ID=PSME_00004313     -            429 87393at3193          -            331   3.1e-05   24.9   0.1   1   2    0.0013      0.39   11.5   0.0   140   217    84   161    80   176 0.82 -
ID=PSME_00004313     -            429 87393at3193          -            331   3.1e-05   24.9   0.1   2   2    0.0053       1.6    9.4   0.0   144   226   238   322   228   331 0.63 -
ID=PSME_00032983     -            558 87393at3193          -            331   3.7e-05   24.7   0.2   1   1   1.9e-07   5.7e-05   24.1   0.2    97   199   277   383   239   402 0.78 -
ID=PSME_00010476     -            192 87393at3193          -            331     4e-05   24.6   1.1   1   2   0.00029     0.088   13.6   0.2   146   194     3    53     2   108 0.89 -
ID=PSME_00010476     -            192 87393at3193          -            331     4e-05   24.6   1.1   2   2    0.0076       2.3    8.9   0.1   143   206    97   161    74   180 0.73 -
ID=PSME_00031002     -            269 87393at3193          -            331   4.6e-05   24.4   3.6   1   4      0.95   2.9e+02    2.0   0.1   153   220    92   159    26   166 0.71 -
ID=PSME_00031002     -            269 87393at3193          -            331   4.6e-05   24.4   3.6   2   4   0.00032     0.097   13.4   0.5   146   200   128   185   119   202 0.78 -
ID=PSME_00031002     -            269 87393at3193          -            331   4.6e-05   24.4   3.6   3   4   5.8e-06    0.0018   19.2   0.2   141   192   167   220   164   230 0.91 -
ID=PSME_00031002     -            269 87393at3193          -            331   4.6e-05   24.4   3.6   4   4       1.7   5.3e+02    1.2   0.0   160   186   241   268   231   268 0.82 -
ID=PSME_00041381     -            794 87393at3193          -            331   5.3e-05   24.2   5.1   1   2   1.8e-06   0.00054   20.9   0.5    42   192   471   637   463   656 0.72 -
ID=PSME_00041381     -            794 87393at3193          -            331   5.3e-05   24.2   5.1   2   2      0.16        49    4.6   0.4   215   271   711   768   686   775 0.87 -
ID=PSME_00031935     -            526 87393at3193          -            331   5.7e-05   24.1   0.2   1   2      0.68   2.1e+02    2.5   0.0   188   231   374   417   338   422 0.60 -
ID=PSME_00031935     -            526 87393at3193          -            331   5.7e-05   24.1   0.2   2   2   7.6e-07   0.00023   22.1   0.1   104   199   411   508   404   522 0.85 -
ID=PSME_00026539     -            413 87393at3193          -            331     7e-05   23.8   0.2   1   2      0.29        88    3.7   0.0   169   232   237   260   180   266 0.64 -
ID=PSME_00026539     -            413 87393at3193          -            331     7e-05   23.8   0.2   2   2   8.3e-07   0.00025   21.9   0.1   105   199   254   350   247   363 0.85 -
ID=PSME_00008859     -           1082 87393at3193          -            331   7.7e-05   23.6   0.1   1   1     7e-07   0.00021   22.2   0.1   143   231   632   723   606   777 0.77 -
ID=PSME_00037469     -            155 87393at3193          -            331   9.8e-05   23.3   0.0   1   1   4.1e-07   0.00013   22.9   0.0   139   220    47   130    45   139 0.90 -
ID=PSME_00025081     -            394 87393at3193          -            331   9.8e-05   23.3   5.2   1   3    0.0073       2.2    9.0   0.6   145   193   138   188   125   242 0.71 -
ID=PSME_00025081     -            394 87393at3193          -            331   9.8e-05   23.3   5.2   2   3      0.03       9.2    7.0   0.1    59    84   269   294   252   305 0.88 -
ID=PSME_00025081     -            394 87393at3193          -            331   9.8e-05   23.3   5.2   3   3      0.96   2.9e+02    2.0   0.0    61    84   313   336   303   340 0.81 -
ID=PSME_00040762     -            835 87393at3193          -            331    0.0001   23.3   0.1   1   1   5.3e-07   0.00016   22.6   0.1    59   239   454   648   413   655 0.77 -
ID=PSME_00016539     -            101 87393at3193          -            331   0.00011   23.1   0.0   1   1   3.9e-07   0.00012   23.0   0.0   135   186    15    67     4    86 0.85 -
ID=PSME_00016934     -            396 87393at3193          -            331   0.00018   22.4   0.6   1   3      0.38   1.2e+02    3.3   0.0   252   279    77   104    19   111 0.74 -
ID=PSME_00016934     -            396 87393at3193          -            331   0.00018   22.4   0.6   2   3     0.018       5.5    7.7   0.2    58   174    83   203    48   226 0.46 -
ID=PSME_00016934     -            396 87393at3193          -            331   0.00018   22.4   0.6   3   3   9.1e-05     0.028   15.2   0.3    61   224   128   303   111   330 0.65 -
ID=PSME_00016647     -            283 87393at3193          -            331    0.0002   22.2   1.1   1   5     0.064        19    5.9   0.0    51    82    34    67     8    85 0.69 -
ID=PSME_00016647     -            283 87393at3193          -            331    0.0002   22.2   1.1   2   5      0.97   2.9e+02    2.0   0.0   256   277   100   120    84   129 0.70 -
ID=PSME_00016647     -            283 87393at3193          -            331    0.0002   22.2   1.1   3   5      0.26        80    3.9   0.0   144   196   110   162   104   181 0.72 -
ID=PSME_00016647     -            283 87393at3193          -            331    0.0002   22.2   1.1   4   5      0.43   1.3e+02    3.2   0.0   164   196   129   162   121   219 0.63 -
ID=PSME_00016647     -            283 87393at3193          -            331    0.0002   22.2   1.1   5   5     0.026       7.8    7.2   0.1    58    82   226   250   181   258 0.72 -
ID=PSME_00002967     -            541 87393at3193          -            331   0.00023   22.1   2.4   1   3       4.6   1.4e+03   -0.2   0.0    56    81   202   227   185   230 0.74 -
ID=PSME_00002967     -            541 87393at3193          -            331   0.00023   22.1   2.4   2   3     0.062        19    5.9   0.0   164   196   232   265   229   308 0.81 -
ID=PSME_00002967     -            541 87393at3193          -            331   0.00023   22.1   2.4   3   3   0.00027     0.083   13.7   0.1   159   219   311   372   303   420 0.90 -
ID=PSME_00030094     -            492 87393at3193          -            331   0.00025   22.0  10.0   1   6       2.3   7.1e+02    0.7   0.0   156   194     2    41     1    68 0.68 -
ID=PSME_00030094     -            492 87393at3193          -            331   0.00025   22.0  10.0   2   6       4.8   1.5e+03   -0.3   0.0    64    94    96   127    90   131 0.73 -
ID=PSME_00030094     -            492 87393at3193          -            331   0.00025   22.0  10.0   3   6    0.0022      0.66   10.7   0.2   137   192   217   273   193   285 0.83 -
ID=PSME_00030094     -            492 87393at3193          -            331   0.00025   22.0  10.0   4   6       1.3     4e+02    1.6   0.1   162   192   296   327   285   340 0.83 -
ID=PSME_00030094     -            492 87393at3193          -            331   0.00025   22.0  10.0   5   6     0.021       6.3    7.5   0.1    56    84   340   368   330   379 0.86 -
ID=PSME_00030094     -            492 87393at3193          -            331   0.00025   22.0  10.0   6   6       1.2   3.7e+02    1.7   0.0   261   284   387   410   372   434 0.62 -
ID=PSME_00016071     -            515 87393at3193          -            331   0.00025   21.9   0.3   1   4       1.3   4.1e+02    1.5   0.1   138   172    33    68     2    90 0.60 -
ID=PSME_00016071     -            515 87393at3193          -            331   0.00025   21.9   0.3   2   4       3.6   1.1e+03    0.1   0.0   162   223   151   215   142   222 0.65 -
ID=PSME_00016071     -            515 87393at3193          -            331   0.00025   21.9   0.3   3   4       2.9     9e+02    0.4   0.0   165   204   328   367   324   382 0.81 -
ID=PSME_00016071     -            515 87393at3193          -            331   0.00025   21.9   0.3   4   4   0.00021     0.063   14.1   0.0   134   194   380   442   360   454 0.83 -
ID=PSME_00014903     -            490 87393at3193          -            331   0.00027   21.9   0.4   1   2   6.2e-06    0.0019   19.1   0.0   138   203    34   102    14   109 0.85 -
ID=PSME_00014903     -            490 87393at3193          -            331   0.00027   21.9   0.4   2   2       4.6   1.4e+03   -0.2   0.0   104   115   313   324   294   370 0.66 -
ID=PSME_00040435     -            391 87393at3193          -            331   0.00028   21.8   2.6   1   2      0.11        35    5.1   0.0   147   192   125   172   115   178 0.65 -
ID=PSME_00040435     -            391 87393at3193          -            331   0.00028   21.8   2.6   2   2      0.33     1e+02    3.5   0.0    55    73   208   226   179   231 0.72 -
ID=PSME_00039843     -            340 87393at3193          -            331    0.0003   21.7   0.3   1   2   1.6e-05     0.005   17.7   0.1   104   188   157   243   148   260 0.71 -
ID=PSME_00039843     -            340 87393at3193          -            331    0.0003   21.7   0.3   2   2       2.4   7.3e+02    0.7   0.0   136   162   259   285   248   293 0.75 -
ID=PSME_00042814     -            572 87393at3193          -            331   0.00033   21.5   0.3   1   1     5e-06    0.0015   19.4   0.1   145   285   340   479   317   491 0.76 -
ID=PSME_00037908     -            515 87393at3193          -            331   0.00035   21.5   3.9   1   3      0.44   1.3e+02    3.1   0.0   154   194   107   148   101   178 0.78 -
ID=PSME_00037908     -            515 87393at3193          -            331   0.00035   21.5   3.9   2   3       2.9   8.9e+02    0.4   0.1   146   185   294   336   282   340 0.80 -
ID=PSME_00037908     -            515 87393at3193          -            331   0.00035   21.5   3.9   3   3     4e-05     0.012   16.4   0.2   186   286   369   471   362   486 0.88 -
ID=PSME_00021733     -            647 87393at3193          -            331   0.00036   21.4   1.0   1   5       1.4   4.3e+02    1.5   0.1   247   281   138   172   112   204 0.61 -
ID=PSME_00021733     -            647 87393at3193          -            331   0.00036   21.4   1.0   2   5       1.2   3.7e+02    1.7   0.0   137   176   257   297   209   316 0.62 -
ID=PSME_00021733     -            647 87393at3193          -            331   0.00036   21.4   1.0   3   5       4.8   1.5e+03   -0.3   0.0   165   223   379   440   369   460 0.59 -
ID=PSME_00021733     -            647 87393at3193          -            331   0.00036   21.4   1.0   4   5       1.2   3.8e+02    1.7   0.0   165   214   532   583   527   589 0.83 -
ID=PSME_00021733     -            647 87393at3193          -            331   0.00036   21.4   1.0   5   5    0.0025      0.77   10.5   0.0   138   183   589   635   574   644 0.80 -
ID=PSME_00026689     -            201 87393at3193          -            331   0.00059   20.7   0.1   1   1   2.3e-06   0.00069   20.5   0.1   135   231    30   137    19   188 0.77 -
ID=PSME_00029486     -            423 87393at3193          -            331   0.00059   20.7   0.0   1   2   0.00057      0.17   12.6   0.0   118   197   182   263   162   281 0.90 -
ID=PSME_00029486     -            423 87393at3193          -            331   0.00059   20.7   0.0   2   2     0.075        23    5.6   0.1    52    85   286   321   272   413 0.66 -
ID=PSME_00026538     -            259 87393at3193          -            331   0.00086   20.2   0.0   1   1   3.7e-06    0.0011   19.8   0.0   105   188   158   243    84   255 0.90 -
ID=PSME_00020225     -            253 87393at3193          -            331   0.00088   20.2   0.0   1   2      0.41   1.2e+02    3.2   0.0   166   193   133   161   123   167 0.81 -
ID=PSME_00020225     -            253 87393at3193          -            331   0.00088   20.2   0.0   2   2   3.5e-05     0.011   16.6   0.0   136   208   159   228   156   237 0.82 -
ID=PSME_00012692     -            418 87393at3193          -            331   0.00095   20.0   1.8   1   2   1.9e-05    0.0059   17.4   0.2   143   197   106   162    86   171 0.82 -
ID=PSME_00012692     -            418 87393at3193          -            331   0.00095   20.0   1.8   2   2       1.9   5.8e+02    1.0   0.1   149   200   179   234   171   243 0.70 -
ID=PSME_00048095     -            349 87393at3193          -            331   0.00099   20.0   0.1   1   2   3.9e-05     0.012   16.5   0.0   161   272     8   127     2   128 0.82 -
ID=PSME_00048095     -            349 87393at3193          -            331   0.00099   20.0   0.1   2   2     0.082        25    5.5   0.0   162   201    99   137    92   166 0.77 -
ID=PSME_00001612     -           1070 87393at3193          -            331    0.0011   19.9   0.0   1   3       2.9   8.9e+02    0.4   0.0   167   199   353   387   334   402 0.62 -
ID=PSME_00001612     -           1070 87393at3193          -            331    0.0011   19.9   0.0   2   3       1.5   4.6e+02    1.4   0.0   226   316   537   628   507   632 0.73 -
ID=PSME_00001612     -           1070 87393at3193          -            331    0.0011   19.9   0.0   3   3   0.00037      0.11   13.2   0.0   128   243   779   897   752   917 0.78 -
ID=PSME_00044301     -            442 87393at3193          -            331    0.0014   19.5   0.0   1   2   4.8e-05     0.015   16.2   0.0   156   205    46    96    28   106 0.90 -
ID=PSME_00044301     -            442 87393at3193          -            331    0.0014   19.5   0.0   2   2       2.3     7e+02    0.8   0.0   180   231   121   176   103   195 0.66 -
ID=PSME_00042033     -            378 87393at3193          -            331    0.0016   19.3   0.0   1   1     1e-05    0.0031   18.4   0.0   137   199   273   334   249   349 0.83 -
ID=PSME_00026092     -            237 87393at3193          -            331    0.0016   19.3   0.0   1   2       1.5   4.6e+02    1.4   0.0   165   204   122   161   115   178 0.79 -
ID=PSME_00026092     -            237 87393at3193          -            331    0.0016   19.3   0.0   2   2   4.9e-05     0.015   16.1   0.0   135   192   175   234   165   236 0.86 -
ID=PSME_00002684     -            781 87393at3193          -            331    0.0017   19.3   2.6   1   4         1   3.2e+02    1.9   0.2    86   178   176   277   167   297 0.61 -
ID=PSME_00002684     -            781 87393at3193          -            331    0.0017   19.3   2.6   2   4       3.4     1e+03    0.2   0.0   164   223   509   571   498   620 0.68 -
ID=PSME_00002684     -            781 87393at3193          -            331    0.0017   19.3   2.6   3   4       7.6   2.3e+03   -0.9   0.0   165   204   666   705   662   722 0.78 -
ID=PSME_00002684     -            781 87393at3193          -            331    0.0017   19.3   2.6   4   4   0.00085      0.26   12.1   0.0   135   192   719   778   708   780 0.85 -
ID=PSME_00020281     -            406 87393at3193          -            331    0.0017   19.2   0.0   1   1   1.1e-05    0.0034   18.2   0.0   117   266   164   327   158   337 0.84 -
ID=PSME_00022364     -            432 87393at3193          -            331     0.002   19.0   0.2   1   3       5.3   1.6e+03   -0.4   0.0    63   173    10    42     5    63 0.57 -
ID=PSME_00022364     -            432 87393at3193          -            331     0.002   19.0   0.2   2   3       2.3   6.9e+02    0.8   0.0   165   223   127   188   113   213 0.54 -
ID=PSME_00022364     -            432 87393at3193          -            331     0.002   19.0   0.2   3   3   0.00022     0.067   14.0   0.0   134   192   369   429   323   431 0.86 -
ID=PSME_00016314     -            482 87393at3193          -            331    0.0021   18.9   1.2   1   2    0.0064       1.9    9.2   0.1    25   163   187   333   177   342 0.73 -
ID=PSME_00016314     -            482 87393at3193          -            331    0.0021   18.9   1.2   2   2     0.026       7.8    7.2   0.0   147   196   356   405   348   425 0.81 -
ID=PSME_00028453     -            207 87393at3193          -            331    0.0021   18.9   1.4   1   3     0.066        20    5.8   0.0    53    74    29    50     9    56 0.77 -
ID=PSME_00028453     -            207 87393at3193          -            331    0.0021   18.9   1.4   2   3      0.17        51    4.5   0.0    31    73    61   103    50   109 0.60 -
ID=PSME_00028453     -            207 87393at3193          -            331    0.0021   18.9   1.4   3   3     0.092        28    5.4   0.0    59    83   131   155   127   167 0.85 -
ID=PSME_00012971     -            700 87393at3193          -            331    0.0024   18.7   0.1   1   1   1.8e-05    0.0054   17.6   0.1    94   193   446   550   436   565 0.75 -
ID=PSME_00021254     -            444 87393at3193          -            331    0.0025   18.7   0.0   1   2     0.019       5.9    7.6   0.0   155   237   194   282   188   305 0.72 -
ID=PSME_00021254     -            444 87393at3193          -            331    0.0025   18.7   0.0   2   2   0.00081      0.25   12.1   0.1   139   234   271   366   252   388 0.70 -
ID=PSME_00054559     -            361 87393at3193          -            331    0.0028   18.5   0.0   1   1   1.6e-05    0.0048   17.8   0.0   109   224    50   167    14   249 0.75 -
ID=PSME_00022008     -            852 87393at3193          -            331     0.003   18.4   0.1   1   1   1.9e-05    0.0058   17.5   0.1     5    36    96   127    92   142 0.84 -
ID=PSME_00010434     -            523 87393at3193          -            331    0.0032   18.3   0.7   1   2       2.3     7e+02    0.8   0.1   189   189   182   182    81   298 0.50 -
ID=PSME_00010434     -            523 87393at3193          -            331    0.0032   18.3   0.7   2   2   0.00022     0.067   14.0   0.0   135   194   456   520   445   521 0.80 -
ID=PSME_00011504     -            954 87393at3193          -            331    0.0033   18.3   0.6   1   4       7.6   2.3e+03   -0.9   0.0   160   193    27    61    11    72 0.76 -
ID=PSME_00011504     -            954 87393at3193          -            331    0.0033   18.3   0.6   2   4     0.042        13    6.5   0.0   157   205    83   132    77   161 0.83 -
ID=PSME_00011504     -            954 87393at3193          -            331    0.0033   18.3   0.6   3   4      0.23        71    4.0   0.0   177   237   277   341   263   352 0.83 -
ID=PSME_00011504     -            954 87393at3193          -            331    0.0033   18.3   0.6   4   4      0.61   1.9e+02    2.7   0.0   138   161   655   678   627   719 0.65 -
ID=PSME_00005767     -            374 87393at3193          -            331    0.0036   18.1   0.0   1   2   5.2e-05     0.016   16.0   0.0   160   232   171   247   152   257 0.57 -
ID=PSME_00005767     -            374 87393at3193          -            331    0.0036   18.1   0.0   2   2       6.8   2.1e+03   -0.8   0.0   138   149   337   348   285   361 0.66 -
ID=PSME_00024148     -            132 87393at3193          -            331    0.0036   18.1   0.1   1   2      0.37   1.1e+02    3.4   0.0   152   197    32    79    23    92 0.72 -
ID=PSME_00024148     -            132 87393at3193          -            331    0.0036   18.1   0.1   2   2   3.1e-05    0.0095   16.8   0.1   128   191    49   123    40   129 0.77 -
ID=PSME_00034168     -            120 87393at3193          -            331    0.0039   18.0   0.6   1   1   0.00015     0.046   14.5   0.6   146   193     3    52     2   111 0.74 -
ID=PSME_00014933     -            423 87393at3193          -            331    0.0042   17.9   0.1   1   1   3.4e-05      0.01   16.7   0.1   179   275   147   253   128   257 0.72 -
ID=PSME_00023132     -            523 87393at3193          -            331    0.0048   17.7   0.0   1   3       3.5   1.1e+03    0.2   0.0   167   222   104   162    91   187 0.47 -
ID=PSME_00023132     -            523 87393at3193          -            331    0.0048   17.7   0.0   2   3       2.7   8.1e+02    0.6   0.0   162   204   289   331   283   348 0.79 -
ID=PSME_00023132     -            523 87393at3193          -            331    0.0048   17.7   0.0   3   3   0.00052      0.16   12.7   0.0   135   193   345   405   334   418 0.83 -
ID=PSME_00026862     -            353 87393at3193          -            331    0.0049   17.7   0.3   1   2       3.1   9.5e+02    0.3   0.0   126   235   106   135    86   166 0.55 -
ID=PSME_00026862     -            353 87393at3193          -            331    0.0049   17.7   0.3   2   2   0.00013     0.041   14.7   0.1   163   235   211   290   206   298 0.77 -
ID=PSME_00021651     -            462 87393at3193          -            331    0.0059   17.4   0.0   1   1   8.1e-05     0.025   15.4   0.0   130   230   184   290   143   305 0.59 -
ID=PSME_00039137     -            147 87393at3193          -            331     0.006   17.4   0.0   1   1   2.4e-05    0.0074   17.1   0.0   158   234    41   122    22   125 0.80 -
ID=PSME_00033080     -            186 87393at3193          -            331    0.0064   17.3   0.0   1   1   2.6e-05    0.0079   17.0   0.0   134   198   114   183    95   186 0.80 -
ID=PSME_00046033     -            283 87393at3193          -            331    0.0067   17.3   1.8   1   2       6.4     2e+03   -0.7   0.0    66    87    40    61     9    73 0.61 -
ID=PSME_00046033     -            283 87393at3193          -            331    0.0067   17.3   1.8   2   2   7.7e-05     0.024   15.5   0.4   141   192   184   237   120   244 0.82 -
ID=PSME_00020279     -            350 87393at3193          -            331    0.0069   17.2   0.1   1   3     0.014       4.2    8.1   0.0   147   204    54   114    45   133 0.79 -
ID=PSME_00020279     -            350 87393at3193          -            331    0.0069   17.2   0.1   2   3      0.84   2.6e+02    2.2   0.0    41    73   148   185   137   200 0.71 -
ID=PSME_00020279     -            350 87393at3193          -            331    0.0069   17.2   0.1   3   3      0.69   2.1e+02    2.5   0.0   249   286   210   249   196   270 0.63 -
ID=PSME_00022351     -            455 87393at3193          -            331     0.007   17.2   0.0   1   1   3.8e-05     0.011   16.5   0.0   129   232   320   429   289   446 0.64 -
ID=PSME_00046579     -            211 87393at3193          -            331    0.0072   17.2   0.0   1   3       7.9   2.4e+03   -1.0   0.0   254   285     8    39     4    64 0.68 -
ID=PSME_00046579     -            211 87393at3193          -            331    0.0072   17.2   0.0   2   3       2.4   7.4e+02    0.7   0.0   165   203    96   134    88   149 0.78 -
ID=PSME_00046579     -            211 87393at3193          -            331    0.0072   17.2   0.0   3   3   0.00037      0.11   13.2   0.0   135   192   149   208   138   210 0.84 -
ID=PSME_00014135     -            293 87393at3193          -            331     0.009   16.8   0.1   1   2       3.4     1e+03    0.2   0.0   208   235    29    57    13   114 0.79 -
ID=PSME_00014135     -            293 87393at3193          -            331     0.009   16.8   0.1   2   2   0.00021     0.063   14.1   0.1   145   201   200   259   176   290 0.70 -
ID=PSME_00014595     -            316 87393at3193          -            331    0.0091   16.8   0.3   1   1   5.9e-05     0.018   15.9   0.2   180   275   178   283   159   287 0.69 -
ID=PSME_00033522     -            393 87393at3193          -            331    0.0096   16.8   0.3   1   2     0.016       4.8    7.9   0.0    44    76    87   124    79   130 0.77 -
ID=PSME_00033522     -            393 87393at3193          -            331    0.0096   16.8   0.3   2   2    0.0004      0.12   13.1   0.2   138   197   108   169    99   191 0.87 -
ID=PSME_00030768     -            465 87393at3193          -            331    0.0099   16.7   0.0   1   3       8.8   2.7e+03   -1.2   0.0    61    76    35    50    23    58 0.74 -
ID=PSME_00030768     -            465 87393at3193          -            331    0.0099   16.7   0.0   2   3       6.4   1.9e+03   -0.7   0.0   165   203   256   294   250   309 0.77 -
ID=PSME_00030768     -            465 87393at3193          -            331    0.0099   16.7   0.0   3   3    0.0004      0.12   13.1   0.0   135   218   309   397   299   415 0.73 -
ID=PSME_00036554     -            152 87393at3193          -            331      0.01   16.7   0.5   1   3     0.099        30    5.3   0.0    59    75    59    75    28    82 0.79 -
ID=PSME_00036554     -            152 87393at3193          -            331      0.01   16.7   0.5   2   3     0.025       7.5    7.3   0.1    58    84   100   126    84   129 0.83 -
ID=PSME_00036554     -            152 87393at3193          -            331      0.01   16.7   0.5   3   3       3.6   1.1e+03    0.1   0.0    66    82   129   145   124   150 0.67 -
ID=PSME_00025080     -            450 87393at3193          -            331     0.012   16.5   2.1   1   3       7.8   2.4e+03   -1.0   0.0    60    81   133   154   132   161 0.82 -
ID=PSME_00025080     -            450 87393at3193          -            331     0.012   16.5   2.1   2   3     0.007       2.1    9.0   0.4   148   199   311   365   301   384 0.76 -
ID=PSME_00025080     -            450 87393at3193          -            331     0.012   16.5   2.1   3   3      0.24        73    4.0   0.0    55    75   383   403   375   406 0.84 -
ID=PSME_00015089     -            114 87393at3193          -            331     0.012   16.4   0.0   1   2       3.4     1e+03    0.2   0.0    50    73    33    56    20    59 0.73 -
ID=PSME_00015089     -            114 87393at3193          -            331     0.012   16.4   0.0   2   2     8e-05     0.025   15.4   0.0   140   176    56    92    30   105 0.79 -
ID=PSME_00032417     -            228 87393at3193          -            331     0.013   16.4   0.1   1   2   0.00018     0.055   14.2   0.1   146   192   107   155    96   203 0.91 -
ID=PSME_00032417     -            228 87393at3193          -            331     0.013   16.4   0.1   2   2       5.8   1.8e+03   -0.5   0.0   163   185   179   202   167   219 0.80 -
ID=PSME_00034030     -            481 87393at3193          -            331     0.013   16.3   0.0   1   2       3.9   1.2e+03    0.0   0.0    87   262    80   137    64   165 0.48 -
ID=PSME_00034030     -            481 87393at3193          -            331     0.013   16.3   0.0   2   2    0.0003     0.093   13.5   0.0   134   194   260   322   234   334 0.82 -
ID=PSME_00020863     -            540 87393at3193          -            331     0.015   16.1   0.7   1   3     0.027       8.2    7.1   0.0   134   195   296   360   224   370 0.56 -
ID=PSME_00020863     -            540 87393at3193          -            331     0.015   16.1   0.7   2   3      0.21        65    4.2   0.0    58    81   342   365   326   382 0.83 -
ID=PSME_00020863     -            540 87393at3193          -            331     0.015   16.1   0.7   3   3      0.23        70    4.1   0.1   138   237   391   486   371   501 0.67 -
ID=PSME_00001956     -            795 87393at3193          -            331     0.017   16.0   1.8   1   1   0.00076      0.23   12.2   0.2    60   198   514   656   510   680 0.65 -
ID=PSME_00047152     -            241 87393at3193          -            331     0.018   15.9   0.0   1   1   0.00016     0.048   14.4   0.0   135   195    21    83    11    95 0.83 -
ID=PSME_00041218     -            401 87393at3193          -            331      0.02   15.7   0.0   1   2    0.0013      0.38   11.5   0.0   117   201   164   250   159   271 0.88 -
ID=PSME_00041218     -            401 87393at3193          -            331      0.02   15.7   0.0   2   2       0.5   1.5e+02    2.9   0.1    38    84   247   293   242   353 0.60 -
ID=PSME_00024680     -            503 87393at3193          -            331     0.021   15.6   0.0   1   3       3.4     1e+03    0.2   0.0   140   172    35    68     6    91 0.63 -
ID=PSME_00024680     -            503 87393at3193          -            331     0.021   15.6   0.0   2   3         5   1.5e+03   -0.3   0.0   165   204   296   335   290   350 0.79 -
ID=PSME_00024680     -            503 87393at3193          -            331     0.021   15.6   0.0   3   3    0.0021      0.63   10.8   0.0   135   182   349   398   338   410 0.81 -
ID=PSME_00042937     -            387 87393at3193          -            331     0.023   15.5   1.8   1   2       6.6     2e+03   -0.7   0.0    65    87    79   101    49   112 0.71 -
ID=PSME_00042937     -            387 87393at3193          -            331     0.023   15.5   1.8   2   2     0.015       4.6    7.9   0.1    58    84   273   299   256   310 0.87 -
ID=PSME_00027473     -            595 87393at3193          -            331     0.028   15.2   0.0   1   1   0.00034       0.1   13.3   0.0   134   194   342   404   294   416 0.84 -
ID=PSME_00014113     -            542 87393at3193          -            331     0.029   15.2   0.0   1   1    0.0027      0.81   10.4   0.0   144   266   253   343   220   355 0.44 -
ID=PSME_00016664     -            545 87393at3193          -            331      0.03   15.1   1.1   1   2       1.5   4.5e+02    1.4   0.0   206   238    59    92    42   128 0.58 -
ID=PSME_00016664     -            545 87393at3193          -            331      0.03   15.1   1.1   2   2     0.001      0.31   11.8   0.4   139   197   114   176   108   273 0.76 -
ID=PSME_00016538     -            135 87393at3193          -            331     0.031   15.1   0.1   1   1   0.00012     0.038   14.8   0.1   116   186    52   123    29   130 0.75 -
ID=PSME_00043526     -            250 87393at3193          -            331     0.031   15.1   0.0   1   1   0.00018     0.056   14.2   0.0   135   194    30    91    19   104 0.82 -
ID=PSME_00018931     -            489 87393at3193          -            331     0.032   15.1   0.1   1   3       2.2   6.8e+02    0.8   0.0   146   230    33   119    30   121 0.84 -
ID=PSME_00018931     -            489 87393at3193          -            331     0.032   15.1   0.1   2   3       3.1   9.5e+02    0.3   0.0   167   190   143   167   132   182 0.74 -
ID=PSME_00018931     -            489 87393at3193          -            331     0.032   15.1   0.1   3   3    0.0058       1.8    9.3   0.0   128   224   376   478   360   487 0.76 -
ID=PSME_00021786     -            489 87393at3193          -            331     0.035   14.9   0.1   1   2       7.9   2.4e+03   -1.0   0.0    85   135   126   178   118   184 0.67 -
ID=PSME_00021786     -            489 87393at3193          -            331     0.035   14.9   0.1   2   2     0.002      0.61   10.8   0.0   135   182   426   475   406   483 0.81 -
ID=PSME_00020226     -            110 87393at3193          -            331     0.043   14.6   0.1   1   1   0.00017     0.052   14.3   0.1   154   191     6    44     3    69 0.80 -
ID=PSME_00023192     -            546 87393at3193          -            331     0.047   14.5   0.6   1   2     0.013       3.9    8.2   0.5   146   192    90   138    87   194 0.76 -
ID=PSME_00023192     -            546 87393at3193          -            331     0.047   14.5   0.6   2   2      0.16        50    4.5   0.1    50    83   169   201   142   210 0.58 -
ID=PSME_00012829     -            326 87393at3193          -            331     0.048   14.4   0.0   1   3       3.2   9.7e+02    0.3   0.0   169   201    27    58    14   122 0.67 -
ID=PSME_00012829     -            326 87393at3193          -            331     0.048   14.4   0.0   2   3       1.6   4.9e+02    1.3   0.0   164   212   101   151    83   159 0.79 -
ID=PSME_00012829     -            326 87393at3193          -            331     0.048   14.4   0.0   3   3    0.0053       1.6    9.4   0.0   138   201   159   226   145   252 0.84 -
ID=PSME_00014297     -            652 87393at3193          -            331     0.055   14.3   0.0   1   1   0.00064      0.19   12.5   0.0   132   200   405   475   359   483 0.75 -
ID=PSME_00014010     -            501 87393at3193          -            331     0.061   14.1   0.0   1   4         2     6e+02    1.0   0.0   140   172    76   109    26   131 0.66 -
ID=PSME_00014010     -            501 87393at3193          -            331     0.061   14.1   0.0   2   4       3.7   1.1e+03    0.1   0.0   169   265   199   257   181   282 0.45 -
ID=PSME_00014010     -            501 87393at3193          -            331     0.061   14.1   0.0   3   4       8.3   2.5e+03   -1.1   0.0   165   204   385   424   381   441 0.79 -
ID=PSME_00014010     -            501 87393at3193          -            331     0.061   14.1   0.0   4   4     0.022       6.7    7.4   0.0   135   182   438   487   426   494 0.78 -
ID=PSME_00001515     -            286 87393at3193          -            331     0.062   14.1   0.0   1   2      0.71   2.2e+02    2.4   0.0    66    82     3    19     1    78 0.73 -
ID=PSME_00001515     -            286 87393at3193          -            331     0.062   14.1   0.0   2   2     0.004       1.2    9.8   0.0   131   189   167   227    93   248 0.70 -
ID=PSME_00006857     -            215 87393at3193          -            331      0.07   13.9   0.0   1   1   0.00038      0.11   13.2   0.0    57    86    43    72    18   177 0.72 -
ID=PSME_00009165     -            630 87393at3193          -            331     0.071   13.9   0.1   1   3         4   1.2e+03   -0.0   0.0   212   281   152   221   134   242 0.57 -
ID=PSME_00009165     -            630 87393at3193          -            331     0.071   13.9   0.1   2   3       8.3   2.5e+03   -1.1   0.0   166   199   396   429   390   443 0.79 -
ID=PSME_00009165     -            630 87393at3193          -            331     0.071   13.9   0.1   3   3    0.0072       2.2    9.0   0.0   135   181   448   496   401   520 0.65 -
ID=PSME_00018904     -            656 87393at3193          -            331     0.072   13.9   0.6   1   1    0.0014      0.42   11.4   0.0   138   201    73   139    50   147 0.78 -
ID=PSME_00015705     -            366 87393at3193          -            331     0.083   13.7   0.0   1   3      0.58   1.8e+02    2.7   0.0   127   165    27    66    11    78 0.77 -
ID=PSME_00015705     -            366 87393at3193          -            331     0.083   13.7   0.0   2   3       8.6   2.6e+03   -1.1   0.0   139   153    94   110    69   161 0.74 -
ID=PSME_00015705     -            366 87393at3193          -            331     0.083   13.7   0.0   3   3      0.02       6.2    7.5   0.0   175   222   206   255   187   271 0.75 -
ID=PSME_00008563     -            189 87393at3193          -            331     0.086   13.6   0.1   1   2    0.0007      0.21   12.3   0.1   160   199    14    54    11    91 0.78 -
ID=PSME_00008563     -            189 87393at3193          -            331     0.086   13.6   0.1   2   2       7.9   2.4e+03   -1.0   0.0   256   286    81   111    63   133 0.80 -
ID=PSME_00038141     -            180 87393at3193          -            331     0.093   13.5   0.7   1   2    0.0013      0.39   11.5   0.1   146   206    49   110    17   139 0.81 -
ID=PSME_00038141     -            180 87393at3193          -            331     0.093   13.5   0.7   2   2       3.9   1.2e+03    0.0   0.1    57    72   163   178   154   179 0.85 -
ID=PSME_00055135     -            377 87393at3193          -            331      0.11   13.3   0.1   1   2     0.018       5.5    7.7   0.0   162   203    11    53     4    65 0.85 -
ID=PSME_00055135     -            377 87393at3193          -            331      0.11   13.3   0.1   2   2      0.79   2.4e+02    2.3   0.0   105   192   265   311   220   323 0.61 -
ID=PSME_00031870     -            796 87393at3193          -            331      0.11   13.3   0.6   1   1    0.0011      0.33   11.7   0.1   147   201    98   155    96   198 0.76 -
ID=PSME_00011021     -            620 87393at3193          -            331      0.12   13.2   0.0   1   1   0.00069      0.21   12.4   0.0    56   115   112   174    82   185 0.80 -
ID=PSME_00049615     -            187 87393at3193          -            331      0.12   13.1   0.0   1   1   0.00088      0.27   12.0   0.0   146   198    74   126    65   157 0.83 -
ID=PSME_00037330     -            519 87393at3193          -            331      0.12   13.1   8.3   1   4       3.9   1.2e+03    0.0   0.0   227   255   125   153   106   174 0.83 -
ID=PSME_00037330     -            519 87393at3193          -            331      0.12   13.1   8.3   2   4      0.46   1.4e+02    3.1   0.0    55    74   360   379   335   383 0.83 -
ID=PSME_00037330     -            519 87393at3193          -            331      0.12   13.1   8.3   3   4       0.2        60    4.3   0.0    35    73   394   432   385   440 0.70 -
ID=PSME_00037330     -            519 87393at3193          -            331      0.12   13.1   8.3   4   4     0.091        28    5.4   0.1    59    84   460   485   457   496 0.88 -
ID=PSME_00024143     -            251 87393at3193          -            331      0.13   13.1   0.3   1   2       6.4   1.9e+03   -0.7   0.0    57    84    14    41     9    65 0.77 -
ID=PSME_00024143     -            251 87393at3193          -            331      0.13   13.1   0.3   2   2     0.016       4.7    7.9   0.0   146   198    64   116    58   135 0.78 -
ID=PSME_00035181     -            380 87393at3193          -            331      0.13   13.0   0.0   1   1    0.0044       1.3    9.7   0.0   118   198   188   270   166   350 0.83 -
ID=PSME_00014973     -            324 87393at3193          -            331      0.15   12.9   0.0   1   1   0.00088      0.27   12.0   0.0   146   198    77   129    67   165 0.80 -
ID=PSME_00031092     -            245 87393at3193          -            331      0.16   12.8   0.3   1   1    0.0073       2.2    9.0   0.0   146   198    59   111    51   130 0.81 -
ID=PSME_00020280     -            460 87393at3193          -            331      0.17   12.7   0.0   1   2    0.0046       1.4    9.6   0.0   119   260   183   338   175   346 0.52 -
ID=PSME_00020280     -            460 87393at3193          -            331      0.17   12.7   0.0   2   2       6.6     2e+03   -0.7   0.0   250   329   351   430   328   432 0.53 -
ID=PSME_00000461     -            538 87393at3193          -            331       0.2   12.4   0.1   1   2       5.4   1.6e+03   -0.4   0.0    61   154   127   142    78   169 0.69 -
ID=PSME_00000461     -            538 87393at3193          -            331       0.2   12.4   0.1   2   2     0.009       2.7    8.7   0.0   135   195   333   395   322   407 0.82 -
ID=PSME_00022297     -            298 87393at3193          -            331      0.23   12.2   0.0   1   2       8.9   2.7e+03   -1.2   0.0   254   289     8    43     4    68 0.64 -
ID=PSME_00022297     -            298 87393at3193          -            331      0.23   12.2   0.0   2   2    0.0029      0.88   10.3   0.0   129   193    80   146    66   159 0.83 -
ID=PSME_00045316     -            616 87393at3193          -            331      0.28   12.0   0.1   1   2       4.1   1.3e+03   -0.1   0.0   286   314   219   247   214   250 0.91 -
ID=PSME_00045316     -            616 87393at3193          -            331      0.28   12.0   0.1   2   2    0.0082       2.5    8.8   0.1    91   188   358   470   349   484 0.64 -
ID=PSME_00043360     -            260 87393at3193          -            331       0.3   11.9   0.0   1   1    0.0028      0.85   10.4   0.0   129   194    34   101    22   113 0.82 -
ID=PSME_00031483     -            435 87393at3193          -            331      0.31   11.8   0.0   1   1    0.0021      0.65   10.7   0.0   124   221   327   429   298   433 0.77 -
ID=PSME_00006527     -             75 87393at3193          -            331      0.32   11.7   0.0   1   1    0.0011      0.33   11.7   0.0   138   188    21    72     3    74 0.82 -
ID=PSME_00040399     -            261 87393at3193          -            331      0.35   11.6   0.2   1   2       8.8   2.7e+03   -1.1   0.0   218   234    23    39     4    69 0.55 -
ID=PSME_00040399     -            261 87393at3193          -            331      0.35   11.6   0.2   2   2    0.0038       1.2    9.9   0.1   166   239   146   183   120   189 0.56 -
ID=PSME_00026029     -            556 87393at3193          -            331      0.39   11.5   0.0   1   3       4.8   1.5e+03   -0.3   0.0    88   263   219   276   205   301 0.42 -
ID=PSME_00026029     -            556 87393at3193          -            331      0.39   11.5   0.0   2   3         8   2.4e+03   -1.0   0.0   165   204   406   445   401   462 0.78 -
ID=PSME_00026029     -            556 87393at3193          -            331      0.39   11.5   0.0   3   3     0.031       9.5    6.9   0.0   135   175   459   500   448   506 0.84 -
ID=PSME_00030460     -            393 87393at3193          -            331      0.43   11.3   0.0   1   1    0.0029       0.9   10.3   0.0   200   256   258   314   239   338 0.73 -
ID=PSME_00026467     -            258 87393at3193          -            331      0.53   11.0   0.0   1   2       7.7   2.3e+03   -1.0   0.0   242   273    92   122    88   139 0.76 -
ID=PSME_00026467     -            258 87393at3193          -            331      0.53   11.0   0.0   2   2     0.005       1.5    9.5   0.0   174   235   192   256   141   257 0.83 -
#
# Program:         hmmsearch
# Version:         3.2.1 (June 2018)
# Pipeline mode:   SEARCH
# Query file:      /isg/shared/databases/BUSCO/odb10/embryophyta_odb10/hmms/87393at3193.hmm
# Target file:     /labs/Wegrzyn/ConiferGenomes/Psme/analysis/SURF_annotation/analyze_orig_maker/gfacs/filtered/maker_genes.fasta.faa
# Option settings: /usr/local/bin/hmmsearch --domtblout /labs/Wegrzyn/ConiferGenomes/Psme/analysis/SURF_annotation/analyze_orig_maker/busco/maker/run_embryophyta_odb10/hmmer_output/87393at3193.out --cpu 1 /isg/shared/databases/BUSCO/odb10/embryophyta_odb10/hmms/87393at3193.hmm /labs/Wegrzyn/ConiferGenomes/Psme/analysis/SURF_annotation/analyze_orig_maker/gfacs/filtered/maker_genes.fasta.faa 
# Current dir:     /labs/Wegrzyn/ConiferGenomes/Psme/analysis/SURF_annotation/analyze_orig_maker/busco
# Date:            Fri Jul 10 13:57:41 2020
# [ok]
