#                                                                            --- full sequence --- -------------- this domain -------------   hmm coord   ali coord   env coord
# target name        accession   tlen query name           accession   qlen   E-value  score  bias   #  of  c-Evalue  i-Evalue  score  bias  from    to  from    to  from    to  acc description of target
#------------------- ---------- ----- -------------------- ---------- ----- --------- ------ ----- --- --- --------- --------- ------ ----- ----- ----- ----- ----- ----- ----- ---- ---------------------
ID=PSME_00038868     -            371 89076at3193          -            343  2.8e-202  672.7   0.0   1   1  4.4e-206  3.5e-202  672.3   0.0    20   343    34   368    23   368 0.97 -
ID=PSME_00008843     -            267 89076at3193          -            343   1.2e-08   36.0   0.0   1   1   2.4e-12   1.9e-08   35.3   0.0    26    64    37    78    30    84 0.89 -
ID=PSME_00008844     -            277 89076at3193          -            343   1.2e-07   32.7   0.0   1   1   2.5e-11     2e-07   32.0   0.0    19    56    12    50     7    61 0.87 -
ID=PSME_00048358     -            204 89076at3193          -            343   8.4e-07   29.9   0.0   1   1   1.5e-10   1.2e-06   29.5   0.0   192   328     1   135     1   141 0.86 -
ID=PSME_00022827     -            414 89076at3193          -            343   4.2e-06   27.6   0.0   1   1   7.8e-10   6.1e-06   27.1   0.0    53   179   194   318   182   342 0.71 -
ID=PSME_00044181     -            259 89076at3193          -            343   7.7e-06   26.8   0.0   1   1   1.3e-09   1.1e-05   26.3   0.0    49   246    49   249    31   255 0.79 -
ID=PSME_00034792     -            561 89076at3193          -            343      0.24   12.0   0.0   1   1     5e-05      0.39   11.3   0.0    27    96   136   203   113   218 0.75 -
#
# Program:         hmmsearch
# Version:         3.2.1 (June 2018)
# Pipeline mode:   SEARCH
# Query file:      /isg/shared/databases/BUSCO/odb10/embryophyta_odb10/hmms/89076at3193.hmm
# Target file:     /labs/Wegrzyn/ConiferGenomes/Psme/analysis/SURF_annotation/analyze_orig_maker/gfacs/filtered/maker_genes.fasta.faa
# Option settings: /usr/local/bin/hmmsearch --domtblout /labs/Wegrzyn/ConiferGenomes/Psme/analysis/SURF_annotation/analyze_orig_maker/busco/maker/run_embryophyta_odb10/hmmer_output/89076at3193.out --cpu 1 /isg/shared/databases/BUSCO/odb10/embryophyta_odb10/hmms/89076at3193.hmm /labs/Wegrzyn/ConiferGenomes/Psme/analysis/SURF_annotation/analyze_orig_maker/gfacs/filtered/maker_genes.fasta.faa 
# Current dir:     /labs/Wegrzyn/ConiferGenomes/Psme/analysis/SURF_annotation/analyze_orig_maker/busco
# Date:            Fri Jul 10 13:57:37 2020
# [ok]
