#                                                                            --- full sequence --- -------------- this domain -------------   hmm coord   ali coord   env coord
# target name        accession   tlen query name           accession   qlen   E-value  score  bias   #  of  c-Evalue  i-Evalue  score  bias  from    to  from    to  from    to  acc description of target
#------------------- ---------- ----- -------------------- ---------- ----- --------- ------ ----- --- --- --------- --------- ------ ----- ----- ----- ----- ----- ----- ----- ---- ---------------------
ID=PSME_00010697     -            267 8953at3193           -            682   6.9e-30  105.3   0.0   1   2   1.6e-15   2.1e-11   44.2   0.0    19   103    19   109     4   115 0.86 -
ID=PSME_00010697     -            267 8953at3193           -            682   6.9e-30  105.3   0.0   2   2   3.6e-20   4.9e-16   59.5   0.0   372   498   119   248   107   260 0.86 -
ID=PSME_00029917     -            441 8953at3193           -            682   1.9e-20   74.1   0.3   1   2   1.2e-07    0.0016   18.2   0.0     1    97    55   152    55   162 0.87 -
ID=PSME_00029917     -            441 8953at3193           -            682   1.9e-20   74.1   0.3   2   2   1.5e-18     2e-14   54.2   0.3   383   506   179   306   155   337 0.78 -
ID=PSME_00044153     -            508 8953at3193           -            682   1.3e-06   28.4   0.5   1   2   1.3e-05      0.18   11.4   0.0    59   106    22    70    11    83 0.85 -
ID=PSME_00044153     -            508 8953at3193           -            682   1.3e-06   28.4   0.5   2   2   7.7e-07     0.011   15.5   0.1   393   440    82   133    76   150 0.79 -
ID=PSME_00032419     -            601 8953at3193           -            682      0.22   11.1   0.8   1   2    0.0045        62    3.0   0.0   133   175   271   313   257   320 0.76 -
ID=PSME_00032419     -            601 8953at3193           -            682      0.22   11.1   0.8   2   2   0.00042       5.8    6.4   0.3   144   174   320   350   308   362 0.85 -
#
# Program:         hmmsearch
# Version:         3.2.1 (June 2018)
# Pipeline mode:   SEARCH
# Query file:      /isg/shared/databases/BUSCO/odb10/embryophyta_odb10/hmms/8953at3193.hmm
# Target file:     /labs/Wegrzyn/ConiferGenomes/Psme/analysis/SURF_annotation/analyze_orig_maker/gfacs/filtered/maker_genes.fasta.faa
# Option settings: /usr/local/bin/hmmsearch --domtblout /labs/Wegrzyn/ConiferGenomes/Psme/analysis/SURF_annotation/analyze_orig_maker/busco/maker/run_embryophyta_odb10/hmmer_output/8953at3193.out --cpu 1 /isg/shared/databases/BUSCO/odb10/embryophyta_odb10/hmms/8953at3193.hmm /labs/Wegrzyn/ConiferGenomes/Psme/analysis/SURF_annotation/analyze_orig_maker/gfacs/filtered/maker_genes.fasta.faa 
# Current dir:     /labs/Wegrzyn/ConiferGenomes/Psme/analysis/SURF_annotation/analyze_orig_maker/busco
# Date:            Fri Jul 10 13:57:40 2020
# [ok]
