#                                                                            --- full sequence --- -------------- this domain -------------   hmm coord   ali coord   env coord
# target name        accession   tlen query name           accession   qlen   E-value  score  bias   #  of  c-Evalue  i-Evalue  score  bias  from    to  from    to  from    to  acc description of target
#------------------- ---------- ----- -------------------- ---------- ----- --------- ------ ----- --- --- --------- --------- ------ ----- ----- ----- ----- ----- ----- ----- ---- ---------------------
ID=PSME_00010691     -            489 91048at3193          -            764  3.6e-139  466.8  25.4   1   3   4.6e-63   4.2e-59  202.0   3.5   401   557     2   182     1   221 0.81 -
ID=PSME_00010691     -            489 91048at3193          -            764  3.6e-139  466.8  25.4   2   3   1.2e-33   1.1e-29  104.8   0.1   541   639   200   305   190   331 0.81 -
ID=PSME_00010691     -            489 91048at3193          -            764  3.6e-139  466.8  25.4   3   3   5.1e-52   4.6e-48  165.5  11.2   636   764   334   473   325   473 0.93 -
ID=PSME_00010692     -            110 91048at3193          -            764   1.5e-48  167.1   1.2   1   1     2e-52   1.8e-48  166.9   1.2    20   119     2   109     1   110 0.95 -
ID=PSME_00002789     -            189 91048at3193          -            764     0.091   12.5   0.1   1   1   1.2e-05      0.11   12.2   0.1   675   713   113   151    90   162 0.86 -
ID=PSME_00002791     -            434 91048at3193          -            764      0.14   11.9   0.1   1   1   2.1e-05      0.19   11.4   0.1   675   713   140   178   127   214 0.90 -
ID=PSME_00030365     -            149 91048at3193          -            764       1.8    8.2  14.5   1   1   0.00024       2.2    7.9  14.5   636   749     6   118     3   134 0.93 -
ID=PSME_00051928     -            192 91048at3193          -            764       2.3    7.8   5.1   1   1   0.00028       2.5    7.7   5.1   587   663     6    82     1   110 0.78 -
#
# Program:         hmmsearch
# Version:         3.2.1 (June 2018)
# Pipeline mode:   SEARCH
# Query file:      /isg/shared/databases/BUSCO/odb10/embryophyta_odb10/hmms/91048at3193.hmm
# Target file:     /labs/Wegrzyn/ConiferGenomes/Psme/analysis/SURF_annotation/analyze_orig_maker/gfacs/filtered/maker_genes.fasta.faa
# Option settings: /usr/local/bin/hmmsearch --domtblout /labs/Wegrzyn/ConiferGenomes/Psme/analysis/SURF_annotation/analyze_orig_maker/busco/maker/run_embryophyta_odb10/hmmer_output/91048at3193.out --cpu 1 /isg/shared/databases/BUSCO/odb10/embryophyta_odb10/hmms/91048at3193.hmm /labs/Wegrzyn/ConiferGenomes/Psme/analysis/SURF_annotation/analyze_orig_maker/gfacs/filtered/maker_genes.fasta.faa 
# Current dir:     /labs/Wegrzyn/ConiferGenomes/Psme/analysis/SURF_annotation/analyze_orig_maker/busco
# Date:            Fri Jul 10 13:57:45 2020
# [ok]
