#                                                                            --- full sequence --- -------------- this domain -------------   hmm coord   ali coord   env coord
# target name        accession   tlen query name           accession   qlen   E-value  score  bias   #  of  c-Evalue  i-Evalue  score  bias  from    to  from    to  from    to  acc description of target
#------------------- ---------- ----- -------------------- ---------- ----- --------- ------ ----- --- --- --------- --------- ------ ----- ----- ----- ----- ----- ----- ----- ---- ---------------------
ID=PSME_00011603     -            900 94735at3193          -            740  2.2e-266  887.4  84.4   1   2  1.8e-110  2.7e-107  361.4  39.8     1   384    35   504    35   510 0.84 -
ID=PSME_00011603     -            900 94735at3193          -            740  2.2e-266  887.4  84.4   2   2  3.8e-161  5.8e-158  528.9  36.7   377   740   522   899   513   899 0.95 -
ID=PSME_00035064     -            231 94735at3193          -            740   3.2e-77  262.0  15.2   1   1   2.4e-80   3.6e-77  261.8  15.2   536   740    18   230    15   230 0.92 -
ID=PSME_00008176     -            820 94735at3193          -            740   6.5e-06   26.2   5.0   1   2      0.32   4.9e+02    0.1   0.0   559   644   399   485   393   487 0.77 -
ID=PSME_00008176     -            820 94735at3193          -            740   6.5e-06   26.2   5.0   2   2   4.9e-09   7.4e-06   26.0   2.2   687   734   664   711   652   714 0.94 -
ID=PSME_00011441     -            292 94735at3193          -            740   2.2e-05   24.4   5.2   1   1   2.1e-08   3.2e-05   23.9   5.2   681   728   231   275   221   286 0.85 -
ID=PSME_00018507     -           1289 94735at3193          -            740   6.5e-05   22.9   3.0   1   1   9.5e-08   0.00014   21.7   3.0   687   725   969  1008   945  1017 0.81 -
ID=PSME_00026457     -           1090 94735at3193          -            740   0.00037   20.4   3.0   1   1   3.6e-07   0.00054   19.8   3.0   686   736    57   106    48   109 0.91 -
ID=PSME_00053219     -            163 94735at3193          -            740    0.0016   18.3   0.8   1   1   1.3e-06     0.002   17.9   0.8   688   734    91   141    81   145 0.88 -
ID=PSME_00057075     -            213 94735at3193          -            740    0.0058   16.4   2.1   1   1     5e-06    0.0076   16.0   2.1   687   727    26    68    21    76 0.89 -
ID=PSME_00014826     -            203 94735at3193          -            740    0.0073   16.1   3.1   1   2   4.8e-06    0.0073   16.1   3.1   688   730    61   102    48   107 0.89 -
ID=PSME_00014826     -            203 94735at3193          -            740    0.0073   16.1   3.1   2   2      0.33   5.1e+02    0.1   0.8   610   660   148   197   120   200 0.61 -
ID=PSME_00017541     -            333 94735at3193          -            740      0.01   15.6   6.3   1   1   9.4e-06     0.014   15.1   6.3   553   648    50   148    41   180 0.80 -
ID=PSME_00047688     -            656 94735at3193          -            740     0.021   14.6   1.2   1   1   1.9e-05      0.03   14.1   1.2   648   726   575   650   563   653 0.67 -
ID=PSME_00012491     -            867 94735at3193          -            740     0.021   14.6   1.6   1   3       5.3   8.1e+03   -3.9   1.2   626   648   153   175   126   192 0.75 -
ID=PSME_00012491     -            867 94735at3193          -            740     0.021   14.6   1.6   2   3       5.1   7.8e+03   -3.8   1.1   706   728   564   590   562   591 0.75 -
ID=PSME_00012491     -            867 94735at3193          -            740     0.021   14.6   1.6   3   3   1.4e-05     0.021   14.6   1.6   688   726   736   775   730   780 0.85 -
ID=PSME_00004896     -            174 94735at3193          -            740     0.028   14.2   0.4   1   1   2.9e-05     0.044   13.5   0.4   369   415   110   157   104   167 0.84 -
ID=PSME_00053032     -             75 94735at3193          -            740     0.034   13.9   2.7   1   1   2.5e-05     0.038   13.7   2.7   682   728    18    69    13    72 0.82 -
ID=PSME_00053220     -            163 94735at3193          -            740     0.041   13.6   0.8   1   1   3.5e-05     0.054   13.2   0.8   688   734    91   141    82   145 0.86 -
ID=PSME_00000196     -            328 94735at3193          -            740     0.054   13.2   1.8   1   1   5.1e-05     0.078   12.7   1.8   553   640    83   171    77   197 0.88 -
ID=PSME_00056078     -            143 94735at3193          -            740     0.066   12.9   2.9   1   1   5.4e-05     0.082   12.6   2.9   678   728    57   109    45   115 0.86 -
ID=PSME_00018890     -            265 94735at3193          -            740     0.073   12.8   1.2   1   1     8e-05      0.12   12.1   1.2   681   718    50    89    43    97 0.79 -
ID=PSME_00057118     -            179 94735at3193          -            740      0.12   12.1   0.3   1   1   9.1e-05      0.14   11.9   0.3   677   728    84   138    44   141 0.77 -
ID=PSME_00032088     -            307 94735at3193          -            740      0.14   11.8   7.0   1   1   0.00012      0.19   11.4   7.0   555   658    90   194    79   205 0.82 -
ID=PSME_00022274     -            611 94735at3193          -            740      0.15   11.8   4.8   1   1   0.00015      0.23   11.1   4.8   688   718   298   330   288   346 0.81 -
ID=PSME_00046899     -            173 94735at3193          -            740      0.21   11.3   0.4   1   1   0.00015      0.23   11.2   0.4   684   728    84   131    38   133 0.78 -
ID=PSME_00007367     -            174 94735at3193          -            740      0.37   10.5   0.7   1   1   0.00031      0.47   10.1   0.7   686   728   120   161    86   165 0.84 -
ID=PSME_00018028     -            943 94735at3193          -            740       0.8    9.4   5.9   1   1   0.00076       1.2    8.8   5.9   686   740   253   316   248   316 0.79 -
ID=PSME_00027883     -            256 94735at3193          -            740      0.85    9.3   4.2   1   1   0.00089       1.4    8.6   4.2   687   726   154   192   152   203 0.92 -
ID=PSME_00049313     -            170 94735at3193          -            740      0.96    9.1   2.5   1   1   0.00081       1.2    8.7   2.5   696   726     3    35     1    40 0.84 -
ID=PSME_00046900     -            177 94735at3193          -            740       1.1    8.9   1.7   1   1   0.00088       1.3    8.6   1.7   687   728    97   141    81   147 0.80 -
ID=PSME_00026187     -            240 94735at3193          -            740       1.3    8.7   0.8   1   1    0.0011       1.7    8.3   0.8   688   727    27    68    23    76 0.82 -
ID=PSME_00015620     -            481 94735at3193          -            740       1.3    8.6   5.1   1   1    0.0013       1.9    8.1   5.1   688   727   212   259   203   263 0.78 -
ID=PSME_00033910     -            778 94735at3193          -            740       1.6    8.4   5.6   1   1    0.0016       2.5    7.7   5.6   686   728   702   745   694   753 0.88 -
ID=PSME_00003941     -            283 94735at3193          -            740       1.8    8.2   4.7   1   1    0.0015       2.3    7.9   4.7   676   726   166   224   147   232 0.77 -
ID=PSME_00046898     -            114 94735at3193          -            740       2.6    7.6   2.8   1   1    0.0021       3.2    7.4   2.8   688   728    29    72    17    75 0.77 -
ID=PSME_00045282     -            318 94735at3193          -            740       3.1    7.4   3.7   1   1    0.0029       4.4    6.9   3.7   687   731   163   209   159   211 0.79 -
ID=PSME_00031633     -            179 94735at3193          -            740       3.4    7.3   2.7   1   1    0.0029       4.4    6.9   2.7   688   728   100   143    89   146 0.81 -
ID=PSME_00001103     -            474 94735at3193          -            740       9.1    5.9   5.6   1   2       5.3   8.1e+03   -3.9   0.2   281   324   128   171   122   174 0.63 -
ID=PSME_00001103     -            474 94735at3193          -            740       9.1    5.9   5.6   2   2   0.00056      0.86    9.3   1.3   686   712   237   263   219   281 0.92 -
ID=PSME_00033242     -            569 94735at3193          -            740       9.4    5.8  20.8   1   2       1.2   1.8e+03   -1.7   3.2    71   158    16   107    10   112 0.44 -
ID=PSME_00033242     -            569 94735at3193          -            740       9.4    5.8  20.8   2   2   4.6e-05      0.07   12.9   9.8   680   729   309   358   306   368 0.92 -
#
# Program:         hmmsearch
# Version:         3.2.1 (June 2018)
# Pipeline mode:   SEARCH
# Query file:      /isg/shared/databases/BUSCO/odb10/embryophyta_odb10/hmms/94735at3193.hmm
# Target file:     /labs/Wegrzyn/ConiferGenomes/Psme/analysis/SURF_annotation/analyze_orig_maker/gfacs/filtered/maker_genes.fasta.faa
# Option settings: /usr/local/bin/hmmsearch --domtblout /labs/Wegrzyn/ConiferGenomes/Psme/analysis/SURF_annotation/analyze_orig_maker/busco/maker/run_embryophyta_odb10/hmmer_output/94735at3193.out --cpu 1 /isg/shared/databases/BUSCO/odb10/embryophyta_odb10/hmms/94735at3193.hmm /labs/Wegrzyn/ConiferGenomes/Psme/analysis/SURF_annotation/analyze_orig_maker/gfacs/filtered/maker_genes.fasta.faa 
# Current dir:     /labs/Wegrzyn/ConiferGenomes/Psme/analysis/SURF_annotation/analyze_orig_maker/busco
# Date:            Fri Jul 10 13:57:49 2020
# [ok]
