#                                                                            --- full sequence --- -------------- this domain -------------   hmm coord   ali coord   env coord
# target name        accession   tlen query name           accession   qlen   E-value  score  bias   #  of  c-Evalue  i-Evalue  score  bias  from    to  from    to  from    to  acc description of target
#------------------- ---------- ----- -------------------- ---------- ----- --------- ------ ----- --- --- --------- --------- ------ ----- ----- ----- ----- ----- ----- ----- ---- ---------------------
ID=PSME_00045908     -            639 95114at3193          -            342     0.057   14.0   0.0   1   1   1.2e-05     0.097   13.2   0.0   123   175   260   311   233   327 0.81 -
ID=PSME_00008853     -            287 95114at3193          -            342     0.082   13.5   1.0   1   1   1.6e-05      0.13   12.9   1.0   132   209    66   131    20   226 0.76 -
ID=PSME_00033512     -            376 95114at3193          -            342       0.1   13.2   0.7   1   1   2.3e-05      0.18   12.4   0.7   132   182   155   203   115   314 0.81 -
ID=PSME_00007207     -            385 95114at3193          -            342      0.11   13.1   0.4   1   1   3.1e-05      0.24   12.0   0.4   134   222   183   262   176   283 0.73 -
ID=PSME_00003876     -            398 95114at3193          -            342      0.16   12.6   0.3   1   1   3.6e-05      0.28   11.7   0.3   133   224   180   262   140   341 0.75 -
ID=PSME_00008852     -            274 95114at3193          -            342      0.18   12.3   0.7   1   1   4.5e-05      0.35   11.4   0.7   133   184    54   103    47   151 0.76 -
ID=PSME_00025127     -            467 95114at3193          -            342      0.22   12.1   0.5   1   1   4.9e-05      0.38   11.3   0.5   131   182   128   177    91   230 0.80 -
#
# Program:         hmmsearch
# Version:         3.2.1 (June 2018)
# Pipeline mode:   SEARCH
# Query file:      /isg/shared/databases/BUSCO/odb10/embryophyta_odb10/hmms/95114at3193.hmm
# Target file:     /labs/Wegrzyn/ConiferGenomes/Psme/analysis/SURF_annotation/analyze_orig_maker/gfacs/filtered/maker_genes.fasta.faa
# Option settings: /usr/local/bin/hmmsearch --domtblout /labs/Wegrzyn/ConiferGenomes/Psme/analysis/SURF_annotation/analyze_orig_maker/busco/maker/run_embryophyta_odb10/hmmer_output/95114at3193.out --cpu 1 /isg/shared/databases/BUSCO/odb10/embryophyta_odb10/hmms/95114at3193.hmm /labs/Wegrzyn/ConiferGenomes/Psme/analysis/SURF_annotation/analyze_orig_maker/gfacs/filtered/maker_genes.fasta.faa 
# Current dir:     /labs/Wegrzyn/ConiferGenomes/Psme/analysis/SURF_annotation/analyze_orig_maker/busco
# Date:            Fri Jul 10 13:57:48 2020
# [ok]
