#                                                                            --- full sequence --- -------------- this domain -------------   hmm coord   ali coord   env coord
# target name        accession   tlen query name           accession   qlen   E-value  score  bias   #  of  c-Evalue  i-Evalue  score  bias  from    to  from    to  from    to  acc description of target
#------------------- ---------- ----- -------------------- ---------- ----- --------- ------ ----- --- --- --------- --------- ------ ----- ----- ----- ----- ----- ----- ----- ---- ---------------------
ID=PSME_00016882     -            653 95831at3193          -            258   4.3e-78  263.7  21.3   1   5   9.6e-48   1.9e-45  156.7   0.0     1    95    29   123    29   129 0.96 -
ID=PSME_00016882     -            653 95831at3193          -            258   4.3e-78  263.7  21.3   2   5   1.4e-17   2.9e-15   57.8   3.8    91   171   142   242   138   268 0.71 -
ID=PSME_00016882     -            653 95831at3193          -            258   4.3e-78  263.7  21.3   3   5       5.1     1e+03    0.3   1.0   148   190   326   370   301   380 0.69 -
ID=PSME_00016882     -            653 95831at3193          -            258   4.3e-78  263.7  21.3   4   5     5e-09     1e-06   29.8   0.1   170   221   434   485   407   513 0.80 -
ID=PSME_00016882     -            653 95831at3193          -            258   4.3e-78  263.7  21.3   5   5   1.2e-06   0.00024   22.0   0.1   223   256   602   635   591   637 0.88 -
ID=PSME_00042059     -            910 95831at3193          -            258   2.3e-27   97.5  11.6   1   9   6.4e-06    0.0013   19.6   0.0     3    51    32    83    30   109 0.76 -
ID=PSME_00042059     -            910 95831at3193          -            258   2.3e-27   97.5  11.6   2   9      0.12        24    5.6   0.0     2    52   118   171   117   180 0.86 -
ID=PSME_00042059     -            910 95831at3193          -            258   2.3e-27   97.5  11.6   3   9   0.00036     0.072   13.9   0.0     8    51   190   236   187   246 0.87 -
ID=PSME_00042059     -            910 95831at3193          -            258   2.3e-27   97.5  11.6   4   9     0.012       2.5    8.9   0.0     3    52   269   321   267   343 0.86 -
ID=PSME_00042059     -            910 95831at3193          -            258   2.3e-27   97.5  11.6   5   9    0.0051         1   10.1   0.0     2    52   387   440   386   452 0.86 -
ID=PSME_00042059     -            910 95831at3193          -            258   2.3e-27   97.5  11.6   6   9   3.8e-06   0.00075   20.4   0.1     3    76   473   547   471   551 0.79 -
ID=PSME_00042059     -            910 95831at3193          -            258   2.3e-27   97.5  11.6   7   9     0.012       2.5    8.9   0.0     3    52   560   612   558   634 0.86 -
ID=PSME_00042059     -            910 95831at3193          -            258   2.3e-27   97.5  11.6   8   9       4.4   8.9e+02    0.5   0.0     8    46   655   696   653   713 0.75 -
ID=PSME_00042059     -            910 95831at3193          -            258   2.3e-27   97.5  11.6   9   9     0.036       7.2    7.3   0.0     3    52   767   819   765   827 0.85 -
ID=PSME_00043755     -            540 95831at3193          -            258   9.7e-19   69.2   2.6   1   6     0.013       2.7    8.8   0.0     3    36    32    65    30    71 0.89 -
ID=PSME_00043755     -            540 95831at3193          -            258   9.7e-19   69.2   2.6   2   6       0.1        21    5.8   0.0     9    52    95   141    88   146 0.82 -
ID=PSME_00043755     -            540 95831at3193          -            258   9.7e-19   69.2   2.6   3   6   0.00087      0.17   12.6   0.0     9    51   161   206   157   215 0.86 -
ID=PSME_00043755     -            540 95831at3193          -            258   9.7e-19   69.2   2.6   4   6   3.8e-06   0.00077   20.3   0.1     3    67   226   291   224   303 0.77 -
ID=PSME_00043755     -            540 95831at3193          -            258   9.7e-19   69.2   2.6   5   6    0.0071       1.4    9.6   0.0     3    52   313   365   311   379 0.86 -
ID=PSME_00043755     -            540 95831at3193          -            258   9.7e-19   69.2   2.6   6   6     0.099        20    5.9   0.0     4    52   433   484   430   492 0.82 -
ID=PSME_00044500     -            681 95831at3193          -            258   3.8e-18   67.2   7.0   1   7   0.00071      0.14   12.9   0.0     3    67    32    97    30   109 0.76 -
ID=PSME_00044500     -            681 95831at3193          -            258   3.8e-18   67.2   7.0   2   7    0.0065       1.3    9.8   0.0     2    52   118   171   117   180 0.87 -
ID=PSME_00044500     -            681 95831at3193          -            258   3.8e-18   67.2   7.0   3   7      0.11        22    5.7   0.0     8    52   214   261   211   271 0.84 -
ID=PSME_00044500     -            681 95831at3193          -            258   3.8e-18   67.2   7.0   4   7   0.00039     0.079   13.8   0.0     8    51   273   319   269   343 0.84 -
ID=PSME_00044500     -            681 95831at3193          -            258   3.8e-18   67.2   7.0   5   7    0.0086       1.7    9.4   0.0     3    52   355   407   353   429 0.86 -
ID=PSME_00044500     -            681 95831at3193          -            258   3.8e-18   67.2   7.0   6   7     0.022       4.5    8.0   0.0     3    52   473   525   471   546 0.87 -
ID=PSME_00044500     -            681 95831at3193          -            258   3.8e-18   67.2   7.0   7   7      0.27        55    4.5   0.0     8    52   578   625   575   633 0.83 -
ID=PSME_00037546     -            337 95831at3193          -            258   1.3e-16   62.3   6.2   1   3   0.00059      0.12   13.2   0.1     2    61     7    70     6    90 0.82 -
ID=PSME_00037546     -            337 95831at3193          -            258   1.3e-16   62.3   6.2   2   3   9.4e-08   1.9e-05   25.6   0.2     2    48   110   154   109   159 0.89 -
ID=PSME_00037546     -            337 95831at3193          -            258   1.3e-16   62.3   6.2   3   3   9.4e-08   1.9e-05   25.6   0.2     2    48   258   302   257   307 0.89 -
ID=PSME_00055497     -            331 95831at3193          -            258   1.7e-16   61.8   6.0   1   3   0.00049     0.099   13.4   0.1     2    61     7    70     6   101 0.81 -
ID=PSME_00055497     -            331 95831at3193          -            258   1.7e-16   61.8   6.0   2   3   9.2e-08   1.8e-05   25.7   0.2     2    48   110   154   109   159 0.89 -
ID=PSME_00055497     -            331 95831at3193          -            258   1.7e-16   61.8   6.0   3   3   1.8e-07   3.7e-05   24.7   0.2     2    46   258   300   257   306 0.89 -
ID=PSME_00009120     -            689 95831at3193          -            258   1.1e-13   52.6   0.6   1   4   0.00024     0.048   14.5   0.0     3    49    72   122    70   131 0.81 -
ID=PSME_00009120     -            689 95831at3193          -            258   1.1e-13   52.6   0.6   2   4     0.065        13    6.5   0.0     3    55   160   216   158   231 0.73 -
ID=PSME_00009120     -            689 95831at3193          -            258   1.1e-13   52.6   0.6   3   4   0.00031     0.063   14.1   0.0     3    50   250   300   248   342 0.89 -
ID=PSME_00009120     -            689 95831at3193          -            258   1.1e-13   52.6   0.6   4   4   0.00081      0.16   12.7   0.0     3    50   353   403   351   420 0.84 -
ID=PSME_00029540     -           1113 95831at3193          -            258   2.7e-13   51.4   8.6   1   4    0.0083       1.7    9.4   0.1     2    61    20    83    19    90 0.79 -
ID=PSME_00029540     -           1113 95831at3193          -            258   2.7e-13   51.4   8.6   2   4    0.0022      0.44   11.3   0.1     3    48   112   153   110   158 0.88 -
ID=PSME_00029540     -           1113 95831at3193          -            258   2.7e-13   51.4   8.6   3   4    0.0042      0.85   10.4   0.1     2    61   353   416   352   421 0.80 -
ID=PSME_00029540     -           1113 95831at3193          -            258   2.7e-13   51.4   8.6   4   4   5.9e-07   0.00012   23.0   0.1     2    48   456   500   455   505 0.90 -
ID=PSME_00028090     -            744 95831at3193          -            258     4e-12   47.5   0.2   1   3   1.8e-07   3.6e-05   24.7   0.1     3    50   309   360   307   369 0.86 -
ID=PSME_00028090     -            744 95831at3193          -            258     4e-12   47.5   0.2   2   3     0.058        12    6.6   0.0     3    48   389   441   387   453 0.78 -
ID=PSME_00028090     -            744 95831at3193          -            258     4e-12   47.5   0.2   3   3    0.0012      0.23   12.2   0.0     3    48   486   534   484   541 0.87 -
ID=PSME_00011513     -            683 95831at3193          -            258   1.1e-11   46.0   0.3   1   4   0.00021     0.042   14.7   0.0     3    52    62   115    60   133 0.78 -
ID=PSME_00011513     -            683 95831at3193          -            258   1.1e-11   46.0   0.3   2   4      0.28        56    4.4   0.0     3    56   150   208   148   213 0.76 -
ID=PSME_00011513     -            683 95831at3193          -            258   1.1e-11   46.0   0.3   3   4   0.00042     0.085   13.7   0.0     3    52   241   293   239   331 0.86 -
ID=PSME_00011513     -            683 95831at3193          -            258   1.1e-11   46.0   0.3   4   4     0.018       3.6    8.3   0.0     2    50   343   394   342   401 0.84 -
ID=PSME_00049656     -            764 95831at3193          -            258   1.2e-11   46.0   0.1   1   3   1.7e-07   3.5e-05   24.8   0.1     3    50   270   321   268   330 0.86 -
ID=PSME_00049656     -            764 95831at3193          -            258   1.2e-11   46.0   0.1   2   3      0.09        18    6.0   0.0     3    55   350   411   348   415 0.75 -
ID=PSME_00049656     -            764 95831at3193          -            258   1.2e-11   46.0   0.1   3   3    0.0021      0.42   11.4   0.0     3    48   447   495   445   502 0.87 -
ID=PSME_00028723     -            654 95831at3193          -            258   1.2e-11   45.9   0.6   1   4   0.00088      0.18   12.6   0.0     3    52    24    77    22    91 0.79 -
ID=PSME_00028723     -            654 95831at3193          -            258   1.2e-11   45.9   0.6   2   4      0.36        72    4.1   0.0     3    56   112   170   110   174 0.80 -
ID=PSME_00028723     -            654 95831at3193          -            258   1.2e-11   45.9   0.6   3   4   3.9e-05    0.0078   17.1   0.0     3    52   203   255   201   264 0.86 -
ID=PSME_00028723     -            654 95831at3193          -            258   1.2e-11   45.9   0.6   4   4     0.034       6.8    7.4   0.0     3    50   307   357   305   398 0.82 -
ID=PSME_00026799     -            535 95831at3193          -            258   1.3e-11   45.8   0.0   1   3   1.5e-07     3e-05   25.0   0.0     3    74   142   212   140   216 0.91 -
ID=PSME_00026799     -            535 95831at3193          -            258   1.3e-11   45.8   0.0   2   3      0.23        46    4.7   0.0     2    36   218   253   217   255 0.91 -
ID=PSME_00026799     -            535 95831at3193          -            258   1.3e-11   45.8   0.0   3   3   0.00081      0.16   12.7   0.0     3    50   255   306   253   314 0.83 -
ID=PSME_00048146     -            345 95831at3193          -            258   1.5e-11   45.6   1.2   1   3   1.3e-05    0.0026   18.6   0.1     3    52    32    84    30   109 0.76 -
ID=PSME_00048146     -            345 95831at3193          -            258   1.5e-11   45.6   1.2   2   3    0.0033      0.66   10.7   0.0     3    52   119   171   117   193 0.86 -
ID=PSME_00048146     -            345 95831at3193          -            258   1.5e-11   45.6   1.2   3   3   0.00037     0.073   13.9   0.0     8    78   214   285   207   324 0.74 -
ID=PSME_00009925     -            417 95831at3193          -            258   3.3e-11   44.5   2.1   1   3    0.0016      0.32   11.8   0.1     2    61    19    82    18   100 0.80 -
ID=PSME_00009925     -            417 95831at3193          -            258   3.3e-11   44.5   2.1   2   3   2.9e-07   5.9e-05   24.0   0.1     2    48   122   166   121   171 0.90 -
ID=PSME_00009925     -            417 95831at3193          -            258   3.3e-11   44.5   2.1   3   3     0.046       9.2    7.0   0.0     3    31   311   339   309   399 0.89 -
ID=PSME_00052866     -            193 95831at3193          -            258   4.4e-11   44.1   2.2   1   3   2.5e-05    0.0049   17.7   0.1     2    61     6    68     5    80 0.79 -
ID=PSME_00052866     -            193 95831at3193          -            258   4.4e-11   44.1   2.2   2   3       2.2   4.4e+02    1.5   0.1   182   207    77   102    68   109 0.75 -
ID=PSME_00052866     -            193 95831at3193          -            258   4.4e-11   44.1   2.2   3   3   2.4e-07   4.9e-05   24.3   0.0     2    47   108   157   107   166 0.86 -
ID=PSME_00003492     -            734 95831at3193          -            258   4.6e-11   44.0   0.4   1   4   0.00035     0.071   13.9   0.0     3    52    36    89    34   102 0.80 -
ID=PSME_00003492     -            734 95831at3193          -            258   4.6e-11   44.0   0.4   2   4       2.1   4.3e+02    1.5   0.0     3    56   124   182   122   186 0.77 -
ID=PSME_00003492     -            734 95831at3193          -            258   4.6e-11   44.0   0.4   3   4   2.2e-06   0.00043   21.2   0.1     3    52   215   267   213   294 0.83 -
ID=PSME_00003492     -            734 95831at3193          -            258   4.6e-11   44.0   0.4   4   4       1.3   2.6e+02    2.2   0.0     3    51   318   369   316   380 0.78 -
ID=PSME_00013910     -            301 95831at3193          -            258   5.8e-11   43.7   0.7   1   3   1.8e-06   0.00036   21.4   0.0     3    74    18    90    16    95 0.77 -
ID=PSME_00013910     -            301 95831at3193          -            258   5.8e-11   43.7   0.7   2   3    0.0053       1.1   10.1   0.0     3    52   105   157   103   164 0.85 -
ID=PSME_00013910     -            301 95831at3193          -            258   5.8e-11   43.7   0.7   3   3     0.009       1.8    9.3   0.0     3    52   244   296   242   299 0.86 -
ID=PSME_00043503     -            524 95831at3193          -            258   9.8e-11   43.0   1.7   1   4       0.1        21    5.8   0.0     3    48   104   153   102   164 0.79 -
ID=PSME_00043503     -            524 95831at3193          -            258   9.8e-11   43.0   1.7   2   4     0.052        10    6.8   0.1     3    42   191   233   189   256 0.85 -
ID=PSME_00043503     -            524 95831at3193          -            258   9.8e-11   43.0   1.7   3   4   0.00049     0.099   13.4   0.0     3    60   303   360   301   365 0.84 -
ID=PSME_00043503     -            524 95831at3193          -            258   9.8e-11   43.0   1.7   4   4    0.0008      0.16   12.8   0.0     3    56   446   499   444   507 0.79 -
ID=PSME_00013908     -            334 95831at3193          -            258     1e-10   42.9   0.7   1   3   2.6e-06   0.00052   20.9   0.0     3    51    18    69    16    94 0.87 -
ID=PSME_00013908     -            334 95831at3193          -            258     1e-10   42.9   0.7   2   3     0.004       0.8   10.5   0.0     3    52   105   157   103   163 0.86 -
ID=PSME_00013908     -            334 95831at3193          -            258     1e-10   42.9   0.7   3   3     0.014       2.9    8.6   0.0     3    52   226   278   224   287 0.84 -
ID=PSME_00012696     -            518 95831at3193          -            258   1.2e-10   42.7   2.0   1   3   5.1e-08     1e-05   26.5   0.0     2    72   141   210   140   215 0.89 -
ID=PSME_00012696     -            518 95831at3193          -            258   1.2e-10   42.7   2.0   2   3    0.0008      0.16   12.7   0.0     2    54   218   278   217   286 0.81 -
ID=PSME_00012696     -            518 95831at3193          -            258   1.2e-10   42.7   2.0   3   3       3.5     7e+02    0.8   0.0     3    36   310   343   308   347 0.88 -
ID=PSME_00055839     -            763 95831at3193          -            258   1.2e-10   42.6   0.1   1   3   2.9e-06   0.00058   20.8   0.0     3    56   255   314   253   319 0.80 -
ID=PSME_00055839     -            763 95831at3193          -            258   1.2e-10   42.6   0.1   2   3      0.35        70    4.1   0.0     3    56   335   397   333   400 0.74 -
ID=PSME_00055839     -            763 95831at3193          -            258   1.2e-10   42.6   0.1   3   3   0.00043     0.086   13.6   0.0     3    48   432   480   430   490 0.87 -
ID=PSME_00006978     -            861 95831at3193          -            258   1.3e-10   42.5   0.1   1   3   1.3e-06   0.00026   21.9   0.0     3    50   267   318   265   323 0.87 -
ID=PSME_00006978     -            861 95831at3193          -            258   1.3e-10   42.5   0.1   2   3     0.069        14    6.4   0.0     3    51   347   402   345   410 0.83 -
ID=PSME_00006978     -            861 95831at3193          -            258   1.3e-10   42.5   0.1   3   3    0.0043      0.86   10.4   0.0     3    49   444   494   442   499 0.86 -
ID=PSME_00019422     -            389 95831at3193          -            258   1.7e-10   42.2   0.4   1   2   1.9e-05    0.0039   18.1   0.1     2    51   163   216   162   236 0.81 -
ID=PSME_00019422     -            389 95831at3193          -            258   1.7e-10   42.2   0.4   2   2   8.9e-07   0.00018   22.4   0.0     2    76   271   347   270   350 0.88 -
ID=PSME_00029035     -            786 95831at3193          -            258   3.2e-10   41.3   0.1   1   3   2.5e-06   0.00051   20.9   0.0     3    56   255   314   253   318 0.79 -
ID=PSME_00029035     -            786 95831at3193          -            258   3.2e-10   41.3   0.1   2   3      0.83   1.7e+02    2.9   0.0     3    55   335   396   333   400 0.73 -
ID=PSME_00029035     -            786 95831at3193          -            258   3.2e-10   41.3   0.1   3   3   0.00045     0.089   13.6   0.0     3    48   432   480   430   490 0.87 -
ID=PSME_00022495     -            396 95831at3193          -            258   3.2e-10   41.3   1.1   1   2   0.00072      0.14   12.9   0.1     2    45     7    54     6    62 0.83 -
ID=PSME_00022495     -            396 95831at3193          -            258   3.2e-10   41.3   1.1   2   2   2.9e-08   5.8e-06   27.3   0.1     2    56   102   158   101   167 0.78 -
ID=PSME_00045780     -            699 95831at3193          -            258   5.2e-10   40.6   0.1   1   3   3.1e-07   6.2e-05   23.9   0.1     3    90   185   271   183   277 0.65 -
ID=PSME_00045780     -            699 95831at3193          -            258   5.2e-10   40.6   0.1   2   3      0.54   1.1e+02    3.5   0.0     3    48   259   311   257   321 0.81 -
ID=PSME_00045780     -            699 95831at3193          -            258   5.2e-10   40.6   0.1   3   3    0.0034      0.67   10.7   0.0     3    48   356   405   354   412 0.84 -
ID=PSME_00051191     -            639 95831at3193          -            258     1e-09   39.6   0.5   1   4    0.0042      0.84   10.4   0.0     3    52    37    86    35    95 0.86 -
ID=PSME_00051191     -            639 95831at3193          -            258     1e-09   39.6   0.5   2   4         2     4e+02    1.6   0.0     3    45   123   169   121   185 0.74 -
ID=PSME_00051191     -            639 95831at3193          -            258     1e-09   39.6   0.5   3   4   2.2e-05    0.0043   17.9   0.0     2    59   223   280   222   285 0.86 -
ID=PSME_00051191     -            639 95831at3193          -            258     1e-09   39.6   0.5   4   4      0.22        43    4.8   0.0     3    59   396   452   394   457 0.84 -
ID=PSME_00014774     -            221 95831at3193          -            258   1.2e-09   39.4   0.6   1   2    0.0024      0.48   11.2   0.0     2    61    19    82    18   108 0.80 -
ID=PSME_00014774     -            221 95831at3193          -            258   1.2e-09   39.4   0.6   2   2     4e-08   7.9e-06   26.9   0.1     2    48   122   166   121   172 0.91 -
ID=PSME_00048649     -            502 95831at3193          -            258     2e-09   38.6   0.6   1   2    0.0028      0.56   11.0   0.1     2    46    25    73    24    81 0.77 -
ID=PSME_00048649     -            502 95831at3193          -            258     2e-09   38.6   0.6   2   2   6.4e-08   1.3e-05   26.2   0.1     2    58   125   187   124   193 0.78 -
ID=PSME_00049939     -            378 95831at3193          -            258   2.2e-09   38.5   1.5   1   2    0.0009      0.18   12.6   0.1     2    61    45   108    44   135 0.81 -
ID=PSME_00049939     -            378 95831at3193          -            258   2.2e-09   38.5   1.5   2   2   1.3e-07   2.6e-05   25.2   0.2     2    48   148   197   147   203 0.84 -
ID=PSME_00019347     -            467 95831at3193          -            258   2.2e-09   38.5   0.0   1   2   3.3e-07   6.6e-05   23.8   0.0     3    93   107   202   105   222 0.83 -
ID=PSME_00019347     -            467 95831at3193          -            258   2.2e-09   38.5   0.0   2   2    0.0011      0.22   12.3   0.0     3    47   223   271   221   281 0.84 -
ID=PSME_00053276     -            494 95831at3193          -            258   3.3e-09   37.9   0.3   1   2   0.00047     0.095   13.5   0.0     2    49    22    73    21    80 0.82 -
ID=PSME_00053276     -            494 95831at3193          -            258   3.3e-09   37.9   0.3   2   2   7.8e-07   0.00016   22.6   0.0     2    58   126   188   125   192 0.79 -
ID=PSME_00014775     -            204 95831at3193          -            258   4.2e-09   37.6   0.9   1   2    0.0056       1.1   10.0   0.0     2    61     7    70     6    97 0.83 -
ID=PSME_00014775     -            204 95831at3193          -            258   4.2e-09   37.6   0.9   2   2   5.1e-08     1e-05   26.5   0.1     2    48   110   154   109   160 0.90 -
ID=PSME_00030979     -            417 95831at3193          -            258   4.2e-09   37.6   0.1   1   2   1.7e-07   3.5e-05   24.7   0.0     2    73   117   190   116   192 0.86 -
ID=PSME_00030979     -            417 95831at3193          -            258   4.2e-09   37.6   0.1   2   2    0.0035       0.7   10.7   0.0     2    75   220   295   219   298 0.84 -
ID=PSME_00014777     -            393 95831at3193          -            258   4.2e-09   37.6   1.2   1   2     0.002       0.4   11.4   0.1     2    61    45   108    44   110 0.77 -
ID=PSME_00014777     -            393 95831at3193          -            258   4.2e-09   37.6   1.2   2   2   1.4e-07   2.8e-05   25.0   0.1     2    48   136   180   135   185 0.90 -
ID=PSME_00045508     -            381 95831at3193          -            258   4.6e-09   37.5   2.5   1   2    0.0012      0.24   12.2   0.2     2    61     7    70     6    81 0.80 -
ID=PSME_00045508     -            381 95831at3193          -            258   4.6e-09   37.5   2.5   2   2   1.4e-07   2.8e-05   25.1   0.1     2    48   110   154   109   166 0.89 -
ID=PSME_00055980     -            389 95831at3193          -            258   5.8e-09   37.1   2.0   1   2     0.002      0.41   11.4   0.1     2    61     7    70     6    71 0.76 -
ID=PSME_00055980     -            389 95831at3193          -            258   5.8e-09   37.1   2.0   2   2   1.2e-07   2.4e-05   25.3   0.2     2    48   144   188   143   194 0.89 -
ID=PSME_00016171     -            575 95831at3193          -            258   6.4e-09   37.0   0.5   1   2   5.8e-07   0.00012   23.0   0.1     3    93    27   121    25   130 0.79 -
ID=PSME_00016171     -            575 95831at3193          -            258   6.4e-09   37.0   0.5   2   2    0.0032      0.64   10.8   0.0     4    58   210   262   207   306 0.86 -
ID=PSME_00045509     -            366 95831at3193          -            258   8.1e-09   36.7   1.4   1   2    0.0042      0.84   10.4   0.1     2    48     7    57     6   101 0.79 -
ID=PSME_00045509     -            366 95831at3193          -            258   8.1e-09   36.7   1.4   2   2   1.1e-07   2.1e-05   25.5   0.2     2    48   114   158   113   163 0.89 -
ID=PSME_00024651     -            295 95831at3193          -            258   8.5e-09   36.6   0.2   1   2   2.5e-05    0.0051   17.7   0.1     2    51   118   171   117   191 0.79 -
ID=PSME_00024651     -            295 95831at3193          -            258   8.5e-09   36.6   0.2   2   2   3.9e-05    0.0079   17.0   0.0     2    62   218   280   217   284 0.79 -
ID=PSME_00045323     -            253 95831at3193          -            258   9.5e-09   36.4   1.7   1   2    0.0058       1.2    9.9   0.1     2    61    36    99    35   127 0.80 -
ID=PSME_00045323     -            253 95831at3193          -            258   9.5e-09   36.4   1.7   2   2   7.2e-08   1.5e-05   26.0   0.3     2    48   139   188   138   194 0.84 -
ID=PSME_00054963     -            194 95831at3193          -            258   1.2e-08   36.1   1.5   1   2   7.4e-05     0.015   16.1   0.1     3    46     8    54     6    80 0.83 -
ID=PSME_00054963     -            194 95831at3193          -            258   1.2e-08   36.1   1.5   2   2   9.7e-06    0.0019   19.0   0.1     2    48   109   159   108   164 0.85 -
ID=PSME_00002581     -            486 95831at3193          -            258   1.2e-08   36.1   0.2   1   2    0.0011      0.23   12.3   0.0     2    45    66   113    65   130 0.80 -
ID=PSME_00002581     -            486 95831at3193          -            258   1.2e-08   36.1   0.2   2   2   1.5e-06   0.00031   21.6   0.1     2    49   163   214   162   231 0.78 -
ID=PSME_00016824     -            508 95831at3193          -            258   1.3e-08   36.0   0.6   1   3       3.6   7.2e+02    0.8   0.0     7    50     3    50     1    57 0.76 -
ID=PSME_00016824     -            508 95831at3193          -            258   1.3e-08   36.0   0.6   2   3   0.00048     0.096   13.5   0.0     1    59    85   145    85   159 0.88 -
ID=PSME_00016824     -            508 95831at3193          -            258   1.3e-08   36.0   0.6   3   3   1.5e-05     0.003   18.4   0.2     2    46   263   311   262   317 0.87 -
ID=PSME_00011842     -            459 95831at3193          -            258   1.3e-08   36.0   0.5   1   2     0.002      0.39   11.5   0.1     2    46     7    55     6    67 0.83 -
ID=PSME_00011842     -            459 95831at3193          -            258   1.3e-08   36.0   0.5   2   2     6e-07   0.00012   23.0   0.0     2    62   107   173   106   175 0.77 -
ID=PSME_00001372     -            562 95831at3193          -            258   2.5e-08   35.0   0.6   1   2    0.0055       1.1   10.0   0.1     2    45    93   140    92   147 0.79 -
ID=PSME_00001372     -            562 95831at3193          -            258   2.5e-08   35.0   0.6   2   2   4.4e-07   8.9e-05   23.4   0.1     2    57   200   261   199   265 0.80 -
ID=PSME_00023415     -            422 95831at3193          -            258   2.6e-08   35.0   0.5   1   2    0.0024      0.49   11.2   0.0     2    46    97   145    96   155 0.79 -
ID=PSME_00023415     -            422 95831at3193          -            258   2.6e-08   35.0   0.5   2   2     1e-06    0.0002   22.2   0.1     2    74   185   259   184   263 0.75 -
ID=PSME_00049845     -            339 95831at3193          -            258     3e-08   34.8   0.3   1   2    0.0013      0.25   12.1   0.0     2    36   170   204   169   231 0.81 -
ID=PSME_00049845     -            339 95831at3193          -            258     3e-08   34.8   0.3   2   2   2.5e-06    0.0005   21.0   0.1     2    45   267   314   266   334 0.78 -
ID=PSME_00045099     -            758 95831at3193          -            258   3.8e-08   34.5   0.2   1   2   1.4e-05    0.0029   18.5   0.1     3    92   205   298   203   310 0.67 -
ID=PSME_00045099     -            758 95831at3193          -            258   3.8e-08   34.5   0.2   2   2   0.00065      0.13   13.0   0.0     3    48   381   430   379   437 0.84 -
ID=PSME_00013905     -            489 95831at3193          -            258   4.3e-08   34.3   6.7   1   4     0.024       4.7    7.9   0.0     3    52    70   122    68   132 0.84 -
ID=PSME_00013905     -            489 95831at3193          -            258   4.3e-08   34.3   6.7   2   4     0.024       4.8    7.9   0.1    15    67   139   192   130   204 0.74 -
ID=PSME_00013905     -            489 95831at3193          -            258   4.3e-08   34.3   6.7   3   4    0.0066       1.3    9.8   0.1     3    52   214   266   212   274 0.86 -
ID=PSME_00013905     -            489 95831at3193          -            258   4.3e-08   34.3   6.7   4   4     0.013       2.5    8.8   0.0     3    52   389   441   387   460 0.85 -
ID=PSME_00049035     -            392 95831at3193          -            258   4.4e-08   34.2   1.2   1   4     0.089        18    6.0   0.0     3    48    53   102    51   113 0.79 -
ID=PSME_00049035     -            392 95831at3193          -            258   4.4e-08   34.2   1.2   2   4    0.0089       1.8    9.3   0.0     3    42   140   182   138   212 0.82 -
ID=PSME_00049035     -            392 95831at3193          -            258   4.4e-08   34.2   1.2   3   4    0.0002      0.04   14.7   0.0     3    59   245   301   243   306 0.86 -
ID=PSME_00049035     -            392 95831at3193          -            258   4.4e-08   34.2   1.2   4   4       9.4   1.9e+03   -0.6   0.0     3    18   372   387   370   390 0.83 -
ID=PSME_00056827     -            478 95831at3193          -            258   4.5e-08   34.2   0.3   1   4       1.1   2.2e+02    2.5   0.0     3    55    37    95    35   101 0.74 -
ID=PSME_00056827     -            478 95831at3193          -            258   4.5e-08   34.2   0.3   2   4       3.7   7.5e+02    0.7   0.0     3    34   127   159   125   169 0.82 -
ID=PSME_00056827     -            478 95831at3193          -            258   4.5e-08   34.2   0.3   3   4   5.7e-05     0.011   16.5   0.1     2    56   229   283   228   290 0.78 -
ID=PSME_00056827     -            478 95831at3193          -            258   4.5e-08   34.2   0.3   4   4     0.009       1.8    9.3   0.0     3    59   356   412   354   417 0.82 -
ID=PSME_00002580     -            559 95831at3193          -            258   4.9e-08   34.1   0.6   1   2    0.0011      0.23   12.2   0.1     2    45     7    54     6    66 0.82 -
ID=PSME_00002580     -            559 95831at3193          -            258   4.9e-08   34.1   0.6   2   2   4.1e-06   0.00082   20.3   0.1     2    48   105   155   104   174 0.77 -
ID=PSME_00028573     -            600 95831at3193          -            258   7.4e-08   33.5   0.2   1   2     2e-07   3.9e-05   24.6   0.0     3    50   327   378   325   396 0.83 -
ID=PSME_00028573     -            600 95831at3193          -            258   7.4e-08   33.5   0.2   2   2       0.2        41    4.9   0.0     3    56   407   469   405   472 0.73 -
ID=PSME_00024465     -            346 95831at3193          -            258   1.2e-07   32.8   2.3   1   2    0.0074       1.5    9.6   0.1     2    45     7    54     6    61 0.76 -
ID=PSME_00024465     -            346 95831at3193          -            258   1.2e-07   32.8   2.3   2   2   6.1e-07   0.00012   23.0   0.2     2    48    75   119    74   124 0.89 -
ID=PSME_00036480     -            332 95831at3193          -            258   1.3e-07   32.7   0.5   1   3     0.056        11    6.7   0.0     3    48    18    67    16    78 0.79 -
ID=PSME_00036480     -            332 95831at3193          -            258   1.3e-07   32.7   0.5   2   3    0.0081       1.6    9.4   0.0     3    42   105   147   103   176 0.84 -
ID=PSME_00036480     -            332 95831at3193          -            258   1.3e-07   32.7   0.5   3   3   0.00065      0.13   13.1   0.1     3    39   213   249   211   265 0.82 -
ID=PSME_00056244     -            387 95831at3193          -            258   1.6e-07   32.5   0.2   1   3    0.0089       1.8    9.3   0.0     3    62    62   123    60   126 0.77 -
ID=PSME_00056244     -            387 95831at3193          -            258   1.6e-07   32.5   0.2   2   3     0.034       6.8    7.4   0.0     3    42   152   194   150   224 0.82 -
ID=PSME_00056244     -            387 95831at3193          -            258   1.6e-07   32.5   0.2   3   3    0.0012      0.23   12.2   0.0     3    56   261   314   259   329 0.87 -
ID=PSME_00040968     -            379 95831at3193          -            258   1.7e-07   32.4   0.4   1   2    0.0024      0.47   11.2   0.0     2    46    33    81    32    91 0.80 -
ID=PSME_00040968     -            379 95831at3193          -            258   1.7e-07   32.4   0.4   2   2   7.3e-06    0.0015   19.4   0.1     2    56   120   176   119   194 0.82 -
ID=PSME_00028265     -            404 95831at3193          -            258   1.8e-07   32.3   0.4   1   2    0.0026      0.52   11.1   0.0     2    46    57   105    56   115 0.80 -
ID=PSME_00028265     -            404 95831at3193          -            258   1.8e-07   32.3   0.4   2   2   7.3e-06    0.0015   19.4   0.1     2    57   144   201   143   219 0.81 -
ID=PSME_00023748     -            293 95831at3193          -            258   1.8e-07   32.3   0.3   1   2   1.4e-05    0.0029   18.5   0.1     2    51   121   174   120   188 0.82 -
ID=PSME_00023748     -            293 95831at3193          -            258   1.8e-07   32.3   0.3   2   2    0.0012      0.24   12.2   0.0     2    53   229   282   228   293 0.78 -
ID=PSME_00044178     -            403 95831at3193          -            258   2.4e-07   31.9   0.2   1   2    0.0053       1.1   10.0   0.0     2    45    66   113    65   124 0.78 -
ID=PSME_00044178     -            403 95831at3193          -            258   2.4e-07   31.9   0.2   2   2   4.8e-06   0.00097   20.0   0.0     2    58   153   211   152   230 0.78 -
ID=PSME_00043504     -            400 95831at3193          -            258   2.5e-07   31.8   0.5   1   3      0.14        28    5.4   0.0     3    48    41    90    39   101 0.79 -
ID=PSME_00043504     -            400 95831at3193          -            258   2.5e-07   31.8   0.5   2   3     0.031       6.1    7.6   0.1     3    42   128   170   126   196 0.83 -
ID=PSME_00043504     -            400 95831at3193          -            258   2.5e-07   31.8   0.5   3   3   0.00011     0.023   15.5   0.0     3    60   244   301   242   306 0.84 -
ID=PSME_00006298     -            381 95831at3193          -            258   2.5e-07   31.8   0.4   1   2     0.016       3.2    8.5   0.0     2    46    51    99    50   109 0.79 -
ID=PSME_00006298     -            381 95831at3193          -            258   2.5e-07   31.8   0.4   2   2   1.5e-06    0.0003   21.7   0.1     2    48   139   189   138   203 0.82 -
ID=PSME_00051262     -            442 95831at3193          -            258   2.7e-07   31.7   0.3   1   3      0.11        21    5.8   0.0     3    48   112   161   110   172 0.79 -
ID=PSME_00051262     -            442 95831at3193          -            258   2.7e-07   31.7   0.3   2   3     0.012       2.4    8.9   0.0     3    42   199   241   197   271 0.82 -
ID=PSME_00051262     -            442 95831at3193          -            258   2.7e-07   31.7   0.3   3   3   0.00062      0.12   13.1   0.0     3    59   305   361   303   365 0.86 -
ID=PSME_00029244     -            871 95831at3193          -            258   2.7e-07   31.7   0.0   1   3   3.1e-07   6.3e-05   23.9   0.0     3    49   216   266   214   277 0.84 -
ID=PSME_00029244     -            871 95831at3193          -            258   2.7e-07   31.7   0.0   2   3       4.1   8.3e+02    0.6   0.0     3    48   296   348   294   359 0.76 -
ID=PSME_00029244     -            871 95831at3193          -            258   2.7e-07   31.7   0.0   3   3      0.93   1.9e+02    2.7   0.0     3    50   393   444   391   448 0.82 -
ID=PSME_00026439     -            548 95831at3193          -            258   2.8e-07   31.6   0.1   1   3     5e-07    0.0001   23.2   0.0     3    56    29    88    27    92 0.81 -
ID=PSME_00026439     -            548 95831at3193          -            258   2.8e-07   31.6   0.1   2   3      0.24        48    4.6   0.0     3    49   109   162   107   174 0.75 -
ID=PSME_00026439     -            548 95831at3193          -            258   2.8e-07   31.6   0.1   3   3       9.1   1.8e+03   -0.5   0.0     3    48   206   248   204   265 0.72 -
ID=PSME_00041420     -            385 95831at3193          -            258   2.9e-07   31.6   0.1   1   2    0.0031      0.62   10.8   0.0     2    46    49    97    48   130 0.85 -
ID=PSME_00041420     -            385 95831at3193          -            258   2.9e-07   31.6   0.1   2   2   1.1e-05    0.0021   18.9   0.0     2    48   167   217   166   245 0.79 -
ID=PSME_00013909     -            213 95831at3193          -            258   3.2e-07   31.4   0.2   1   2   4.4e-07   8.9e-05   23.4   0.1     3    76    18    92    16    95 0.80 -
ID=PSME_00013909     -            213 95831at3193          -            258   3.2e-07   31.4   0.2   2   2     0.076        15    6.3   0.0     3    52   105   157   103   165 0.80 -
ID=PSME_00007478     -            380 95831at3193          -            258   3.3e-07   31.4   0.9   1   2     0.038       7.6    7.3   0.1     2    51   161   209   160   219 0.83 -
ID=PSME_00007478     -            380 95831at3193          -            258   3.3e-07   31.4   0.9   2   2   1.2e-06   0.00024   22.0   0.0     2    76   263   339   262   342 0.85 -
ID=PSME_00009463     -             84 95831at3193          -            258   3.3e-07   31.4   0.0   1   1   1.8e-09   3.6e-07   31.3   0.0     3    50    16    67    14    80 0.84 -
ID=PSME_00045740     -            496 95831at3193          -            258   3.6e-07   31.2   0.8   1   2     0.012       2.4    8.9   0.0     3    46     8    55     6    81 0.83 -
ID=PSME_00045740     -            496 95831at3193          -            258   3.6e-07   31.2   0.8   2   2   2.3e-06   0.00046   21.1   0.1     2    47   109   158   108   165 0.82 -
ID=PSME_00000112     -            696 95831at3193          -            258   4.6e-07   30.9   0.3   1   3   8.1e-05     0.016   16.0   0.0     3    48   121   166   119   184 0.89 -
ID=PSME_00000112     -            696 95831at3193          -            258   4.6e-07   30.9   0.3   2   3      0.25        50    4.6   0.0     3    50   206   257   204   266 0.80 -
ID=PSME_00000112     -            696 95831at3193          -            258   4.6e-07   30.9   0.3   3   3     0.057        11    6.7   0.0    10    54   442   486   434   499 0.79 -
ID=PSME_00051386     -            454 95831at3193          -            258     5e-07   30.8   0.3   1   3     0.096        19    5.9   0.0     3    48   109   158   107   169 0.79 -
ID=PSME_00051386     -            454 95831at3193          -            258     5e-07   30.8   0.3   2   3     0.022       4.4    8.0   0.0     3    42   196   238   194   267 0.81 -
ID=PSME_00051386     -            454 95831at3193          -            258     5e-07   30.8   0.3   3   3   0.00061      0.12   13.1   0.0     3    59   306   362   304   367 0.86 -
ID=PSME_00019974     -            367 95831at3193          -            258   6.9e-07   30.3   0.1   1   2    0.0011      0.22   12.3   0.0     2    53    70   127    69   136 0.79 -
ID=PSME_00019974     -            367 95831at3193          -            258   6.9e-07   30.3   0.1   2   2   9.2e-05     0.019   15.8   0.0     2    49   160   211   159   219 0.80 -
ID=PSME_00021842     -            381 95831at3193          -            258   7.8e-07   30.2   0.1   1   3      0.24        48    4.6   0.0     3    53    54   108    52   122 0.80 -
ID=PSME_00021842     -            381 95831at3193          -            258   7.8e-07   30.2   0.1   2   3     0.058        12    6.7   0.0     3    50   145   197   143   211 0.75 -
ID=PSME_00021842     -            381 95831at3193          -            258   7.8e-07   30.2   0.1   3   3   0.00013     0.026   15.3   0.0     3    54   244   295   242   303 0.84 -
ID=PSME_00036007     -            767 95831at3193          -            258   7.9e-07   30.2   0.1   1   2     3e-05    0.0059   17.4   0.1     3    92   213   306   211   318 0.67 -
ID=PSME_00036007     -            767 95831at3193          -            258   7.9e-07   30.2   0.1   2   2    0.0056       1.1   10.0   0.0     3    47   390   438   388   446 0.84 -
ID=PSME_00011241     -            431 95831at3193          -            258   8.1e-07   30.1   2.8   1   3     0.021       4.1    8.1   0.0     3    63    95   157    93   160 0.82 -
ID=PSME_00011241     -            431 95831at3193          -            258   8.1e-07   30.1   2.8   2   3      0.32        65    4.2   0.0     3    45   188   235   186   261 0.75 -
ID=PSME_00011241     -            431 95831at3193          -            258   8.1e-07   30.1   2.8   3   3   8.9e-05     0.018   15.9   0.0     3    58   300   355   298   358 0.94 -
ID=PSME_00039552     -            467 95831at3193          -            258   1.1e-06   29.6   1.1   1   2    0.0067       1.3    9.7   0.1     2    43     9    54     8    66 0.80 -
ID=PSME_00039552     -            467 95831at3193          -            258   1.1e-06   29.6   1.1   2   2   1.2e-05    0.0025   18.7   0.2     2    62   109   175   108   179 0.78 -
ID=PSME_00051190     -            645 95831at3193          -            258   1.8e-06   29.0   1.2   1   4      0.36        71    4.1   0.0     3    61    37    97    35   100 0.71 -
ID=PSME_00051190     -            645 95831at3193          -            258   1.8e-06   29.0   1.2   2   4       2.2   4.5e+02    1.5   0.0     3    45   127   173   125   188 0.73 -
ID=PSME_00051190     -            645 95831at3193          -            258   1.8e-06   29.0   1.2   3   4   5.6e-05     0.011   16.5   0.0     2    59   227   284   226   289 0.86 -
ID=PSME_00051190     -            645 95831at3193          -            258   1.8e-06   29.0   1.2   4   4      0.99     2e+02    2.6   0.0     5    59   403   457   399   461 0.77 -
ID=PSME_00033387     -            330 95831at3193          -            258   2.4e-06   28.5   0.1   1   3       3.2   6.4e+02    0.9   0.0     3    51    53   105    51   120 0.75 -
ID=PSME_00033387     -            330 95831at3193          -            258   2.4e-06   28.5   0.1   2   3     0.028       5.7    7.7   0.0     3    52   143   197   141   222 0.76 -
ID=PSME_00033387     -            330 95831at3193          -            258   2.4e-06   28.5   0.1   3   3   6.8e-05     0.014   16.2   0.0     3    54   242   293   240   301 0.84 -
ID=PSME_00044511     -            372 95831at3193          -            258   2.8e-06   28.4   0.0   1   2    0.0084       1.7    9.4   0.0     2    49    70   121    69   132 0.81 -
ID=PSME_00044511     -            372 95831at3193          -            258   2.8e-06   28.4   0.0   2   2   4.4e-05    0.0089   16.9   0.0     2    49   160   211   159   223 0.82 -
ID=PSME_00035988     -            691 95831at3193          -            258   2.8e-06   28.4   4.4   1   2   4.1e-06   0.00082   20.3   0.1     3    50   202   253   200   263 0.85 -
ID=PSME_00035988     -            691 95831at3193          -            258   2.8e-06   28.4   4.4   2   2    0.0099         2    9.2   0.0     3    48   349   398   347   405 0.84 -
ID=PSME_00021616     -           1116 95831at3193          -            258     5e-06   27.5   0.0   1   2    0.0001     0.021   15.7   0.0     3    47   331   379   329   387 0.84 -
ID=PSME_00021616     -           1116 95831at3193          -            258     5e-06   27.5   0.0   2   2    0.0083       1.7    9.4   0.0     4    57   496   551   493   574 0.77 -
ID=PSME_00048152     -            255 95831at3193          -            258     5e-06   27.5   0.3   1   2    0.0021      0.42   11.4   0.0     7    57     9    63     2    66 0.72 -
ID=PSME_00048152     -            255 95831at3193          -            258     5e-06   27.5   0.3   2   2   0.00028     0.056   14.3   0.0     3    53    85   140    83   179 0.82 -
ID=PSME_00030369     -            190 95831at3193          -            258   6.6e-06   27.1   0.2   1   1   5.3e-08   1.1e-05   26.5   0.2     2    48   111   155   110   161 0.89 -
ID=PSME_00033491     -            479 95831at3193          -            258   6.9e-06   27.1   0.2   1   3     0.068        14    6.4   0.0     3    62   178   239   176   242 0.77 -
ID=PSME_00033491     -            479 95831at3193          -            258   6.9e-06   27.1   0.2   2   3       0.1        20    5.9   0.0     3    49   267   318   265   344 0.71 -
ID=PSME_00033491     -            479 95831at3193          -            258   6.9e-06   27.1   0.2   3   3    0.0025      0.51   11.1   0.0     3    56   407   460   405   468 0.78 -
ID=PSME_00033384     -            493 95831at3193          -            258   9.2e-06   26.6   0.6   1   3      0.09        18    6.0   0.0     3    62   211   272   209   275 0.80 -
ID=PSME_00033384     -            493 95831at3193          -            258   9.2e-06   26.6   0.6   2   3     0.095        19    6.0   0.0     3    42   300   342   298   366 0.85 -
ID=PSME_00033384     -            493 95831at3193          -            258   9.2e-06   26.6   0.6   3   3    0.0022      0.44   11.3   0.1     3    57   405   459   403   465 0.79 -
ID=PSME_00043505     -            208 95831at3193          -            258     1e-05   26.5   0.4   1   2    0.0036      0.73   10.6   0.0     3    42    34    76    32   106 0.83 -
ID=PSME_00043505     -            208 95831at3193          -            258     1e-05   26.5   0.4   2   2   0.00026     0.053   14.3   0.1     3    37   144   178   142   191 0.82 -
ID=PSME_00029924     -            413 95831at3193          -            258   1.3e-05   26.2   0.3   1   2   0.00065      0.13   13.0   0.0     3    50    33    82    31    94 0.81 -
ID=PSME_00029924     -            413 95831at3193          -            258   1.3e-05   26.2   0.3   2   2    0.0029      0.57   10.9   0.1     3    47   123   170   121   175 0.88 -
ID=PSME_00002450     -            393 95831at3193          -            258   2.1e-05   25.5   8.0   1   2     0.009       1.8    9.3   0.0     2    46    63   111    62   120 0.80 -
ID=PSME_00002450     -            393 95831at3193          -            258   2.1e-05   25.5   8.0   2   2   2.3e-06   0.00046   21.1   0.0     2    52   150   202   149   227 0.78 -
ID=PSME_00027127     -            766 95831at3193          -            258   2.8e-05   25.1  10.5   1   3     4e-07     8e-05   23.6   0.2     3    98   259   359   257   363 0.80 -
ID=PSME_00027127     -            766 95831at3193          -            258   2.8e-05   25.1  10.5   2   3      0.62   1.2e+02    3.3   0.0     3    52   339   395   337   399 0.78 -
ID=PSME_00027127     -            766 95831at3193          -            258   2.8e-05   25.1  10.5   3   3     0.054        11    6.7   0.0     3    48   436   485   434   497 0.81 -
ID=PSME_00033559     -            232 95831at3193          -            258   2.9e-05   25.0   0.5   1   3      0.15        31    5.3   0.0    17    79     6    63     1    67 0.75 -
ID=PSME_00033559     -            232 95831at3193          -            258   2.9e-05   25.0   0.5   2   3      0.31        63    4.2   0.0     3    42    82   124    80   146 0.74 -
ID=PSME_00033559     -            232 95831at3193          -            258   2.9e-05   25.0   0.5   3   3   0.00085      0.17   12.7   0.0     3    41   181   219   179   231 0.84 -
ID=PSME_00021843     -            387 95831at3193          -            258   3.1e-05   24.9   0.1   1   3      0.74   1.5e+02    3.0   0.0     3    53    79   133    77   146 0.77 -
ID=PSME_00021843     -            387 95831at3193          -            258   3.1e-05   24.9   0.1   2   3     0.059        12    6.6   0.0     3    50   170   222   168   236 0.75 -
ID=PSME_00021843     -            387 95831at3193          -            258   3.1e-05   24.9   0.1   3   3    0.0016      0.33   11.7   0.0     3    54   269   320   267   328 0.84 -
ID=PSME_00013250     -            794 95831at3193          -            258   3.4e-05   24.8   0.0   1   1   5.2e-07   0.00011   23.2   0.0     3    51   275   327   273   378 0.86 -
ID=PSME_00040160     -            336 95831at3193          -            258   3.8e-05   24.6   0.2   1   2      0.23        46    4.7   0.0     2    35    26    59    25    77 0.81 -
ID=PSME_00040160     -            336 95831at3193          -            258   3.8e-05   24.6   0.2   2   2   1.8e-05    0.0036   18.1   0.1     2    77   114   191   113   193 0.88 -
ID=PSME_00030368     -            268 95831at3193          -            258   3.8e-05   24.6   0.3   1   1   2.9e-07   5.9e-05   24.0   0.3     2    47   116   159   115   166 0.86 -
ID=PSME_00036531     -            123 95831at3193          -            258   4.3e-05   24.5   0.0   1   1   2.6e-07   5.2e-05   24.2   0.0     3    76    53   122    51   123 0.93 -
ID=PSME_00051821     -            443 95831at3193          -            258   6.8e-05   23.8   0.3   1   2    0.0015      0.31   11.8   0.1     3    37   182   214   180   229 0.77 -
ID=PSME_00051821     -            443 95831at3193          -            258   6.8e-05   23.8   0.3   2   2    0.0057       1.2    9.9   0.0     3    48   245   294   243   301 0.84 -
ID=PSME_00006612     -            467 95831at3193          -            258   7.8e-05   23.6   0.1   1   3    0.0096       1.9    9.2   0.0     3    48     8    53     6    61 0.85 -
ID=PSME_00006612     -            467 95831at3193          -            258   7.8e-05   23.6   0.1   2   3       0.9   1.8e+02    2.8   0.0    12    50   117   154   109   173 0.75 -
ID=PSME_00006612     -            467 95831at3193          -            258   7.8e-05   23.6   0.1   3   3     0.034       6.9    7.4   0.0     3    51   388   436   386   454 0.87 -
ID=PSME_00033388     -            175 95831at3193          -            258   9.1e-05   23.4   0.2   1   2    0.0018      0.37   11.6   0.0     3    57    37    96    35   120 0.76 -
ID=PSME_00033388     -            175 95831at3193          -            258   9.1e-05   23.4   0.2   2   2    0.0049      0.99   10.2   0.0     3    37   136   170   134   174 0.84 -
ID=PSME_00013463     -            372 95831at3193          -            258   0.00011   23.1   0.0   1   2    0.0055       1.1   10.0   0.0     2    50   113   165   112   188 0.79 -
ID=PSME_00013463     -            372 95831at3193          -            258   0.00011   23.1   0.0   2   2    0.0024      0.48   11.2   0.0     2    76   206   282   205   285 0.82 -
ID=PSME_00032278     -            174 95831at3193          -            258   0.00011   23.1   1.5   1   1   5.9e-07   0.00012   23.0   0.0     3    50   101   152    99   165 0.84 -
ID=PSME_00024330     -            683 95831at3193          -            258   0.00013   22.9   0.4   1   2     0.018       3.7    8.3   0.0     2    36   104   138   103   143 0.94 -
ID=PSME_00024330     -            683 95831at3193          -            258   0.00013   22.9   0.4   2   2    0.0017      0.34   11.7   0.0     2    39   150   187   149   219 0.89 -
ID=PSME_00031412     -            476 95831at3193          -            258   0.00013   22.9   5.7   1   3      0.15        31    5.3   0.0     3    48   113   162   111   177 0.76 -
ID=PSME_00031412     -            476 95831at3193          -            258   0.00013   22.9   5.7   2   3      0.06        12    6.6   0.0     3    42   203   245   201   274 0.83 -
ID=PSME_00031412     -            476 95831at3193          -            258   0.00013   22.9   5.7   3   3     0.001      0.21   12.4   0.0     3    57   313   367   311   373 0.85 -
ID=PSME_00053536     -            247 95831at3193          -            258   0.00014   22.7   0.1   1   2     0.049       9.9    6.9   0.0     3    51    58   111    56   131 0.74 -
ID=PSME_00053536     -            247 95831at3193          -            258   0.00014   22.7   0.1   2   2   0.00034     0.069   13.9   0.0     3    55   157   209   155   216 0.85 -
ID=PSME_00038214     -            177 95831at3193          -            258   0.00017   22.5   0.0   1   1   1.1e-06   0.00021   22.2   0.0     3    76    24    99    22   102 0.73 -
ID=PSME_00048381     -            245 95831at3193          -            258   0.00017   22.5   0.0   1   1   1.1e-06   0.00022   22.1   0.0     2    77    41   118    40   120 0.86 -
ID=PSME_00030801     -            194 95831at3193          -            258   0.00018   22.4   0.1   1   1   1.6e-06   0.00032   21.6   0.0     2    75    95   170    94   173 0.83 -
ID=PSME_00007987     -           1119 95831at3193          -            258   0.00018   22.4   0.5   1   2     0.042       8.4    7.1   0.0     3    49    84   128    82   151 0.79 -
ID=PSME_00007987     -           1119 95831at3193          -            258   0.00018   22.4   0.5   2   2     0.001       0.2   12.4   0.0     3    50   161   206   159   215 0.89 -
ID=PSME_00051990     -            629 95831at3193          -            258   0.00021   22.2   0.0   1   1   1.5e-06    0.0003   21.7   0.0     3    74   549   622   547   626 0.76 -
ID=PSME_00033385     -            318 95831at3193          -            258   0.00024   22.0   0.0   1   2       0.9   1.8e+02    2.8   0.0     3    52    42    95    40   105 0.77 -
ID=PSME_00033385     -            318 95831at3193          -            258   0.00024   22.0   0.0   2   2   3.9e-05    0.0079   17.0   0.0     3    53   200   250   198   255 0.83 -
ID=PSME_00049163     -            222 95831at3193          -            258   0.00028   21.8   0.1   1   1   1.7e-06   0.00034   21.5   0.1     2    77    41   118    40   120 0.81 -
ID=PSME_00045698     -            420 95831at3193          -            258   0.00028   21.8   0.3   1   2     0.042       8.4    7.1   0.0     3    42   162   204   160   230 0.83 -
ID=PSME_00045698     -            420 95831at3193          -            258   0.00028   21.8   0.3   2   2   0.00076      0.15   12.8   0.0     3    37   278   312   276   324 0.83 -
ID=PSME_00012406     -            163 95831at3193          -            258   0.00029   21.7   0.0   1   1     2e-06    0.0004   21.3   0.0     2    52    53   107    52   116 0.88 -
ID=PSME_00045779     -            209 95831at3193          -            258    0.0003   21.7   0.2   1   1   1.5e-06    0.0003   21.7   0.2     3    43   155   195   153   207 0.82 -
ID=PSME_00024533     -            219 95831at3193          -            258   0.00033   21.5   0.1   1   2    0.0091       1.8    9.3   0.0     8    50     4    48     1    60 0.79 -
ID=PSME_00024533     -            219 95831at3193          -            258   0.00033   21.5   0.1   2   2    0.0057       1.1   10.0   0.0     3    50   112   162   110   176 0.78 -
ID=PSME_00014443     -            384 95831at3193          -            258   0.00034   21.5   0.0   1   2   5.1e-05      0.01   16.7   0.0     3    66    35   100    33   111 0.84 -
ID=PSME_00014443     -            384 95831at3193          -            258   0.00034   21.5   0.0   2   2      0.94   1.9e+02    2.7   0.0     3    46   128   176   126   202 0.72 -
ID=PSME_00047208     -            224 95831at3193          -            258   0.00039   21.3   0.0   1   1   2.6e-06   0.00052   20.9   0.0     2    52    58   112    57   117 0.86 -
ID=PSME_00045317     -            373 95831at3193          -            258   0.00042   21.2   0.1   1   1   3.2e-06   0.00064   20.6   0.1     2    56   125   181   124   197 0.81 -
ID=PSME_00013969     -            266 95831at3193          -            258   0.00044   21.2   0.0   1   1   3.8e-06   0.00077   20.3   0.0     3    52     9    62     7    71 0.86 -
ID=PSME_00001855     -            266 95831at3193          -            258   0.00049   21.0   0.0   1   1     5e-06     0.001   20.0   0.0     2    46   129   177   128   190 0.86 -
ID=PSME_00000870     -           1454 95831at3193          -            258   0.00051   20.9   0.1   1   2      0.56   1.1e+02    3.4   0.0     2    33   621   652   620   669 0.87 -
ID=PSME_00000870     -           1454 95831at3193          -            258   0.00051   20.9   0.1   2   2   0.00017     0.033   15.0   0.0     3    67   800   860   798   870 0.86 -
ID=PSME_00055761     -            330 95831at3193          -            258   0.00055   20.8   0.1   1   1   4.5e-06   0.00091   20.1   0.1     2    46    70   118    69   138 0.76 -
ID=PSME_00028086     -            632 95831at3193          -            258   0.00056   20.8   0.1   1   2      0.33        65    4.2   0.1    13    46   257   294   247   302 0.79 -
ID=PSME_00028086     -            632 95831at3193          -            258   0.00056   20.8   0.1   2   2   0.00048     0.096   13.5   0.0     2    47   351   400   350   410 0.80 -
ID=PSME_00055366     -            279 95831at3193          -            258   0.00061   20.7   0.0   1   1   3.9e-06   0.00078   20.3   0.0     2    76    25   101    24   103 0.82 -
ID=PSME_00002584     -            481 95831at3193          -            258   0.00062   20.7   0.1   1   1   4.1e-06   0.00083   20.2   0.1     2    45    23    70    22    90 0.78 -
ID=PSME_00046762     -            308 95831at3193          -            258   0.00067   20.5   0.9   1   2      0.87   1.8e+02    2.8   0.0     3    42    79   121    77   142 0.77 -
ID=PSME_00046762     -            308 95831at3193          -            258   0.00067   20.5   0.9   2   2   9.1e-05     0.018   15.8   0.1     3    43   189   229   187   251 0.77 -
ID=PSME_00026000     -            227 95831at3193          -            258   0.00071   20.5   0.4   1   3      0.58   1.2e+02    3.4   0.0    17    62     6    53     1    64 0.74 -
ID=PSME_00026000     -            227 95831at3193          -            258   0.00071   20.5   0.4   2   3     0.037       7.5    7.3   0.0     3    51    82   135    80   155 0.74 -
ID=PSME_00026000     -            227 95831at3193          -            258   0.00071   20.5   0.4   3   3      0.05        10    6.9   0.1     3    36   181   214   179   222 0.87 -
ID=PSME_00046086     -            203 95831at3193          -            258   0.00076   20.4   0.1   1   2     0.019       3.9    8.2   0.0     3    49    57   107    55   118 0.79 -
ID=PSME_00046086     -            203 95831at3193          -            258   0.00076   20.4   0.1   2   2    0.0052         1   10.1   0.1     3    42   144   186   142   197 0.86 -
ID=PSME_00056973     -            227 95831at3193          -            258    0.0009   20.1   2.0   1   2       8.6   1.7e+03   -0.5   1.0   146   173    23    50    13    62 0.64 -
ID=PSME_00056973     -            227 95831at3193          -            258    0.0009   20.1   2.0   2   2   8.3e-06    0.0017   19.2   0.0     3    48    82   130    80   141 0.84 -
ID=PSME_00036469     -            150 95831at3193          -            258   0.00093   20.1   0.0   1   1   5.7e-06    0.0011   19.8   0.0     3    47    54   102    52   132 0.80 -
ID=PSME_00046084     -            292 95831at3193          -            258   0.00097   20.0   0.2   1   2      0.78   1.6e+02    2.9   0.0     3    42    34    76    32   101 0.77 -
ID=PSME_00046084     -            292 95831at3193          -            258   0.00097   20.0   0.2   2   2   0.00014     0.028   15.2   0.0     3    59   144   200   142   205 0.90 -
ID=PSME_00046764     -            244 95831at3193          -            258     0.001   20.0   0.1   1   2     0.022       4.3    8.1   0.0     3    49    42    92    40   103 0.79 -
ID=PSME_00046764     -            244 95831at3193          -            258     0.001   20.0   0.1   2   2     0.006       1.2    9.9   0.0     3    42   129   171   127   201 0.84 -
ID=PSME_00055596     -            180 95831at3193          -            258     0.001   19.9   0.0   1   1     6e-06    0.0012   19.7   0.0     2    75    10    85     9    88 0.83 -
ID=PSME_00056463     -            141 95831at3193          -            258    0.0011   19.8   0.1   1   1   7.3e-06    0.0015   19.4   0.1     3    47    26    74    24    89 0.76 -
ID=PSME_00042343     -            135 95831at3193          -            258    0.0012   19.8   0.0   1   1     7e-06    0.0014   19.5   0.0     3    46    39    86    37   101 0.83 -
ID=PSME_00041961     -            329 95831at3193          -            258    0.0012   19.7   0.1   1   3      0.53   1.1e+02    3.5   0.0     3    61    52   112    50   123 0.73 -
ID=PSME_00041961     -            329 95831at3193          -            258    0.0012   19.7   0.1   2   3      0.19        39    4.9   0.1     3    49   143   194   141   208 0.70 -
ID=PSME_00041961     -            329 95831at3193          -            258    0.0012   19.7   0.1   3   3     0.027       5.3    7.8   0.0     3    56   242   295   240   301 0.84 -
ID=PSME_00041044     -            485 95831at3193          -            258    0.0014   19.5   0.0   1   1     1e-05     0.002   19.0   0.0     3    76   404   479   402   481 0.81 -
ID=PSME_00045785     -            220 95831at3193          -            258    0.0018   19.1   0.6   1   1   1.6e-05    0.0033   18.3   0.0     3    48    82   130    80   139 0.86 -
ID=PSME_00045784     -            224 95831at3193          -            258    0.0021   19.0   0.0   1   1     1e-05    0.0021   19.0   0.0     3    48    80   128    78   138 0.85 -
ID=PSME_00004056     -            508 95831at3193          -            258    0.0023   18.8   0.0   1   4      0.16        32    5.2   0.0     3    41    44    82    42    99 0.83 -
ID=PSME_00004056     -            508 95831at3193          -            258    0.0023   18.8   0.0   2   4       4.7   9.4e+02    0.4   0.0    12    51   153   192   146   209 0.76 -
ID=PSME_00004056     -            508 95831at3193          -            258    0.0023   18.8   0.0   3   4       5.6   1.1e+03    0.1   0.0     9    36   326   353   318   362 0.84 -
ID=PSME_00004056     -            508 95831at3193          -            258    0.0023   18.8   0.0   4   4     0.051        10    6.8   0.0     3    59   429   484   427   492 0.87 -
ID=PSME_00045786     -            220 95831at3193          -            258    0.0023   18.8   0.7   1   1   1.9e-05    0.0037   18.1   0.0     3    48    82   130    80   140 0.86 -
ID=PSME_00051885     -            150 95831at3193          -            258    0.0024   18.7   0.0   1   1   1.4e-05    0.0028   18.5   0.0     3    46    54   101    52   129 0.80 -
ID=PSME_00015703     -            230 95831at3193          -            258    0.0029   18.4   0.0   1   1   1.9e-05    0.0038   18.1   0.0     3    46    54   101    52   116 0.83 -
ID=PSME_00056204     -            155 95831at3193          -            258    0.0034   18.2   1.0   1   1   2.7e-05    0.0055   17.6   0.0     3    49    83   132    81   142 0.86 -
ID=PSME_00033561     -            328 95831at3193          -            258    0.0037   18.1   0.3   1   3       8.2   1.6e+03   -0.4   0.0     3    62    78   142    77   152 0.77 -
ID=PSME_00033561     -            328 95831at3193          -            258    0.0037   18.1   0.3   2   3       1.5     3e+02    2.0   0.0     3    24   171   192   169   201 0.87 -
ID=PSME_00033561     -            328 95831at3193          -            258    0.0037   18.1   0.3   3   3   0.00096      0.19   12.5   0.0     3    54   238   289   236   297 0.82 -
ID=PSME_00056579     -            218 95831at3193          -            258    0.0038   18.1   0.5   1   1   3.6e-05    0.0071   17.2   0.0     3    48    82   130    80   140 0.86 -
ID=PSME_00019960     -            164 95831at3193          -            258    0.0041   18.0   0.4   1   1   6.3e-05     0.013   16.4   0.0     3    48    91   139    89   149 0.87 -
ID=PSME_00045430     -            243 95831at3193          -            258    0.0044   17.9   0.2   1   1   6.4e-05     0.013   16.3   0.0     3    49    95   144    93   152 0.86 -
ID=PSME_00045744     -            185 95831at3193          -            258    0.0044   17.9   0.0   1   1   3.1e-05    0.0061   17.4   0.0     3    48    25    73    23    82 0.88 -
ID=PSME_00056583     -            214 95831at3193          -            258    0.0045   17.8   1.0   1   1     5e-05      0.01   16.7   0.0     3    53    81   134    79   140 0.85 -
ID=PSME_00020927     -            213 95831at3193          -            258    0.0047   17.8   0.0   1   1     3e-05    0.0059   17.4   0.0     2    76     8    84     7    86 0.81 -
ID=PSME_00042461     -            231 95831at3193          -            258    0.0048   17.7   0.3   1   1   5.7e-05     0.011   16.5   0.0     3    49    81   130    79   140 0.86 -
ID=PSME_00031053     -            379 95831at3193          -            258    0.0048   17.7   0.1   1   2    0.0097       1.9    9.2   0.0     3    63    86   148    84   151 0.81 -
ID=PSME_00031053     -            379 95831at3193          -            258    0.0048   17.7   0.1   2   2     0.065        13    6.5   0.0     3    42   179   221   177   251 0.81 -
ID=PSME_00042459     -            243 95831at3193          -            258    0.0052   17.6   0.3   1   1   6.4e-05     0.013   16.3   0.0     3    49    81   130    79   138 0.86 -
ID=PSME_00045431     -            158 95831at3193          -            258    0.0053   17.6   0.0   1   1   3.5e-05     0.007   17.2   0.0     3    49    24    73    22    82 0.86 -
ID=PSME_00024446     -            332 95831at3193          -            258    0.0053   17.6   0.1   1   2       1.3   2.6e+02    2.2   0.0    12    55    37    84    34    89 0.67 -
ID=PSME_00024446     -            332 95831at3193          -            258    0.0053   17.6   0.1   2   2   0.00054      0.11   13.3   0.0     3    51   118   170   116   216 0.85 -
ID=PSME_00029013     -            346 95831at3193          -            258    0.0054   17.6   0.1   1   2     0.029       5.8    7.6   0.0     3    48   163   210   161   223 0.82 -
ID=PSME_00029013     -            346 95831at3193          -            258    0.0054   17.6   0.1   2   2     0.029       5.8    7.7   0.0     3    53   265   318   263   326 0.82 -
ID=PSME_00051661     -            158 95831at3193          -            258    0.0065   17.3   0.0   1   1   5.4e-05     0.011   16.6   0.0     2    49    81   132    80   143 0.80 -
ID=PSME_00056493     -            142 95831at3193          -            258    0.0068   17.3   0.0   1   1   4.4e-05    0.0089   16.9   0.0     2    49    47    98    46   108 0.81 -
ID=PSME_00010369     -            245 95831at3193          -            258    0.0069   17.2   0.6   1   1   4.6e-05    0.0092   16.8   0.0     3    49    83   132    81   142 0.86 -
ID=PSME_00036008     -            813 95831at3193          -            258     0.007   17.2   0.0   1   2       1.2   2.5e+02    2.3   0.0     3    22   187   206   185   259 0.91 -
ID=PSME_00036008     -            813 95831at3193          -            258     0.007   17.2   0.0   2   2    0.0013      0.26   12.1   0.0     3    48   300   349   298   355 0.86 -
ID=PSME_00018453     -            413 95831at3193          -            258    0.0075   17.1   0.0   1   1   0.00011     0.022   15.6   0.0     2    45    66   112    65   134 0.81 -
ID=PSME_00055471     -            157 95831at3193          -            258    0.0075   17.1   0.0   1   1     5e-05      0.01   16.7   0.0     2    49    62   113    61   124 0.80 -
ID=PSME_00055182     -            148 95831at3193          -            258    0.0083   17.0   0.0   1   1   5.8e-05     0.012   16.5   0.0     3    48    21    70    19    81 0.86 -
ID=PSME_00034647     -            352 95831at3193          -            258    0.0083   17.0   0.0   1   2       1.1   2.2e+02    2.5   0.0     2    36    75   110    74   112 0.93 -
ID=PSME_00034647     -            352 95831at3193          -            258    0.0083   17.0   0.0   2   2   0.00095      0.19   12.5   0.0     3    47   112   160   110   171 0.84 -
ID=PSME_00001272     -            445 95831at3193          -            258    0.0085   16.9   0.1   1   2     0.079        16    6.2   0.0     3    53     7    55     5    67 0.82 -
ID=PSME_00001272     -            445 95831at3193          -            258    0.0085   16.9   0.1   2   2     0.017       3.4    8.4   0.0    13    51   112   146   101   158 0.85 -
ID=PSME_00033446     -            326 95831at3193          -            258    0.0086   16.9   0.0   1   2      0.02         4    8.2   0.0     8    50     4    48     1    59 0.80 -
ID=PSME_00033446     -            326 95831at3193          -            258    0.0086   16.9   0.0   2   2      0.11        23    5.7   0.0    10    57   112   164   109   168 0.77 -
ID=PSME_00000376     -            164 95831at3193          -            258     0.009   16.9   0.8   1   1   5.4e-05     0.011   16.6   0.8   104   173    47   117    32   138 0.84 -
ID=PSME_00033371     -            143 95831at3193          -            258    0.0096   16.8   0.0   1   1   6.2e-05     0.013   16.4   0.0     2    46    47    95    46   109 0.78 -
ID=PSME_00043341     -            224 95831at3193          -            258    0.0098   16.7   1.8   1   1   7.3e-05     0.015   16.2   0.0     3    49    80   129    78   154 0.85 -
ID=PSME_00010409     -            251 95831at3193          -            258     0.011   16.6   0.0   1   1   0.00011     0.022   15.5   0.0     2    37   203   238   202   250 0.90 -
ID=PSME_00038967     -            230 95831at3193          -            258     0.011   16.6   0.5   1   1   0.00011     0.023   15.5   0.0     3    49    83   132    81   141 0.86 -
ID=PSME_00049681     -            233 95831at3193          -            258     0.011   16.5   0.0   1   1    0.0001      0.02   15.7   0.0     2    37   184   219   183   231 0.90 -
ID=PSME_00050065     -            220 95831at3193          -            258     0.012   16.5   0.1   1   1   0.00017     0.034   15.0   0.0     2    62   121   183   120   186 0.77 -
ID=PSME_00023126     -            279 95831at3193          -            258     0.014   16.3   0.0   1   2     0.056        11    6.7   0.0     3    62    81   142    79   153 0.78 -
ID=PSME_00023126     -            279 95831at3193          -            258     0.014   16.3   0.0   2   2     0.035         7    7.4   0.0     3    52   171   225   169   239 0.74 -
ID=PSME_00051261     -            183 95831at3193          -            258     0.014   16.2   0.4   1   2     0.093        19    6.0   0.0     3    42    34    76    32    99 0.79 -
ID=PSME_00051261     -            183 95831at3193          -            258     0.014   16.2   0.4   2   2     0.012       2.4    8.9   0.1     3    36   144   177   142   182 0.87 -
ID=PSME_00046600     -            248 95831at3193          -            258     0.014   16.2   0.0   1   1     9e-05     0.018   15.9   0.0     3    34    50    82    48   109 0.80 -
ID=PSME_00040305     -            523 95831at3193          -            258     0.016   16.1   2.1   1   2   0.00093      0.19   12.5   0.0     2    46    76   124    75   135 0.79 -
ID=PSME_00040305     -            523 95831at3193          -            258     0.016   16.1   2.1   2   2       1.3   2.7e+02    2.2   0.0     2    41   167   210   166   224 0.75 -
ID=PSME_00009026     -            253 95831at3193          -            258     0.016   16.0   0.0   1   2      0.62   1.2e+02    3.3   0.0     3    62    70   131    68   141 0.76 -
ID=PSME_00009026     -            253 95831at3193          -            258     0.016   16.0   0.0   2   2    0.0037      0.74   10.6   0.0     3    50   161   213   159   234 0.73 -
ID=PSME_00015165     -            192 95831at3193          -            258     0.017   16.0   0.1   1   1   0.00018     0.035   14.9   0.0     2    51    27    83    26    92 0.80 -
ID=PSME_00002585     -             90 95831at3193          -            258     0.018   15.8   0.0   1   1   9.7e-05      0.02   15.7   0.0     2    45     7    54     6    68 0.80 -
ID=PSME_00023128     -            277 95831at3193          -            258     0.019   15.8   0.0   1   2     0.073        15    6.3   0.0     3    62    79   140    77   151 0.79 -
ID=PSME_00023128     -            277 95831at3193          -            258     0.019   15.8   0.0   2   2     0.034       6.8    7.4   0.0     3    52   169   223   167   242 0.74 -
ID=PSME_00018991     -            323 95831at3193          -            258     0.019   15.8   1.3   1   2      0.13        26    5.5   0.0     3    56    38    96    36   101 0.80 -
ID=PSME_00018991     -            323 95831at3193          -            258     0.019   15.8   1.3   2   2     0.012       2.4    8.9   0.0     3    50   177   227   175   245 0.81 -
ID=PSME_00057089     -            142 95831at3193          -            258      0.02   15.7   0.0   1   1   0.00013     0.025   15.4   0.0     2    49    47    98    46   109 0.79 -
ID=PSME_00057205     -            230 95831at3193          -            258     0.023   15.5   0.9   1   1   0.00017     0.034   15.0   0.0     3    49    83   132    81   141 0.86 -
ID=PSME_00028332     -            300 95831at3193          -            258     0.023   15.5   0.1   1   2      0.33        67    4.2   0.0     8    50     4    48     1    60 0.77 -
ID=PSME_00028332     -            300 95831at3193          -            258     0.023   15.5   0.1   2   2    0.0085       1.7    9.4   0.0     3    50    92   142    90   152 0.81 -
ID=PSME_00015524     -            352 95831at3193          -            258     0.023   15.5   0.1   1   1   0.00015      0.03   15.1   0.1     2    50   100   152    99   157 0.83 -
ID=PSME_00046085     -            194 95831at3193          -            258     0.023   15.5   0.0   1   1   0.00015     0.031   15.1   0.0     3    59    47   103    45   108 0.87 -
ID=PSME_00046387     -            204 95831at3193          -            258     0.024   15.4   0.0   1   1   0.00019     0.039   14.8   0.0     2    49    98   149    97   160 0.80 -
ID=PSME_00030370     -            117 95831at3193          -            258     0.024   15.4   0.4   1   1   0.00026     0.051   14.4   0.1     2    61    47   110    46   111 0.78 -
ID=PSME_00000609     -            369 95831at3193          -            258     0.027   15.3   0.0   1   1   0.00019     0.039   14.8   0.0     2    73   110   182   109   187 0.86 -
ID=PSME_00048499     -             79 95831at3193          -            258     0.028   15.2   0.0   1   1   0.00016     0.032   15.0   0.0     3    48    21    70    19    77 0.84 -
ID=PSME_00043091     -            289 95831at3193          -            258     0.029   15.2   0.0   1   1   0.00018     0.037   14.8   0.0     3    77    46   122    44   124 0.82 -
ID=PSME_00043456     -            314 95831at3193          -            258      0.03   15.1   1.8   1   2    0.0016      0.32   11.8   0.0     3    53   140   193   138   200 0.82 -
ID=PSME_00043456     -            314 95831at3193          -            258      0.03   15.1   1.8   2   2       1.8   3.6e+02    1.8   0.0     3    29   206   232   204   236 0.90 -
ID=PSME_00041358     -            125 95831at3193          -            258     0.033   15.0   0.4   1   1    0.0002      0.04   14.7   0.4   107   182     9    87     3   104 0.81 -
ID=PSME_00053263     -            358 95831at3193          -            258     0.036   14.9   0.1   1   2     0.096        19    5.9   0.0   131   178    46    93    14   129 0.74 -
ID=PSME_00053263     -            358 95831at3193          -            258     0.036   14.9   0.1   2   2     0.046       9.1    7.0   0.0   136   183   273   320   240   332 0.71 -
ID=PSME_00033320     -            206 95831at3193          -            258     0.036   14.9   0.1   1   1   0.00023     0.045   14.5   0.1     2    54    65   121    64   123 0.80 -
ID=PSME_00056849     -            108 95831at3193          -            258     0.038   14.8   0.0   1   1   0.00023     0.047   14.5   0.0     2    46    47    95    46   104 0.78 -
ID=PSME_00001278     -            447 95831at3193          -            258      0.04   14.7   0.1   1   2      0.18        36    5.1   0.0     3    50    20    65    18    74 0.82 -
ID=PSME_00001278     -            447 95831at3193          -            258      0.04   14.7   0.1   2   2      0.03         6    7.6   0.0    13    51   125   159   114   168 0.84 -
ID=PSME_00008850     -            153 95831at3193          -            258     0.042   14.7   0.0   1   1   0.00026     0.053   14.3   0.0     2    36   104   138   103   150 0.93 -
ID=PSME_00054439     -            111 95831at3193          -            258     0.045   14.5   0.0   1   1   0.00027     0.055   14.3   0.0     2    43    62   105    61   110 0.78 -
ID=PSME_00035961     -            321 95831at3193          -            258     0.051   14.4   0.0   1   2      0.35        70    4.1   0.0     3    33     4    34     2    42 0.89 -
ID=PSME_00035961     -            321 95831at3193          -            258     0.051   14.4   0.0   2   2     0.021       4.1    8.1   0.0    13    56   158   196   148   203 0.82 -
ID=PSME_00014886     -            379 95831at3193          -            258     0.051   14.4   0.0   1   2     0.011       2.2    9.0   0.0     3    76    11    83     9    85 0.84 -
ID=PSME_00014886     -            379 95831at3193          -            258     0.051   14.4   0.0   2   2      0.73   1.5e+02    3.1   0.0     2    49   112   159   111   169 0.88 -
ID=PSME_00001753     -            833 95831at3193          -            258     0.052   14.4   0.0   1   2      0.52     1e+02    3.5   0.0     3    45   197   238   195   252 0.80 -
ID=PSME_00001753     -            833 95831at3193          -            258     0.052   14.4   0.0   2   2     0.017       3.4    8.4   0.0     7    93   286   374   281   382 0.61 -
ID=PSME_00019467     -            660 95831at3193          -            258     0.053   14.3   0.0   1   2      0.43        85    3.8   0.0     2    52   214   274   213   293 0.71 -
ID=PSME_00019467     -            660 95831at3193          -            258     0.053   14.3   0.0   2   2     0.018       3.7    8.3   0.0     2    37   337   372   336   381 0.91 -
ID=PSME_00042756     -            142 95831at3193          -            258     0.054   14.3   0.0   1   1   0.00034     0.069   14.0   0.0     2    50    47    99    46   110 0.79 -
ID=PSME_00019225     -            243 95831at3193          -            258     0.057   14.2   0.0   1   2     0.033       6.6    7.5   0.0     3    54     4    53     2    73 0.81 -
ID=PSME_00019225     -            243 95831at3193          -            258     0.057   14.2   0.0   2   2      0.21        42    4.8   0.0    14    51   110   143    98   170 0.86 -
ID=PSME_00035660     -             73 95831at3193          -            258      0.06   14.2   0.0   1   1   0.00035     0.071   13.9   0.0     4    50     6    54     2    65 0.75 -
ID=PSME_00046860     -            194 95831at3193          -            258     0.063   14.1   0.0   1   1   0.00039     0.079   13.8   0.0     3    45    18    64    16    80 0.84 -
ID=PSME_00033956     -            362 95831at3193          -            258      0.07   13.9   0.0   1   1   0.00057      0.11   13.2   0.0     2    42    28    70    27    81 0.77 -
ID=PSME_00038980     -             73 95831at3193          -            258     0.074   13.8   0.0   1   1    0.0004     0.081   13.7   0.0     4    50     6    54     3    66 0.76 -
ID=PSME_00041359     -            133 95831at3193          -            258     0.074   13.8   0.6   1   1   0.00044     0.089   13.6   0.6   104   180    14    93     8   109 0.82 -
ID=PSME_00000521     -            632 95831at3193          -            258     0.075   13.8   1.3   1   1    0.0019      0.38   11.5   0.0     2    45   312   359   311   379 0.79 -
ID=PSME_00006933     -            339 95831at3193          -            258     0.075   13.8   0.0   1   2     0.091        18    6.0   0.0     3    38    60    96    58   124 0.76 -
ID=PSME_00006933     -            339 95831at3193          -            258     0.075   13.8   0.0   2   2       0.1        21    5.8   0.0     3    48   154   204   152   230 0.68 -
ID=PSME_00047448     -            192 95831at3193          -            258     0.077   13.8   0.0   1   1   0.00056      0.11   13.3   0.0     7    52    24    73    23    96 0.73 -
ID=PSME_00003813     -            308 95831at3193          -            258     0.077   13.8   0.0   1   1   0.00063      0.13   13.1   0.0    51   107   152   208   145   215 0.90 -
ID=PSME_00051618     -            167 95831at3193          -            258     0.079   13.8   1.0   1   2       4.7   9.4e+02    0.4   0.6   152   187    34    64    11    78 0.60 -
ID=PSME_00051618     -            167 95831at3193          -            258     0.079   13.8   1.0   2   2    0.0016      0.32   11.8   0.0     3    47    84   131    82   149 0.88 -
ID=PSME_00052287     -            125 95831at3193          -            258     0.079   13.8   0.0   1   1   0.00054      0.11   13.3   0.0     3    48    42    90    40   111 0.86 -
ID=PSME_00056645     -             71 95831at3193          -            258     0.087   13.6   0.1   1   1   0.00053      0.11   13.3   0.1     3    46    22    68    20    69 0.86 -
ID=PSME_00045637     -            339 95831at3193          -            258     0.091   13.6   0.0   1   1   0.00078      0.16   12.8   0.0     2    49   209   260   208   270 0.80 -
ID=PSME_00056689     -            304 95831at3193          -            258     0.092   13.5   0.0   1   1   0.00089      0.18   12.6   0.0     5    56   226   283   223   299 0.75 -
ID=PSME_00009027     -            290 95831at3193          -            258     0.095   13.5   0.0   1   2      0.69   1.4e+02    3.1   0.0     3    51    35    87    33   100 0.76 -
ID=PSME_00009027     -            290 95831at3193          -            258     0.095   13.5   0.0   2   2     0.021       4.1    8.1   0.1     3    52   126   180   124   187 0.79 -
ID=PSME_00024252     -            189 95831at3193          -            258       0.1   13.4   0.0   1   1   0.00077      0.15   12.8   0.0     2    37   140   175   139   179 0.94 -
ID=PSME_00017996     -            194 95831at3193          -            258       0.1   13.4   0.0   1   1   0.00086      0.17   12.6   0.0     2    37    47    82    46    88 0.92 -
ID=PSME_00010925     -            527 95831at3193          -            258       0.1   13.4   0.0   1   2       1.2   2.4e+02    2.4   0.0     3    50   132   180   130   192 0.90 -
ID=PSME_00010925     -            527 95831at3193          -            258       0.1   13.4   0.0   2   2     0.018       3.5    8.3   0.0     3    47   293   341   291   355 0.79 -
ID=PSME_00033687     -            250 95831at3193          -            258      0.11   13.3   0.1   1   1   0.00074      0.15   12.9   0.1     3    50    44    95    42   106 0.80 -
ID=PSME_00025775     -            236 95831at3193          -            258      0.12   13.2   0.0   1   1    0.0023      0.47   11.2   0.0     2    49   175   226   174   231 0.83 -
ID=PSME_00040069     -            146 95831at3193          -            258      0.12   13.1   0.0   1   1    0.0007      0.14   12.9   0.0     3    47    50    98    48   125 0.83 -
ID=PSME_00019460     -            129 95831at3193          -            258      0.13   13.0   0.0   1   1    0.0013      0.27   12.0   0.0     2    48    64   114    63   123 0.80 -
ID=PSME_00041360     -            131 95831at3193          -            258      0.13   13.0   0.4   1   1   0.00079      0.16   12.8   0.4   104   179    14    90     7   106 0.82 -
ID=PSME_00005274     -            374 95831at3193          -            258      0.14   12.9   8.4   1   2    0.0099         2    9.2   0.0     3    50   230   279   228   290 0.83 -
ID=PSME_00005274     -            374 95831at3193          -            258      0.14   12.9   8.4   2   2      0.24        48    4.6   0.0     3    45   327   372   325   374 0.78 -
ID=PSME_00009861     -            459 95831at3193          -            258      0.14   12.9   0.0   1   2     0.029       5.8    7.6   0.0     2    73   252   325   251   330 0.78 -
ID=PSME_00009861     -            459 95831at3193          -            258      0.14   12.9   0.0   2   2      0.92   1.8e+02    2.7   0.0     2    23   348   369   347   385 0.91 -
ID=PSME_00041649     -            109 95831at3193          -            258      0.15   12.9   0.0   1   1   0.00088      0.18   12.6   0.0     7    47     2    46     1    55 0.80 -
ID=PSME_00001279     -            319 95831at3193          -            258      0.15   12.9   0.1   1   2      0.14        28    5.4   0.0     3    59     4    58     2    73 0.84 -
ID=PSME_00001279     -            319 95831at3193          -            258      0.15   12.9   0.1   2   2      0.13        25    5.5   0.0    12    51   108   143    98   153 0.85 -
ID=PSME_00020201     -            298 95831at3193          -            258      0.15   12.9   0.0   1   1   0.00095      0.19   12.5   0.0     2    42    27    69    26    82 0.76 -
ID=PSME_00007870     -            284 95831at3193          -            258      0.15   12.8   0.0   1   1     0.001      0.21   12.4   0.0     2    40   112   151   111   185 0.77 -
ID=PSME_00003705     -            998 95831at3193          -            258      0.16   12.8   0.0   1   3       7.4   1.5e+03   -0.2   0.0     3    36   176   207   175   225 0.79 -
ID=PSME_00003705     -            998 95831at3193          -            258      0.16   12.8   0.0   2   3      0.07        14    6.4   0.0     3    51   256   307   254   323 0.81 -
ID=PSME_00003705     -            998 95831at3193          -            258      0.16   12.8   0.0   3   3       1.6   3.1e+02    2.0   0.0    15    48   356   392   349   402 0.82 -
ID=PSME_00010339     -            148 95831at3193          -            258      0.17   12.6   0.0   1   1    0.0012      0.23   12.2   0.0     3    47    65   112    63   127 0.87 -
ID=PSME_00008878     -            448 95831at3193          -            258      0.18   12.6   0.0   1   1    0.0016      0.31   11.8   0.0     4    56    56   108    52   124 0.90 -
ID=PSME_00018643     -            301 95831at3193          -            258      0.18   12.5   0.0   1   1    0.0012      0.25   12.1   0.0     2    42    27    69    26    81 0.77 -
ID=PSME_00029357     -            320 95831at3193          -            258      0.19   12.5   0.0   1   1    0.0012      0.24   12.2   0.0     2    42    59   101    58   114 0.76 -
ID=PSME_00037686     -            141 95831at3193          -            258      0.19   12.5   0.4   1   1    0.0011      0.22   12.3   0.4   106   179    27   100    11   117 0.86 -
ID=PSME_00055309     -            155 95831at3193          -            258      0.19   12.5   0.1   1   1    0.0012      0.24   12.2   0.1     3    42    57    96    55   115 0.81 -
ID=PSME_00046329     -            142 95831at3193          -            258       0.2   12.5   0.6   1   1    0.0011      0.21   12.4   0.6   104   174    26    96     4   116 0.83 -
ID=PSME_00036951     -            565 95831at3193          -            258      0.21   12.4   7.5   1   2    0.0068       1.4    9.7   0.0     2    45   113   160   112   172 0.78 -
ID=PSME_00036951     -            565 95831at3193          -            258      0.21   12.4   7.5   2   2      0.71   1.4e+02    3.1   0.0     2    42   204   248   203   263 0.72 -
ID=PSME_00055887     -            206 95831at3193          -            258      0.22   12.3   1.1   1   1    0.0012      0.23   12.2   0.4   106   183    92   169    75   183 0.86 -
ID=PSME_00044193     -            139 95831at3193          -            258      0.22   12.3   0.1   1   1    0.0013      0.26   12.1   0.1    82   217     4   136     3   138 0.73 -
ID=PSME_00008929     -            135 95831at3193          -            258      0.23   12.3   0.0   1   1    0.0018      0.36   11.6   0.0     2    49    70   121    69   129 0.78 -
ID=PSME_00048622     -            217 95831at3193          -            258      0.23   12.2   0.0   1   1    0.0019      0.38   11.5   0.0     4    46    10    53     7    65 0.84 -
ID=PSME_00035659     -            150 95831at3193          -            258      0.25   12.1   0.0   1   1    0.0015      0.31   11.8   0.0     3    57     5    64     3    76 0.81 -
ID=PSME_00016962     -             96 95831at3193          -            258      0.27   12.0   0.0   1   1    0.0016      0.32   11.8   0.0     2    43    47    90    46    95 0.78 -
ID=PSME_00029255     -             71 95831at3193          -            258      0.28   11.9   0.0   1   1    0.0015      0.31   11.8   0.0     3    46    22    68    20    70 0.87 -
ID=PSME_00057212     -            142 95831at3193          -            258      0.29   11.9   0.0   1   1    0.0018      0.36   11.6   0.0     2    48    47    97    46   108 0.84 -
ID=PSME_00055150     -            298 95831at3193          -            258       0.3   11.9   1.4   1   1    0.0023      0.46   11.3   0.0     5    56   220   277   217   293 0.74 -
ID=PSME_00030554     -            154 95831at3193          -            258       0.3   11.9   0.0   1   1    0.0019      0.39   11.5   0.0     2    36   105   139   104   151 0.93 -
ID=PSME_00001277     -            286 95831at3193          -            258      0.32   11.8   0.0   1   2      0.11        23    5.7   0.0     3    52     4    51     2    61 0.83 -
ID=PSME_00001277     -            286 95831at3193          -            258      0.32   11.8   0.0   2   2      0.38        77    4.0   0.0    14    50   110   142   105   153 0.79 -
ID=PSME_00014604     -            185 95831at3193          -            258      0.33   11.7   0.0   1   1    0.0022      0.44   11.3   0.0    10    76    25    93    18   103 0.74 -
ID=PSME_00020345     -            372 95831at3193          -            258      0.35   11.6   0.0   1   1    0.0024      0.48   11.2   0.0     2    31    59    88    58   100 0.82 -
ID=PSME_00029071     -            749 95831at3193          -            258      0.36   11.6   0.0   1   1    0.0038      0.76   10.5   0.0    11    47   444   480   435   493 0.88 -
ID=PSME_00021846     -            196 95831at3193          -            258      0.42   11.4   0.0   1   2         3   5.9e+02    1.1   0.0    17    53    13    53     5    63 0.71 -
ID=PSME_00021846     -            196 95831at3193          -            258      0.42   11.4   0.0   2   2      0.02       4.1    8.1   0.1     3    50    90   142    88   153 0.75 -
ID=PSME_00006402     -            493 95831at3193          -            258      0.44   11.3   0.0   1   1    0.0034      0.67   10.7   0.0     3    49   330   380   328   386 0.82 -
ID=PSME_00018717     -            305 95831at3193          -            258      0.45   11.3   4.5   1   2       4.5     9e+02    0.5   2.7   135   188    11    65     4    99 0.69 -
ID=PSME_00018717     -            305 95831at3193          -            258      0.45   11.3   4.5   2   2    0.0043      0.86   10.4   0.0     3    48   184   232   182   241 0.83 -
ID=PSME_00056571     -            288 95831at3193          -            258      0.47   11.2   0.0   1   2     0.059        12    6.6   0.0     3    62    92   153    90   164 0.78 -
ID=PSME_00056571     -            288 95831at3193          -            258      0.47   11.2   0.0   2   2         1     2e+02    2.6   0.0     3    51   182   235   180   251 0.73 -
ID=PSME_00033910     -            778 95831at3193          -            258       0.5   11.1   0.0   1   1    0.0044      0.89   10.3   0.0    11    47   437   473   427   483 0.89 -
ID=PSME_00009936     -             79 95831at3193          -            258      0.54   11.0   0.0   1   1    0.0039      0.78   10.5   0.0     2    31    47    76    46    78 0.89 -
ID=PSME_00049359     -            198 95831at3193          -            258      0.55   11.0   0.0   1   1    0.0037      0.74   10.6   0.0     8    76    23    93    17   111 0.78 -
ID=PSME_00019800     -            253 95831at3193          -            258      0.57   10.9   0.0   1   1    0.0037      0.75   10.6   0.0     3    46    54   101    52   115 0.82 -
ID=PSME_00029028     -            101 95831at3193          -            258      0.62   10.8   0.0   1   1    0.0039      0.79   10.5   0.0     2    34    62    94    61   100 0.90 -
ID=PSME_00051112     -            215 95831at3193          -            258      0.65   10.8   0.1   1   2      0.34        69    4.1   0.0     3    36     4    37     2    51 0.82 -
ID=PSME_00051112     -            215 95831at3193          -            258      0.65   10.8   0.1   2   2      0.17        35    5.1   0.0    13    50    50    83    46   110 0.80 -
ID=PSME_00010664     -            488 95831at3193          -            258      0.68   10.7   0.2   1   2       5.6   1.1e+03    0.1   0.1    10    50   123   163   115   169 0.81 -
ID=PSME_00010664     -            488 95831at3193          -            258      0.68   10.7   0.2   2   2     0.024       4.7    7.9   0.0    10    73   255   317   250   324 0.82 -
ID=PSME_00040688     -            239 95831at3193          -            258      0.87   10.3   0.0   1   1    0.0056       1.1   10.0   0.0     2    47     5    49     4    60 0.89 -
#
# Program:         hmmsearch
# Version:         3.2.1 (June 2018)
# Pipeline mode:   SEARCH
# Query file:      /isg/shared/databases/BUSCO/odb10/embryophyta_odb10/hmms/95831at3193.hmm
# Target file:     /labs/Wegrzyn/ConiferGenomes/Psme/analysis/SURF_annotation/analyze_orig_maker/gfacs/filtered/maker_genes.fasta.faa
# Option settings: /usr/local/bin/hmmsearch --domtblout /labs/Wegrzyn/ConiferGenomes/Psme/analysis/SURF_annotation/analyze_orig_maker/busco/maker/run_embryophyta_odb10/hmmer_output/95831at3193.out --cpu 1 /isg/shared/databases/BUSCO/odb10/embryophyta_odb10/hmms/95831at3193.hmm /labs/Wegrzyn/ConiferGenomes/Psme/analysis/SURF_annotation/analyze_orig_maker/gfacs/filtered/maker_genes.fasta.faa 
# Current dir:     /labs/Wegrzyn/ConiferGenomes/Psme/analysis/SURF_annotation/analyze_orig_maker/busco
# Date:            Fri Jul 10 13:57:50 2020
# [ok]
