#                                                                            --- full sequence --- -------------- this domain -------------   hmm coord   ali coord   env coord
# target name        accession   tlen query name           accession   qlen   E-value  score  bias   #  of  c-Evalue  i-Evalue  score  bias  from    to  from    to  from    to  acc description of target
#------------------- ---------- ----- -------------------- ---------- ----- --------- ------ ----- --- --- --------- --------- ------ ----- ----- ----- ----- ----- ----- ----- ---- ---------------------
ID=PSME_00024641     -            545 96112at3193          -            361   1.5e-08   35.8   0.1   1   2   2.6e-12   3.6e-08   34.6   0.0   124   203   293   372   284   390 0.92 -
ID=PSME_00024641     -            545 96112at3193          -            361   1.5e-08   35.8   0.1   2   2      0.62   8.5e+03   -2.8   0.0   252   283   444   475   429   488 0.69 -
ID=PSME_00006314     -            319 96112at3193          -            361      0.55   10.9   0.0   1   2     0.016   2.2e+02    2.4   0.0    37    59    49    71    42    79 0.82 -
ID=PSME_00006314     -            319 96112at3193          -            361      0.55   10.9   0.0   2   2    0.0012        16    6.2   0.0    37    58   214   235   209   243 0.81 -
ID=PSME_00009622     -            605 96112at3193          -            361      0.64   10.7   0.0   1   3     0.037   5.1e+02    1.2   0.0    37    58    49    70    44    78 0.81 -
ID=PSME_00009622     -            605 96112at3193          -            361      0.64   10.7   0.0   2   3    0.0066        90    3.7   0.0    37    70   300   331   297   351 0.85 -
ID=PSME_00009622     -            605 96112at3193          -            361      0.64   10.7   0.0   3   3     0.033   4.6e+02    1.3   0.0    37    58   442   463   437   472 0.78 -
ID=PSME_00015191     -            239 96112at3193          -            361      0.86   10.3   0.0   1   2    0.0024        33    5.1   0.0    37    71    56    88    51   108 0.79 -
ID=PSME_00015191     -            239 96112at3193          -            361      0.86   10.3   0.0   2   2     0.011   1.6e+02    2.9   0.0    37    59   154   176   149   184 0.81 -
#
# Program:         hmmsearch
# Version:         3.2.1 (June 2018)
# Pipeline mode:   SEARCH
# Query file:      /isg/shared/databases/BUSCO/odb10/embryophyta_odb10/hmms/96112at3193.hmm
# Target file:     /labs/Wegrzyn/ConiferGenomes/Psme/analysis/SURF_annotation/analyze_orig_maker/gfacs/filtered/maker_genes.fasta.faa
# Option settings: /usr/local/bin/hmmsearch --domtblout /labs/Wegrzyn/ConiferGenomes/Psme/analysis/SURF_annotation/analyze_orig_maker/busco/maker/run_embryophyta_odb10/hmmer_output/96112at3193.out --cpu 1 /isg/shared/databases/BUSCO/odb10/embryophyta_odb10/hmms/96112at3193.hmm /labs/Wegrzyn/ConiferGenomes/Psme/analysis/SURF_annotation/analyze_orig_maker/gfacs/filtered/maker_genes.fasta.faa 
# Current dir:     /labs/Wegrzyn/ConiferGenomes/Psme/analysis/SURF_annotation/analyze_orig_maker/busco
# Date:            Fri Jul 10 13:57:49 2020
# [ok]
