#                                                                            --- full sequence --- -------------- this domain -------------   hmm coord   ali coord   env coord
# target name        accession   tlen query name           accession   qlen   E-value  score  bias   #  of  c-Evalue  i-Evalue  score  bias  from    to  from    to  from    to  acc description of target
#------------------- ---------- ----- -------------------- ---------- ----- --------- ------ ----- --- --- --------- --------- ------ ----- ----- ----- ----- ----- ----- ----- ---- ---------------------
ID=PSME_00006353     -            449 96689at3193          -            315     1e-70  240.0   2.3   1   2   5.9e-08    0.0011   19.8   0.4     2    33    66    98    65    99 0.91 -
ID=PSME_00006353     -            449 96689at3193          -            315     1e-70  240.0   2.3   2   2   2.3e-69   4.3e-65  221.5   0.1    69   314    98   396    97   397 0.79 -
ID=PSME_00022839     -            195 96689at3193          -            315      0.36   11.5   0.0   1   1   2.8e-05      0.51   11.0   0.0   254   271   135   152   130   181 0.81 -
ID=PSME_00019860     -             84 96689at3193          -            315       0.4   11.3   0.2   1   1   2.2e-05       0.4   11.3   0.2   180   241     6    68     1    79 0.81 -
#
# Program:         hmmsearch
# Version:         3.2.1 (June 2018)
# Pipeline mode:   SEARCH
# Query file:      /isg/shared/databases/BUSCO/odb10/embryophyta_odb10/hmms/96689at3193.hmm
# Target file:     /labs/Wegrzyn/ConiferGenomes/Psme/analysis/SURF_annotation/analyze_orig_maker/gfacs/filtered/maker_genes.fasta.faa
# Option settings: /usr/local/bin/hmmsearch --domtblout /labs/Wegrzyn/ConiferGenomes/Psme/analysis/SURF_annotation/analyze_orig_maker/busco/maker/run_embryophyta_odb10/hmmer_output/96689at3193.out --cpu 1 /isg/shared/databases/BUSCO/odb10/embryophyta_odb10/hmms/96689at3193.hmm /labs/Wegrzyn/ConiferGenomes/Psme/analysis/SURF_annotation/analyze_orig_maker/gfacs/filtered/maker_genes.fasta.faa 
# Current dir:     /labs/Wegrzyn/ConiferGenomes/Psme/analysis/SURF_annotation/analyze_orig_maker/busco
# Date:            Fri Jul 10 13:57:50 2020
# [ok]
