#                                                                            --- full sequence --- -------------- this domain -------------   hmm coord   ali coord   env coord
# target name        accession   tlen query name           accession   qlen   E-value  score  bias   #  of  c-Evalue  i-Evalue  score  bias  from    to  from    to  from    to  acc description of target
#------------------- ---------- ----- -------------------- ---------- ----- --------- ------ ----- --- --- --------- --------- ------ ----- ----- ----- ----- ----- ----- ----- ---- ---------------------
ID=PSME_00039994     -            135 97073at3193          -            315   2.5e-37  129.8   0.0   1   1   2.5e-41   2.7e-37  129.7   0.0   151   258     1   103     1   126 0.94 -
ID=PSME_00039995     -            166 97073at3193          -            315     0.022   15.1   0.1   1   1   2.5e-06     0.028   14.7   0.1   290   312     2    24     1    27 0.89 -
ID=PSME_00048052     -            152 97073at3193          -            315      0.28   11.4   0.0   1   1   3.1e-05      0.34   11.1   0.0    17    56    17    56     9    78 0.84 -
ID=PSME_00025816     -            152 97073at3193          -            315       0.3   11.3   0.0   1   1   4.5e-05      0.49   10.6   0.0    17    48    17    48     7    57 0.88 -
ID=PSME_00015606     -            187 97073at3193          -            315       0.3   11.3   0.2   1   1   3.8e-05      0.42   10.8   0.2   253   293    97   138    89   147 0.87 -
#
# Program:         hmmsearch
# Version:         3.2.1 (June 2018)
# Pipeline mode:   SEARCH
# Query file:      /isg/shared/databases/BUSCO/odb10/embryophyta_odb10/hmms/97073at3193.hmm
# Target file:     /labs/Wegrzyn/ConiferGenomes/Psme/analysis/SURF_annotation/analyze_orig_maker/gfacs/filtered/maker_genes.fasta.faa
# Option settings: /usr/local/bin/hmmsearch --domtblout /labs/Wegrzyn/ConiferGenomes/Psme/analysis/SURF_annotation/analyze_orig_maker/busco/maker/run_embryophyta_odb10/hmmer_output/97073at3193.out --cpu 1 /isg/shared/databases/BUSCO/odb10/embryophyta_odb10/hmms/97073at3193.hmm /labs/Wegrzyn/ConiferGenomes/Psme/analysis/SURF_annotation/analyze_orig_maker/gfacs/filtered/maker_genes.fasta.faa 
# Current dir:     /labs/Wegrzyn/ConiferGenomes/Psme/analysis/SURF_annotation/analyze_orig_maker/busco
# Date:            Fri Jul 10 13:57:51 2020
# [ok]
