#                                                                            --- full sequence --- -------------- this domain -------------   hmm coord   ali coord   env coord
# target name        accession   tlen query name           accession   qlen   E-value  score  bias   #  of  c-Evalue  i-Evalue  score  bias  from    to  from    to  from    to  acc description of target
#------------------- ---------- ----- -------------------- ---------- ----- --------- ------ ----- --- --- --------- --------- ------ ----- ----- ----- ----- ----- ----- ----- ---- ---------------------
ID=PSME_00013743     -            485 99077at3193          -            313  1.2e-190  634.0   6.5   1   2   5.9e-94     2e-90  304.8   1.0     1   162     1   171     1   175 0.94 -
ID=PSME_00013743     -            485 99077at3193          -            313  1.2e-190  634.0   6.5   2   2    2e-102   6.7e-99  332.6   0.4   148   313   176   353   171   353 0.96 -
ID=PSME_00030715     -            186 99077at3193          -            313   1.9e-37  130.7   0.3   1   1   6.9e-41   2.4e-37  130.4   0.3   188   312     2   137     1   138 0.92 -
ID=PSME_00031335     -            548 99077at3193          -            313   1.8e-08   35.5   0.0   1   1   9.4e-12   3.2e-08   34.7   0.0    57   139   359   442   352   451 0.87 -
ID=PSME_00001636     -            127 99077at3193          -            313   5.9e-08   33.9   0.0   1   1   1.9e-11   6.6e-08   33.7   0.0    60   117    32    89    23   118 0.85 -
ID=PSME_00001635     -            383 99077at3193          -            313   1.2e-07   32.8   0.1   1   2      0.48   1.6e+03   -0.5   0.1   196   296     8   113     3   122 0.45 -
ID=PSME_00001635     -            383 99077at3193          -            313   1.2e-07   32.8   0.1   2   2     2e-10     7e-07   30.3   0.0    60   117   166   223   157   251 0.87 -
ID=PSME_00017511     -            179 99077at3193          -            313   4.2e-07   31.1   0.0   1   2     2e-10   6.9e-07   30.3   0.0    60   116    15    71     6    98 0.90 -
ID=PSME_00017511     -            179 99077at3193          -            313   4.2e-07   31.1   0.0   2   2         4   1.4e+04   -3.5   0.0   210   223   125   138   109   144 0.65 -
ID=PSME_00055334     -            192 99077at3193          -            313   0.00078   20.3   0.0   1   1   4.2e-07    0.0014   19.4   0.0    54   107   107   161    87   167 0.77 -
ID=PSME_00010101     -            438 99077at3193          -            313    0.0025   18.7   0.1   1   1   1.2e-05     0.041   14.7   0.1    61   143     2   101     1   110 0.73 -
ID=PSME_00030513     -            524 99077at3193          -            313     0.018   15.8   0.0   1   1   8.2e-06     0.028   15.2   0.0    70   116     4    50     1    79 0.93 -
ID=PSME_00028835     -            570 99077at3193          -            313     0.034   14.9   0.0   1   2     0.016        54    4.4   0.0    59   131   161   236   151   271 0.66 -
ID=PSME_00028835     -            570 99077at3193          -            313     0.034   14.9   0.0   2   2    0.0012       4.1    8.1   0.0    59   122   360   424   345   455 0.74 -
ID=PSME_00017338     -            109 99077at3193          -            313     0.097   13.4   0.0   1   1   3.5e-05      0.12   13.1   0.0    58   115    11    66     6    79 0.73 -
ID=PSME_00001432     -            603 99077at3193          -            313      0.11   13.3   0.0   1   1   7.3e-05      0.25   12.1   0.0    58   118   271   328   253   361 0.69 -
ID=PSME_00015981     -            600 99077at3193          -            313      0.15   12.8   0.0   1   2      0.14   4.8e+02    1.3   0.0    58    77   102   121    95   176 0.90 -
ID=PSME_00015981     -            600 99077at3193          -            313      0.15   12.8   0.0   2   2   0.00073       2.5    8.8   0.0    52    81   408   437   400   443 0.86 -
ID=PSME_00011517     -            826 99077at3193          -            313      0.22   12.2   0.0   1   1   0.00013      0.44   11.3   0.0    57   126    40   108    29   131 0.84 -
ID=PSME_00023209     -            408 99077at3193          -            313      0.23   12.2   0.0   1   1   0.00011      0.39   11.5   0.0    58   120   122   182   103   196 0.76 -
ID=PSME_00003251     -            515 99077at3193          -            313      0.34   11.6   0.1   1   1   0.00015      0.52   11.0   0.1    52    79   188   217   179   251 0.78 -
#
# Program:         hmmsearch
# Version:         3.2.1 (June 2018)
# Pipeline mode:   SEARCH
# Query file:      /isg/shared/databases/BUSCO/odb10/embryophyta_odb10/hmms/99077at3193.hmm
# Target file:     /labs/Wegrzyn/ConiferGenomes/Psme/analysis/SURF_annotation/analyze_orig_maker/gfacs/filtered/maker_genes.fasta.faa
# Option settings: /usr/local/bin/hmmsearch --domtblout /labs/Wegrzyn/ConiferGenomes/Psme/analysis/SURF_annotation/analyze_orig_maker/busco/maker/run_embryophyta_odb10/hmmer_output/99077at3193.out --cpu 1 /isg/shared/databases/BUSCO/odb10/embryophyta_odb10/hmms/99077at3193.hmm /labs/Wegrzyn/ConiferGenomes/Psme/analysis/SURF_annotation/analyze_orig_maker/gfacs/filtered/maker_genes.fasta.faa 
# Current dir:     /labs/Wegrzyn/ConiferGenomes/Psme/analysis/SURF_annotation/analyze_orig_maker/busco
# Date:            Fri Jul 10 13:57:53 2020
# [ok]
