#                                                                            --- full sequence --- -------------- this domain -------------   hmm coord   ali coord   env coord
# target name        accession   tlen query name           accession   qlen   E-value  score  bias   #  of  c-Evalue  i-Evalue  score  bias  from    to  from    to  from    to  acc description of target
#------------------- ---------- ----- -------------------- ---------- ----- --------- ------ ----- --- --- --------- --------- ------ ----- ----- ----- ----- ----- ----- ----- ---- ---------------------
ID=PSME_00014826     -            203 99091at3193          -            319   0.00014   22.8   0.8   1   1   1.1e-07   0.00019   22.3   0.8   253   312    49   106    35   112 0.74 -
ID=PSME_00040781     -            186 99091at3193          -            319   0.00025   21.9   0.4   1   1   2.2e-07    0.0004   21.3   0.4   235   304   104   175    96   180 0.88 -
ID=PSME_00011441     -            292 99091at3193          -            319   0.00069   20.5   1.2   1   1   6.1e-07    0.0011   19.9   1.2   261   317   231   286   218   288 0.86 -
ID=PSME_00001126     -            193 99091at3193          -            319   0.00071   20.4   0.2   1   1   6.2e-07    0.0011   19.8   0.2   240   304   112   179   100   184 0.81 -
ID=PSME_00021298     -            249 99091at3193          -            319   0.00086   20.2   0.4   1   2       3.5   6.3e+03   -2.4   0.4   238   262    93   117    89   130 0.69 -
ID=PSME_00021298     -            249 99091at3193          -            319   0.00086   20.2   0.4   2   2   4.9e-07   0.00086   20.2   0.4   254   305   185   238   178   247 0.88 -
ID=PSME_00012491     -            867 99091at3193          -            319    0.0066   17.3   0.7   1   1   6.8e-06     0.012   16.4   0.7   258   311   728   782   706   789 0.75 -
ID=PSME_00014201     -            114 99091at3193          -            319     0.011   16.6   0.8   1   1   7.1e-06     0.013   16.3   0.8   235   295    12    65     7    90 0.69 -
ID=PSME_00049384     -            507 99091at3193          -            319     0.016   16.0   0.7   1   2    0.0038       6.6    7.4   0.0   203   229    36    62    28    75 0.86 -
ID=PSME_00049384     -            507 99091at3193          -            319     0.016   16.0   0.7   2   2     0.005       8.8    7.0   0.1     2   107    80   185    79   214 0.72 -
ID=PSME_00057075     -            213 99091at3193          -            319     0.026   15.3   0.1   1   1   1.9e-05     0.034   14.9   0.1   266   317    27    80    19    82 0.80 -
ID=PSME_00054474     -            506 99091at3193          -            319     0.063   14.0   0.4   1   2    0.0053       9.4    6.9   0.0   204   229     4    29     2    42 0.87 -
ID=PSME_00054474     -            506 99091at3193          -            319     0.063   14.0   0.4   2   2     0.015        27    5.4   0.1    31   127    73   169    46   183 0.71 -
ID=PSME_00030745     -            506 99091at3193          -            319      0.12   13.1   0.6   1   2    0.0053       9.4    6.9   0.0   204   229     4    29     2    42 0.87 -
ID=PSME_00030745     -            506 99091at3193          -            319      0.12   13.1   0.6   2   2     0.029        52    4.5   0.1    31   124    73   166    46   180 0.70 -
ID=PSME_00024940     -            506 99091at3193          -            319      0.13   13.0   0.6   1   2    0.0053       9.4    6.9   0.0   204   229     4    29     2    42 0.87 -
ID=PSME_00024940     -            506 99091at3193          -            319      0.13   13.0   0.6   2   2     0.031        55    4.4   0.1    37   125    79   167    47   181 0.75 -
ID=PSME_00054458     -            304 99091at3193          -            319      0.18   12.6   6.3   1   2     0.024        43    4.7   0.5   264   300    41    76    28    94 0.74 -
ID=PSME_00054458     -            304 99091at3193          -            319      0.18   12.6   6.3   2   2   0.00036      0.64   10.7   0.9   263   312   210   262   197   268 0.77 -
ID=PSME_00018507     -           1289 99091at3193          -            319      0.23   12.2   0.1   1   1   0.00024      0.42   11.3   0.1   259   300   963  1003   951  1018 0.79 -
ID=PSME_00045825     -            383 99091at3193          -            319      0.24   12.1   0.0   1   1   0.00023      0.41   11.4   0.0   214   247    17    53     9    71 0.79 -
ID=PSME_00002101     -             86 99091at3193          -            319       0.3   11.8   0.0   1   2     0.018        32    5.2   0.0    22    53     3    34     1    48 0.84 -
ID=PSME_00002101     -             86 99091at3193          -            319       0.3   11.8   0.0   2   2     0.014        25    5.5   0.0    20    52    49    82    40    85 0.82 -
ID=PSME_00026457     -           1090 99091at3193          -            319      0.32   11.7   0.4   1   1   0.00029      0.51   11.1   0.4   265   314    58   106    36   110 0.86 -
ID=PSME_00046899     -            173 99091at3193          -            319      0.39   11.4   0.1   1   1   0.00028       0.5   11.1   0.1   255   305    75   130    58   140 0.84 -
ID=PSME_00046900     -            177 99091at3193          -            319      0.46   11.2   0.1   1   1   0.00036      0.64   10.7   0.1   259   306    91   141    79   150 0.84 -
ID=PSME_00039573     -            395 99091at3193          -            319      0.54   11.0   0.3   1   1   0.00043      0.76   10.5   0.3   245   306   321   383   287   393 0.74 -
ID=PSME_00031633     -            179 99091at3193          -            319      0.57   10.9   0.1   1   1   0.00048      0.84   10.3   0.1   260   305    94   142    82   151 0.85 -
ID=PSME_00007367     -            174 99091at3193          -            319      0.58   10.9   0.4   1   1   0.00045      0.79   10.4   0.4   261   304   117   159   105   168 0.83 -
ID=PSME_00046898     -            114 99091at3193          -            319      0.58   10.9   0.1   1   1   0.00039       0.7   10.6   0.1   260   305    23    71    11    81 0.82 -
ID=PSME_00049313     -            170 99091at3193          -            319      0.58   10.9   0.1   1   1   0.00044      0.78   10.5   0.1   277   310     5    41     1    49 0.75 -
ID=PSME_00018028     -            943 99091at3193          -            319       0.6   10.8   1.0   1   1   0.00054      0.96   10.2   1.0   261   296   250   285   240   315 0.74 -
ID=PSME_00043315     -            214 99091at3193          -            319      0.66   10.7   3.5   1   2      0.29   5.2e+02    1.2   0.0   269   304     7    43     4    58 0.83 -
ID=PSME_00043315     -            214 99091at3193          -            319      0.66   10.7   3.5   2   2   0.00086       1.5    9.5   1.2   232   302    83   154    79   164 0.80 -
ID=PSME_00004637     -            351 99091at3193          -            319      0.71   10.6   1.4   1   1   0.00071       1.3    9.8   1.4   232   317   220   299   217   300 0.77 -
ID=PSME_00032070     -            364 99091at3193          -            319       0.9   10.2   0.6   1   2       4.6   8.2e+03   -2.8   0.0   261   286    24    49    19    52 0.83 -
ID=PSME_00032070     -            364 99091at3193          -            319       0.9   10.2   0.6   2   2   0.00096       1.7    9.4   0.2   246   305   137   205   123   215 0.71 -
ID=PSME_00042670     -            296 99091at3193          -            319         1   10.1   1.2   1   2      0.89   1.6e+03   -0.4   0.0   267   303    25    62    17    71 0.79 -
ID=PSME_00042670     -            296 99091at3193          -            319         1   10.1   1.2   2   2    0.0021       3.8    8.2   0.8   236   273   181   218   175   235 0.87 -
ID=PSME_00008176     -            820 99091at3193          -            319       1.1   10.0   1.4   1   2       7.4   1.3e+04   -3.4   0.0   152   181   153   185   137   194 0.68 -
ID=PSME_00008176     -            820 99091at3193          -            319       1.1   10.0   1.4   2   2   0.00093       1.6    9.4   0.7   262   305   661   704   645   713 0.80 -
ID=PSME_00028717     -            822 99091at3193          -            319       1.6    9.4   1.5   1   1    0.0019       3.4    8.3   1.5   264   304    81   121    70   131 0.88 -
#
# Program:         hmmsearch
# Version:         3.2.1 (June 2018)
# Pipeline mode:   SEARCH
# Query file:      /isg/shared/databases/BUSCO/odb10/embryophyta_odb10/hmms/99091at3193.hmm
# Target file:     /labs/Wegrzyn/ConiferGenomes/Psme/analysis/SURF_annotation/analyze_orig_maker/gfacs/filtered/maker_genes.fasta.faa
# Option settings: /usr/local/bin/hmmsearch --domtblout /labs/Wegrzyn/ConiferGenomes/Psme/analysis/SURF_annotation/analyze_orig_maker/busco/maker/run_embryophyta_odb10/hmmer_output/99091at3193.out --cpu 1 /isg/shared/databases/BUSCO/odb10/embryophyta_odb10/hmms/99091at3193.hmm /labs/Wegrzyn/ConiferGenomes/Psme/analysis/SURF_annotation/analyze_orig_maker/gfacs/filtered/maker_genes.fasta.faa 
# Current dir:     /labs/Wegrzyn/ConiferGenomes/Psme/analysis/SURF_annotation/analyze_orig_maker/busco
# Date:            Fri Jul 10 13:57:54 2020
# [ok]
