#                                                                            --- full sequence --- -------------- this domain -------------   hmm coord   ali coord   env coord
# target name        accession   tlen query name           accession   qlen   E-value  score  bias   #  of  c-Evalue  i-Evalue  score  bias  from    to  from    to  from    to  acc description of target
#------------------- ---------- ----- -------------------- ---------- ----- --------- ------ ----- --- --- --------- --------- ------ ----- ----- ----- ----- ----- ----- ----- ---- ---------------------
ID=PSME_00000641     -            448 99358at3193          -            295   2.6e-94  317.3   1.7   1   3   2.1e-13   2.9e-09   38.1   0.1    37    82     3    48     1    65 0.88 -
ID=PSME_00000641     -            448 99358at3193          -            295   2.6e-94  317.3   1.7   2   3   1.1e-78   1.6e-74  252.4   0.0    77   272   102   327    90   330 0.87 -
ID=PSME_00000641     -            448 99358at3193          -            295   2.6e-94  317.3   1.7   3   3   1.3e-08   0.00017   22.5   0.1   267   294   340   367   336   368 0.93 -
ID=PSME_00053185     -            370 99358at3193          -            295   4.5e-06   27.7   0.0   1   1   5.2e-10   7.2e-06   27.0   0.0    16   105    29   117    14   124 0.80 -
ID=PSME_00030314     -            372 99358at3193          -            295   0.00015   22.6   0.0   1   1   1.6e-08   0.00022   22.1   0.0     5   105    20   120    16   126 0.78 -
ID=PSME_00051718     -            363 99358at3193          -            295   0.00021   22.2   0.0   1   1   2.3e-08   0.00031   21.6   0.0     4   105    10   111     7   117 0.80 -
#
# Program:         hmmsearch
# Version:         3.2.1 (June 2018)
# Pipeline mode:   SEARCH
# Query file:      /isg/shared/databases/BUSCO/odb10/embryophyta_odb10/hmms/99358at3193.hmm
# Target file:     /labs/Wegrzyn/ConiferGenomes/Psme/analysis/SURF_annotation/analyze_orig_maker/gfacs/filtered/maker_genes.fasta.faa
# Option settings: /usr/local/bin/hmmsearch --domtblout /labs/Wegrzyn/ConiferGenomes/Psme/analysis/SURF_annotation/analyze_orig_maker/busco/maker/run_embryophyta_odb10/hmmer_output/99358at3193.out --cpu 1 /isg/shared/databases/BUSCO/odb10/embryophyta_odb10/hmms/99358at3193.hmm /labs/Wegrzyn/ConiferGenomes/Psme/analysis/SURF_annotation/analyze_orig_maker/gfacs/filtered/maker_genes.fasta.faa 
# Current dir:     /labs/Wegrzyn/ConiferGenomes/Psme/analysis/SURF_annotation/analyze_orig_maker/busco
# Date:            Fri Jul 10 13:57:54 2020
# [ok]
